7791253 47740 17 10 26 24 25 8 22 2 23 6 7 16 13 11 4 19 21 12 3 20 14 18 9 15 1 5
7797912 51844 24 10 17 26 25 8 22 2 23 6 7 16 13 11 4 19 21 12 3 20 14 18 9 15 1 5
7791339 56644 26 24 17 10 25 8 22 2 23 6 7 16 13 11 4 19 21 12 3 20 14 18 9 15 1 5
7791519 57659 10 26 17 24 25 8 22 2 23 6 7 16 13 11 4 19 21 12 3 20 14 18 9 15 1 5
7773487 58376 24 8 17 10 25 26 22 2 6 23 7 16 13 11 4 3 12 21 20 19 14 18 9 15 1 5
7791768 56738 26 25 24 17 10 8 22 2 23 6 7 16 13 11 4 19 21 12 3 20 14 18 9 15 1 5
7790497 58228 26 10 24 17 25 8 22 2 23 6 7 16 13 11 4 19 21 12 3 20 14 18 9 15 1 5
7775055 27493 17 24 8 10 25 26 22 2 6 23 7 16 13 11 4 3 12 21 20 19 14 18 9 15 1 5
7773529 27663 17 8 24 10 25 26 22 2 6 23 7 16 13 11 4 3 12 21 20 19 14 18 9 15 1 5
7799183 27343 24 25 17 26 10 8 22 2 23 6 7 16 13 11 4 19 21 12 3 20 14 18 9 15 1 5
7791505 27600 10 26 24 17 25 8 22 2 23 6 7 16 13 11 4 19 21 12 3 20 14 18 9 15 1 5
7791680 27250 10 17 26 24 25 8 22 2 23 6 7 16 13 11 4 19 21 12 3 20 14 18 9 15 1 5
7773060 27368 8 17 24 10 25 26 22 2 6 23 7 16 13 11 4 3 12 21 20 19 14 18 9 15 1 5
7791099 27324 24 26 10 17 25 8 22 2 23 6 7 16 13 11 4 19 21 12 3 20 14 18 9 15 1 5
7791782 27216 26 25 17 24 10 8 22 2 23 6 7 16 13 11 4 19 21 12 3 20 14 18 9 15 1 5
7797905 27252 17 10 24 26 25 8 22 2 23 6 7 16 13 11 4 19 21 12 3 20 14 18 9 15 1 5
7773060 27190 8 17 24 10 25 26 22 2 6 23 7 16 13 11 4 3 12 21 20 19 14 18 9 15 1 5
7798522 27151 10 24 17 26 25 8 22 2 23 6 7 16 13 11 4 19 21 12 3 20 14 18 9 15 1 5
7791702 26946 26 17 25 24 10 8 22 2 23 6 7 16 13 11 4 19 21 12 3 20 14 18 9 15 1 5
7773060 27141 8 17 24 10 25 26 22 2 6 23 7 16 13 11 4 3 12 21 20 19 14 18 9 15 1 5
7791898 27176 24 17 26 10 25 8 22 2 23 6 7 16 13 11 4 19 21 12 3 20 14 18 9 15 1 5
7791856 49922 10 24 26 17 25 8 22 2 23 6 7 16 13 11 4 19 21 12 3 20 14 18 9 15 1 5
7798759 27160 25 17 24 26 10 8 22 2 23 6 7 16 13 11 4 19 21 12 3 20 14 18 9 15 1 5
7799176 27284 17 25 24 26 10 8 22 2 23 6 7 16 13 11 4 19 21 12 3 20 14 18 9 15 1 5
7791162 27136 26 17 24 25 10 8 22 2 23 6 7 16 13 11 4 19 21 12 3 20 14 18 9 15 1 5
7773060 27353 8 17 24 10 25 26 22 2 6 23 7 16 13 11 4 3 12 21 20 19 14 18 9 15 1 5
7792081 27539 17 24 26 10 25 8 22 2 23 6 7 16 13 11 4 19 21 12 3 20 14 18 9 15 1 5
7791702 27085 26 17 25 24 10 8 22 2 23 6 7 16 13 11 4 19 21 12 3 20 14 18 9 15 1 5
7799183 27192 24 25 17 26 10 8 22 2 23 6 7 16 13 11 4 19 21 12 3 20 14 18 9 15 1 5
7773060 27241 8 17 24 10 25 26 22 2 6 23 7 16 13 11 4 3 12 21 20 19 14 18 9 15 1 5
7773060 27164 8 17 24 10 25 26 22 2 6 23 7 16 13 11 4 3 12 21 20 19 14 18 9 15 1 5
7791911 27013 24 17 26 25 10 8 22 2 23 6 7 16 13 11 4 19 21 12 3 20 14 18 9 15 1 5
7791782 27235 26 25 17 24 10 8 22 2 23 6 7 16 13 11 4 19 21 12 3 20 14 18 9 15 1 5
7792283 28523 25 24 26 17 10 8 22 2 23 6 7 16 13 11 4 19 21 12 3 20 14 18 9 15 1 5
7791946 28693 25 26 17 24 10 8 22 2 23 6 7 16 13 11 4 19 21 12 3 20 14 18 9 15 1 5
7791505 28727 10 26 24 17 25 8 22 2 23 6 7 16 13 11 4 19 21 12 3 20 14 18 9 15 1 5
7791099 28711 24 26 10 17 25 8 22 2 23 6 7 16 13 11 4 19 21 12 3 20 14 18 9 15 1 5
7792524 28484 17 25 26 24 10 8 22 2 23 6 7 16 13 11 4 19 21 12 3 20 14 18 9 15 1 5
7773060 28814 8 17 24 10 25 26 22 2 6 23 7 16 13 11 4 3 12 21 20 19 14 18 9 15 1 5
7790511 28372 26 10 17 24 25 8 22 2 23 6 7 16 13 11 4 19 21 12 3 20 14 18 9 15 1 5
7790701 26946 26 24 10 17 25 8 22 2 23 6 7 16 13 11 4 19 21 12 3 20 14 18 9 15 1 5
7773250 27063 8 24 17 10 25 26 22 2 6 23 7 16 13 11 4 3 12 21 20 19 14 18 9 15 1 5
7792517 27101 24 25 26 17 10 8 22 2 23 6 7 16 13 11 4 19 21 12 3 20 14 18 9 15 1 5
7773060 27009 8 17 24 10 25 26 22 2 6 23 7 16 13 11 4 3 12 21 20 19 14 18 9 15 1 5
7798949 26833 25 24 17 26 10 8 22 2 23 6 7 16 13 11 4 19 21 12 3 20 14 18 9 15 1 5
7791246 27076 24 10 26 17 25 8 22 2 23 6 7 16 13 11 4 19 21 12 3 20 14 18 9 15 1 5
7792107 27024 25 17 26 24 10 8 22 2 23 6 7 16 13 11 4 19 21 12 3 20 14 18 9 15 1 5
7773060 27042 8 17 24 10 25 26 22 2 6 23 7 16 13 11 4 3 12 21 20 19 14 18 9 15 1 5
7797905 27118 17 10 24 26 25 8 22 2 23 6 7 16 13 11 4 19 21 12 3 20 14 18 9 15 1 5
7792524 27165 17 25 26 24 10 8 22 2 23 6 7 16 13 11 4 19 21 12 3 20 14 18 9 15 1 5
7773529 27157 17 8 24 10 25 26 22 2 6 23 7 16 13 11 4 3 12 21 20 19 14 18 9 15 1 5
7792094 26998 17 24 26 25 10 8 22 2 23 6 7 16 13 11 4 19 21 12 3 20 14 18 9 15 1 5
7773250 27112 8 24 17 10 25 26 22 2 6 23 7 16 13 11 4 3 12 21 20 19 14 18 9 15 1 5
7791505 26961 10 26 24 17 25 8 22 2 23 6 7 16 13 11 4 19 21 12 3 20 14 18 9 15 1 5
7792524 26967 17 25 26 24 10 8 22 2 23 6 7 16 13 11 4 19 21 12 3 20 14 18 9 15 1 5
7791743 27151 17 26 24 25 10 8 22 2 23 6 7 16 13 11 4 19 21 12 3 20 14 18 9 15 1 5
7773487 27043 24 8 17 10 25 26 22 2 6 23 7 16 13 11 4 3 12 21 20 19 14 18 9 15 1 5
7773487 27322 24 8 17 10 25 26 22 2 6 23 7 16 13 11 4 3 12 21 20 19 14 18 9 15 1 5
7773250 26909 8 24 17 10 25 26 22 2 6 23 7 16 13 11 4 3 12 21 20 19 14 18 9 15 1 5
7792107 26981 25 17 26 24 10 8 22 2 23 6 7 16 13 11 4 19 21 12 3 20 14 18 9 15 1 5
7798949 27068 25 24 17 26 10 8 22 2 23 6 7 16 13 11 4 19 21 12 3 20 14 18 9 15 1 5
7790497 27120 26 10 24 17 25 8 22 2 23 6 7 16 13 11 4 19 21 12 3 20 14 18 9 15 1 5
7798522 27003 10 24 17 26 25 8 22 2 23 6 7 16 13 11 4 19 21 12 3 20 14 18 9 15 1 5
7773250 27008 8 24 17 10 25 26 22 2 6 23 7 16 13 11 4 3 12 21 20 19 14 18 9 15 1 5
7773529 27289 17 8 24 10 25 26 22 2 6 23 7 16 13 11 4 3 12 21 20 19 14 18 9 15 1 5
7773060 27060 8 17 24 10 25 26 22 2 6 23 7 16 13 11 4 3 12 21 20 19 14 18 9 15 1 5
7773060 27039 8 17 24 10 25 26 22 2 6 23 7 16 13 11 4 3 12 21 20 19 14 18 9 15 1 5
7791519 26924 10 26 17 24 25 8 22 2 23 6 7 16 13 11 4 19 21 12 3 20 14 18 9 15 1 5
7798522 26978 10 24 17 26 25 8 22 2 23 6 7 16 13 11 4 19 21 12 3 20 14 18 9 15 1 5
7773487 27251 24 8 17 10 25 26 22 2 6 23 7 16 13 11 4 3 12 21 20 19 14 18 9 15 1 5
7773250 27204 8 24 17 10 25 26 22 2 6 23 7 16 13 11 4 3 12 21 20 19 14 18 9 15 1 5
7791505 27186 10 26 24 17 25 8 22 2 23 6 7 16 13 11 4 19 21 12 3 20 14 18 9 15 1 5
7792517 27031 24 25 26 17 10 8 22 2 23 6 7 16 13 11 4 19 21 12 3 20 14 18 9 15 1 5
7773250 26957 8 24 17 10 25 26 22 2 6 23 7 16 13 11 4 3 12 21 20 19 14 18 9 15 1 5
7792107 26943 25 17 26 24 10 8 22 2 23 6 7 16 13 11 4 19 21 12 3 20 14 18 9 15 1 5
7773060 27093 8 17 24 10 25 26 22 2 6 23 7 16 13 11 4 3 12 21 20 19 14 18 9 15 1 5
7798759 27177 25 17 24 26 10 8 22 2 23 6 7 16 13 11 4 19 21 12 3 20 14 18 9 15 1 5
7791505 27084 10 26 24 17 25 8 22 2 23 6 7 16 13 11 4 19 21 12 3 20 14 18 9 15 1 5
7792283 27239 25 24 26 17 10 8 22 2 23 6 7 16 13 11 4 19 21 12 3 20 14 18 9 15 1 5
7773487 27000 24 8 17 10 25 26 22 2 6 23 7 16 13 11 4 3 12 21 20 19 14 18 9 15 1 5
7790525 27044 26 17 10 24 25 8 22 2 23 6 7 16 13 11 4 19 21 12 3 20 14 18 9 15 1 5
7790511 27140 26 10 17 24 25 8 22 2 23 6 7 16 13 11 4 19 21 12 3 20 14 18 9 15 1 5
7773250 27035 8 24 17 10 25 26 22 2 6 23 7 16 13 11 4 3 12 21 20 19 14 18 9 15 1 5
7791246 27234 24 10 26 17 25 8 22 2 23 6 7 16 13 11 4 19 21 12 3 20 14 18 9 15 1 5
7790511 27159 26 10 17 24 25 8 22 2 23 6 7 16 13 11 4 19 21 12 3 20 14 18 9 15 1 5
7791505 27052 10 26 24 17 25 8 22 2 23 6 7 16 13 11 4 19 21 12 3 20 14 18 9 15 1 5
7773060 27241 8 17 24 10 25 26 22 2 6 23 7 16 13 11 4 3 12 21 20 19 14 18 9 15 1 5
7792524 27119 17 25 26 24 10 8 22 2 23 6 7 16 13 11 4 19 21 12 3 20 14 18 9 15 1 5
7791743 26918 17 26 24 25 10 8 22 2 23 6 7 16 13 11 4 19 21 12 3 20 14 18 9 15 1 5
7790511 26974 26 10 17 24 25 8 22 2 23 6 7 16 13 11 4 19 21 12 3 20 14 18 9 15 1 5
7773060 26991 8 17 24 10 25 26 22 2 6 23 7 16 13 11 4 3 12 21 20 19 14 18 9 15 1 5
7791856 26881 10 24 26 17 25 8 22 2 23 6 7 16 13 11 4 19 21 12 3 20 14 18 9 15 1 5
7791519 26737 10 26 17 24 25 8 22 2 23 6 7 16 13 11 4 19 21 12 3 20 14 18 9 15 1 5
7792517 27067 24 25 26 17 10 8 22 2 23 6 7 16 13 11 4 19 21 12 3 20 14 18 9 15 1 5
7792283 26961 25 24 26 17 10 8 22 2 23 6 7 16 13 11 4 19 21 12 3 20 14 18 9 15 1 5
7773250 27197 8 24 17 10 25 26 22 2 6 23 7 16 13 11 4 3 12 21 20 19 14 18 9 15 1 5
7798522 26924 10 24 17 26 25 8 22 2 23 6 7 16 13 11 4 19 21 12 3 20 14 18 9 15 1 5
7791856 27091 10 24 26 17 25 8 22 2 23 6 7 16 13 11 4 19 21 12 3 20 14 18 9 15 1 5
7773060 27134 8 17 24 10 25 26 22 2 6 23 7 16 13 11 4 3 12 21 20 19 14 18 9 15 1 5
7791149 27016 26 17 24 10 25 8 22 2 23 6 7 16 13 11 4 19 21 12 3 20 14 18 9 15 1 5
7791898 26969 24 17 26 10 25 8 22 2 23 6 7 16 13 11 4 19 21 12 3 20 14 18 9 15 1 5
7799286 27118 17 24 25 26 10 8 22 2 23 6 7 16 13 11 4 19 21 12 3 20 14 18 9 15 1 5
7791750 27169 24 26 17 25 10 8 22 2 23 6 7 16 13 11 4 19 21 12 3 20 14 18 9 15 1 5
7773529 26996 17 8 24 10 25 26 22 2 6 23 7 16 13 11 4 3 12 21 20 19 14 18 9 15 1 5
7773060 27186 8 17 24 10 25 26 22 2 6 23 7 16 13 11 4 3 12 21 20 19 14 18 9 15 1 5
7792081 27136 17 24 26 10 25 8 22 2 23 6 7 16 13 11 4 19 21 12 3 20 14 18 9 15 1 5
7791946 27136 25 26 17 24 10 8 22 2 23 6 7 16 13 11 4 19 21 12 3 20 14 18 9 15 1 5
7773060 28143 8 17 24 10 25 26 22 2 6 23 7 16 13 11 4 3 12 21 20 19 14 18 9 15 1 5
7791519 27922 10 26 17 24 25 8 22 2 23 6 7 16 13 11 4 19 21 12 3 20 14 18 9 15 1 5
7792283 28194 25 24 26 17 10 8 22 2 23 6 7 16 13 11 4 19 21 12 3 20 14 18 9 15 1 5
7791106 27831 17 26 10 24 25 8 22 2 23 6 7 16 13 11 4 19 21 12 3 20 14 18 9 15 1 5
7791099 28111 24 26 10 17 25 8 22 2 23 6 7 16 13 11 4 19 21 12 3 20 14 18 9 15 1 5
7791730 28258 17 26 24 10 25 8 22 2 23 6 7 16 13 11 4 19 21 12 3 20 14 18 9 15 1 5
7792517 27980 24 25 26 17 10 8 22 2 23 6 7 16 13 11 4 19 21 12 3 20 14 18 9 15 1 5
7773250 26907 8 24 17 10 25 26 22 2 6 23 7 16 13 11 4 3 12 21 20 19 14 18 9 15 1 5
7791339 27194 26 24 17 10 25 8 22 2 23 6 7 16 13 11 4 19 21 12 3 20 14 18 9 15 1 5
7791253 27113 17 10 26 24 25 8 22 2 23 6 7 16 13 11 4 19 21 12 3 20 14 18 9 15 1 5
7791932 29821 25 26 24 17 10 8 22 2 23 6 7 16 13 11 4 19 21 12 3 20 14 18 9 15 1 5
7799103 27317 24 17 25 26 10 8 22 2 23 6 7 16 13 11 4 19 21 12 3 20 14 18 9 15 1 5
7792283 26925 17 26 25 24 10 8 22 2 23 6 7 16 13 11 4 19 21 12 3 20 14 18 9 15 1 5
7773060 27300 8 17 24 10 25 26 22 2 6 23 7 16 13 11 4 3 12 21 20 19 14 18 9 15 1 5
7791246 27109 24 10 26 17 25 8 22 2 23 6 7 16 13 11 4 19 21 12 3 20 14 18 9 15 1 5
7791246 27100 24 10 26 17 25 8 22 2 23 6 7 16 13 11 4 19 21 12 3 20 14 18 9 15 1 5
7798759 27043 25 17 24 26 10 8 22 2 23 6 7 16 13 11 4 19 21 12 3 20 14 18 9 15 1 5
7791856 26932 10 24 26 17 25 8 22 2 23 6 7 16 13 11 4 19 21 12 3 20 14 18 9 15 1 5
7791750 27052 24 26 17 25 10 8 22 2 23 6 7 16 13 11 4 19 21 12 3 20 14 18 9 15 1 5
7798759 27192 25 17 24 26 10 8 22 2 23 6 7 16 13 11 4 19 21 12 3 20 14 18 9 15 1 5
7773250 27233 8 24 17 10 25 26 22 2 6 23 7 16 13 11 4 3 12 21 20 19 14 18 9 15 1 5
7790701 27093 26 24 10 17 25 8 22 2 23 6 7 16 13 11 4 19 21 12 3 20 14 18 9 15 1 5
7798949 27052 25 24 17 26 10 8 22 2 23 6 7 16 13 11 4 19 21 12 3 20 14 18 9 15 1 5
7791519 27002 10 26 17 24 25 8 22 2 23 6 7 16 13 11 4 19 21 12 3 20 14 18 9 15 1 5
7791352 27120 26 24 17 25 10 8 22 2 23 6 7 16 13 11 4 19 21 12 3 20 14 18 9 15 1 5
7791099 27041 24 26 10 17 25 8 22 2 23 6 7 16 13 11 4 19 21 12 3 20 14 18 9 15 1 5
7799183 27064 24 25 17 26 10 8 22 2 23 6 7 16 13 11 4 19 21 12 3 20 14 18 9 15 1 5
7798949 27134 25 24 17 26 10 8 22 2 23 6 7 16 13 11 4 19 21 12 3 20 14 18 9 15 1 5
7773060 27193 8 17 24 10 25 26 22 2 6 23 7 16 13 11 4 3 12 21 20 19 14 18 9 15 1 5
7773529 26740 17 8 24 10 25 26 22 2 6 23 7 16 13 11 4 3 12 21 20 19 14 18 9 15 1 5
7790525 27217 26 17 10 24 25 8 22 2 23 6 7 16 13 11 4 19 21 12 3 20 14 18 9 15 1 5
7791253 27094 17 10 26 24 25 8 22 2 23 6 7 16 13 11 4 19 21 12 3 20 14 18 9 15 1 5
7792081 27197 17 24 26 10 25 8 22 2 23 6 7 16 13 11 4 19 21 12 3 20 14 18 9 15 1 5
7791768 27226 26 25 24 17 10 8 22 2 23 6 7 16 13 11 4 19 21 12 3 20 14 18 9 15 1 5
7773487 27085 24 8 17 10 25 26 22 2 6 23 7 16 13 11 4 3 12 21 20 19 14 18 9 15 1 5
7798949 27118 25 24 17 26 10 8 22 2 23 6 7 16 13 11 4 19 21 12 3 20 14 18 9 15 1 5
7798949 27144 25 24 17 26 10 8 22 2 23 6 7 16 13 11 4 19 21 12 3 20 14 18 9 15 1 5
7791768 26923 26 25 24 17 10 8 22 2 23 6 7 16 13 11 4 19 21 12 3 20 14 18 9 15 1 5
7797912 26980 24 10 17 26 25 8 22 2 23 6 7 16 13 11 4 19 21 12 3 20 14 18 9 15 1 5
7790497 26871 26 10 24 17 25 8 22 2 23 6 7 16 13 11 4 19 21 12 3 20 14 18 9 15 1 5
7791856 27120 10 24 26 17 25 8 22 2 23 6 7 16 13 11 4 19 21 12 3 20 14 18 9 15 1 5
7799103 26818 24 17 25 26 10 8 22 2 23 6 7 16 13 11 4 19 21 12 3 20 14 18 9 15 1 5
7773250 27122 8 24 17 10 25 26 22 2 6 23 7 16 13 11 4 3 12 21 20 19 14 18 9 15 1 5
7791702 27157 26 17 25 24 10 8 22 2 23 6 7 16 13 11 4 19 21 12 3 20 14 18 9 15 1 5
7773060 27280 8 17 24 10 25 26 22 2 6 23 7 16 13 11 4 3 12 21 20 19 14 18 9 15 1 5
7792517 37244 24 25 26 17 10 8 22 2 23 6 7 16 13 11 4 19 21 12 3 20 14 18 9 15 1 5
7773060 37025 8 17 24 10 25 26 22 2 6 23 7 16 13 11 4 3 12 21 20 19 14 18 9 15 1 5
7791680 28002 10 17 26 24 25 8 22 2 23 6 7 16 13 11 4 19 21 12 3 20 14 18 9 15 1 5
7799286 27933 17 24 25 26 10 8 22 2 23 6 7 16 13 11 4 19 21 12 3 20 14 18 9 15 1 5
7791519 27902 10 26 17 24 25 8 22 2 23 6 7 16 13 11 4 19 21 12 3 20 14 18 9 15 1 5
7773250 27881 8 24 17 10 25 26 22 2 6 23 7 16 13 11 4 3 12 21 20 19 14 18 9 15 1 5
7791932 27892 25 26 24 17 10 8 22 2 23 6 7 16 13 11 4 19 21 12 3 20 14 18 9 15 1 5
7799176 27981 17 25 24 26 10 8 22 2 23 6 7 16 13 11 4 19 21 12 3 20 14 18 9 15 1 5
7773487 28132 24 8 17 10 25 26 22 2 6 23 7 16 13 11 4 3 12 21 20 19 14 18 9 15 1 5
7791946 27750 25 26 17 24 10 8 22 2 23 6 7 16 13 11 4 19 21 12 3 20 14 18 9 15 1 5
7773060 27845 8 17 24 10 25 26 22 2 6 23 7 16 13 11 4 3 12 21 20 19 14 18 9 15 1 5
7791737 27813 24 26 17 10 25 8 22 2 23 6 7 16 13 11 4 19 21 12 3 20 14 18 9 15 1 5
7791743 27871 17 26 24 25 10 8 22 2 23 6 7 16 13 11 4 19 21 12 3 20 14 18 9 15 1 5
7791106 36434 17 26 10 24 25 8 22 2 23 6 7 16 13 11 4 19 21 12 3 20 14 18 9 15 1 5
7792283 46758 17 26 25 24 10 8 22 2 23 6 7 16 13 11 4 19 21 12 3 20 14 18 9 15 1 5
7773060 46705 8 17 24 10 25 26 22 2 6 23 7 16 13 11 4 3 12 21 20 19 14 18 9 15 1 5
7798332 46683 10 17 24 26 25 8 22 2 23 6 7 16 13 11 4 19 21 12 3 20 14 18 9 15 1 5
7791768 37910 26 25 24 17 10 8 22 2 23 6 7 16 13 11 4 19 21 12 3 20 14 18 9 15 1 5
7799183 27845 24 25 17 26 10 8 22 2 23 6 7 16 13 11 4 19 21 12 3 20 14 18 9 15 1 5
7791750 27786 24 26 17 25 10 8 22 2 23 6 7 16 13 11 4 19 21 12 3 20 14 18 9 15 1 5
7791106 28040 17 26 10 24 25 8 22 2 23 6 7 16 13 11 4 19 21 12 3 20 14 18 9 15 1 5
7792524 27862 17 25 26 24 10 8 22 2 23 6 7 16 13 11 4 19 21 12 3 20 14 18 9 15 1 5
7791519 27896 10 26 17 24 25 8 22 2 23 6 7 16 13 11 4 19 21 12 3 20 14 18 9 15 1 5
7791782 27975 26 25 17 24 10 8 22 2 23 6 7 16 13 11 4 19 21 12 3 20 14 18 9 15 1 5
7773250 27950 8 24 17 10 25 26 22 2 6 23 7 16 13 11 4 3 12 21 20 19 14 18 9 15 1 5
7791099 28105 24 26 10 17 25 8 22 2 23 6 7 16 13 11 4 19 21 12 3 20 14 18 9 15 1 5
7792517 27801 24 25 26 17 10 8 22 2 23 6 7 16 13 11 4 19 21 12 3 20 14 18 9 15 1 5
7773060 28041 8 17 24 10 25 26 22 2 6 23 7 16 13 11 4 3 12 21 20 19 14 18 9 15 1 5
7791519 27824 10 26 17 24 25 8 22 2 23 6 7 16 13 11 4 19 21 12 3 20 14 18 9 15 1 5
7791162 27744 26 17 24 25 10 8 22 2 23 6 7 16 13 11 4 19 21 12 3 20 14 18 9 15 1 5
7790497 28039 26 10 24 17 25 8 22 2 23 6 7 16 13 11 4 19 21 12 3 20 14 18 9 15 1 5
7791932 27829 25 26 24 17 10 8 22 2 23 6 7 16 13 11 4 19 21 12 3 20 14 18 9 15 1 5
7798759 27679 25 17 24 26 10 8 22 2 23 6 7 16 13 11 4 19 21 12 3 20 14 18 9 15 1 5
7791099 27818 24 26 10 17 25 8 22 2 23 6 7 16 13 11 4 19 21 12 3 20 14 18 9 15 1 5
7773060 27793 8 17 24 10 25 26 22 2 6 23 7 16 13 11 4 3 12 21 20 19 14 18 9 15 1 5
7773250 27920 8 24 17 10 25 26 22 2 6 23 7 16 13 11 4 3 12 21 20 19 14 18 9 15 1 5
7791352 28006 26 24 17 25 10 8 22 2 23 6 7 16 13 11 4 19 21 12 3 20 14 18 9 15 1 5
7791505 28181 10 26 24 17 25 8 22 2 23 6 7 16 13 11 4 19 21 12 3 20 14 18 9 15 1 5
7791898 27564 24 17 26 10 25 8 22 2 23 6 7 16 13 11 4 19 21 12 3 20 14 18 9 15 1 5
7773487 27611 24 8 17 10 25 26 22 2 6 23 7 16 13 11 4 3 12 21 20 19 14 18 9 15 1 5
7773250 27897 8 24 17 10 25 26 22 2 6 23 7 16 13 11 4 3 12 21 20 19 14 18 9 15 1 5
7791680 28016 10 17 26 24 25 8 22 2 23 6 7 16 13 11 4 19 21 12 3 20 14 18 9 15 1 5
7791680 28032 10 17 26 24 25 8 22 2 23 6 7 16 13 11 4 19 21 12 3 20 14 18 9 15 1 5
7791946 27653 25 26 17 24 10 8 22 2 23 6 7 16 13 11 4 19 21 12 3 20 14 18 9 15 1 5
7798332 27878 10 17 24 26 25 8 22 2 23 6 7 16 13 11 4 19 21 12 3 20 14 18 9 15 1 5
7790701 28097 26 24 10 17 25 8 22 2 23 6 7 16 13 11 4 19 21 12 3 20 14 18 9 15 1 5
7792276 27811 24 26 25 17 10 8 22 2 23 6 7 16 13 11 4 19 21 12 3 20 14 18 9 15 1 5
7798759 28093 25 17 24 26 10 8 22 2 23 6 7 16 13 11 4 19 21 12 3 20 14 18 9 15 1 5
7773250 27839 8 24 17 10 25 26 22 2 6 23 7 16 13 11 4 3 12 21 20 19 14 18 9 15 1 5
7774823 27833 24 17 8 10 25 26 22 2 6 23 7 16 13 11 4 3 12 21 20 19 14 18 9 15 1 5
7773060 28006 8 17 24 10 25 26 22 2 6 23 7 16 13 11 4 3 12 21 20 19 14 18 9 15 1 5
7791932 28119 25 26 24 17 10 8 22 2 23 6 7 16 13 11 4 19 21 12 3 20 14 18 9 15 1 5
7773250 28032 8 24 17 10 25 26 22 2 6 23 7 16 13 11 4 3 12 21 20 19 14 18 9 15 1 5
7775055 27699 17 24 8 10 25 26 22 2 6 23 7 16 13 11 4 3 12 21 20 19 14 18 9 15 1 5
7773250 28056 8 24 17 10 25 26 22 2 6 23 7 16 13 11 4 3 12 21 20 19 14 18 9 15 1 5
7791946 27738 25 26 17 24 10 8 22 2 23 6 7 16 13 11 4 19 21 12 3 20 14 18 9 15 1 5
7774823 27762 24 17 8 10 25 26 22 2 6 23 7 16 13 11 4 3 12 21 20 19 14 18 9 15 1 5
7773529 27661 17 8 24 10 25 26 22 2 6 23 7 16 13 11 4 3 12 21 20 19 14 18 9 15 1 5
7790525 30782 26 17 10 24 25 8 22 2 23 6 7 16 13 11 4 19 21 12 3 20 14 18 9 15 1 5
7791932 27788 25 26 24 17 10 8 22 2 23 6 7 16 13 11 4 19 21 12 3 20 14 18 9 15 1 5
7791932 28006 25 26 24 17 10 8 22 2 23 6 7 16 13 11 4 19 21 12 3 20 14 18 9 15 1 5
7773529 27846 17 8 24 10 25 26 22 2 6 23 7 16 13 11 4 3 12 21 20 19 14 18 9 15 1 5
7791519 28016 10 26 17 24 25 8 22 2 23 6 7 16 13 11 4 19 21 12 3 20 14 18 9 15 1 5
7791878 27965 26 24 25 17 10 8 22 2 23 6 7 16 13 11 4 19 21 12 3 20 14 18 9 15 1 5
7773060 27960 8 17 24 10 25 26 22 2 6 23 7 16 13 11 4 3 12 21 20 19 14 18 9 15 1 5
7798109 27812 17 24 10 26 25 8 22 2 23 6 7 16 13 11 4 19 21 12 3 20 14 18 9 15 1 5
7792524 28087 17 25 26 24 10 8 22 2 23 6 7 16 13 11 4 19 21 12 3 20 14 18 9 15 1 5
7791782 27910 26 25 17 24 10 8 22 2 23 6 7 16 13 11 4 19 21 12 3 20 14 18 9 15 1 5
7791505 27907 10 26 24 17 25 8 22 2 23 6 7 16 13 11 4 19 21 12 3 20 14 18 9 15 1 5
7773529 28001 17 8 24 10 25 26 22 2 6 23 7 16 13 11 4 3 12 21 20 19 14 18 9 15 1 5
7790511 27837 26 10 17 24 25 8 22 2 23 6 7 16 13 11 4 19 21 12 3 20 14 18 9 15 1 5
7773250 28053 8 24 17 10 25 26 22 2 6 23 7 16 13 11 4 3 12 21 20 19 14 18 9 15 1 5
7773250 27794 8 24 17 10 25 26 22 2 6 23 7 16 13 11 4 3 12 21 20 19 14 18 9 15 1 5
7798949 27928 25 24 17 26 10 8 22 2 23 6 7 16 13 11 4 19 21 12 3 20 14 18 9 15 1 5
7791339 27708 26 24 17 10 25 8 22 2 23 6 7 16 13 11 4 19 21 12 3 20 14 18 9 15 1 5
7773060 27749 8 17 24 10 25 26 22 2 6 23 7 16 13 11 4 3 12 21 20 19 14 18 9 15 1 5
7774823 27844 24 17 8 10 25 26 22 2 6 23 7 16 13 11 4 3 12 21 20 19 14 18 9 15 1 5
7790701 28099 26 24 10 17 25 8 22 2 23 6 7 16 13 11 4 19 21 12 3 20 14 18 9 15 1 5
7799183 27610 24 25 17 26 10 8 22 2 23 6 7 16 13 11 4 19 21 12 3 20 14 18 9 15 1 5
7792107 27544 25 17 26 24 10 8 22 2 23 6 7 16 13 11 4 19 21 12 3 20 14 18 9 15 1 5
7773060 27937 8 17 24 10 25 26 22 2 6 23 7 16 13 11 4 3 12 21 20 19 14 18 9 15 1 5
7798109 27754 17 24 10 26 25 8 22 2 23 6 7 16 13 11 4 19 21 12 3 20 14 18 9 15 1 5
7773060 27943 8 17 24 10 25 26 22 2 6 23 7 16 13 11 4 3 12 21 20 19 14 18 9 15 1 5
7798949 28132 25 24 17 26 10 8 22 2 23 6 7 16 13 11 4 19 21 12 3 20 14 18 9 15 1 5
7798332 27815 10 17 24 26 25 8 22 2 23 6 7 16 13 11 4 19 21 12 3 20 14 18 9 15 1 5
7773250 27750 8 24 17 10 25 26 22 2 6 23 7 16 13 11 4 3 12 21 20 19 14 18 9 15 1 5
7798759 28195 25 17 24 26 10 8 22 2 23 6 7 16 13 11 4 19 21 12 3 20 14 18 9 15 1 5
7798109 27684 17 24 10 26 25 8 22 2 23 6 7 16 13 11 4 19 21 12 3 20 14 18 9 15 1 5
7773250 27984 8 24 17 10 25 26 22 2 6 23 7 16 13 11 4 3 12 21 20 19 14 18 9 15 1 5
7792276 27904 24 26 25 17 10 8 22 2 23 6 7 16 13 11 4 19 21 12 3 20 14 18 9 15 1 5
7791339 27730 26 24 17 10 25 8 22 2 23 6 7 16 13 11 4 19 21 12 3 20 14 18 9 15 1 5
7773060 27941 8 17 24 10 25 26 22 2 6 23 7 16 13 11 4 3 12 21 20 19 14 18 9 15 1 5
7773060 27811 8 17 24 10 25 26 22 2 6 23 7 16 13 11 4 3 12 21 20 19 14 18 9 15 1 5
7791932 28104 25 26 24 17 10 8 22 2 23 6 7 16 13 11 4 19 21 12 3 20 14 18 9 15 1 5
7790511 27882 26 10 17 24 25 8 22 2 23 6 7 16 13 11 4 19 21 12 3 20 14 18 9 15 1 5
7790497 27982 26 10 24 17 25 8 22 2 23 6 7 16 13 11 4 19 21 12 3 20 14 18 9 15 1 5
7792276 28123 24 26 25 17 10 8 22 2 23 6 7 16 13 11 4 19 21 12 3 20 14 18 9 15 1 5
7798949 27992 25 24 17 26 10 8 22 2 23 6 7 16 13 11 4 19 21 12 3 20 14 18 9 15 1 5
7791099 27740 24 26 10 17 25 8 22 2 23 6 7 16 13 11 4 19 21 12 3 20 14 18 9 15 1 5
7798522 27794 10 24 17 26 25 8 22 2 23 6 7 16 13 11 4 19 21 12 3 20 14 18 9 15 1 5
7791162 27719 26 17 24 25 10 8 22 2 23 6 7 16 13 11 4 19 21 12 3 20 14 18 9 15 1 5
7773250 27839 8 24 17 10 25 26 22 2 6 23 7 16 13 11 4 3 12 21 20 19 14 18 9 15 1 5
7773250 27904 8 24 17 10 25 26 22 2 6 23 7 16 13 11 4 3 12 21 20 19 14 18 9 15 1 5
7792107 28026 25 17 26 24 10 8 22 2 23 6 7 16 13 11 4 19 21 12 3 20 14 18 9 15 1 5
7773060 27886 8 17 24 10 25 26 22 2 6 23 7 16 13 11 4 3 12 21 20 19 14 18 9 15 1 5
7791878 27806 26 24 25 17 10 8 22 2 23 6 7 16 13 11 4 19 21 12 3 20 14 18 9 15 1 5
7792517 28079 24 25 26 17 10 8 22 2 23 6 7 16 13 11 4 19 21 12 3 20 14 18 9 15 1 5
7798949 27964 25 24 17 26 10 8 22 2 23 6 7 16 13 11 4 19 21 12 3 20 14 18 9 15 1 5
7791505 27724 10 26 24 17 25 8 22 2 23 6 7 16 13 11 4 19 21 12 3 20 14 18 9 15 1 5
7791505 27942 10 26 24 17 25 8 22 2 23 6 7 16 13 11 4 19 21 12 3 20 14 18 9 15 1 5
7791246 27923 24 10 26 17 25 8 22 2 23 6 7 16 13 11 4 19 21 12 3 20 14 18 9 15 1 5
7790497 27987 26 10 24 17 25 8 22 2 23 6 7 16 13 11 4 19 21 12 3 20 14 18 9 15 1 5
7773487 27948 24 8 17 10 25 26 22 2 6 23 7 16 13 11 4 3 12 21 20 19 14 18 9 15 1 5
7791505 27924 10 26 24 17 25 8 22 2 23 6 7 16 13 11 4 19 21 12 3 20 14 18 9 15 1 5
7791099 27966 24 26 10 17 25 8 22 2 23 6 7 16 13 11 4 19 21 12 3 20 14 18 9 15 1 5
7797926 27955 24 17 10 26 25 8 22 2 23 6 7 16 13 11 4 19 21 12 3 20 14 18 9 15 1 5
7799176 28004 17 25 24 26 10 8 22 2 23 6 7 16 13 11 4 19 21 12 3 20 14 18 9 15 1 5
7791768 28083 26 25 24 17 10 8 22 2 23 6 7 16 13 11 4 19 21 12 3 20 14 18 9 15 1 5
7791743 27981 17 26 24 25 10 8 22 2 23 6 7 16 13 11 4 19 21 12 3 20 14 18 9 15 1 5
7798949 27724 25 24 17 26 10 8 22 2 23 6 7 16 13 11 4 19 21 12 3 20 14 18 9 15 1 5
7791246 27806 24 10 26 17 25 8 22 2 23 6 7 16 13 11 4 19 21 12 3 20 14 18 9 15 1 5
7773250 27696 8 24 17 10 25 26 22 2 6 23 7 16 13 11 4 3 12 21 20 19 14 18 9 15 1 5
7797905 28037 17 10 24 26 25 8 22 2 23 6 7 16 13 11 4 19 21 12 3 20 14 18 9 15 1 5
7791106 27827 17 26 10 24 25 8 22 2 23 6 7 16 13 11 4 19 21 12 3 20 14 18 9 15 1 5
7773250 27867 8 24 17 10 25 26 22 2 6 23 7 16 13 11 4 3 12 21 20 19 14 18 9 15 1 5
7790525 27819 26 17 10 24 25 8 22 2 23 6 7 16 13 11 4 19 21 12 3 20 14 18 9 15 1 5
7773487 28070 24 8 17 10 25 26 22 2 6 23 7 16 13 11 4 3 12 21 20 19 14 18 9 15 1 5
7792107 27651 25 17 26 24 10 8 22 2 23 6 7 16 13 11 4 19 21 12 3 20 14 18 9 15 1 5
7773529 27858 17 8 24 10 25 26 22 2 6 23 7 16 13 11 4 3 12 21 20 19 14 18 9 15 1 5
7791946 27869 25 26 17 24 10 8 22 2 23 6 7 16 13 11 4 19 21 12 3 20 14 18 9 15 1 5
7791253 27883 17 10 26 24 25 8 22 2 23 6 7 16 13 11 4 19 21 12 3 20 14 18 9 15 1 5
7791932 27839 25 26 24 17 10 8 22 2 23 6 7 16 13 11 4 19 21 12 3 20 14 18 9 15 1 5
7798949 27819 25 24 17 26 10 8 22 2 23 6 7 16 13 11 4 19 21 12 3 20 14 18 9 15 1 5
7773487 27713 24 8 17 10 25 26 22 2 6 23 7 16 13 11 4 3 12 21 20 19 14 18 9 15 1 5
7790497 27836 26 10 24 17 25 8 22 2 23 6 7 16 13 11 4 19 21 12 3 20 14 18 9 15 1 5
7791856 27900 10 24 26 17 25 8 22 2 23 6 7 16 13 11 4 19 21 12 3 20 14 18 9 15 1 5
7773487 28019 24 8 17 10 25 26 22 2 6 23 7 16 13 11 4 3 12 21 20 19 14 18 9 15 1 5
7773060 27956 8 17 24 10 25 26 22 2 6 23 7 16 13 11 4 3 12 21 20 19 14 18 9 15 1 5
7773060 27941 8 17 24 10 25 26 22 2 6 23 7 16 13 11 4 3 12 21 20 19 14 18 9 15 1 5
7791680 27611 10 17 26 24 25 8 22 2 23 6 7 16 13 11 4 19 21 12 3 20 14 18 9 15 1 5
7791737 27926 24 26 17 10 25 8 22 2 23 6 7 16 13 11 4 19 21 12 3 20 14 18 9 15 1 5
7791519 27840 10 26 17 24 25 8 22 2 23 6 7 16 13 11 4 19 21 12 3 20 14 18 9 15 1 5
7792107 27703 25 17 26 24 10 8 22 2 23 6 7 16 13 11 4 19 21 12 3 20 14 18 9 15 1 5
7798332 27897 10 17 24 26 25 8 22 2 23 6 7 16 13 11 4 19 21 12 3 20 14 18 9 15 1 5
7792107 28062 25 17 26 24 10 8 22 2 23 6 7 16 13 11 4 19 21 12 3 20 14 18 9 15 1 5
7791505 27893 10 26 24 17 25 8 22 2 23 6 7 16 13 11 4 19 21 12 3 20 14 18 9 15 1 5
7790497 27976 26 10 24 17 25 8 22 2 23 6 7 16 13 11 4 19 21 12 3 20 14 18 9 15 1 5
7791106 27957 17 26 10 24 25 8 22 2 23 6 7 16 13 11 4 19 21 12 3 20 14 18 9 15 1 5
7773250 27835 8 24 17 10 25 26 22 2 6 23 7 16 13 11 4 3 12 21 20 19 14 18 9 15 1 5
7799176 28126 17 25 24 26 10 8 22 2 23 6 7 16 13 11 4 19 21 12 3 20 14 18 9 15 1 5
7798109 27940 17 24 10 26 25 8 22 2 23 6 7 16 13 11 4 19 21 12 3 20 14 18 9 15 1 5
7773250 27673 8 24 17 10 25 26 22 2 6 23 7 16 13 11 4 3 12 21 20 19 14 18 9 15 1 5
7797912 30676 24 10 17 26 25 8 22 2 23 6 7 16 13 11 4 19 21 12 3 20 14 18 9 15 1 5
7791737 27881 24 26 17 10 25 8 22 2 23 6 7 16 13 11 4 19 21 12 3 20 14 18 9 15 1 5
7773250 27883 8 24 17 10 25 26 22 2 6 23 7 16 13 11 4 3 12 21 20 19 14 18 9 15 1 5
7791856 28036 10 24 26 17 25 8 22 2 23 6 7 16 13 11 4 19 21 12 3 20 14 18 9 15 1 5
7773060 27930 8 17 24 10 25 26 22 2 6 23 7 16 13 11 4 3 12 21 20 19 14 18 9 15 1 5
7791856 27926 10 24 26 17 25 8 22 2 23 6 7 16 13 11 4 19 21 12 3 20 14 18 9 15 1 5
7792283 27882 17 26 25 24 10 8 22 2 23 6 7 16 13 11 4 19 21 12 3 20 14 18 9 15 1 5
7791768 27889 26 25 24 17 10 8 22 2 23 6 7 16 13 11 4 19 21 12 3 20 14 18 9 15 1 5
7792524 27699 17 25 26 24 10 8 22 2 23 6 7 16 13 11 4 19 21 12 3 20 14 18 9 15 1 5
7773060 27698 8 17 24 10 25 26 22 2 6 23 7 16 13 11 4 3 12 21 20 19 14 18 9 15 1 5
7798109 27765 17 24 10 26 25 8 22 2 23 6 7 16 13 11 4 19 21 12 3 20 14 18 9 15 1 5
7790525 27994 26 17 10 24 25 8 22 2 23 6 7 16 13 11 4 19 21 12 3 20 14 18 9 15 1 5
7791878 27862 26 24 25 17 10 8 22 2 23 6 7 16 13 11 4 19 21 12 3 20 14 18 9 15 1 5
7799183 27779 24 25 17 26 10 8 22 2 23 6 7 16 13 11 4 19 21 12 3 20 14 18 9 15 1 5
7791702 27906 26 17 25 24 10 8 22 2 23 6 7 16 13 11 4 19 21 12 3 20 14 18 9 15 1 5
7790511 27933 26 10 17 24 25 8 22 2 23 6 7 16 13 11 4 19 21 12 3 20 14 18 9 15 1 5
7792283 27869 25 24 26 17 10 8 22 2 23 6 7 16 13 11 4 19 21 12 3 20 14 18 9 15 1 5
7773250 28042 8 24 17 10 25 26 22 2 6 23 7 16 13 11 4 3 12 21 20 19 14 18 9 15 1 5
7790511 27898 26 10 17 24 25 8 22 2 23 6 7 16 13 11 4 19 21 12 3 20 14 18 9 15 1 5
7773250 27753 8 24 17 10 25 26 22 2 6 23 7 16 13 11 4 3 12 21 20 19 14 18 9 15 1 5
7798522 28085 10 24 17 26 25 8 22 2 23 6 7 16 13 11 4 19 21 12 3 20 14 18 9 15 1 5
7791099 27949 24 26 10 17 25 8 22 2 23 6 7 16 13 11 4 19 21 12 3 20 14 18 9 15 1 5
7791946 27700 25 26 17 24 10 8 22 2 23 6 7 16 13 11 4 19 21 12 3 20 14 18 9 15 1 5
7798332 27797 10 17 24 26 25 8 22 2 23 6 7 16 13 11 4 19 21 12 3 20 14 18 9 15 1 5
7798759 27805 25 17 24 26 10 8 22 2 23 6 7 16 13 11 4 19 21 12 3 20 14 18 9 15 1 5
7791743 27708 17 26 24 25 10 8 22 2 23 6 7 16 13 11 4 19 21 12 3 20 14 18 9 15 1 5
7773529 27804 17 8 24 10 25 26 22 2 6 23 7 16 13 11 4 3 12 21 20 19 14 18 9 15 1 5
7798949 27523 25 24 17 26 10 8 22 2 23 6 7 16 13 11 4 19 21 12 3 20 14 18 9 15 1 5
7773060 27802 8 17 24 10 25 26 22 2 6 23 7 16 13 11 4 3 12 21 20 19 14 18 9 15 1 5
7799103 27745 24 17 25 26 10 8 22 2 23 6 7 16 13 11 4 19 21 12 3 20 14 18 9 15 1 5
7799183 28122 24 25 17 26 10 8 22 2 23 6 7 16 13 11 4 19 21 12 3 20 14 18 9 15 1 5
7791352 27837 26 24 17 25 10 8 22 2 23 6 7 16 13 11 4 19 21 12 3 20 14 18 9 15 1 5
7791680 27984 10 17 26 24 25 8 22 2 23 6 7 16 13 11 4 19 21 12 3 20 14 18 9 15 1 5
7791768 27824 26 25 24 17 10 8 22 2 23 6 7 16 13 11 4 19 21 12 3 20 14 18 9 15 1 5
7798109 27948 17 24 10 26 25 8 22 2 23 6 7 16 13 11 4 19 21 12 3 20 14 18 9 15 1 5
7792524 27846 17 25 26 24 10 8 22 2 23 6 7 16 13 11 4 19 21 12 3 20 14 18 9 15 1 5
7773250 27888 8 24 17 10 25 26 22 2 6 23 7 16 13 11 4 3 12 21 20 19 14 18 9 15 1 5
7790701 27928 26 24 10 17 25 8 22 2 23 6 7 16 13 11 4 19 21 12 3 20 14 18 9 15 1 5
7773250 27803 8 24 17 10 25 26 22 2 6 23 7 16 13 11 4 3 12 21 20 19 14 18 9 15 1 5
7791106 27886 17 26 10 24 25 8 22 2 23 6 7 16 13 11 4 19 21 12 3 20 14 18 9 15 1 5
7798332 27910 10 17 24 26 25 8 22 2 23 6 7 16 13 11 4 19 21 12 3 20 14 18 9 15 1 5
7792283 27913 17 26 25 24 10 8 22 2 23 6 7 16 13 11 4 19 21 12 3 20 14 18 9 15 1 5
7798522 27785 10 24 17 26 25 8 22 2 23 6 7 16 13 11 4 19 21 12 3 20 14 18 9 15 1 5
7790511 28048 26 10 17 24 25 8 22 2 23 6 7 16 13 11 4 19 21 12 3 20 14 18 9 15 1 5
7791505 28151 10 26 24 17 25 8 22 2 23 6 7 16 13 11 4 19 21 12 3 20 14 18 9 15 1 5
7791246 27842 24 10 26 17 25 8 22 2 23 6 7 16 13 11 4 19 21 12 3 20 14 18 9 15 1 5
7791519 27602 10 26 17 24 25 8 22 2 23 6 7 16 13 11 4 19 21 12 3 20 14 18 9 15 1 5
7791680 27702 10 17 26 24 25 8 22 2 23 6 7 16 13 11 4 19 21 12 3 20 14 18 9 15 1 5
7773060 27739 8 17 24 10 25 26 22 2 6 23 7 16 13 11 4 3 12 21 20 19 14 18 9 15 1 5
7791505 28161 10 26 24 17 25 8 22 2 23 6 7 16 13 11 4 19 21 12 3 20 14 18 9 15 1 5
7792283 27523 17 26 25 24 10 8 22 2 23 6 7 16 13 11 4 19 21 12 3 20 14 18 9 15 1 5
7799176 27798 17 25 24 26 10 8 22 2 23 6 7 16 13 11 4 19 21 12 3 20 14 18 9 15 1 5
7773487 27804 24 8 17 10 25 26 22 2 6 23 7 16 13 11 4 3 12 21 20 19 14 18 9 15 1 5
7773487 28053 24 8 17 10 25 26 22 2 6 23 7 16 13 11 4 3 12 21 20 19 14 18 9 15 1 5
7773487 27825 24 8 17 10 25 26 22 2 6 23 7 16 13 11 4 3 12 21 20 19 14 18 9 15 1 5
7799286 28029 17 24 25 26 10 8 22 2 23 6 7 16 13 11 4 19 21 12 3 20 14 18 9 15 1 5
7799176 27750 17 25 24 26 10 8 22 2 23 6 7 16 13 11 4 19 21 12 3 20 14 18 9 15 1 5
7792524 27675 17 25 26 24 10 8 22 2 23 6 7 16 13 11 4 19 21 12 3 20 14 18 9 15 1 5
7799183 27827 24 25 17 26 10 8 22 2 23 6 7 16 13 11 4 19 21 12 3 20 14 18 9 15 1 5
7773487 27878 24 8 17 10 25 26 22 2 6 23 7 16 13 11 4 3 12 21 20 19 14 18 9 15 1 5
7790497 27954 26 10 24 17 25 8 22 2 23 6 7 16 13 11 4 19 21 12 3 20 14 18 9 15 1 5
7791702 27884 26 17 25 24 10 8 22 2 23 6 7 16 13 11 4 19 21 12 3 20 14 18 9 15 1 5
7792524 27933 17 25 26 24 10 8 22 2 23 6 7 16 13 11 4 19 21 12 3 20 14 18 9 15 1 5
7797905 27898 17 10 24 26 25 8 22 2 23 6 7 16 13 11 4 19 21 12 3 20 14 18 9 15 1 5
7773250 27728 8 24 17 10 25 26 22 2 6 23 7 16 13 11 4 3 12 21 20 19 14 18 9 15 1 5
7791946 28101 25 26 17 24 10 8 22 2 23 6 7 16 13 11 4 19 21 12 3 20 14 18 9 15 1 5
7773529 28064 17 8 24 10 25 26 22 2 6 23 7 16 13 11 4 3 12 21 20 19 14 18 9 15 1 5
7790701 27685 26 24 10 17 25 8 22 2 23 6 7 16 13 11 4 19 21 12 3 20 14 18 9 15 1 5
7790497 27830 26 10 24 17 25 8 22 2 23 6 7 16 13 11 4 19 21 12 3 20 14 18 9 15 1 5
7799286 28088 17 24 25 26 10 8 22 2 23 6 7 16 13 11 4 19 21 12 3 20 14 18 9 15 1 5
7790511 28072 26 10 17 24 25 8 22 2 23 6 7 16 13 11 4 19 21 12 3 20 14 18 9 15 1 5
7792283 27877 17 26 25 24 10 8 22 2 23 6 7 16 13 11 4 19 21 12 3 20 14 18 9 15 1 5
7798522 27962 10 24 17 26 25 8 22 2 23 6 7 16 13 11 4 19 21 12 3 20 14 18 9 15 1 5
7773060 27810 8 17 24 10 25 26 22 2 6 23 7 16 13 11 4 3 12 21 20 19 14 18 9 15 1 5
7791680 27802 10 17 26 24 25 8 22 2 23 6 7 16 13 11 4 19 21 12 3 20 14 18 9 15 1 5
7773529 28178 17 8 24 10 25 26 22 2 6 23 7 16 13 11 4 3 12 21 20 19 14 18 9 15 1 5
7791898 27675 24 17 26 10 25 8 22 2 23 6 7 16 13 11 4 19 21 12 3 20 14 18 9 15 1 5
7799103 27949 24 17 25 26 10 8 22 2 23 6 7 16 13 11 4 19 21 12 3 20 14 18 9 15 1 5
7792524 27681 17 25 26 24 10 8 22 2 23 6 7 16 13 11 4 19 21 12 3 20 14 18 9 15 1 5
7773250 27893 8 24 17 10 25 26 22 2 6 23 7 16 13 11 4 3 12 21 20 19 14 18 9 15 1 5
7798522 27798 10 24 17 26 25 8 22 2 23 6 7 16 13 11 4 19 21 12 3 20 14 18 9 15 1 5
7791768 27888 26 25 24 17 10 8 22 2 23 6 7 16 13 11 4 19 21 12 3 20 14 18 9 15 1 5
7791246 27941 24 10 26 17 25 8 22 2 23 6 7 16 13 11 4 19 21 12 3 20 14 18 9 15 1 5
7791162 27895 26 17 24 25 10 8 22 2 23 6 7 16 13 11 4 19 21 12 3 20 14 18 9 15 1 5
7798109 28163 17 24 10 26 25 8 22 2 23 6 7 16 13 11 4 19 21 12 3 20 14 18 9 15 1 5
7791946 27712 25 26 17 24 10 8 22 2 23 6 7 16 13 11 4 19 21 12 3 20 14 18 9 15 1 5
7798522 27860 10 24 17 26 25 8 22 2 23 6 7 16 13 11 4 19 21 12 3 20 14 18 9 15 1 5
7791946 27826 25 26 17 24 10 8 22 2 23 6 7 16 13 11 4 19 21 12 3 20 14 18 9 15 1 5
7791253 27796 17 10 26 24 25 8 22 2 23 6 7 16 13 11 4 19 21 12 3 20 14 18 9 15 1 5
7773250 27692 8 24 17 10 25 26 22 2 6 23 7 16 13 11 4 3 12 21 20 19 14 18 9 15 1 5
7792107 28038 25 17 26 24 10 8 22 2 23 6 7 16 13 11 4 19 21 12 3 20 14 18 9 15 1 5
7773487 27988 24 8 17 10 25 26 22 2 6 23 7 16 13 11 4 3 12 21 20 19 14 18 9 15 1 5
7792107 27897 25 17 26 24 10 8 22 2 23 6 7 16 13 11 4 19 21 12 3 20 14 18 9 15 1 5
7792283 27731 25 24 26 17 10 8 22 2 23 6 7 16 13 11 4 19 21 12 3 20 14 18 9 15 1 5
7791856 27847 10 24 26 17 25 8 22 2 23 6 7 16 13 11 4 19 21 12 3 20 14 18 9 15 1 5
7791946 30661 25 26 17 24 10 8 22 2 23 6 7 16 13 11 4 19 21 12 3 20 14 18 9 15 1 5
7791680 27917 10 17 26 24 25 8 22 2 23 6 7 16 13 11 4 19 21 12 3 20 14 18 9 15 1 5
7792276 28122 24 26 25 17 10 8 22 2 23 6 7 16 13 11 4 19 21 12 3 20 14 18 9 15 1 5
7797905 27639 17 10 24 26 25 8 22 2 23 6 7 16 13 11 4 19 21 12 3 20 14 18 9 15 1 5
7797905 27767 17 10 24 26 25 8 22 2 23 6 7 16 13 11 4 19 21 12 3 20 14 18 9 15 1 5
7791253 27698 17 10 26 24 25 8 22 2 23 6 7 16 13 11 4 19 21 12 3 20 14 18 9 15 1 5
7791519 27808 10 26 17 24 25 8 22 2 23 6 7 16 13 11 4 19 21 12 3 20 14 18 9 15 1 5
7792517 27904 24 25 26 17 10 8 22 2 23 6 7 16 13 11 4 19 21 12 3 20 14 18 9 15 1 5
7790497 27949 26 10 24 17 25 8 22 2 23 6 7 16 13 11 4 19 21 12 3 20 14 18 9 15 1 5
7791898 28103 24 17 26 10 25 8 22 2 23 6 7 16 13 11 4 19 21 12 3 20 14 18 9 15 1 5
7791162 27828 26 17 24 25 10 8 22 2 23 6 7 16 13 11 4 19 21 12 3 20 14 18 9 15 1 5
7792517 27812 24 25 26 17 10 8 22 2 23 6 7 16 13 11 4 19 21 12 3 20 14 18 9 15 1 5
7773060 27939 8 17 24 10 25 26 22 2 6 23 7 16 13 11 4 3 12 21 20 19 14 18 9 15 1 5
7791680 27915 10 17 26 24 25 8 22 2 23 6 7 16 13 11 4 19 21 12 3 20 14 18 9 15 1 5
7773250 27936 8 24 17 10 25 26 22 2 6 23 7 16 13 11 4 3 12 21 20 19 14 18 9 15 1 5
7798332 27933 10 17 24 26 25 8 22 2 23 6 7 16 13 11 4 19 21 12 3 20 14 18 9 15 1 5
7798759 28083 25 17 24 26 10 8 22 2 23 6 7 16 13 11 4 19 21 12 3 20 14 18 9 15 1 5
7791253 28105 17 10 26 24 25 8 22 2 23 6 7 16 13 11 4 19 21 12 3 20 14 18 9 15 1 5
7773487 27830 24 8 17 10 25 26 22 2 6 23 7 16 13 11 4 3 12 21 20 19 14 18 9 15 1 5
7791702 27830 26 17 25 24 10 8 22 2 23 6 7 16 13 11 4 19 21 12 3 20 14 18 9 15 1 5
7791856 28006 10 24 26 17 25 8 22 2 23 6 7 16 13 11 4 19 21 12 3 20 14 18 9 15 1 5
7774823 28059 24 17 8 10 25 26 22 2 6 23 7 16 13 11 4 3 12 21 20 19 14 18 9 15 1 5
7773250 27841 8 24 17 10 25 26 22 2 6 23 7 16 13 11 4 3 12 21 20 19 14 18 9 15 1 5
7791782 27552 26 25 17 24 10 8 22 2 23 6 7 16 13 11 4 19 21 12 3 20 14 18 9 15 1 5
7798332 27738 10 17 24 26 25 8 22 2 23 6 7 16 13 11 4 19 21 12 3 20 14 18 9 15 1 5
7790511 27677 26 10 17 24 25 8 22 2 23 6 7 16 13 11 4 19 21 12 3 20 14 18 9 15 1 5
7791856 27639 10 24 26 17 25 8 22 2 23 6 7 16 13 11 4 19 21 12 3 20 14 18 9 15 1 5
7791519 27786 10 26 17 24 25 8 22 2 23 6 7 16 13 11 4 19 21 12 3 20 14 18 9 15 1 5
7791519 27803 10 26 17 24 25 8 22 2 23 6 7 16 13 11 4 19 21 12 3 20 14 18 9 15 1 5
7791782 27689 26 25 17 24 10 8 22 2 23 6 7 16 13 11 4 19 21 12 3 20 14 18 9 15 1 5
7791768 27851 26 25 24 17 10 8 22 2 23 6 7 16 13 11 4 19 21 12 3 20 14 18 9 15 1 5
7792276 27918 24 26 25 17 10 8 22 2 23 6 7 16 13 11 4 19 21 12 3 20 14 18 9 15 1 5
7791253 28116 17 10 26 24 25 8 22 2 23 6 7 16 13 11 4 19 21 12 3 20 14 18 9 15 1 5
7791352 27884 26 24 17 25 10 8 22 2 23 6 7 16 13 11 4 19 21 12 3 20 14 18 9 15 1 5
7774823 27997 24 17 8 10 25 26 22 2 6 23 7 16 13 11 4 3 12 21 20 19 14 18 9 15 1 5
7799183 27927 24 25 17 26 10 8 22 2 23 6 7 16 13 11 4 19 21 12 3 20 14 18 9 15 1 5
7791768 28029 26 25 24 17 10 8 22 2 23 6 7 16 13 11 4 19 21 12 3 20 14 18 9 15 1 5
7791149 27933 26 17 24 10 25 8 22 2 23 6 7 16 13 11 4 19 21 12 3 20 14 18 9 15 1 5
7799176 27760 17 25 24 26 10 8 22 2 23 6 7 16 13 11 4 19 21 12 3 20 14 18 9 15 1 5
7773060 27918 8 17 24 10 25 26 22 2 6 23 7 16 13 11 4 3 12 21 20 19 14 18 9 15 1 5
7773250 27798 8 24 17 10 25 26 22 2 6 23 7 16 13 11 4 3 12 21 20 19 14 18 9 15 1 5
7773487 27951 24 8 17 10 25 26 22 2 6 23 7 16 13 11 4 3 12 21 20 19 14 18 9 15 1 5
7773250 27941 8 24 17 10 25 26 22 2 6 23 7 16 13 11 4 3 12 21 20 19 14 18 9 15 1 5
7791253 27664 17 10 26 24 25 8 22 2 23 6 7 16 13 11 4 19 21 12 3 20 14 18 9 15 1 5
7773250 27943 8 24 17 10 25 26 22 2 6 23 7 16 13 11 4 3 12 21 20 19 14 18 9 15 1 5
7773250 27965 8 24 17 10 25 26 22 2 6 23 7 16 13 11 4 3 12 21 20 19 14 18 9 15 1 5
7792524 27615 17 25 26 24 10 8 22 2 23 6 7 16 13 11 4 19 21 12 3 20 14 18 9 15 1 5
7797912 27696 24 10 17 26 25 8 22 2 23 6 7 16 13 11 4 19 21 12 3 20 14 18 9 15 1 5
7791946 27667 25 26 17 24 10 8 22 2 23 6 7 16 13 11 4 19 21 12 3 20 14 18 9 15 1 5
7791352 28096 26 24 17 25 10 8 22 2 23 6 7 16 13 11 4 19 21 12 3 20 14 18 9 15 1 5
7773487 28040 24 8 17 10 25 26 22 2 6 23 7 16 13 11 4 3 12 21 20 19 14 18 9 15 1 5
7791932 27730 25 26 24 17 10 8 22 2 23 6 7 16 13 11 4 19 21 12 3 20 14 18 9 15 1 5
7792283 27753 25 24 26 17 10 8 22 2 23 6 7 16 13 11 4 19 21 12 3 20 14 18 9 15 1 5
7791246 27794 24 10 26 17 25 8 22 2 23 6 7 16 13 11 4 19 21 12 3 20 14 18 9 15 1 5
7790511 27910 26 10 17 24 25 8 22 2 23 6 7 16 13 11 4 19 21 12 3 20 14 18 9 15 1 5
7775055 27629 17 24 8 10 25 26 22 2 6 23 7 16 13 11 4 3 12 21 20 19 14 18 9 15 1 5
7798759 27992 25 17 24 26 10 8 22 2 23 6 7 16 13 11 4 19 21 12 3 20 14 18 9 15 1 5
7798949 27835 25 24 17 26 10 8 22 2 23 6 7 16 13 11 4 19 21 12 3 20 14 18 9 15 1 5
7791702 27930 26 17 25 24 10 8 22 2 23 6 7 16 13 11 4 19 21 12 3 20 14 18 9 15 1 5
7791946 27676 25 26 17 24 10 8 22 2 23 6 7 16 13 11 4 19 21 12 3 20 14 18 9 15 1 5
7791339 27815 26 24 17 10 25 8 22 2 23 6 7 16 13 11 4 19 21 12 3 20 14 18 9 15 1 5
7798759 27472 25 17 24 26 10 8 22 2 23 6 7 16 13 11 4 19 21 12 3 20 14 18 9 15 1 5
7792107 27765 25 17 26 24 10 8 22 2 23 6 7 16 13 11 4 19 21 12 3 20 14 18 9 15 1 5
7791352 28142 26 24 17 25 10 8 22 2 23 6 7 16 13 11 4 19 21 12 3 20 14 18 9 15 1 5
7798759 28099 25 17 24 26 10 8 22 2 23 6 7 16 13 11 4 19 21 12 3 20 14 18 9 15 1 5
7791519 27771 10 26 17 24 25 8 22 2 23 6 7 16 13 11 4 19 21 12 3 20 14 18 9 15 1 5
7791932 27803 25 26 24 17 10 8 22 2 23 6 7 16 13 11 4 19 21 12 3 20 14 18 9 15 1 5
7792107 27907 25 17 26 24 10 8 22 2 23 6 7 16 13 11 4 19 21 12 3 20 14 18 9 15 1 5
7773250 27541 8 24 17 10 25 26 22 2 6 23 7 16 13 11 4 3 12 21 20 19 14 18 9 15 1 5
7773060 27880 8 17 24 10 25 26 22 2 6 23 7 16 13 11 4 3 12 21 20 19 14 18 9 15 1 5
7798332 27823 10 17 24 26 25 8 22 2 23 6 7 16 13 11 4 19 21 12 3 20 14 18 9 15 1 5
7791856 27848 10 24 26 17 25 8 22 2 23 6 7 16 13 11 4 19 21 12 3 20 14 18 9 15 1 5
7773250 27870 8 24 17 10 25 26 22 2 6 23 7 16 13 11 4 3 12 21 20 19 14 18 9 15 1 5
7799176 28036 17 25 24 26 10 8 22 2 23 6 7 16 13 11 4 19 21 12 3 20 14 18 9 15 1 5
7798949 27638 25 24 17 26 10 8 22 2 23 6 7 16 13 11 4 19 21 12 3 20 14 18 9 15 1 5
7791339 28125 26 24 17 10 25 8 22 2 23 6 7 16 13 11 4 19 21 12 3 20 14 18 9 15 1 5
7791946 27949 25 26 17 24 10 8 22 2 23 6 7 16 13 11 4 19 21 12 3 20 14 18 9 15 1 5
7792524 27850 17 25 26 24 10 8 22 2 23 6 7 16 13 11 4 19 21 12 3 20 14 18 9 15 1 5
7773529 27760 17 8 24 10 25 26 22 2 6 23 7 16 13 11 4 3 12 21 20 19 14 18 9 15 1 5
7773060 27748 8 17 24 10 25 26 22 2 6 23 7 16 13 11 4 3 12 21 20 19 14 18 9 15 1 5
7792107 27647 25 17 26 24 10 8 22 2 23 6 7 16 13 11 4 19 21 12 3 20 14 18 9 15 1 5
7792094 27969 17 24 26 25 10 8 22 2 23 6 7 16 13 11 4 19 21 12 3 20 14 18 9 15 1 5
7773060 27948 8 17 24 10 25 26 22 2 6 23 7 16 13 11 4 3 12 21 20 19 14 18 9 15 1 5
7773250 28023 8 24 17 10 25 26 22 2 6 23 7 16 13 11 4 3 12 21 20 19 14 18 9 15 1 5
7773060 28004 8 17 24 10 25 26 22 2 6 23 7 16 13 11 4 3 12 21 20 19 14 18 9 15 1 5
7791856 27641 10 24 26 17 25 8 22 2 23 6 7 16 13 11 4 19 21 12 3 20 14 18 9 15 1 5
7791737 28000 24 26 17 10 25 8 22 2 23 6 7 16 13 11 4 19 21 12 3 20 14 18 9 15 1 5
7792081 27728 17 24 26 10 25 8 22 2 23 6 7 16 13 11 4 19 21 12 3 20 14 18 9 15 1 5
7790525 27777 26 17 10 24 25 8 22 2 23 6 7 16 13 11 4 19 21 12 3 20 14 18 9 15 1 5
7773250 27729 8 24 17 10 25 26 22 2 6 23 7 16 13 11 4 3 12 21 20 19 14 18 9 15 1 5
7791253 27682 17 10 26 24 25 8 22 2 23 6 7 16 13 11 4 19 21 12 3 20 14 18 9 15 1 5
7798522 27804 10 24 17 26 25 8 22 2 23 6 7 16 13 11 4 19 21 12 3 20 14 18 9 15 1 5
7792107 27818 25 17 26 24 10 8 22 2 23 6 7 16 13 11 4 19 21 12 3 20 14 18 9 15 1 5
7773250 28214 8 24 17 10 25 26 22 2 6 23 7 16 13 11 4 3 12 21 20 19 14 18 9 15 1 5
7797905 27783 17 10 24 26 25 8 22 2 23 6 7 16 13 11 4 19 21 12 3 20 14 18 9 15 1 5
7791946 30000 25 26 17 24 10 8 22 2 23 6 7 16 13 11 4 19 21 12 3 20 14 18 9 15 1 5
7797912 28219 24 10 17 26 25 8 22 2 23 6 7 16 13 11 4 19 21 12 3 20 14 18 9 15 1 5
7792107 28023 25 17 26 24 10 8 22 2 23 6 7 16 13 11 4 19 21 12 3 20 14 18 9 15 1 5
7791680 28138 10 17 26 24 25 8 22 2 23 6 7 16 13 11 4 19 21 12 3 20 14 18 9 15 1 5
7791519 27809 10 26 17 24 25 8 22 2 23 6 7 16 13 11 4 19 21 12 3 20 14 18 9 15 1 5
7791519 27761 10 26 17 24 25 8 22 2 23 6 7 16 13 11 4 19 21 12 3 20 14 18 9 15 1 5
7792283 27797 17 26 25 24 10 8 22 2 23 6 7 16 13 11 4 19 21 12 3 20 14 18 9 15 1 5
7791505 27750 10 26 24 17 25 8 22 2 23 6 7 16 13 11 4 19 21 12 3 20 14 18 9 15 1 5
7798949 27702 25 24 17 26 10 8 22 2 23 6 7 16 13 11 4 19 21 12 3 20 14 18 9 15 1 5
7773250 27786 8 24 17 10 25 26 22 2 6 23 7 16 13 11 4 3 12 21 20 19 14 18 9 15 1 5
7773250 27754 8 24 17 10 25 26 22 2 6 23 7 16 13 11 4 3 12 21 20 19 14 18 9 15 1 5
7791519 27993 10 26 17 24 25 8 22 2 23 6 7 16 13 11 4 19 21 12 3 20 14 18 9 15 1 5
7791878 27867 26 24 25 17 10 8 22 2 23 6 7 16 13 11 4 19 21 12 3 20 14 18 9 15 1 5
7792524 27752 17 25 26 24 10 8 22 2 23 6 7 16 13 11 4 19 21 12 3 20 14 18 9 15 1 5
7790525 27690 26 17 10 24 25 8 22 2 23 6 7 16 13 11 4 19 21 12 3 20 14 18 9 15 1 5
7790497 27897 26 10 24 17 25 8 22 2 23 6 7 16 13 11 4 19 21 12 3 20 14 18 9 15 1 5
7791856 27737 10 24 26 17 25 8 22 2 23 6 7 16 13 11 4 19 21 12 3 20 14 18 9 15 1 5
7773487 27704 24 8 17 10 25 26 22 2 6 23 7 16 13 11 4 3 12 21 20 19 14 18 9 15 1 5
7792517 28165 24 25 26 17 10 8 22 2 23 6 7 16 13 11 4 19 21 12 3 20 14 18 9 15 1 5
7791505 28016 10 26 24 17 25 8 22 2 23 6 7 16 13 11 4 19 21 12 3 20 14 18 9 15 1 5
7773060 27963 8 17 24 10 25 26 22 2 6 23 7 16 13 11 4 3 12 21 20 19 14 18 9 15 1 5
7798949 27965 25 24 17 26 10 8 22 2 23 6 7 16 13 11 4 19 21 12 3 20 14 18 9 15 1 5
7791246 27994 24 10 26 17 25 8 22 2 23 6 7 16 13 11 4 19 21 12 3 20 14 18 9 15 1 5
7773060 27863 8 17 24 10 25 26 22 2 6 23 7 16 13 11 4 3 12 21 20 19 14 18 9 15 1 5
7791519 28014 10 26 17 24 25 8 22 2 23 6 7 16 13 11 4 19 21 12 3 20 14 18 9 15 1 5
7799183 27872 24 25 17 26 10 8 22 2 23 6 7 16 13 11 4 19 21 12 3 20 14 18 9 15 1 5
7773529 27727 17 8 24 10 25 26 22 2 6 23 7 16 13 11 4 3 12 21 20 19 14 18 9 15 1 5
7790497 28011 26 10 24 17 25 8 22 2 23 6 7 16 13 11 4 19 21 12 3 20 14 18 9 15 1 5
7773529 27778 17 8 24 10 25 26 22 2 6 23 7 16 13 11 4 3 12 21 20 19 14 18 9 15 1 5
7773060 27681 8 17 24 10 25 26 22 2 6 23 7 16 13 11 4 3 12 21 20 19 14 18 9 15 1 5
7790511 27979 26 10 17 24 25 8 22 2 23 6 7 16 13 11 4 19 21 12 3 20 14 18 9 15 1 5
7791106 27979 17 26 10 24 25 8 22 2 23 6 7 16 13 11 4 19 21 12 3 20 14 18 9 15 1 5
7790511 28047 26 10 17 24 25 8 22 2 23 6 7 16 13 11 4 19 21 12 3 20 14 18 9 15 1 5
7791856 27839 10 24 26 17 25 8 22 2 23 6 7 16 13 11 4 19 21 12 3 20 14 18 9 15 1 5
7792107 27647 25 17 26 24 10 8 22 2 23 6 7 16 13 11 4 19 21 12 3 20 14 18 9 15 1 5
7791339 27635 26 24 17 10 25 8 22 2 23 6 7 16 13 11 4 19 21 12 3 20 14 18 9 15 1 5
7773529 27722 17 8 24 10 25 26 22 2 6 23 7 16 13 11 4 3 12 21 20 19 14 18 9 15 1 5
7773487 27979 24 8 17 10 25 26 22 2 6 23 7 16 13 11 4 3 12 21 20 19 14 18 9 15 1 5
7798949 27848 25 24 17 26 10 8 22 2 23 6 7 16 13 11 4 19 21 12 3 20 14 18 9 15 1 5
7791737 28005 24 26 17 10 25 8 22 2 23 6 7 16 13 11 4 19 21 12 3 20 14 18 9 15 1 5
7797912 27841 24 10 17 26 25 8 22 2 23 6 7 16 13 11 4 19 21 12 3 20 14 18 9 15 1 5
7791932 27888 25 26 24 17 10 8 22 2 23 6 7 16 13 11 4 19 21 12 3 20 14 18 9 15 1 5
7798522 27791 10 24 17 26 25 8 22 2 23 6 7 16 13 11 4 19 21 12 3 20 14 18 9 15 1 5
7791505 28088 10 26 24 17 25 8 22 2 23 6 7 16 13 11 4 19 21 12 3 20 14 18 9 15 1 5
7790497 27900 26 10 24 17 25 8 22 2 23 6 7 16 13 11 4 19 21 12 3 20 14 18 9 15 1 5
7775055 27884 17 24 8 10 25 26 22 2 6 23 7 16 13 11 4 3 12 21 20 19 14 18 9 15 1 5
7791768 27795 26 25 24 17 10 8 22 2 23 6 7 16 13 11 4 19 21 12 3 20 14 18 9 15 1 5
7773487 27908 24 8 17 10 25 26 22 2 6 23 7 16 13 11 4 3 12 21 20 19 14 18 9 15 1 5
7798332 28012 10 17 24 26 25 8 22 2 23 6 7 16 13 11 4 19 21 12 3 20 14 18 9 15 1 5
7790511 27617 26 10 17 24 25 8 22 2 23 6 7 16 13 11 4 19 21 12 3 20 14 18 9 15 1 5
7773529 28176 17 8 24 10 25 26 22 2 6 23 7 16 13 11 4 3 12 21 20 19 14 18 9 15 1 5
7792283 27871 25 24 26 17 10 8 22 2 23 6 7 16 13 11 4 19 21 12 3 20 14 18 9 15 1 5
7791911 27547 24 17 26 25 10 8 22 2 23 6 7 16 13 11 4 19 21 12 3 20 14 18 9 15 1 5
7791505 27855 10 26 24 17 25 8 22 2 23 6 7 16 13 11 4 19 21 12 3 20 14 18 9 15 1 5
7790701 27904 26 24 10 17 25 8 22 2 23 6 7 16 13 11 4 19 21 12 3 20 14 18 9 15 1 5
7791932 27822 25 26 24 17 10 8 22 2 23 6 7 16 13 11 4 19 21 12 3 20 14 18 9 15 1 5
7791856 27647 10 24 26 17 25 8 22 2 23 6 7 16 13 11 4 19 21 12 3 20 14 18 9 15 1 5
7773529 27787 17 8 24 10 25 26 22 2 6 23 7 16 13 11 4 3 12 21 20 19 14 18 9 15 1 5
7773060 27854 8 17 24 10 25 26 22 2 6 23 7 16 13 11 4 3 12 21 20 19 14 18 9 15 1 5
7791932 27868 25 26 24 17 10 8 22 2 23 6 7 16 13 11 4 19 21 12 3 20 14 18 9 15 1 5
7773250 28077 8 24 17 10 25 26 22 2 6 23 7 16 13 11 4 3 12 21 20 19 14 18 9 15 1 5
7773060 27770 8 17 24 10 25 26 22 2 6 23 7 16 13 11 4 3 12 21 20 19 14 18 9 15 1 5
7792517 27941 24 25 26 17 10 8 22 2 23 6 7 16 13 11 4 19 21 12 3 20 14 18 9 15 1 5
7791099 27805 24 26 10 17 25 8 22 2 23 6 7 16 13 11 4 19 21 12 3 20 14 18 9 15 1 5
7792517 27843 24 25 26 17 10 8 22 2 23 6 7 16 13 11 4 19 21 12 3 20 14 18 9 15 1 5
7773250 27742 8 24 17 10 25 26 22 2 6 23 7 16 13 11 4 3 12 21 20 19 14 18 9 15 1 5
7773060 27680 8 17 24 10 25 26 22 2 6 23 7 16 13 11 4 3 12 21 20 19 14 18 9 15 1 5
7790497 27725 26 10 24 17 25 8 22 2 23 6 7 16 13 11 4 19 21 12 3 20 14 18 9 15 1 5
7773529 27959 17 8 24 10 25 26 22 2 6 23 7 16 13 11 4 3 12 21 20 19 14 18 9 15 1 5
7791898 27894 24 17 26 10 25 8 22 2 23 6 7 16 13 11 4 19 21 12 3 20 14 18 9 15 1 5
7799103 27965 24 17 25 26 10 8 22 2 23 6 7 16 13 11 4 19 21 12 3 20 14 18 9 15 1 5
7798332 27979 10 17 24 26 25 8 22 2 23 6 7 16 13 11 4 19 21 12 3 20 14 18 9 15 1 5
7791782 27974 26 25 17 24 10 8 22 2 23 6 7 16 13 11 4 19 21 12 3 20 14 18 9 15 1 5
7790511 27702 26 10 17 24 25 8 22 2 23 6 7 16 13 11 4 19 21 12 3 20 14 18 9 15 1 5
7791680 27687 10 17 26 24 25 8 22 2 23 6 7 16 13 11 4 19 21 12 3 20 14 18 9 15 1 5
7791519 28275 10 26 17 24 25 8 22 2 23 6 7 16 13 11 4 19 21 12 3 20 14 18 9 15 1 5
7797912 28064 24 10 17 26 25 8 22 2 23 6 7 16 13 11 4 19 21 12 3 20 14 18 9 15 1 5
7773250 27686 8 24 17 10 25 26 22 2 6 23 7 16 13 11 4 3 12 21 20 19 14 18 9 15 1 5
7792283 27837 17 26 25 24 10 8 22 2 23 6 7 16 13 11 4 19 21 12 3 20 14 18 9 15 1 5
7797926 27773 24 17 10 26 25 8 22 2 23 6 7 16 13 11 4 19 21 12 3 20 14 18 9 15 1 5
7791743 27804 17 26 24 25 10 8 22 2 23 6 7 16 13 11 4 19 21 12 3 20 14 18 9 15 1 5
7798332 28076 10 17 24 26 25 8 22 2 23 6 7 16 13 11 4 19 21 12 3 20 14 18 9 15 1 5
7791932 27923 25 26 24 17 10 8 22 2 23 6 7 16 13 11 4 19 21 12 3 20 14 18 9 15 1 5
7799103 27805 24 17 25 26 10 8 22 2 23 6 7 16 13 11 4 19 21 12 3 20 14 18 9 15 1 5
7791730 27682 17 26 24 10 25 8 22 2 23 6 7 16 13 11 4 19 21 12 3 20 14 18 9 15 1 5
7791352 27961 26 24 17 25 10 8 22 2 23 6 7 16 13 11 4 19 21 12 3 20 14 18 9 15 1 5
7791339 27924 26 24 17 10 25 8 22 2 23 6 7 16 13 11 4 19 21 12 3 20 14 18 9 15 1 5
7791505 27807 10 26 24 17 25 8 22 2 23 6 7 16 13 11 4 19 21 12 3 20 14 18 9 15 1 5
7791149 28002 26 17 24 10 25 8 22 2 23 6 7 16 13 11 4 19 21 12 3 20 14 18 9 15 1 5
7792283 27982 25 24 26 17 10 8 22 2 23 6 7 16 13 11 4 19 21 12 3 20 14 18 9 15 1 5
7774823 27845 24 17 8 10 25 26 22 2 6 23 7 16 13 11 4 3 12 21 20 19 14 18 9 15 1 5
7798759 27904 25 17 24 26 10 8 22 2 23 6 7 16 13 11 4 19 21 12 3 20 14 18 9 15 1 5
7790497 28068 26 10 24 17 25 8 22 2 23 6 7 16 13 11 4 19 21 12 3 20 14 18 9 15 1 5
7773060 27724 8 17 24 10 25 26 22 2 6 23 7 16 13 11 4 3 12 21 20 19 14 18 9 15 1 5
7773250 28092 8 24 17 10 25 26 22 2 6 23 7 16 13 11 4 3 12 21 20 19 14 18 9 15 1 5
7791856 27960 10 24 26 17 25 8 22 2 23 6 7 16 13 11 4 19 21 12 3 20 14 18 9 15 1 5
7773250 27612 8 24 17 10 25 26 22 2 6 23 7 16 13 11 4 3 12 21 20 19 14 18 9 15 1 5
7791702 27879 26 17 25 24 10 8 22 2 23 6 7 16 13 11 4 19 21 12 3 20 14 18 9 15 1 5
7775055 27849 17 24 8 10 25 26 22 2 6 23 7 16 13 11 4 3 12 21 20 19 14 18 9 15 1 5
7798522 27816 10 24 17 26 25 8 22 2 23 6 7 16 13 11 4 19 21 12 3 20 14 18 9 15 1 5
7799176 27687 17 25 24 26 10 8 22 2 23 6 7 16 13 11 4 19 21 12 3 20 14 18 9 15 1 5
7791743 27740 17 26 24 25 10 8 22 2 23 6 7 16 13 11 4 19 21 12 3 20 14 18 9 15 1 5
7773529 27910 17 8 24 10 25 26 22 2 6 23 7 16 13 11 4 3 12 21 20 19 14 18 9 15 1 5
7797926 27904 24 17 10 26 25 8 22 2 23 6 7 16 13 11 4 19 21 12 3 20 14 18 9 15 1 5
7773529 27796 17 8 24 10 25 26 22 2 6 23 7 16 13 11 4 3 12 21 20 19 14 18 9 15 1 5
7773250 27992 8 24 17 10 25 26 22 2 6 23 7 16 13 11 4 3 12 21 20 19 14 18 9 15 1 5
7798332 27966 10 17 24 26 25 8 22 2 23 6 7 16 13 11 4 19 21 12 3 20 14 18 9 15 1 5
7773250 28097 8 24 17 10 25 26 22 2 6 23 7 16 13 11 4 3 12 21 20 19 14 18 9 15 1 5
7791680 27968 10 17 26 24 25 8 22 2 23 6 7 16 13 11 4 19 21 12 3 20 14 18 9 15 1 5
7797912 28164 24 10 17 26 25 8 22 2 23 6 7 16 13 11 4 19 21 12 3 20 14 18 9 15 1 5
7791505 28072 10 26 24 17 25 8 22 2 23 6 7 16 13 11 4 19 21 12 3 20 14 18 9 15 1 5
7798949 28099 25 24 17 26 10 8 22 2 23 6 7 16 13 11 4 19 21 12 3 20 14 18 9 15 1 5
7798759 28078 25 17 24 26 10 8 22 2 23 6 7 16 13 11 4 19 21 12 3 20 14 18 9 15 1 5
7773250 27758 8 24 17 10 25 26 22 2 6 23 7 16 13 11 4 3 12 21 20 19 14 18 9 15 1 5
7773250 27768 8 24 17 10 25 26 22 2 6 23 7 16 13 11 4 3 12 21 20 19 14 18 9 15 1 5
7773250 28036 8 24 17 10 25 26 22 2 6 23 7 16 13 11 4 3 12 21 20 19 14 18 9 15 1 5
7773529 27658 17 8 24 10 25 26 22 2 6 23 7 16 13 11 4 3 12 21 20 19 14 18 9 15 1 5
7791099 27703 24 26 10 17 25 8 22 2 23 6 7 16 13 11 4 19 21 12 3 20 14 18 9 15 1 5
7791878 27931 26 24 25 17 10 8 22 2 23 6 7 16 13 11 4 19 21 12 3 20 14 18 9 15 1 5
7773250 27868 8 24 17 10 25 26 22 2 6 23 7 16 13 11 4 3 12 21 20 19 14 18 9 15 1 5
7799183 27942 24 25 17 26 10 8 22 2 23 6 7 16 13 11 4 19 21 12 3 20 14 18 9 15 1 5
7792517 28009 24 25 26 17 10 8 22 2 23 6 7 16 13 11 4 19 21 12 3 20 14 18 9 15 1 5
7792107 27753 25 17 26 24 10 8 22 2 23 6 7 16 13 11 4 19 21 12 3 20 14 18 9 15 1 5
7790497 27975 26 10 24 17 25 8 22 2 23 6 7 16 13 11 4 19 21 12 3 20 14 18 9 15 1 5
7791856 27946 10 24 26 17 25 8 22 2 23 6 7 16 13 11 4 19 21 12 3 20 14 18 9 15 1 5
7790511 27860 26 10 17 24 25 8 22 2 23 6 7 16 13 11 4 19 21 12 3 20 14 18 9 15 1 5
7790525 27873 26 17 10 24 25 8 22 2 23 6 7 16 13 11 4 19 21 12 3 20 14 18 9 15 1 5
7775055 27925 17 24 8 10 25 26 22 2 6 23 7 16 13 11 4 3 12 21 20 19 14 18 9 15 1 5
7798949 27691 25 24 17 26 10 8 22 2 23 6 7 16 13 11 4 19 21 12 3 20 14 18 9 15 1 5
7798759 27980 25 17 24 26 10 8 22 2 23 6 7 16 13 11 4 19 21 12 3 20 14 18 9 15 1 5
7790511 27696 26 10 17 24 25 8 22 2 23 6 7 16 13 11 4 19 21 12 3 20 14 18 9 15 1 5
7791932 27624 25 26 24 17 10 8 22 2 23 6 7 16 13 11 4 19 21 12 3 20 14 18 9 15 1 5
7797905 27996 17 10 24 26 25 8 22 2 23 6 7 16 13 11 4 19 21 12 3 20 14 18 9 15 1 5
7798332 27823 10 17 24 26 25 8 22 2 23 6 7 16 13 11 4 19 21 12 3 20 14 18 9 15 1 5
7792283 27920 25 24 26 17 10 8 22 2 23 6 7 16 13 11 4 19 21 12 3 20 14 18 9 15 1 5
7790525 27763 26 17 10 24 25 8 22 2 23 6 7 16 13 11 4 19 21 12 3 20 14 18 9 15 1 5
7791856 27887 10 24 26 17 25 8 22 2 23 6 7 16 13 11 4 19 21 12 3 20 14 18 9 15 1 5
7792276 28009 24 26 25 17 10 8 22 2 23 6 7 16 13 11 4 19 21 12 3 20 14 18 9 15 1 5
7792107 27705 25 17 26 24 10 8 22 2 23 6 7 16 13 11 4 19 21 12 3 20 14 18 9 15 1 5
7792517 27886 24 25 26 17 10 8 22 2 23 6 7 16 13 11 4 19 21 12 3 20 14 18 9 15 1 5
7797905 27857 17 10 24 26 25 8 22 2 23 6 7 16 13 11 4 19 21 12 3 20 14 18 9 15 1 5
7798332 27801 10 17 24 26 25 8 22 2 23 6 7 16 13 11 4 19 21 12 3 20 14 18 9 15 1 5
7773250 27742 8 24 17 10 25 26 22 2 6 23 7 16 13 11 4 3 12 21 20 19 14 18 9 15 1 5
7790701 28037 26 24 10 17 25 8 22 2 23 6 7 16 13 11 4 19 21 12 3 20 14 18 9 15 1 5
7798949 27967 25 24 17 26 10 8 22 2 23 6 7 16 13 11 4 19 21 12 3 20 14 18 9 15 1 5
7798332 27913 10 17 24 26 25 8 22 2 23 6 7 16 13 11 4 19 21 12 3 20 14 18 9 15 1 5
7773250 27843 8 24 17 10 25 26 22 2 6 23 7 16 13 11 4 3 12 21 20 19 14 18 9 15 1 5
7791856 27624 10 24 26 17 25 8 22 2 23 6 7 16 13 11 4 19 21 12 3 20 14 18 9 15 1 5
7790497 27790 26 10 24 17 25 8 22 2 23 6 7 16 13 11 4 19 21 12 3 20 14 18 9 15 1 5
7791782 28047 26 25 17 24 10 8 22 2 23 6 7 16 13 11 4 19 21 12 3 20 14 18 9 15 1 5
7791680 27822 10 17 26 24 25 8 22 2 23 6 7 16 13 11 4 19 21 12 3 20 14 18 9 15 1 5
7773250 27669 8 24 17 10 25 26 22 2 6 23 7 16 13 11 4 3 12 21 20 19 14 18 9 15 1 5
7790701 27923 26 24 10 17 25 8 22 2 23 6 7 16 13 11 4 19 21 12 3 20 14 18 9 15 1 5
7773060 27884 8 17 24 10 25 26 22 2 6 23 7 16 13 11 4 3 12 21 20 19 14 18 9 15 1 5
7791680 27842 10 17 26 24 25 8 22 2 23 6 7 16 13 11 4 19 21 12 3 20 14 18 9 15 1 5
7799183 28040 24 25 17 26 10 8 22 2 23 6 7 16 13 11 4 19 21 12 3 20 14 18 9 15 1 5
7773529 27916 17 8 24 10 25 26 22 2 6 23 7 16 13 11 4 3 12 21 20 19 14 18 9 15 1 5
7791519 27812 10 26 17 24 25 8 22 2 23 6 7 16 13 11 4 19 21 12 3 20 14 18 9 15 1 5
7773250 27944 8 24 17 10 25 26 22 2 6 23 7 16 13 11 4 3 12 21 20 19 14 18 9 15 1 5
7791519 28078 10 26 17 24 25 8 22 2 23 6 7 16 13 11 4 19 21 12 3 20 14 18 9 15 1 5
7791106 27674 17 26 10 24 25 8 22 2 23 6 7 16 13 11 4 19 21 12 3 20 14 18 9 15 1 5
7799103 27889 24 17 25 26 10 8 22 2 23 6 7 16 13 11 4 19 21 12 3 20 14 18 9 15 1 5
7791099 27524 24 26 10 17 25 8 22 2 23 6 7 16 13 11 4 19 21 12 3 20 14 18 9 15 1 5
7791099 28087 24 26 10 17 25 8 22 2 23 6 7 16 13 11 4 19 21 12 3 20 14 18 9 15 1 5
7773250 27816 8 24 17 10 25 26 22 2 6 23 7 16 13 11 4 3 12 21 20 19 14 18 9 15 1 5
7799286 27834 17 24 25 26 10 8 22 2 23 6 7 16 13 11 4 19 21 12 3 20 14 18 9 15 1 5
7791505 27842 10 26 24 17 25 8 22 2 23 6 7 16 13 11 4 19 21 12 3 20 14 18 9 15 1 5
7773060 27809 8 17 24 10 25 26 22 2 6 23 7 16 13 11 4 3 12 21 20 19 14 18 9 15 1 5
7791946 28001 25 26 17 24 10 8 22 2 23 6 7 16 13 11 4 19 21 12 3 20 14 18 9 15 1 5
7775055 27716 17 24 8 10 25 26 22 2 6 23 7 16 13 11 4 3 12 21 20 19 14 18 9 15 1 5
7791946 28042 25 26 17 24 10 8 22 2 23 6 7 16 13 11 4 19 21 12 3 20 14 18 9 15 1 5
7791856 27889 10 24 26 17 25 8 22 2 23 6 7 16 13 11 4 19 21 12 3 20 14 18 9 15 1 5
7773529 28162 17 8 24 10 25 26 22 2 6 23 7 16 13 11 4 3 12 21 20 19 14 18 9 15 1 5
7773250 27812 8 24 17 10 25 26 22 2 6 23 7 16 13 11 4 3 12 21 20 19 14 18 9 15 1 5
7791149 27941 26 17 24 10 25 8 22 2 23 6 7 16 13 11 4 19 21 12 3 20 14 18 9 15 1 5
7792283 27658 17 26 25 24 10 8 22 2 23 6 7 16 13 11 4 19 21 12 3 20 14 18 9 15 1 5
7798522 27890 10 24 17 26 25 8 22 2 23 6 7 16 13 11 4 19 21 12 3 20 14 18 9 15 1 5
7790525 27907 26 17 10 24 25 8 22 2 23 6 7 16 13 11 4 19 21 12 3 20 14 18 9 15 1 5
7799183 27896 24 25 17 26 10 8 22 2 23 6 7 16 13 11 4 19 21 12 3 20 14 18 9 15 1 5
7797905 27944 17 10 24 26 25 8 22 2 23 6 7 16 13 11 4 19 21 12 3 20 14 18 9 15 1 5
7791106 27891 17 26 10 24 25 8 22 2 23 6 7 16 13 11 4 19 21 12 3 20 14 18 9 15 1 5
7791856 27911 10 24 26 17 25 8 22 2 23 6 7 16 13 11 4 19 21 12 3 20 14 18 9 15 1 5
7798949 28031 25 24 17 26 10 8 22 2 23 6 7 16 13 11 4 19 21 12 3 20 14 18 9 15 1 5
7798332 27978 10 17 24 26 25 8 22 2 23 6 7 16 13 11 4 19 21 12 3 20 14 18 9 15 1 5
7773060 27954 8 17 24 10 25 26 22 2 6 23 7 16 13 11 4 3 12 21 20 19 14 18 9 15 1 5
7791898 27815 24 17 26 10 25 8 22 2 23 6 7 16 13 11 4 19 21 12 3 20 14 18 9 15 1 5
7792524 27853 17 25 26 24 10 8 22 2 23 6 7 16 13 11 4 19 21 12 3 20 14 18 9 15 1 5
7792283 27986 25 24 26 17 10 8 22 2 23 6 7 16 13 11 4 19 21 12 3 20 14 18 9 15 1 5
7791505 29918 10 26 24 17 25 8 22 2 23 6 7 16 13 11 4 19 21 12 3 20 14 18 9 15 1 5
7791911 27796 24 17 26 25 10 8 22 2 23 6 7 16 13 11 4 19 21 12 3 20 14 18 9 15 1 5
7773250 27818 8 24 17 10 25 26 22 2 6 23 7 16 13 11 4 3 12 21 20 19 14 18 9 15 1 5
7798759 27735 25 17 24 26 10 8 22 2 23 6 7 16 13 11 4 19 21 12 3 20 14 18 9 15 1 5
7791519 27741 10 26 17 24 25 8 22 2 23 6 7 16 13 11 4 19 21 12 3 20 14 18 9 15 1 5
7791782 27912 26 25 17 24 10 8 22 2 23 6 7 16 13 11 4 19 21 12 3 20 14 18 9 15 1 5
7773250 27921 8 24 17 10 25 26 22 2 6 23 7 16 13 11 4 3 12 21 20 19 14 18 9 15 1 5
7773250 27824 8 24 17 10 25 26 22 2 6 23 7 16 13 11 4 3 12 21 20 19 14 18 9 15 1 5
7773487 27835 24 8 17 10 25 26 22 2 6 23 7 16 13 11 4 3 12 21 20 19 14 18 9 15 1 5
7791246 27873 24 10 26 17 25 8 22 2 23 6 7 16 13 11 4 19 21 12 3 20 14 18 9 15 1 5
7798949 27824 25 24 17 26 10 8 22 2 23 6 7 16 13 11 4 19 21 12 3 20 14 18 9 15 1 5
7791702 28164 26 17 25 24 10 8 22 2 23 6 7 16 13 11 4 19 21 12 3 20 14 18 9 15 1 5
7798332 27806 10 17 24 26 25 8 22 2 23 6 7 16 13 11 4 19 21 12 3 20 14 18 9 15 1 5
7791253 27896 17 10 26 24 25 8 22 2 23 6 7 16 13 11 4 19 21 12 3 20 14 18 9 15 1 5
7773250 28076 8 24 17 10 25 26 22 2 6 23 7 16 13 11 4 3 12 21 20 19 14 18 9 15 1 5
7773487 27730 24 8 17 10 25 26 22 2 6 23 7 16 13 11 4 3 12 21 20 19 14 18 9 15 1 5
7773529 27948 17 8 24 10 25 26 22 2 6 23 7 16 13 11 4 3 12 21 20 19 14 18 9 15 1 5
7791782 27728 26 25 17 24 10 8 22 2 23 6 7 16 13 11 4 19 21 12 3 20 14 18 9 15 1 5
7773060 28036 8 17 24 10 25 26 22 2 6 23 7 16 13 11 4 3 12 21 20 19 14 18 9 15 1 5
7790497 28044 26 10 24 17 25 8 22 2 23 6 7 16 13 11 4 19 21 12 3 20 14 18 9 15 1 5
7791680 27717 10 17 26 24 25 8 22 2 23 6 7 16 13 11 4 19 21 12 3 20 14 18 9 15 1 5
7792283 27865 25 24 26 17 10 8 22 2 23 6 7 16 13 11 4 19 21 12 3 20 14 18 9 15 1 5
7791519 27721 10 26 17 24 25 8 22 2 23 6 7 16 13 11 4 19 21 12 3 20 14 18 9 15 1 5
7798522 28075 10 24 17 26 25 8 22 2 23 6 7 16 13 11 4 19 21 12 3 20 14 18 9 15 1 5
7773060 27882 8 17 24 10 25 26 22 2 6 23 7 16 13 11 4 3 12 21 20 19 14 18 9 15 1 5
7773060 27724 8 17 24 10 25 26 22 2 6 23 7 16 13 11 4 3 12 21 20 19 14 18 9 15 1 5
7791932 27799 25 26 24 17 10 8 22 2 23 6 7 16 13 11 4 19 21 12 3 20 14 18 9 15 1 5
7798522 27793 10 24 17 26 25 8 22 2 23 6 7 16 13 11 4 19 21 12 3 20 14 18 9 15 1 5
7799176 28007 17 25 24 26 10 8 22 2 23 6 7 16 13 11 4 19 21 12 3 20 14 18 9 15 1 5
7798759 27747 25 17 24 26 10 8 22 2 23 6 7 16 13 11 4 19 21 12 3 20 14 18 9 15 1 5
7791149 27914 26 17 24 10 25 8 22 2 23 6 7 16 13 11 4 19 21 12 3 20 14 18 9 15 1 5
7798759 27815 25 17 24 26 10 8 22 2 23 6 7 16 13 11 4 19 21 12 3 20 14 18 9 15 1 5
7791519 27769 10 26 17 24 25 8 22 2 23 6 7 16 13 11 4 19 21 12 3 20 14 18 9 15 1 5
7791878 27812 26 24 25 17 10 8 22 2 23 6 7 16 13 11 4 19 21 12 3 20 14 18 9 15 1 5
7791782 27805 26 25 17 24 10 8 22 2 23 6 7 16 13 11 4 19 21 12 3 20 14 18 9 15 1 5
7791768 27902 26 25 24 17 10 8 22 2 23 6 7 16 13 11 4 19 21 12 3 20 14 18 9 15 1 5
7791856 27668 10 24 26 17 25 8 22 2 23 6 7 16 13 11 4 19 21 12 3 20 14 18 9 15 1 5
7791680 27815 10 17 26 24 25 8 22 2 23 6 7 16 13 11 4 19 21 12 3 20 14 18 9 15 1 5
7791099 27772 24 26 10 17 25 8 22 2 23 6 7 16 13 11 4 19 21 12 3 20 14 18 9 15 1 5
7791782 27606 26 25 17 24 10 8 22 2 23 6 7 16 13 11 4 19 21 12 3 20 14 18 9 15 1 5
7773060 27828 8 17 24 10 25 26 22 2 6 23 7 16 13 11 4 3 12 21 20 19 14 18 9 15 1 5
7791519 27609 10 26 17 24 25 8 22 2 23 6 7 16 13 11 4 19 21 12 3 20 14 18 9 15 1 5
7773250 27941 8 24 17 10 25 26 22 2 6 23 7 16 13 11 4 3 12 21 20 19 14 18 9 15 1 5
7791505 27970 10 26 24 17 25 8 22 2 23 6 7 16 13 11 4 19 21 12 3 20 14 18 9 15 1 5
7792283 27753 25 24 26 17 10 8 22 2 23 6 7 16 13 11 4 19 21 12 3 20 14 18 9 15 1 5
7773060 27787 8 17 24 10 25 26 22 2 6 23 7 16 13 11 4 3 12 21 20 19 14 18 9 15 1 5
7773487 27701 24 8 17 10 25 26 22 2 6 23 7 16 13 11 4 3 12 21 20 19 14 18 9 15 1 5
7790511 27865 26 10 17 24 25 8 22 2 23 6 7 16 13 11 4 19 21 12 3 20 14 18 9 15 1 5
7792107 27722 25 17 26 24 10 8 22 2 23 6 7 16 13 11 4 19 21 12 3 20 14 18 9 15 1 5
7799183 27882 24 25 17 26 10 8 22 2 23 6 7 16 13 11 4 19 21 12 3 20 14 18 9 15 1 5
7791768 27738 26 25 24 17 10 8 22 2 23 6 7 16 13 11 4 19 21 12 3 20 14 18 9 15 1 5
7791768 27874 26 25 24 17 10 8 22 2 23 6 7 16 13 11 4 19 21 12 3 20 14 18 9 15 1 5
7791730 27816 17 26 24 10 25 8 22 2 23 6 7 16 13 11 4 19 21 12 3 20 14 18 9 15 1 5
7773060 27906 8 17 24 10 25 26 22 2 6 23 7 16 13 11 4 3 12 21 20 19 14 18 9 15 1 5
7791680 27911 10 17 26 24 25 8 22 2 23 6 7 16 13 11 4 19 21 12 3 20 14 18 9 15 1 5
7798759 28029 25 17 24 26 10 8 22 2 23 6 7 16 13 11 4 19 21 12 3 20 14 18 9 15 1 5
7798332 27765 10 17 24 26 25 8 22 2 23 6 7 16 13 11 4 19 21 12 3 20 14 18 9 15 1 5
7773060 28212 8 17 24 10 25 26 22 2 6 23 7 16 13 11 4 3 12 21 20 19 14 18 9 15 1 5
7773060 27869 8 17 24 10 25 26 22 2 6 23 7 16 13 11 4 3 12 21 20 19 14 18 9 15 1 5
7791932 27791 25 26 24 17 10 8 22 2 23 6 7 16 13 11 4 19 21 12 3 20 14 18 9 15 1 5
7792283 28126 25 24 26 17 10 8 22 2 23 6 7 16 13 11 4 19 21 12 3 20 14 18 9 15 1 5
7791878 28096 26 24 25 17 10 8 22 2 23 6 7 16 13 11 4 19 21 12 3 20 14 18 9 15 1 5
7773250 28048 8 24 17 10 25 26 22 2 6 23 7 16 13 11 4 3 12 21 20 19 14 18 9 15 1 5
7791768 27880 26 25 24 17 10 8 22 2 23 6 7 16 13 11 4 19 21 12 3 20 14 18 9 15 1 5
7791246 27742 24 10 26 17 25 8 22 2 23 6 7 16 13 11 4 19 21 12 3 20 14 18 9 15 1 5
7798332 27985 10 17 24 26 25 8 22 2 23 6 7 16 13 11 4 19 21 12 3 20 14 18 9 15 1 5
7773487 28011 24 8 17 10 25 26 22 2 6 23 7 16 13 11 4 3 12 21 20 19 14 18 9 15 1 5
7798332 28087 10 17 24 26 25 8 22 2 23 6 7 16 13 11 4 19 21 12 3 20 14 18 9 15 1 5
7791253 27768 17 10 26 24 25 8 22 2 23 6 7 16 13 11 4 19 21 12 3 20 14 18 9 15 1 5
7791253 27732 17 10 26 24 25 8 22 2 23 6 7 16 13 11 4 19 21 12 3 20 14 18 9 15 1 5
7791505 28088 10 26 24 17 25 8 22 2 23 6 7 16 13 11 4 19 21 12 3 20 14 18 9 15 1 5
7791856 27997 10 24 26 17 25 8 22 2 23 6 7 16 13 11 4 19 21 12 3 20 14 18 9 15 1 5
7790511 27873 26 10 17 24 25 8 22 2 23 6 7 16 13 11 4 19 21 12 3 20 14 18 9 15 1 5
7792107 27956 25 17 26 24 10 8 22 2 23 6 7 16 13 11 4 19 21 12 3 20 14 18 9 15 1 5
7792107 27815 25 17 26 24 10 8 22 2 23 6 7 16 13 11 4 19 21 12 3 20 14 18 9 15 1 5
7791946 27623 25 26 17 24 10 8 22 2 23 6 7 16 13 11 4 19 21 12 3 20 14 18 9 15 1 5
7773250 27753 8 24 17 10 25 26 22 2 6 23 7 16 13 11 4 3 12 21 20 19 14 18 9 15 1 5
7791253 27937 17 10 26 24 25 8 22 2 23 6 7 16 13 11 4 19 21 12 3 20 14 18 9 15 1 5
7791106 28054 17 26 10 24 25 8 22 2 23 6 7 16 13 11 4 19 21 12 3 20 14 18 9 15 1 5
7798949 27981 25 24 17 26 10 8 22 2 23 6 7 16 13 11 4 19 21 12 3 20 14 18 9 15 1 5
7773060 27833 8 17 24 10 25 26 22 2 6 23 7 16 13 11 4 3 12 21 20 19 14 18 9 15 1 5
7791946 27825 25 26 17 24 10 8 22 2 23 6 7 16 13 11 4 19 21 12 3 20 14 18 9 15 1 5
7791898 27805 24 17 26 10 25 8 22 2 23 6 7 16 13 11 4 19 21 12 3 20 14 18 9 15 1 5
7773250 28000 8 24 17 10 25 26 22 2 6 23 7 16 13 11 4 3 12 21 20 19 14 18 9 15 1 5
7791149 27964 26 17 24 10 25 8 22 2 23 6 7 16 13 11 4 19 21 12 3 20 14 18 9 15 1 5
7791932 27964 25 26 24 17 10 8 22 2 23 6 7 16 13 11 4 19 21 12 3 20 14 18 9 15 1 5
7791932 27687 25 26 24 17 10 8 22 2 23 6 7 16 13 11 4 19 21 12 3 20 14 18 9 15 1 5
7773250 28075 8 24 17 10 25 26 22 2 6 23 7 16 13 11 4 3 12 21 20 19 14 18 9 15 1 5
7791519 27641 10 26 17 24 25 8 22 2 23 6 7 16 13 11 4 19 21 12 3 20 14 18 9 15 1 5
7773487 27777 24 8 17 10 25 26 22 2 6 23 7 16 13 11 4 3 12 21 20 19 14 18 9 15 1 5
7798949 27869 25 24 17 26 10 8 22 2 23 6 7 16 13 11 4 19 21 12 3 20 14 18 9 15 1 5
7773487 27790 24 8 17 10 25 26 22 2 6 23 7 16 13 11 4 3 12 21 20 19 14 18 9 15 1 5
7797905 27865 17 10 24 26 25 8 22 2 23 6 7 16 13 11 4 19 21 12 3 20 14 18 9 15 1 5
7798332 27677 10 17 24 26 25 8 22 2 23 6 7 16 13 11 4 19 21 12 3 20 14 18 9 15 1 5
7791768 27774 26 25 24 17 10 8 22 2 23 6 7 16 13 11 4 19 21 12 3 20 14 18 9 15 1 5
7798522 30930 10 24 17 26 25 8 22 2 23 6 7 16 13 11 4 19 21 12 3 20 14 18 9 15 1 5
7790525 27996 26 17 10 24 25 8 22 2 23 6 7 16 13 11 4 19 21 12 3 20 14 18 9 15 1 5
7798949 27799 25 24 17 26 10 8 22 2 23 6 7 16 13 11 4 19 21 12 3 20 14 18 9 15 1 5
7798949 27799 25 24 17 26 10 8 22 2 23 6 7 16 13 11 4 19 21 12 3 20 14 18 9 15 1 5
7791878 27706 26 24 25 17 10 8 22 2 23 6 7 16 13 11 4 19 21 12 3 20 14 18 9 15 1 5
7791505 27975 10 26 24 17 25 8 22 2 23 6 7 16 13 11 4 19 21 12 3 20 14 18 9 15 1 5
7791352 27993 26 24 17 25 10 8 22 2 23 6 7 16 13 11 4 19 21 12 3 20 14 18 9 15 1 5
7797926 27891 24 17 10 26 25 8 22 2 23 6 7 16 13 11 4 19 21 12 3 20 14 18 9 15 1 5
7790497 27948 26 10 24 17 25 8 22 2 23 6 7 16 13 11 4 19 21 12 3 20 14 18 9 15 1 5
7792283 27960 17 26 25 24 10 8 22 2 23 6 7 16 13 11 4 19 21 12 3 20 14 18 9 15 1 5
7792283 27692 25 24 26 17 10 8 22 2 23 6 7 16 13 11 4 19 21 12 3 20 14 18 9 15 1 5
7798332 28031 10 17 24 26 25 8 22 2 23 6 7 16 13 11 4 19 21 12 3 20 14 18 9 15 1 5
7791519 27920 10 26 17 24 25 8 22 2 23 6 7 16 13 11 4 19 21 12 3 20 14 18 9 15 1 5
7791856 28146 10 24 26 17 25 8 22 2 23 6 7 16 13 11 4 19 21 12 3 20 14 18 9 15 1 5
7791253 28082 17 10 26 24 25 8 22 2 23 6 7 16 13 11 4 19 21 12 3 20 14 18 9 15 1 5
7798522 27898 10 24 17 26 25 8 22 2 23 6 7 16 13 11 4 19 21 12 3 20 14 18 9 15 1 5
7791768 27844 26 25 24 17 10 8 22 2 23 6 7 16 13 11 4 19 21 12 3 20 14 18 9 15 1 5
7791505 27649 10 26 24 17 25 8 22 2 23 6 7 16 13 11 4 19 21 12 3 20 14 18 9 15 1 5
7792524 27845 17 25 26 24 10 8 22 2 23 6 7 16 13 11 4 19 21 12 3 20 14 18 9 15 1 5
7773529 27804 17 8 24 10 25 26 22 2 6 23 7 16 13 11 4 3 12 21 20 19 14 18 9 15 1 5
7791743 27664 17 26 24 25 10 8 22 2 23 6 7 16 13 11 4 19 21 12 3 20 14 18 9 15 1 5
7797905 27812 17 10 24 26 25 8 22 2 23 6 7 16 13 11 4 19 21 12 3 20 14 18 9 15 1 5
7791106 27648 17 26 10 24 25 8 22 2 23 6 7 16 13 11 4 19 21 12 3 20 14 18 9 15 1 5
7798332 27654 10 17 24 26 25 8 22 2 23 6 7 16 13 11 4 19 21 12 3 20 14 18 9 15 1 5
7791099 27976 24 26 10 17 25 8 22 2 23 6 7 16 13 11 4 19 21 12 3 20 14 18 9 15 1 5
7792107 27821 25 17 26 24 10 8 22 2 23 6 7 16 13 11 4 19 21 12 3 20 14 18 9 15 1 5
7791702 27680 26 17 25 24 10 8 22 2 23 6 7 16 13 11 4 19 21 12 3 20 14 18 9 15 1 5
7791782 27907 26 25 17 24 10 8 22 2 23 6 7 16 13 11 4 19 21 12 3 20 14 18 9 15 1 5
7799286 28042 17 24 25 26 10 8 22 2 23 6 7 16 13 11 4 19 21 12 3 20 14 18 9 15 1 5
7791106 28274 17 26 10 24 25 8 22 2 23 6 7 16 13 11 4 19 21 12 3 20 14 18 9 15 1 5
7773487 28110 24 8 17 10 25 26 22 2 6 23 7 16 13 11 4 3 12 21 20 19 14 18 9 15 1 5
7790701 28116 26 24 10 17 25 8 22 2 23 6 7 16 13 11 4 19 21 12 3 20 14 18 9 15 1 5
7791680 27824 10 17 26 24 25 8 22 2 23 6 7 16 13 11 4 19 21 12 3 20 14 18 9 15 1 5
7790497 28247 26 10 24 17 25 8 22 2 23 6 7 16 13 11 4 19 21 12 3 20 14 18 9 15 1 5
7773529 27851 17 8 24 10 25 26 22 2 6 23 7 16 13 11 4 3 12 21 20 19 14 18 9 15 1 5
7773060 27727 8 17 24 10 25 26 22 2 6 23 7 16 13 11 4 3 12 21 20 19 14 18 9 15 1 5
7791702 27780 26 17 25 24 10 8 22 2 23 6 7 16 13 11 4 19 21 12 3 20 14 18 9 15 1 5
7797912 27904 24 10 17 26 25 8 22 2 23 6 7 16 13 11 4 19 21 12 3 20 14 18 9 15 1 5
7791768 27953 26 25 24 17 10 8 22 2 23 6 7 16 13 11 4 19 21 12 3 20 14 18 9 15 1 5
7791505 27716 10 26 24 17 25 8 22 2 23 6 7 16 13 11 4 19 21 12 3 20 14 18 9 15 1 5
7773250 27796 8 24 17 10 25 26 22 2 6 23 7 16 13 11 4 3 12 21 20 19 14 18 9 15 1 5
7791519 27889 10 26 17 24 25 8 22 2 23 6 7 16 13 11 4 19 21 12 3 20 14 18 9 15 1 5
7798109 28227 17 24 10 26 25 8 22 2 23 6 7 16 13 11 4 19 21 12 3 20 14 18 9 15 1 5
7799286 27884 17 24 25 26 10 8 22 2 23 6 7 16 13 11 4 19 21 12 3 20 14 18 9 15 1 5
7773250 27801 8 24 17 10 25 26 22 2 6 23 7 16 13 11 4 3 12 21 20 19 14 18 9 15 1 5
7791946 28053 25 26 17 24 10 8 22 2 23 6 7 16 13 11 4 19 21 12 3 20 14 18 9 15 1 5
7797912 27847 24 10 17 26 25 8 22 2 23 6 7 16 13 11 4 19 21 12 3 20 14 18 9 15 1 5
7791149 27934 26 17 24 10 25 8 22 2 23 6 7 16 13 11 4 19 21 12 3 20 14 18 9 15 1 5
7790497 27927 26 10 24 17 25 8 22 2 23 6 7 16 13 11 4 19 21 12 3 20 14 18 9 15 1 5
7792283 28158 25 24 26 17 10 8 22 2 23 6 7 16 13 11 4 19 21 12 3 20 14 18 9 15 1 5
7791149 27840 26 17 24 10 25 8 22 2 23 6 7 16 13 11 4 19 21 12 3 20 14 18 9 15 1 5
7790701 27885 26 24 10 17 25 8 22 2 23 6 7 16 13 11 4 19 21 12 3 20 14 18 9 15 1 5
7773529 27731 17 8 24 10 25 26 22 2 6 23 7 16 13 11 4 3 12 21 20 19 14 18 9 15 1 5
7773250 27709 8 24 17 10 25 26 22 2 6 23 7 16 13 11 4 3 12 21 20 19 14 18 9 15 1 5
7798759 27832 25 17 24 26 10 8 22 2 23 6 7 16 13 11 4 19 21 12 3 20 14 18 9 15 1 5
7791505 28068 10 26 24 17 25 8 22 2 23 6 7 16 13 11 4 19 21 12 3 20 14 18 9 15 1 5
7799183 27963 24 25 17 26 10 8 22 2 23 6 7 16 13 11 4 19 21 12 3 20 14 18 9 15 1 5
7791911 27694 24 17 26 25 10 8 22 2 23 6 7 16 13 11 4 19 21 12 3 20 14 18 9 15 1 5
7773487 27963 24 8 17 10 25 26 22 2 6 23 7 16 13 11 4 3 12 21 20 19 14 18 9 15 1 5
7791946 27936 25 26 17 24 10 8 22 2 23 6 7 16 13 11 4 19 21 12 3 20 14 18 9 15 1 5
7790511 27963 26 10 17 24 25 8 22 2 23 6 7 16 13 11 4 19 21 12 3 20 14 18 9 15 1 5
7791702 27876 26 17 25 24 10 8 22 2 23 6 7 16 13 11 4 19 21 12 3 20 14 18 9 15 1 5
7791782 28041 26 25 17 24 10 8 22 2 23 6 7 16 13 11 4 19 21 12 3 20 14 18 9 15 1 5
7773487 28001 24 8 17 10 25 26 22 2 6 23 7 16 13 11 4 3 12 21 20 19 14 18 9 15 1 5
7798522 27621 10 24 17 26 25 8 22 2 23 6 7 16 13 11 4 19 21 12 3 20 14 18 9 15 1 5
7791106 27907 17 26 10 24 25 8 22 2 23 6 7 16 13 11 4 19 21 12 3 20 14 18 9 15 1 5
7773060 27841 8 17 24 10 25 26 22 2 6 23 7 16 13 11 4 3 12 21 20 19 14 18 9 15 1 5
7792107 28122 25 17 26 24 10 8 22 2 23 6 7 16 13 11 4 19 21 12 3 20 14 18 9 15 1 5
7791946 27970 25 26 17 24 10 8 22 2 23 6 7 16 13 11 4 19 21 12 3 20 14 18 9 15 1 5
7791782 27945 26 25 17 24 10 8 22 2 23 6 7 16 13 11 4 19 21 12 3 20 14 18 9 15 1 5
7773060 27873 8 17 24 10 25 26 22 2 6 23 7 16 13 11 4 3 12 21 20 19 14 18 9 15 1 5
7792517 28069 24 25 26 17 10 8 22 2 23 6 7 16 13 11 4 19 21 12 3 20 14 18 9 15 1 5
7773060 27971 8 17 24 10 25 26 22 2 6 23 7 16 13 11 4 3 12 21 20 19 14 18 9 15 1 5
7791856 27675 10 24 26 17 25 8 22 2 23 6 7 16 13 11 4 19 21 12 3 20 14 18 9 15 1 5
7792283 27976 25 24 26 17 10 8 22 2 23 6 7 16 13 11 4 19 21 12 3 20 14 18 9 15 1 5
7790701 27822 26 24 10 17 25 8 22 2 23 6 7 16 13 11 4 19 21 12 3 20 14 18 9 15 1 5
7791782 28113 26 25 17 24 10 8 22 2 23 6 7 16 13 11 4 19 21 12 3 20 14 18 9 15 1 5
7791680 28113 10 17 26 24 25 8 22 2 23 6 7 16 13 11 4 19 21 12 3 20 14 18 9 15 1 5
7792276 27860 24 26 25 17 10 8 22 2 23 6 7 16 13 11 4 19 21 12 3 20 14 18 9 15 1 5
7791946 27888 25 26 17 24 10 8 22 2 23 6 7 16 13 11 4 19 21 12 3 20 14 18 9 15 1 5
7791878 27940 26 24 25 17 10 8 22 2 23 6 7 16 13 11 4 19 21 12 3 20 14 18 9 15 1 5
7774823 28028 24 17 8 10 25 26 22 2 6 23 7 16 13 11 4 3 12 21 20 19 14 18 9 15 1 5
7792524 36531 17 25 26 24 10 8 22 2 23 6 7 16 13 11 4 19 21 12 3 20 14 18 9 15 1 5
7798949 27074 25 24 17 26 10 8 22 2 23 6 7 16 13 11 4 19 21 12 3 20 14 18 9 15 1 5
7773250 27100 8 24 17 10 25 26 22 2 6 23 7 16 13 11 4 3 12 21 20 19 14 18 9 15 1 5
7798109 26908 17 24 10 26 25 8 22 2 23 6 7 16 13 11 4 19 21 12 3 20 14 18 9 15 1 5
7791519 27005 10 26 17 24 25 8 22 2 23 6 7 16 13 11 4 19 21 12 3 20 14 18 9 15 1 5
7798332 27181 10 17 24 26 25 8 22 2 23 6 7 16 13 11 4 19 21 12 3 20 14 18 9 15 1 5
7798949 26990 25 24 17 26 10 8 22 2 23 6 7 16 13 11 4 19 21 12 3 20 14 18 9 15 1 5
7791946 26939 25 26 17 24 10 8 22 2 23 6 7 16 13 11 4 19 21 12 3 20 14 18 9 15 1 5
7790511 26869 26 10 17 24 25 8 22 2 23 6 7 16 13 11 4 19 21 12 3 20 14 18 9 15 1 5
7798522 26960 10 24 17 26 25 8 22 2 23 6 7 16 13 11 4 19 21 12 3 20 14 18 9 15 1 5
7791750 27058 24 26 17 25 10 8 22 2 23 6 7 16 13 11 4 19 21 12 3 20 14 18 9 15 1 5
7790701 27086 26 24 10 17 25 8 22 2 23 6 7 16 13 11 4 19 21 12 3 20 14 18 9 15 1 5
7791932 27427 25 26 24 17 10 8 22 2 23 6 7 16 13 11 4 19 21 12 3 20 14 18 9 15 1 5
7790525 49685 26 17 10 24 25 8 22 2 23 6 7 16 13 11 4 19 21 12 3 20 14 18 9 15 1 5
7792283 27219 25 24 26 17 10 8 22 2 23 6 7 16 13 11 4 19 21 12 3 20 14 18 9 15 1 5
7773250 27172 8 24 17 10 25 26 22 2 6 23 7 16 13 11 4 3 12 21 20 19 14 18 9 15 1 5
7798759 27224 25 17 24 26 10 8 22 2 23 6 7 16 13 11 4 19 21 12 3 20 14 18 9 15 1 5
7773250 27032 8 24 17 10 25 26 22 2 6 23 7 16 13 11 4 3 12 21 20 19 14 18 9 15 1 5
7791246 26922 24 10 26 17 25 8 22 2 23 6 7 16 13 11 4 19 21 12 3 20 14 18 9 15 1 5
7791505 27148 10 26 24 17 25 8 22 2 23 6 7 16 13 11 4 19 21 12 3 20 14 18 9 15 1 5
7792517 27022 24 25 26 17 10 8 22 2 23 6 7 16 13 11 4 19 21 12 3 20 14 18 9 15 1 5
7773250 26991 8 24 17 10 25 26 22 2 6 23 7 16 13 11 4 3 12 21 20 19 14 18 9 15 1 5
7791149 27094 26 17 24 10 25 8 22 2 23 6 7 16 13 11 4 19 21 12 3 20 14 18 9 15 1 5
7799286 27206 17 24 25 26 10 8 22 2 23 6 7 16 13 11 4 19 21 12 3 20 14 18 9 15 1 5
7791768 27080 26 25 24 17 10 8 22 2 23 6 7 16 13 11 4 19 21 12 3 20 14 18 9 15 1 5
7773250 27011 8 24 17 10 25 26 22 2 6 23 7 16 13 11 4 3 12 21 20 19 14 18 9 15 1 5
7790701 27133 26 24 10 17 25 8 22 2 23 6 7 16 13 11 4 19 21 12 3 20 14 18 9 15 1 5
7792107 27019 25 17 26 24 10 8 22 2 23 6 7 16 13 11 4 19 21 12 3 20 14 18 9 15 1 5
7773250 26932 8 24 17 10 25 26 22 2 6 23 7 16 13 11 4 3 12 21 20 19 14 18 9 15 1 5
7773529 27066 17 8 24 10 25 26 22 2 6 23 7 16 13 11 4 3 12 21 20 19 14 18 9 15 1 5
7774823 26850 24 17 8 10 25 26 22 2 6 23 7 16 13 11 4 3 12 21 20 19 14 18 9 15 1 5
7799176 26993 17 25 24 26 10 8 22 2 23 6 7 16 13 11 4 19 21 12 3 20 14 18 9 15 1 5
7791680 27224 10 17 26 24 25 8 22 2 23 6 7 16 13 11 4 19 21 12 3 20 14 18 9 15 1 5
7791702 27426 26 17 25 24 10 8 22 2 23 6 7 16 13 11 4 19 21 12 3 20 14 18 9 15 1 5
7791932 27170 25 26 24 17 10 8 22 2 23 6 7 16 13 11 4 19 21 12 3 20 14 18 9 15 1 5
7798949 27066 25 24 17 26 10 8 22 2 23 6 7 16 13 11 4 19 21 12 3 20 14 18 9 15 1 5
7797912 26998 24 10 17 26 25 8 22 2 23 6 7 16 13 11 4 19 21 12 3 20 14 18 9 15 1 5
7798109 27108 17 24 10 26 25 8 22 2 23 6 7 16 13 11 4 19 21 12 3 20 14 18 9 15 1 5
7791750 27023 24 26 17 25 10 8 22 2 23 6 7 16 13 11 4 19 21 12 3 20 14 18 9 15 1 5
7798949 26986 25 24 17 26 10 8 22 2 23 6 7 16 13 11 4 19 21 12 3 20 14 18 9 15 1 5
7791932 27023 25 26 24 17 10 8 22 2 23 6 7 16 13 11 4 19 21 12 3 20 14 18 9 15 1 5
7791932 26919 25 26 24 17 10 8 22 2 23 6 7 16 13 11 4 19 21 12 3 20 14 18 9 15 1 5
7791505 26885 10 26 24 17 25 8 22 2 23 6 7 16 13 11 4 19 21 12 3 20 14 18 9 15 1 5
7791878 26960 26 24 25 17 10 8 22 2 23 6 7 16 13 11 4 19 21 12 3 20 14 18 9 15 1 5
7773250 27172 8 24 17 10 25 26 22 2 6 23 7 16 13 11 4 3 12 21 20 19 14 18 9 15 1 5
7791946 27005 25 26 17 24 10 8 22 2 23 6 7 16 13 11 4 19 21 12 3 20 14 18 9 15 1 5
7798332 27146 10 17 24 26 25 8 22 2 23 6 7 16 13 11 4 19 21 12 3 20 14 18 9 15 1 5
7790525 26987 26 17 10 24 25 8 22 2 23 6 7 16 13 11 4 19 21 12 3 20 14 18 9 15 1 5
7791246 27278 24 10 26 17 25 8 22 2 23 6 7 16 13 11 4 19 21 12 3 20 14 18 9 15 1 5
7791932 26940 25 26 24 17 10 8 22 2 23 6 7 16 13 11 4 19 21 12 3 20 14 18 9 15 1 5
7791768 26865 26 25 24 17 10 8 22 2 23 6 7 16 13 11 4 19 21 12 3 20 14 18 9 15 1 5
7773250 27099 8 24 17 10 25 26 22 2 6 23 7 16 13 11 4 3 12 21 20 19 14 18 9 15 1 5
7790511 27164 26 10 17 24 25 8 22 2 23 6 7 16 13 11 4 19 21 12 3 20 14 18 9 15 1 5
7791702 27036 26 17 25 24 10 8 22 2 23 6 7 16 13 11 4 19 21 12 3 20 14 18 9 15 1 5
7773060 26975 8 17 24 10 25 26 22 2 6 23 7 16 13 11 4 3 12 21 20 19 14 18 9 15 1 5
7773060 27172 8 17 24 10 25 26 22 2 6 23 7 16 13 11 4 3 12 21 20 19 14 18 9 15 1 5
7792283 27051 25 24 26 17 10 8 22 2 23 6 7 16 13 11 4 19 21 12 3 20 14 18 9 15 1 5
7773250 27024 8 24 17 10 25 26 22 2 6 23 7 16 13 11 4 3 12 21 20 19 14 18 9 15 1 5
7791743 27060 17 26 24 25 10 8 22 2 23 6 7 16 13 11 4 19 21 12 3 20 14 18 9 15 1 5
7799286 26770 17 24 25 26 10 8 22 2 23 6 7 16 13 11 4 19 21 12 3 20 14 18 9 15 1 5
7773529 27183 17 8 24 10 25 26 22 2 6 23 7 16 13 11 4 3 12 21 20 19 14 18 9 15 1 5
7798109 26982 17 24 10 26 25 8 22 2 23 6 7 16 13 11 4 19 21 12 3 20 14 18 9 15 1 5
7791099 26618 24 26 10 17 25 8 22 2 23 6 7 16 13 11 4 19 21 12 3 20 14 18 9 15 1 5
7791519 27142 10 26 17 24 25 8 22 2 23 6 7 16 13 11 4 19 21 12 3 20 14 18 9 15 1 5
7791878 26939 26 24 25 17 10 8 22 2 23 6 7 16 13 11 4 19 21 12 3 20 14 18 9 15 1 5
7790525 27003 26 17 10 24 25 8 22 2 23 6 7 16 13 11 4 19 21 12 3 20 14 18 9 15 1 5
7773250 27080 8 24 17 10 25 26 22 2 6 23 7 16 13 11 4 3 12 21 20 19 14 18 9 15 1 5
7773060 27104 8 17 24 10 25 26 22 2 6 23 7 16 13 11 4 3 12 21 20 19 14 18 9 15 1 5
7791946 26857 25 26 17 24 10 8 22 2 23 6 7 16 13 11 4 19 21 12 3 20 14 18 9 15 1 5
7790525 26953 26 17 10 24 25 8 22 2 23 6 7 16 13 11 4 19 21 12 3 20 14 18 9 15 1 5
7791743 27173 17 26 24 25 10 8 22 2 23 6 7 16 13 11 4 19 21 12 3 20 14 18 9 15 1 5
7791898 27156 24 17 26 10 25 8 22 2 23 6 7 16 13 11 4 19 21 12 3 20 14 18 9 15 1 5
7791856 27278 10 24 26 17 25 8 22 2 23 6 7 16 13 11 4 19 21 12 3 20 14 18 9 15 1 5
7773529 27112 17 8 24 10 25 26 22 2 6 23 7 16 13 11 4 3 12 21 20 19 14 18 9 15 1 5
7790701 26972 26 24 10 17 25 8 22 2 23 6 7 16 13 11 4 19 21 12 3 20 14 18 9 15 1 5
7792081 27118 17 24 26 10 25 8 22 2 23 6 7 16 13 11 4 19 21 12 3 20 14 18 9 15 1 5
7798332 27016 10 17 24 26 25 8 22 2 23 6 7 16 13 11 4 19 21 12 3 20 14 18 9 15 1 5
7791519 26970 10 26 17 24 25 8 22 2 23 6 7 16 13 11 4 19 21 12 3 20 14 18 9 15 1 5
7791162 27197 26 17 24 25 10 8 22 2 23 6 7 16 13 11 4 19 21 12 3 20 14 18 9 15 1 5
7791246 26889 24 10 26 17 25 8 22 2 23 6 7 16 13 11 4 19 21 12 3 20 14 18 9 15 1 5
7773487 27191 24 8 17 10 25 26 22 2 6 23 7 16 13 11 4 3 12 21 20 19 14 18 9 15 1 5
7791680 27057 10 17 26 24 25 8 22 2 23 6 7 16 13 11 4 19 21 12 3 20 14 18 9 15 1 5
7791106 27063 17 26 10 24 25 8 22 2 23 6 7 16 13 11 4 19 21 12 3 20 14 18 9 15 1 5
7773250 27117 8 24 17 10 25 26 22 2 6 23 7 16 13 11 4 3 12 21 20 19 14 18 9 15 1 5
7798949 27117 25 24 17 26 10 8 22 2 23 6 7 16 13 11 4 19 21 12 3 20 14 18 9 15 1 5
7798332 27061 10 17 24 26 25 8 22 2 23 6 7 16 13 11 4 19 21 12 3 20 14 18 9 15 1 5
7792107 27320 25 17 26 24 10 8 22 2 23 6 7 16 13 11 4 19 21 12 3 20 14 18 9 15 1 5
7791246 27237 24 10 26 17 25 8 22 2 23 6 7 16 13 11 4 19 21 12 3 20 14 18 9 15 1 5
7798522 27117 10 24 17 26 25 8 22 2 23 6 7 16 13 11 4 19 21 12 3 20 14 18 9 15 1 5
7791932 27302 25 26 24 17 10 8 22 2 23 6 7 16 13 11 4 19 21 12 3 20 14 18 9 15 1 5
7791519 27049 10 26 17 24 25 8 22 2 23 6 7 16 13 11 4 19 21 12 3 20 14 18 9 15 1 5
7773060 27261 8 17 24 10 25 26 22 2 6 23 7 16 13 11 4 3 12 21 20 19 14 18 9 15 1 5
7773060 26947 8 17 24 10 25 26 22 2 6 23 7 16 13 11 4 3 12 21 20 19 14 18 9 15 1 5
7791856 27177 10 24 26 17 25 8 22 2 23 6 7 16 13 11 4 19 21 12 3 20 14 18 9 15 1 5
7798332 27161 10 17 24 26 25 8 22 2 23 6 7 16 13 11 4 19 21 12 3 20 14 18 9 15 1 5
7791768 26962 26 25 24 17 10 8 22 2 23 6 7 16 13 11 4 19 21 12 3 20 14 18 9 15 1 5
7792283 27189 17 26 25 24 10 8 22 2 23 6 7 16 13 11 4 19 21 12 3 20 14 18 9 15 1 5
7798759 27186 25 17 24 26 10 8 22 2 23 6 7 16 13 11 4 19 21 12 3 20 14 18 9 15 1 5
7799286 27270 17 24 25 26 10 8 22 2 23 6 7 16 13 11 4 19 21 12 3 20 14 18 9 15 1 5
7799286 27170 17 24 25 26 10 8 22 2 23 6 7 16 13 11 4 19 21 12 3 20 14 18 9 15 1 5
7792107 27090 25 17 26 24 10 8 22 2 23 6 7 16 13 11 4 19 21 12 3 20 14 18 9 15 1 5
7798759 27225 25 17 24 26 10 8 22 2 23 6 7 16 13 11 4 19 21 12 3 20 14 18 9 15 1 5
7798949 27034 25 24 17 26 10 8 22 2 23 6 7 16 13 11 4 19 21 12 3 20 14 18 9 15 1 5
7774823 26820 24 17 8 10 25 26 22 2 6 23 7 16 13 11 4 3 12 21 20 19 14 18 9 15 1 5
7791932 27303 25 26 24 17 10 8 22 2 23 6 7 16 13 11 4 19 21 12 3 20 14 18 9 15 1 5
7791680 27117 10 17 26 24 25 8 22 2 23 6 7 16 13 11 4 19 21 12 3 20 14 18 9 15 1 5
7790511 27075 26 10 17 24 25 8 22 2 23 6 7 16 13 11 4 19 21 12 3 20 14 18 9 15 1 5
7798332 26945 10 17 24 26 25 8 22 2 23 6 7 16 13 11 4 19 21 12 3 20 14 18 9 15 1 5
7791782 27058 26 25 17 24 10 8 22 2 23 6 7 16 13 11 4 19 21 12 3 20 14 18 9 15 1 5
7799183 27127 24 25 17 26 10 8 22 2 23 6 7 16 13 11 4 19 21 12 3 20 14 18 9 15 1 5
7798332 40127 10 17 24 26 25 8 22 2 23 6 7 16 13 11 4 19 21 12 3 20 14 18 9 15 1 5
7790511 27207 26 10 17 24 25 8 22 2 23 6 7 16 13 11 4 19 21 12 3 20 14 18 9 15 1 5
7790511 27130 26 10 17 24 25 8 22 2 23 6 7 16 13 11 4 19 21 12 3 20 14 18 9 15 1 5
7792107 27022 25 17 26 24 10 8 22 2 23 6 7 16 13 11 4 19 21 12 3 20 14 18 9 15 1 5
7791339 27077 26 24 17 10 25 8 22 2 23 6 7 16 13 11 4 19 21 12 3 20 14 18 9 15 1 5
7792283 27067 25 24 26 17 10 8 22 2 23 6 7 16 13 11 4 19 21 12 3 20 14 18 9 15 1 5
7773487 27040 24 8 17 10 25 26 22 2 6 23 7 16 13 11 4 3 12 21 20 19 14 18 9 15 1 5
7791932 27037 25 26 24 17 10 8 22 2 23 6 7 16 13 11 4 19 21 12 3 20 14 18 9 15 1 5
7791782 27056 26 25 17 24 10 8 22 2 23 6 7 16 13 11 4 19 21 12 3 20 14 18 9 15 1 5
7773060 26987 8 17 24 10 25 26 22 2 6 23 7 16 13 11 4 3 12 21 20 19 14 18 9 15 1 5
7790511 39119 26 10 17 24 25 8 22 2 23 6 7 16 13 11 4 19 21 12 3 20 14 18 9 15 1 5
7791782 48472 26 25 17 24 10 8 22 2 23 6 7 16 13 11 4 19 21 12 3 20 14 18 9 15 1 5
7792283 48063 17 26 25 24 10 8 22 2 23 6 7 16 13 11 4 19 21 12 3 20 14 18 9 15 1 5
7792283 47831 25 24 26 17 10 8 22 2 23 6 7 16 13 11 4 19 21 12 3 20 14 18 9 15 1 5
7797912 47655 24 10 17 26 25 8 22 2 23 6 7 16 13 11 4 19 21 12 3 20 14 18 9 15 1 5
7791246 47247 24 10 26 17 25 8 22 2 23 6 7 16 13 11 4 19 21 12 3 20 14 18 9 15 1 5
7773487 38103 24 8 17 10 25 26 22 2 6 23 7 16 13 11 4 3 12 21 20 19 14 18 9 15 1 5
7773250 28505 8 24 17 10 25 26 22 2 6 23 7 16 13 11 4 3 12 21 20 19 14 18 9 15 1 5
7791505 27889 10 26 24 17 25 8 22 2 23 6 7 16 13 11 4 19 21 12 3 20 14 18 9 15 1 5
7791782 27986 26 25 17 24 10 8 22 2 23 6 7 16 13 11 4 19 21 12 3 20 14 18 9 15 1 5
7773250 28123 8 24 17 10 25 26 22 2 6 23 7 16 13 11 4 3 12 21 20 19 14 18 9 15 1 5
7790525 28026 26 17 10 24 25 8 22 2 23 6 7 16 13 11 4 19 21 12 3 20 14 18 9 15 1 5
7791505 27934 10 26 24 17 25 8 22 2 23 6 7 16 13 11 4 19 21 12 3 20 14 18 9 15 1 5
7791253 27917 17 10 26 24 25 8 22 2 23 6 7 16 13 11 4 19 21 12 3 20 14 18 9 15 1 5
7798522 27897 10 24 17 26 25 8 22 2 23 6 7 16 13 11 4 19 21 12 3 20 14 18 9 15 1 5
7791519 28028 10 26 17 24 25 8 22 2 23 6 7 16 13 11 4 19 21 12 3 20 14 18 9 15 1 5
7791099 27766 24 26 10 17 25 8 22 2 23 6 7 16 13 11 4 19 21 12 3 20 14 18 9 15 1 5
7798759 27900 25 17 24 26 10 8 22 2 23 6 7 16 13 11 4 19 21 12 3 20 14 18 9 15 1 5
7790525 27984 26 17 10 24 25 8 22 2 23 6 7 16 13 11 4 19 21 12 3 20 14 18 9 15 1 5
7799103 27747 24 17 25 26 10 8 22 2 23 6 7 16 13 11 4 19 21 12 3 20 14 18 9 15 1 5
7773060 27884 8 17 24 10 25 26 22 2 6 23 7 16 13 11 4 3 12 21 20 19 14 18 9 15 1 5
