START
8010
4474
START
7992
3416
START
13568
3986
START
11026
4164
START
12182
4280
START
12564
3144
START
11260
4246
START
8670
4014
START
10124
4166
START
11652
3642
START
9498
4954
START
11140
4302
START
12108
3914
START
10216
3680
START
9226
3342
START
11686
3192
START
10814
3546
START
11178
3708
START
10020
3758
START
9220
4440
START
10818
3362
START
10162
4596
START
11438
4512
START
12102
3916
START
10624
4654
START
11550
4450
START
11304
4106
START
8294
4606
START
12596
3204
START
12108
4032
START
9204
4074
START
9196
3586
START
12286
4114
START
11836
3990
START
12836
4162
START
8466
3460
START
9474
4448
START
9886
4866
START
8242
4304
START
11710
4072
START
11912
3888
START
9212
3286
START
11030
3670
START
8878
5872
START
11162
4782
START
11142
4310
START
10766
3618
START
10416
3876
START
9620
4128
START
9142
3182
START
13342
3254
START
11984
3982
START
13204
4200
START
9202
5674
START
10474
3746
START
10216
3190
START
11012
3446
START
11754
3946
START
9872
4432
START
9266
4454
START
12244
3878
START
9914
3998
START
8988
4394
START
9028
4440
START
8520
4348
START
11810
4120
START
10724
3944
START
10932
3542
START
11410
3650
START
8366
5468
START
11336
4014
START
11256
4368
START
13038
4050
START
10698
4542
START
9686
3582
START
10714
4316
START
12260
5092
START
9620
4568
START
12996
4056
START
13024
3234
START
12404
3916
START
9938
4026
START
9096
3378
START
12118
4442
START
11584
3926
START
11000
4236
START
9546
3190
START
11648
5268
START
12370
3760
START
10922
5696
START
10092
4212
START
13718
4010
START
11800
4334
START
9802
4850
START
10448
5158
START
13618
3598
START
9116
4914
START
10764
4272
START
11442
3348
START
8784
3608
START
12732
3772
START
10114
3616
START
12156
4420
START
11456
3778
START
8056
3570
START
8442
3638
START
7824
4518
START
10782
4460
START
12340
3696
START
7464
3438
START
12166
4574
START
8788
3428
START
11490
3636
START
11832
3870
START
11792
3910
START
9790
4812
START
10602
4692
START
13960
3562
START
10590
3524
START
11800
4524
START
10886
4082
START
8266
4348
START
9836
3546
START
11222
4112
START
9722
3646
START
11068
4844
START
7350
3776
START
10742
3670
START
11920
3358
START
12356
4474
START
12248
3588
START
8636
3928
START
10664
4064
START
9002
4914
START
8330
4346
START
10874
3776
START
10258
3960
START
12592
4270
START
11684
3926
START
9406
3728
START
10658
4882
START
10040
3966
START
12862
4062
START
10596
3580
START
11068
4748
START
10606
3544
START
10500
4306
START
11788
4550
START
11758
3916
START
8148
3962
START
10894
4252
START
8010
5628
START
10736
5940
START
8154
3292
START
11176
4646
START
10518
4294
START
7712
3934
START
7882
3778
START
10360
3564
START
8892
4412
START
10806
5024
START
8912
4582
START
10132
4504
START
9080
4550
START
10832
5712
START
11304
3634
START
10498
4244
START
12220
4238
START
9084
3826
START
9016
3978
START
11938
2732
START
11130
4528
START
9654
3746
START
11010
3820
START
12068
3224
START
10492
2968
START
9840
3954
START
8230
3116
START
11406
3798
START
10668
5112
START
12296
3976
START
13252
4274
START
10018
4556
START
7290
3708
START
8872
3924
START
12288
3966
START
11846
3826
START
9058
4282
START
12650
5286
START
9742
3612
START
11690
3870
START
11370
4392
START
11878
4838
START
9936
4574
START
12848
3334
START
8474
3940
START
12708
3430
START
12610
3576
START
12166
3406
START
9634
4286
START
10540
3972
START
8854
5112
START
11804
4324
START
10638
3350
START
13168
3542
START
9602
4112
START
9558
4088
START
10498
3922
START
9550
4756
START
8746
3210
START
10884
4472
START
9354
4200
START
13000
5198
START
11596
4172
START
11058
4112
START
9912
4702
START
11038
4658
START
11622
4576
START
10724
3868
START
10632
4510
START
11130
4248
START
13108
4500
START
9212
2622
START
10396
4334
START
14254
3370
START
8342
3506
START
9398
4144
START
10528
3412
START
8890
3378
START
11026
3736
START
11360
4532
START
13238
3966
START
14442
4920
START
11444
3296
START
10970
3998
START
8436
4102
START
10930
5312
START
12552
3418
START
11390
4146
START
8208
4058
START
10636
3712
START
9868
3848
START
10356
4608
START
10116
4524
START
9206
3920
START
12334
3068
START
9288
3880
START
10402
4050
START
8878
4962
START
10092
4440
START
12008
5402
START
11168
4322
START
11582
4814
START
10926
4752
START
9822
3138
START
10838
4384
START
10574
4712
START
11758
4448
START
10116
4876
START
11598
3968
START
10494
3462
START
11270
4024
START
11078
4288
START
9518
3176
START
10822
3520
START
10766
3586
START
11956
3696
START
12538
3332
START
12792
4232
START
8968
4484
START
12990
4362
START
10000
3926
START
8452
4184
START
10990
3546
START
10582
3690
START
10400
3620
START
11106
4090
START
10914
4588
START
10306
3680
START
8992
3486
START
13722
3540
START
11478
3694
START
12450
4906
START
10468
3756
START
10482
3218
START
9972
3296
START
9222
3764
START
9572
2644
START
13626
3748
START
9094
4376
START
8960
4052
START
9240
4102
START
9460
4632
START
11560
3664
START
12354
4244
START
7872
3350
START
12940
3718
START
9982
4382
START
10286
3742
START
10740
3820
START
8798
3946
START
9910
3818
START
12996
3040
START
10342
4660
START
10726
4088
START
11912
3550
START
11428
4658
START
10136
5026
START
9220
2972
START
10842
3632
START
11002
3510
START
10200
3686
START
9560
3756
START
10700
3876
START
11192
4038
START
11192
4420
START
11632
4180
START
9606
3900
START
10848
3696
START
9172
5390
START
11784
4996
START
10492
3388
START
11674
4270
START
12976
3518
START
9342
3800
START
8782
3886
START
10382
3642
START
10004
4454
START
10950
4068
START
10322
4282
START
8968
4712
START
12460
3906
START
11688
4072
START
11978
4236
START
9670
3820
START
11568
3262
START
8758
3510
START
9302
4562
START
8952
4346
START
10602
4430
START
10996
4304
START
12200
5316
START
9444
4130
START
10886
3432
START
11982
3690
START
10872
4654
START
11214
3804
START
10454
3708
START
8178
3204
START
11428
4718
START
9212
4256
START
9934
3854
START
11636
3200
START
11696
3532
START
9648
3754
START
9334
5228
START
9012
4886
START
9280
4678
START
9052
3622
START
14510
3998
START
10068
4282
START
11314
3842
START
12276
4074
START
8782
3952
START
10156
4214
START
10908
4112
START
11106
4126
START
10652
3820
START
14170
4252
START
8458
3546
START
9588
3914
START
11776
4004
START
11904
3188
START
12390
3312
START
10866
3766
START
8732
5132
START
9234
3650
START
10394
4570
START
12254
4088
START
9110
4798
START
10368
4282
START
10994
4226
START
12048
3818
START
12162
4344
START
11738
4026
START
11208
3054
START
9128
4608
START
13770
3646
START
10682
3582
START
9522
4454
START
11352
4068
START
11308
4054
START
12754
4538
START
9342
5262
START
10626
3926
START
11662
3522
START
11456
4542
START
11316
4084
START
11796
4798
START
9384
3486
START
10644
3794
START
10760
5234
START
9482
4038
START
10662
3782
START
11704
3990
START
10572
3720
START
11248
4116
START
12920
4720
START
9208
3592
START
9318
4288
START
10654
3650
START
10850
3394
START
10842
3800
START
10672
4424
START
9474
3784
START
9408
3990
START
10276
3836
START
10434
3476
START
11156
4032
START
11848
3972
START
10746
5312
START
12016
4054
START
11534
3814
START
11390
4464
START
11666
4230
START
12224
3564
START
7848
4750
START
11180
3078
START
9104
3592
START
11926
3224
START
8472
3520
START
12154
3318
START
11024
5772
START
11398
5900
START
10186
4040
START
11352
3670
START
9324
3918
START
12470
3214
START
10582
3288
START
12156
4788
START
11076
4396
START
11938
3408
START
11968
3648
START
11780
3846
START
9910
4300
START
10216
3462
START
8624
4044
START
10238
4080
START
11276
4960
START
13216
3862
START
11232
3378
START
12566
4282
START
10750
3348
START
10440
2938
START
11492
3560
START
8430
5358
START
7076
4254
START
11834
4454
START
9864
5094
START
13454
4554
START
11852
5106
START
9852
4644
START
11666
4952
START
11892
4314
START
11554
4406
START
10942
2922
START
10568
2824
START
10160
3808
START
8178
4712
START
11796
4596
START
12014
4242
START
12312
4510
START
10984
3480
START
10468
4850
START
11318
3516
START
10276
4236
START
11302
3700
START
9028
3438
START
9038
4180
START
7602
3756
START
11806
3350
START
12832
3312
START
9172
4318
START
12528
3986
START
7686
3344
START
10106
3428
START
13620
4494
START
11492
3244
START
10012
5150
START
9586
3922
START
10016
4206
START
11186
3330
START
11612
3562
START
10684
4286
START
10726
4776
START
10996
3690
START
13912
3702
START
12208
3662
START
9992
4866
START
9620
4324
START
9620
5504
START
11552
3766
START
10170
3478
START
8896
3838
START
8956
5176
START
10024
3234
START
10926
4210
START
11434
4264
START
10286
4592
START
10332
3854
START
9902
4362
START
8950
4088
START
12332
4596
START
10164
5696
START
8618
3346
START
10246
3786
START
7834
3238
START
12528
3394
START
10024
4048
START
13754
4406
START
10542
3986
START
9706
4034
START
10088
3442
START
7496
3214
START
11520
4772
START
11932
3710
START
11094
3482
START
11232
3736
START
10732
4356
START
9274
3494
START
9148
4178
START
11448
3094
START
11484
4412
START
10938
3038
START
12272
3156
START
12212
4508
START
11494
3388
START
10776
4138
START
12726
4036
START
12748
3298
START
10470
3298
START
11960
3038
START
11980
3714
START
10716
3014
START
10492
3618
START
9602
3510
START
10266
3356
START
9166
4282
START
11102
4700
START
9906
3474
START
13362
4354
START
8274
3304
START
11142
3634
START
9974
4408
START
10098
3904
START
10636
3700
START
10090
4102
START
9508
4288
START
9660
3462
START
13836
3886
START
11810
4600
START
9718
3446
START
8632
3510
START
11038
4168
START
10582
3522
START
11378
4460
START
7006
4328
START
9874
3574
START
11822
3902
START
9736
2976
START
7440
4276
START
8772
3432
START
10786
4642
START
13496
4030
START
10134
4628
START
10672
3532
START
9012
3390
START
10568
4348
START
11856
4372
START
11582
3616
START
7996
4396
START
10664
3814
START
10486
4774
START
10954
3814
START
10464
5478
START
13968
3574
START
10264
3990
START
11242
4846
START
8064
2758
START
11088
3548
START
9914
4728
START
10040
4244
START
8314
3150
START
12666
3856
START
10928
5832
START
8562
3132
START
9084
4116
START
9808
3696
START
10108
4574
START
10552
4246
START
11614
4706
START
13184
5456
START
11538
4574
START
11914
3694
START
10412
4086
START
12778
3696
START
10764
4426
START
12006
4478
START
10528
3422
START
13280
4854
START
8142
3594
START
10874
4044
START
11284
3534
START
9642
3860
START
9890
3486
START
10026
4974
START
10388
4140
START
8196
5620
START
11328
4010
START
10534
4040
START
11648
3642
START
13544
3752
START
11862
5310
START
10152
4812
START
10768
3160
START
9240
3488
START
11052
3102
START
12020
3308
START
11448
3382
START
13810
4112
START
10386
4416
START
9908
3694
START
11090
4690
START
10910
4692
START
12912
3542
START
9762
6420
START
10456
3740
START
10236
3718
START
9986
3892
START
10370
3848
START
10174
3382
START
8772
3608
START
10434
4428
START
12456
4530
START
13148
4338
START
11130
3468
START
12222
4450
START
8294
3304
START
9624
3748
START
8772
4834
START
11728
3956
START
11686
3644
START
10814
4360
START
12796
4962
START
8142
4112
START
11118
3278
START
10020
4370
START
9164
3728
START
10912
3196
START
8750
3906
START
11814
4058
START
10178
4664
START
11042
4582
START
12474
3972
START
9396
4794
START
9984
3696
START
12718
3286
START
8606
3294
START
8488
4660
START
11258
4584
START
9400
3788
START
10730
3520
START
13420
3472
START
9044
4366
START
10724
4036
START
10262
3340
START
10918
3628
START
11546
4422
START
9956
3634
START
8266
4616
START
11974
4762
START
9080
3682
START
11394
4310
START
10312
3844
START
8430
4226
START
14868
3672
START
11766
3356
START
11136
3598
START
10540
3492
START
12144
3954
START
9078
4822
START
9180
3418
START
9732
4354
START
10072
5514
START
10002
4812
START
9770
3894
START
9816
4634
START
11384
3626
START
9054
3292
START
9330
3474
START
11806
2944
START
10010
3404
START
11164
4550
START
10410
4578
START
11532
3888
START
10852
3998
START
9960
3888
START
10482
3856
START
11514
4166
START
10198
3188
START
10874
4280
START
11798
4260
START
12294
3738
START
10888
3488
START
10692
3536
START
9154
4122
START
7922
4826
START
10318
4520
START
11658
3472
START
9358
5636
START
10876
3904
START
10654
4152
START
9024
4086
START
12664
3904
START
11698
5592
START
11240
3966
START
9950
4410
START
9098
3510
START
9464
3542
START
10440
4222
START
9850
4092
START
9468
4430
START
8914
4026
START
9526
4394
START
11452
4918
START
9904
3628
START
11594
3652
START
12850
4100
START
8862
3120
START
6864
4608
START
9188
3190
START
9174
4004
START
10014
4008
START
12970
3316
START
10558
4590
START
10004
4836
START
9954
4378
START
9932
3832
START
8030
4126
START
10184
3400
START
9204
4096
START
8856
4402
START
9272
3632
START
11722
3560
START
8852
4190
START
11458
4810
START
8448
4786
START
10088
3906
START
11650
4558
START
9802
4002
START
9736
5612
START
12616
4992
START
11248
4248
START
8348
3884
START
9612
4784
START
12478
4142
START
12296
4280
START
9558
4830
START
11112
3568
START
11036
4052
START
9758
4308
START
11920
3390
START
8970
3838
START
10412
3642
START
11072
5540
START
9846
3128
START
12888
4596
START
10358
3720
START
11672
3958
START
9520
4980
START
9970
4858
START
10840
4510
START
10710
4226
START
10832
5524
START
10984
4018
START
10200
3818
START
11500
3888
START
13318
4360
START
8820
3128
START
9488
4428
START
10436
3708
START
9172
3216
START
9466
5050
START
8144
3158
START
9284
3284
START
10838
3518
START
11994
3766
START
11702
3764
START
10516
3374
START
11428
4358
START
12544
4380
START
11448
4274
START
13924
3346
START
11554
4470
START
8858
4252
START
11550
4742
START
9510
3720
START
11004
4342
START
10572
4628
START
10592
3086
START
10084
4120
START
10526
3440
START
8266
3304
START
11806
3964
START
9006
4062
START
12944
4598
START
8830
3254
START
11500
3660
START
7888
4080
START
12032
3578
START
11994
3756
START
10714
4016
START
12488
4494
START
10434
4248
START
11226
2964
START
11500
4294
START
10072
3358
START
9350
3884
START
11998
3926
START
8032
4590
START
12898
4054
START
11054
4660
START
9382
3846
START
10896
4424
START
10000
4354
START
10452
6210
START
11974
3112
START
11784
4044
START
10326
4168
START
9344
3876
START
8478
4036
START
9588
3960
START
9982
4158
START
11036
3852
START
10868
3500
START
10834
3814
START
8712
4402
START
10174
5524
START
11542
4190
START
12566
5720
START
10882
3870
START
13064
3428
START
12954
3696
START
7788
4600
START
10434
3440
START
11250
4066
START
10952
3822
START
9144
3186
START
9976
4746
START
13410
4516
START
12208
3216
START
10064
3978
START
10040
3640
START
12086
4820
START
11268
3798
START
9990
3214
START
9768
4266
START
10710
3520
START
10984
3390
START
11668
3344
START
12360
3930
START
8564
4506
START
12048
4114
START
10788
3282
START
10334
2922
START
8796
3516
START
11814
3658
START
10024
4506
START
8902
3988
START
10710
4628
START
11788
3624
START
10024
3808
START
9992
4214
START
9206
4152
START
10114
4334
START
8502
3764
START
13206
4336
START
13934
3588
START
10822
3108
START
9862
3984
START
10646
4764
START
11356
3988
START
10318
4164
START
10792
4054
START
10496
4016
START
12472
4232
START
10558
4864
START
10900
4116
START
13598
4152
START
11766
3848
START
7788
3532
START
12484
4052
START
11382
4188
START
9156
4404
START
9054
3634
START
10762
4158
START
12088
3624
START
9452
5330
START
11172
3266
START
13514
4440
START
9488
3888
START
7536
3542
START
13866
4416
START
12272
4270
START
13416
4212
START
10852
4932
START
10814
3780
START
11158
4086
START
11008
3248
START
11668
2978
START
10006
3866
START
10880
3852
START
9086
4164
START
10038
4234
START
11764
3574
START
9408
3886
START
11706
4726
START
9958
4276
START
10826
3334
START
11082
6268
START
9246
4892
START
10826
3730
START
12232
3042
START
10916
3782
START
10268
4246
START
11236
4432
START
9144
3940
START
12624
3628
START
10310
4058
START
12406
4572
START
13650
3738
START
10844
3648
START
11550
4412
START
11252
4330
START
12250
3328
START
8086
4090
START
10992
3472
START
13234
3494
START
10984
3258
START
9818
4508
START
8474
4848
START
11818
4160
START
8678
4010
START
7932
2902
START
10432
4198
START
11184
3624
START
11784
4710
START
11998
4246
START
8394
3690
START
11610
3736
START
10702
4198
START
8254
4220
START
9020
3696
START
11308
4320
START
10338
5588
START
11000
3604
START
9466
3582
START
9108
3980
START
9512
4238
START
11546
4688
START
12798
4244
START
9866
4228
START
9936
3678
START
10570
3924
START
11544
3326
START
11964
4166
START
13134
4452
START
7810
4270
START
10890
4914
START
10304
4444
START
10664
4578
START
10840
3730
START
11556
3474
START
9354
3686
START
12686
3828
START
8126
5046
START
8634
2860
START
12210
3276
START
8894
4044
START
11300
3606
START
11132
3646
START
9160
3678
START
10026
4876
START
11162
4580
START
10524
3912
START
11402
4244
START
12660
4640
START
10794
3364
START
12490
3936
START
11074
3514
