\relax 
\providecommand\hyper@newdestlabel[2]{}
\providecommand\HyperFirstAtBeginDocument{\AtBeginDocument}
\HyperFirstAtBeginDocument{\ifx\hyper@anchor\@undefined
\global\let\oldcontentsline\contentsline
\gdef\contentsline#1#2#3#4{\oldcontentsline{#1}{#2}{#3}}
\global\let\oldnewlabel\newlabel
\gdef\newlabel#1#2{\newlabelxx{#1}#2}
\gdef\newlabelxx#1#2#3#4#5#6{\oldnewlabel{#1}{{#2}{#3}}}
\AtEndDocument{\ifx\hyper@anchor\@undefined
\let\contentsline\oldcontentsline
\let\newlabel\oldnewlabel
\fi}
\fi}
\global\let\hyper@last\relax 
\gdef\HyperFirstAtBeginDocument#1{#1}
\providecommand\HyField@AuxAddToFields[1]{}
\providecommand\HyField@AuxAddToCoFields[2]{}
\citation{QAPLib}
\citation{DeltaTable}
\@writefile{toc}{\contentsline {section}{\numberline {1}Konstrukcja algorytm\IeC {\'o}w}{3}{section.1}}
\@writefile{toc}{\contentsline {subsection}{\numberline {1.1}Operator s\IeC {\k a}siedztwa}{3}{subsection.1.1}}
\@writefile{toc}{\contentsline {subsection}{\numberline {1.2}Ewaluacja jako\IeC {\'s}ci rozwi\IeC {\k a}zania}{3}{subsection.1.2}}
\@writefile{toc}{\contentsline {subsection}{\numberline {1.3}Heurystyka}{3}{subsection.1.3}}
\@writefile{toc}{\contentsline {subsection}{\numberline {1.4}Bias algorytmu Greedy}{3}{subsection.1.4}}
\@writefile{toc}{\contentsline {subsection}{\numberline {1.5}Symulowane wy\IeC {\.z}arzanie}{4}{subsection.1.5}}
\@writefile{toc}{\contentsline {subsection}{\numberline {1.6}Przeszukiwanie Tabu}{4}{subsection.1.6}}
\@writefile{toc}{\contentsline {section}{\numberline {2}Por\IeC {\'o}wnanie dzia\IeC {\l }ania algorytm\IeC {\'o}w}{4}{section.2}}
\@writefile{toc}{\contentsline {subsection}{\numberline {2.1}Odleg\IeC {\l }o\IeC {\'s}\IeC {\'c} od optimum}{4}{subsection.2.1}}
\@writefile{toc}{\contentsline {subsubsection}{\numberline {2.1.1}Przypadek najlepszy i najgorszy}{4}{subsubsection.2.1.1}}
\@writefile{lof}{\contentsline {figure}{\numberline {1}{\ignorespaces Najlepsze oraz najgorsze znalezione rozwi\IeC {\k a}zania algorytm\IeC {\'o}w (1000 wsp\IeC {\'o}lnych start\IeC {\'o}w z losowego przydzia\IeC {\l }u)}}{5}{figure.1}}
\newlabel{fig:bestAndWorst}{{1}{5}{Najlepsze oraz najgorsze znalezione rozwiązania algorytmów (1000 wspólnych startów z losowego przydziału)}{figure.1}{}}
\@writefile{lof}{\contentsline {figure}{\numberline {2}{\ignorespaces \IeC {\'S}redni wynik algorytm\IeC {\'o}w na poszczeg\IeC {\'o}lnych instancjach z zaznaczonym na czerwono przedzia\IeC {\l }em o promieniu odchylenia standardowego (1000 wsp\IeC {\'o}lnych start\IeC {\'o}w z losowego przydzia\IeC {\l }u.}}{6}{figure.2}}
\newlabel{fig:average}{{2}{6}{Średni wynik algorytmów na poszczególnych instancjach z zaznaczonym na czerwono przedziałem o promieniu odchylenia standardowego (1000 wspólnych startów z losowego przydziału}{figure.2}{}}
\@writefile{lof}{\contentsline {figure}{\numberline {3}{\ignorespaces Rozk\IeC {\l }ad znalezionych wynik\IeC {\'o}w algorytm\IeC {\'o}w -- poziome linie oznaczaj\IeC {\k a} warto\IeC {\'s}ci skrajne (1000 wsp\IeC {\'o}lnych start\IeC {\'o}w z losowego przydzia\IeC {\l }u)}}{7}{figure.3}}
\newlabel{fig:distribution}{{3}{7}{Rozkład znalezionych wyników algorytmów -- poziome linie oznaczają wartości skrajne (1000 wspólnych startów z losowego przydziału)}{figure.3}{}}
\@writefile{toc}{\contentsline {subsubsection}{\numberline {2.1.2}Przypadek \IeC {\'s}redni i rozk\IeC {\l }ad wynik\IeC {\'o}w}{8}{subsubsection.2.1.2}}
\@writefile{toc}{\contentsline {subsection}{\numberline {2.2}Czas dzia\IeC {\l }ania}{8}{subsection.2.2}}
\@writefile{lof}{\contentsline {figure}{\numberline {4}{\ignorespaces Rozk\IeC {\l }ad czas\IeC {\'o}w wykonania algorytm\IeC {\'o}w}}{9}{figure.4}}
\newlabel{fig:time_distribution}{{4}{9}{Rozkład czasów wykonania algorytmów}{figure.4}{}}
\@writefile{lof}{\contentsline {figure}{\numberline {5}{\ignorespaces Rozk\IeC {\l }ad miary efektywno\IeC {\'s}ci dla algorytm\IeC {\'o}w LS oraz metaheurystyk (1000 wsp\IeC {\'o}lnych start\IeC {\'o}w z losowego przydzia\IeC {\l }u)}}{10}{figure.5}}
\newlabel{fig:eff}{{5}{10}{Rozkład miary efektywności dla algorytmów LS oraz metaheurystyk (1000 wspólnych startów z losowego przydziału)}{figure.5}{}}
\@writefile{toc}{\contentsline {subsection}{\numberline {2.3}Efektywno\IeC {\'s}\IeC {\'c} (jako\IeC {\'s}\IeC {\'c} w czasie)}{11}{subsection.2.3}}
\@writefile{toc}{\contentsline {subsubsection}{\numberline {2.3.1}Miara}{11}{subsubsection.2.3.1}}
\@writefile{toc}{\contentsline {subsubsection}{\numberline {2.3.2}Wyniki}{11}{subsubsection.2.3.2}}
\@writefile{toc}{\contentsline {section}{\numberline {3}Por\IeC {\'o}wnanie algorytm\IeC {\'o}w przeszukiwania lokalnego}{11}{section.3}}
\@writefile{toc}{\contentsline {subsection}{\numberline {3.1}Liczba krok\IeC {\'o}w do zatrzymania}{11}{subsection.3.1}}
\@writefile{lof}{\contentsline {figure}{\numberline {6}{\ignorespaces Por\IeC {\'o}wnanie rozk\IeC {\l }adu liczby krok\IeC {\'o}w (iteracji) niezb\IeC {\k e}dnych do zatrzymania dla algorytm\IeC {\'o}w przeszukiwania lokalnego}}{12}{figure.6}}
\newlabel{fig:stepsToStop}{{6}{12}{Porównanie rozkładu liczby kroków (iteracji) niezbędnych do zatrzymania dla algorytmów przeszukiwania lokalnego}{figure.6}{}}
\@writefile{lof}{\contentsline {figure}{\numberline {7}{\ignorespaces Por\IeC {\'o}wnanie rozk\IeC {\l }adu liczby przeszukanych rozwi\IeC {\k a}za\IeC {\'n} przez algorytmy przeszukiwania lokalnego}}{13}{figure.7}}
\newlabel{fig:solutionsScanned}{{7}{13}{Porównanie rozkładu liczby przeszukanych rozwiązań przez algorytmy przeszukiwania lokalnego}{figure.7}{}}
\@writefile{lof}{\contentsline {figure}{\numberline {8}{\ignorespaces Por\IeC {\'o}wnanie jako\IeC {\'s}ci pocz\IeC {\k a}tkowych i ko\IeC {\'n}cowych rozwi\IeC {\k a}za\IeC {\'n} znalezionych przez algorytmy przeszukiwania lokalnego}}{14}{figure.8}}
\newlabel{fig:initialVsFinal}{{8}{14}{Porównanie jakości początkowych i końcowych rozwiązań znalezionych przez algorytmy przeszukiwania lokalnego}{figure.8}{}}
\@writefile{lof}{\contentsline {figure}{\numberline {9}{\ignorespaces Zale\IeC {\.z}no\IeC {\'s}\IeC {\'c} najlepszego uzyskanego do danego momentu rozwi\IeC {\k a}zania w funkcji liczby uruchomie\IeC {\'n} (Multi-Random Start)}}{15}{figure.9}}
\newlabel{fig:multiRandomStart}{{9}{15}{Zależność najlepszego uzyskanego do danego momentu rozwiązania w funkcji liczby uruchomień (Multi-Random Start)}{figure.9}{}}
\@writefile{toc}{\contentsline {subsection}{\numberline {3.2}Liczba przeszukanych rozwi\IeC {\k a}za\IeC {\'n}}{16}{subsection.3.2}}
\@writefile{toc}{\contentsline {subsection}{\numberline {3.3}Por\IeC {\'o}wnanie jako\IeC {\'s}ci rozwi\IeC {\k a}za\IeC {\'n} pocz\IeC {\k a}tkowych i ko\IeC {\'n}cowych}{16}{subsection.3.3}}
\@writefile{toc}{\contentsline {subsection}{\numberline {3.4}Wielokrotny start z losowego punktu}{16}{subsection.3.4}}
\@writefile{lof}{\contentsline {figure}{\numberline {10}{\ignorespaces Zale\IeC {\.z}no\IeC {\'s}\IeC {\'c} mi\IeC {\k e}dzy odleg\IeC {\l }o\IeC {\'s}ci\IeC {\k a} funkcji celu od rozwi\IeC {\k a}zania optymalnego oraz miar\IeC {\k a} podobie\IeC {\'n}stwa rozwi\IeC {\k a}zania do optimum}}{17}{figure.10}}
\newlabel{fig:similarity}{{10}{17}{Zależność między odległością funkcji celu od rozwiązania optymalnego oraz miarą podobieństwa rozwiązania do optimum}{figure.10}{}}
\@writefile{toc}{\contentsline {section}{\numberline {4}Podobie\IeC {\'n}stwo znajdywanych rozwi\IeC {\k a}za\IeC {\'n}}{18}{section.4}}
\@writefile{toc}{\contentsline {section}{\numberline {5}Wnioski}{18}{section.5}}
\@writefile{toc}{\contentsline {subsection}{\numberline {5.1}Napotkane trudno\IeC {\'s}ci}{18}{subsection.5.1}}
\@writefile{toc}{\contentsline {subsection}{\numberline {5.2}Propozycje udoskonale\IeC {\'n}}{19}{subsection.5.2}}
\bibdata{sprawozd}
\bibcite{QAPLib}{1}
\bibcite{DeltaTable}{2}
\bibstyle{plainurl}
