18266946 1142081 15 16 6 9 14 7 13 10 4 11 5 17 12 8 19 18 1 2 3
17997928 753216 15 16 8 12 11 18 13 17 6 9 10 5 7 4 14 19 1 2 3
19725086 1283039 15 16 6 11 14 18 4 8 10 19 1 13 12 5 9 7 17 3 2
21113794 1203993 2 1 17 3 5 8 11 19 10 4 6 9 13 7 18 14 15 16 12
21229414 876009 2 1 17 3 5 13 14 19 9 4 8 11 10 7 6 18 15 16 12
27522800 974485 1 2 3 15 13 16 18 4 12 8 7 9 17 11 19 14 5 10 6
20536394 1122871 1 2 3 17 12 13 7 4 9 18 6 10 8 11 14 19 15 16 5
23398648 914436 1 2 3 17 12 13 9 6 15 18 11 10 8 16 19 14 4 5 7
24818700 794151 1 2 3 17 10 13 15 18 12 9 7 16 5 11 14 19 6 4 8
18124442 811819 15 16 8 18 14 19 13 17 6 9 10 5 7 4 12 11 1 2 3
25608576 1088809 2 1 17 3 4 5 15 6 19 8 11 16 13 7 18 14 9 10 12
25025564 870176 16 15 8 17 1 13 18 14 5 2 10 6 3 4 11 12 19 7 9
17937024 1122074 15 16 8 18 14 19 10 17 4 11 5 13 12 6 7 9 1 2 3
19538726 2334099 15 16 12 19 11 14 8 13 5 9 10 3 7 4 6 18 17 1 2
22756804 833180 16 15 14 11 12 19 10 6 2 18 3 5 8 1 9 7 4 13 17
17997928 1249056 15 16 8 12 11 18 13 17 6 9 10 5 7 4 14 19 1 2 3
19687460 1243632 15 16 8 11 14 18 5 4 10 19 1 13 12 6 9 7 17 3 2
19538726 1231274 15 16 12 14 11 19 8 13 5 9 10 3 7 4 18 6 17 1 2
21113794 1549713 2 1 17 3 5 8 11 19 10 4 6 9 13 7 18 14 15 16 12
19687460 621033 15 16 8 11 14 18 5 4 10 19 1 13 12 6 9 7 17 3 2
27213640 617982 12 8 6 11 9 18 1 13 4 7 16 2 10 5 19 14 17 3 15
18055520 1323399 15 16 8 18 12 19 13 17 6 11 4 5 9 10 14 7 1 2 3
24807852 1270609 16 15 8 17 1 13 7 19 5 2 10 6 3 4 18 14 11 12 9
17997928 1419067 15 16 8 12 11 18 13 17 6 9 10 5 7 4 14 19 1 2 3
20636218 743292 1 2 3 17 19 13 14 4 12 18 7 9 8 11 16 15 5 10 6
17997928 1101593 15 16 8 12 11 18 13 17 6 9 10 5 7 4 14 19 1 2 3
22780438 1248881 16 15 9 18 12 11 13 7 2 6 3 4 8 1 19 14 5 10 17
19364710 2138117 15 16 9 12 11 14 5 10 8 7 3 13 6 4 19 18 17 1 2
25331538 1036262 2 1 17 3 16 4 11 19 14 15 6 9 13 5 8 18 7 10 12
24807852 900485 16 15 8 17 1 13 7 19 5 2 10 6 3 4 18 14 11 12 9
18266946 812795 15 16 6 9 14 7 13 10 4 11 5 17 12 8 19 18 1 2 3
23398648 939248 1 2 3 17 12 13 9 6 15 18 11 10 8 16 19 14 4 5 7
25025564 875544 16 15 8 17 1 13 18 14 5 2 10 6 3 4 11 12 19 7 9
19538726 1236454 15 16 12 19 11 14 8 13 5 9 10 3 7 4 6 18 17 1 2
19687460 861998 15 16 8 11 14 18 5 4 10 19 1 13 12 6 9 7 17 3 2
23398648 890853 1 2 3 17 12 13 9 6 15 18 11 10 8 16 14 19 4 5 7
26791342 985446 2 1 3 5 10 4 15 18 7 6 11 16 17 9 14 19 8 13 12
23381474 1074169 1 2 3 17 16 13 9 6 12 15 11 10 8 18 19 14 4 5 7
20548518 920644 9 10 5 6 11 12 8 17 15 14 4 13 7 16 19 18 1 2 3
23174560 717152 11 8 4 12 19 18 15 17 5 14 13 16 9 10 7 6 1 2 3
22266962 1745746 15 16 12 11 9 19 4 6 3 7 2 13 8 17 18 14 5 10 1
24872890 541549 1 2 3 17 19 13 15 4 14 18 7 16 8 9 11 12 5 10 6
20450386 708258 1 2 3 17 8 13 9 6 19 18 7 10 4 14 11 12 15 16 5
20588886 866762 1 2 3 17 19 13 7 4 9 18 6 10 8 14 11 12 15 16 5
24732488 770842 12 6 7 11 15 18 5 4 1 16 2 10 9 17 19 14 8 13 3
25864518 1067070 2 1 17 3 5 13 15 14 11 4 8 16 10 9 6 7 19 18 12
29475294 851729 2 1 3 16 5 15 18 13 11 4 12 7 17 9 14 19 6 10 8
17937024 1252235 15 16 8 19 14 18 10 17 4 11 5 13 12 6 7 9 1 2 3
19364710 768527 15 16 9 12 11 14 5 10 8 7 3 13 6 4 18 19 17 1 2
26664506 846642 1 2 17 10 19 9 18 6 16 14 7 13 5 15 12 11 8 3 4
22595074 632917 9 10 5 6 11 12 15 17 8 14 13 16 7 4 18 19 1 2 3
24375142 753723 15 16 9 11 18 14 2 7 3 19 13 1 12 17 8 6 5 10 4
17997928 1027680 15 16 8 12 11 18 13 17 6 9 10 5 7 4 19 14 1 2 3
20328118 976323 1 2 3 17 10 13 18 4 19 6 7 14 5 9 11 12 15 16 8
17997928 1620527 15 16 8 12 11 18 13 17 6 9 10 5 7 4 14 19 1 2 3
19731134 594351 11 8 7 12 16 18 13 17 5 15 4 10 9 6 19 14 1 2 3
18266946 734576 15 16 6 9 14 7 13 10 4 11 5 17 12 8 19 18 1 2 3
20548518 558252 9 10 5 6 11 12 8 17 15 14 4 13 7 16 18 19 1 2 3
17997928 1731314 15 16 8 12 11 18 13 17 6 9 10 5 7 4 14 19 1 2 3
21277552 1363567 2 1 17 3 5 13 19 8 9 4 6 11 10 7 18 14 15 16 12
20517058 973821 1 2 3 17 6 13 11 4 10 18 7 12 8 9 14 19 15 16 5
22820186 1083306 10 5 4 17 1 13 12 19 7 2 8 9 3 6 18 14 15 16 11
24455192 702695 1 2 17 12 11 5 8 4 18 9 7 13 10 6 14 19 16 15 3
26659028 883914 1 2 17 10 16 9 18 6 12 15 7 13 5 11 14 19 4 3 8
17937024 1205527 15 16 8 19 14 18 10 17 4 11 5 13 12 6 7 9 1 2 3
19385138 1478875 15 16 9 7 12 14 5 10 8 11 3 13 6 4 18 19 17 1 2
22324310 1044301 12 6 7 11 14 9 4 8 1 5 2 13 10 17 19 18 15 16 3
28417066 1125283 16 15 1 9 5 10 18 12 8 4 3 6 2 7 14 19 11 13 17
24807852 1029359 16 15 8 17 1 13 7 19 5 2 10 6 3 4 14 18 11 12 9
19364710 924896 15 16 9 12 11 14 5 10 8 7 3 13 6 4 18 19 17 1 2
28636514 1024515 16 15 18 12 19 11 3 6 13 14 10 17 9 5 1 2 8 4 7
22598348 527008 12 11 14 18 7 19 5 4 2 6 3 13 8 1 10 9 16 15 17
17997928 1183727 15 16 8 12 11 18 13 17 6 9 10 5 7 4 14 19 1 2 3
18266946 1075362 15 16 6 9 14 7 13 10 4 11 5 17 12 8 18 19 1 2 3
24066438 767348 10 4 6 9 14 7 1 13 5 11 17 2 12 8 19 18 16 15 3
24807852 1011844 16 15 8 17 1 13 7 19 5 2 10 6 3 4 18 14 11 12 9
29323152 540563 1 2 17 16 19 15 6 5 14 9 7 13 10 18 11 12 8 3 4
19725086 1715613 15 16 6 11 14 18 4 8 10 19 1 13 12 5 9 7 17 3 2
17997928 1408997 15 16 8 12 11 18 13 17 6 9 10 5 7 4 14 19 1 2 3
17937024 886267 15 16 8 19 14 18 10 17 4 11 5 13 12 6 7 9 1 2 3
24807852 840292 16 15 8 17 1 13 7 19 5 2 10 6 3 4 18 14 11 12 9
22756804 1040238 16 15 14 11 12 19 10 4 2 18 3 5 8 1 9 7 6 13 17
24905912 1021309 15 16 13 6 8 18 11 9 5 4 2 7 3 17 14 19 12 10 1
23669658 542823 8 5 4 3 2 13 11 7 19 1 10 12 17 6 18 14 15 16 9
18057498 928693 15 16 10 7 14 9 13 17 6 11 4 5 12 8 19 18 1 2 3
25694610 972752 2 1 17 3 4 5 15 19 9 8 6 16 13 7 18 14 11 12 10
21229414 818775 2 1 17 3 5 13 14 19 9 4 8 11 10 7 6 18 15 16 12
19687460 1840139 15 16 8 11 14 18 5 4 10 19 1 13 12 6 9 7 17 3 2
22551738 907602 9 5 10 7 14 6 15 17 4 11 13 16 12 8 19 18 1 2 3
22551738 427820 9 5 10 7 14 6 15 17 4 11 13 16 12 8 18 19 1 2 3
22266962 1090018 15 16 12 11 9 19 4 6 3 7 2 13 8 17 18 14 5 10 1
17937024 789655 15 16 8 19 14 18 10 17 4 11 5 13 12 6 9 7 1 2 3
23539778 1081142 10 5 4 17 1 13 18 14 7 2 8 9 3 6 15 16 19 12 11
22595074 876186 9 10 5 6 11 12 15 17 8 14 13 16 7 4 19 18 1 2 3
24789036 904015 11 8 4 14 12 18 15 13 10 19 1 16 9 5 7 6 17 3 2
24383288 838070 15 16 9 11 18 14 2 4 3 19 13 1 12 17 8 6 7 10 5
20416118 899970 1 2 3 17 18 13 9 4 19 6 7 10 8 14 11 12 15 16 5
27351008 734927 16 15 5 9 17 10 18 7 13 1 3 8 2 4 14 19 11 12 6
17997928 1347685 15 16 8 12 11 18 13 17 6 9 10 5 7 4 14 19 1 2 3
28609912 785636 16 15 9 12 19 11 5 6 3 14 13 8 18 17 1 2 7 10 4
17937024 1111258 15 16 8 18 14 19 10 17 4 11 5 13 12 6 9 7 1 2 3
26791342 946186 2 1 3 5 10 4 15 18 7 6 11 16 17 9 14 19 8 13 12
19687460 599723 15 16 8 11 14 18 5 4 10 19 1 13 12 6 9 7 17 3 2
22908068 835248 16 15 7 9 12 11 6 18 1 5 2 13 10 17 14 19 8 4 3
25608576 758575 2 1 17 3 4 5 15 6 19 8 11 16 13 7 18 14 9 10 12
28926444 1127719 16 2 1 15 9 19 6 8 18 14 5 4 10 7 11 12 17 3 13
22756804 743500 16 15 14 11 12 19 10 6 2 18 3 5 8 1 9 7 4 13 17
20265368 642153 1 2 3 17 10 13 9 4 12 6 7 18 5 11 19 14 15 16 8
21113794 1173755 2 1 17 3 5 8 11 19 10 4 6 9 13 7 18 14 15 16 12
21112254 1397741 2 1 17 3 5 8 14 19 10 4 11 9 13 7 6 18 15 16 12
22167030 841736 11 12 9 14 7 19 5 10 3 8 2 13 4 17 18 6 15 16 1
21229414 714054 2 1 17 3 5 13 14 19 9 4 8 11 10 7 6 18 15 16 12
19450012 1307571 15 16 12 11 18 14 5 13 4 7 3 10 6 8 9 19 17 1 2
22181418 599609 11 12 9 14 7 19 8 10 3 4 2 13 5 17 18 6 15 16 1
20282878 829908 1 2 3 17 18 13 9 4 12 6 7 10 8 11 14 19 15 16 5
23624200 736782 1 2 3 17 10 13 11 6 15 9 7 12 5 16 14 19 18 4 8
23832822 851438 11 5 10 12 7 9 15 13 8 18 3 16 6 4 14 19 17 1 2
22728494 889171 9 18 14 11 12 19 13 5 2 6 3 10 8 1 7 4 16 15 17
20508428 943390 9 5 10 7 14 6 8 17 15 11 4 13 12 16 18 19 1 2 3
27522800 902740 1 2 3 16 13 15 18 4 12 8 7 9 17 11 14 19 5 10 6
22888602 512322 16 15 9 14 18 19 13 4 2 6 3 5 8 1 12 11 7 10 17
23278794 1040751 12 5 9 11 6 7 17 10 13 18 3 1 8 4 19 14 16 15 2
21305758 1325359 2 1 17 3 5 13 19 18 11 4 8 14 10 9 6 7 15 16 12
23417672 822546 1 2 3 17 12 13 9 7 15 18 11 10 8 16 19 14 6 4 5
22245476 903175 12 18 6 11 9 7 4 8 1 5 2 13 10 17 14 19 15 16 3
18055520 1513839 15 16 8 18 12 19 13 17 6 11 4 5 9 10 7 14 1 2 3
22744822 1425651 15 16 12 9 7 11 8 6 3 5 2 13 10 4 18 14 19 17 1
22551738 1110420 9 5 10 7 14 6 15 17 4 11 13 16 12 8 19 18 1 2 3
26866174 763847 1 2 17 12 16 9 6 5 19 15 7 13 10 18 11 14 8 3 4
22780438 1245623 16 15 9 18 12 11 13 7 2 6 3 4 8 1 19 14 5 10 17
28630506 686806 16 15 11 12 18 14 3 6 5 19 10 17 9 13 1 2 8 4 7
18266946 732138 15 16 6 9 14 7 13 10 4 11 5 17 12 8 19 18 1 2 3
19641670 890720 11 12 8 18 16 19 10 17 5 15 4 13 14 6 7 9 1 2 3
23549486 800046 9 10 5 6 11 12 13 3 4 14 15 17 7 8 18 19 1 2 16
23398648 774754 1 2 3 17 12 13 9 6 15 18 11 10 8 16 19 14 4 5 7
17937024 1198305 15 16 8 19 14 18 10 17 4 11 5 13 12 6 7 9 1 2 3
22287504 1032198 15 16 12 11 14 19 5 6 3 8 2 13 4 17 7 18 9 10 1
17997928 1621018 15 16 8 12 11 18 13 17 6 9 10 5 7 4 19 14 1 2 3
18039214 720112 15 16 8 7 12 18 13 17 6 11 10 5 9 4 19 14 1 2 3
25558394 1005639 2 1 17 3 4 5 15 19 11 8 6 16 13 7 18 14 9 10 12
29292098 716508 1 2 17 16 12 15 6 5 18 9 7 13 10 11 14 19 4 3 8
18055520 1290090 15 16 8 18 12 19 13 17 6 11 4 5 9 10 7 14 1 2 3
22387910 800942 15 16 9 14 18 19 8 6 3 7 2 13 4 17 11 12 5 10 1
25558394 744014 2 1 17 3 4 5 15 19 11 8 6 16 13 7 18 14 9 10 12
24481678 584979 1 2 17 12 10 11 6 8 18 9 4 13 5 7 14 19 16 15 3
20871282 701273 1 2 3 17 10 13 14 6 12 9 7 19 5 11 15 16 18 4 8
25017614 1142877 15 16 13 6 8 7 11 19 5 4 2 12 3 17 14 18 9 10 1
23093138 800518 16 15 6 7 12 11 10 5 1 14 2 13 9 17 18 19 8 4 3
18055520 1056685 15 16 8 18 12 19 13 17 6 11 4 5 9 10 14 7 1 2 3
17997928 1402380 15 16 8 12 11 18 13 17 6 9 10 5 7 4 19 14 1 2 3
17937024 1321986 15 16 8 19 14 18 10 17 4 11 5 13 12 6 7 9 1 2 3
22307528 1169004 15 16 9 12 11 19 4 6 3 7 2 13 8 17 18 14 5 10 1
17937024 1345991 15 16 8 19 14 18 10 17 4 11 5 13 12 6 7 9 1 2 3
24807852 867148 16 15 8 17 1 13 7 19 5 2 10 6 3 4 14 18 11 12 9
19725086 1558217 15 16 6 11 14 18 4 8 10 19 1 13 12 5 9 7 17 3 2
17937024 819540 15 16 8 18 14 19 10 17 4 11 5 13 12 6 9 7 1 2 3
17937024 892889 15 16 8 19 14 18 10 17 4 11 5 13 12 6 7 9 1 2 3
29897846 1133708 2 16 15 1 3 17 7 14 4 13 6 5 8 10 19 18 11 12 9
17997928 1402244 15 16 8 12 11 18 13 17 6 9 10 5 7 4 19 14 1 2 3
19687460 1093403 15 16 8 11 14 18 5 4 10 19 1 13 12 6 9 7 17 3 2
24807852 981925 16 15 8 17 1 13 7 19 5 2 10 6 3 4 18 14 11 12 9
20316024 778198 1 2 3 17 8 13 9 6 12 18 7 10 4 11 14 19 15 16 5
18054452 1090141 15 16 8 7 11 12 13 17 6 14 10 5 9 4 19 18 1 2 3
28417066 587851 16 15 1 9 5 10 18 12 8 4 3 6 2 7 19 14 11 13 17
23116674 1240173 16 15 7 9 19 14 8 18 1 5 2 13 10 17 11 12 6 4 3
20282878 1100320 1 2 3 17 18 13 9 4 12 6 7 10 8 11 14 19 15 16 5
20282878 1018212 1 2 3 17 18 13 9 4 12 6 7 10 8 11 19 14 15 16 5
20903190 825839 1 2 3 17 10 13 18 6 12 9 11 14 5 19 15 16 7 4 8
24642284 806223 1 2 3 17 6 13 15 4 12 18 9 16 8 11 14 19 5 10 7
20508428 950911 9 5 10 7 14 6 8 17 15 11 4 13 12 16 18 19 1 2 3
22756804 924414 16 15 14 11 12 19 10 6 2 18 3 5 8 1 9 7 4 13 17
21705570 738374 3 2 1 17 8 13 14 19 18 6 9 7 4 11 16 15 12 5 10
27522800 697388 1 2 3 16 13 15 18 4 12 8 7 9 17 11 19 14 5 10 6
28608640 416098 3 17 13 8 2 4 16 18 7 5 10 15 1 6 19 14 11 12 9
18266946 1392844 15 16 6 9 14 7 13 10 4 11 5 17 12 8 18 19 1 2 3
24088758 1162879 2 1 17 3 4 5 19 12 16 8 6 11 13 15 18 14 9 10 7
22307528 1401233 15 16 9 12 11 19 4 6 3 7 2 13 8 17 18 14 5 10 1
22233388 911595 11 5 10 12 7 9 4 13 15 18 3 8 6 16 14 19 17 1 2
22744822 1195335 15 16 12 9 7 11 8 6 3 5 2 13 10 4 14 18 19 17 1
17997928 1537647 15 16 8 12 11 18 13 17 6 9 10 5 7 4 14 19 1 2 3
20877414 1258680 11 12 9 7 16 14 5 10 8 15 3 13 6 4 19 18 17 1 2
17997928 1368715 15 16 8 12 11 18 13 17 6 9 10 5 7 4 14 19 1 2 3
17937024 1930301 15 16 8 19 14 18 10 17 4 11 5 13 12 6 7 9 1 2 3
20416118 584126 1 2 3 17 18 13 9 4 19 6 7 10 8 14 11 12 15 16 5
19725086 887647 15 16 6 11 14 18 4 8 10 19 1 13 12 5 9 7 17 3 2
24807852 759940 16 15 8 17 1 13 7 19 5 2 10 6 3 4 18 14 11 12 9
24807852 984805 16 15 8 17 1 13 7 19 5 2 10 6 3 4 18 14 11 12 9
28390128 435227 16 15 1 10 5 9 18 19 8 4 3 11 2 6 7 14 12 13 17
22783566 1344053 16 15 14 11 12 19 10 6 2 18 3 13 8 1 9 7 5 4 17
21229414 842946 2 1 17 3 5 13 14 19 9 4 8 11 10 7 6 18 15 16 12
28970908 1115335 16 1 2 15 14 5 18 4 19 9 6 8 10 7 12 11 17 3 13
20265368 758535 1 2 3 17 10 13 9 4 12 6 7 18 5 11 14 19 15 16 8
20328118 991892 1 2 3 17 10 13 18 4 19 6 7 14 5 9 11 12 15 16 8
20328118 1085428 1 2 3 17 10 13 18 4 19 6 7 14 5 9 11 12 15 16 8
20265368 836667 1 2 3 17 10 13 9 4 12 6 7 18 5 11 19 14 15 16 8
28674096 1269076 16 15 11 12 18 14 3 7 13 19 5 17 9 10 1 2 6 8 4
20316024 699254 1 2 3 17 8 13 9 6 12 18 7 10 4 11 14 19 15 16 5
24519476 1034347 17 4 3 5 1 13 11 18 12 10 6 7 2 9 19 14 15 16 8
18266946 768033 15 16 6 9 14 7 13 10 4 11 5 17 12 8 18 19 1 2 3
19364710 1755141 15 16 9 12 11 14 5 10 8 7 3 13 6 4 19 18 17 1 2
24640374 530934 1 2 17 12 11 19 8 4 6 9 5 13 10 7 18 14 16 15 3
28674096 716899 16 15 11 12 18 14 3 7 13 19 5 17 9 10 1 2 6 8 4
27614198 654455 8 4 5 17 1 13 15 19 7 2 10 16 3 6 18 14 11 12 9
17937024 1686653 15 16 8 19 14 18 10 17 4 11 5 13 12 6 7 9 1 2 3
17937024 1629228 15 16 8 19 14 18 10 17 4 11 5 13 12 6 7 9 1 2 3
18266946 1060225 15 16 6 9 14 7 13 10 4 11 5 17 12 8 18 19 1 2 3
18266946 921672 15 16 6 9 14 7 13 10 4 11 5 17 12 8 18 19 1 2 3
20328118 1197523 1 2 3 17 10 13 18 4 19 6 7 14 5 9 11 12 15 16 8
22820186 1112849 10 5 4 17 1 13 12 19 7 2 8 9 3 6 18 14 15 16 11
22820186 970917 10 5 4 17 1 13 12 19 7 2 8 9 3 6 18 14 15 16 11
24807852 1074889 16 15 8 17 1 13 7 19 5 2 10 6 3 4 18 14 11 12 9
19687460 1138468 15 16 8 11 14 18 5 4 10 19 1 13 12 6 9 7 17 3 2
18909866 1161619 9 10 12 19 11 14 4 5 8 18 3 13 7 6 15 16 17 1 2
24679784 682503 1 2 3 17 8 13 15 6 12 18 9 16 4 11 14 19 5 10 7
21113794 1062718 2 1 17 3 5 8 11 19 10 4 6 9 13 7 18 14 15 16 12
22324310 853125 12 6 7 11 14 9 4 8 1 5 2 13 10 17 19 18 15 16 3
25558394 617934 2 1 17 3 4 5 15 19 11 8 6 16 13 7 18 14 9 10 12
20548518 1063913 9 10 5 6 11 12 8 17 15 14 4 13 7 16 19 18 1 2 3
17937024 1201208 15 16 8 19 14 18 10 17 4 11 5 13 12 6 7 9 1 2 3
25025564 617958 16 15 8 17 1 13 18 14 5 2 10 6 3 4 11 12 19 7 9
22606386 568616 2 1 3 5 10 4 19 18 7 6 11 14 17 9 15 16 8 13 12
20265368 1042862 1 2 3 17 10 13 9 4 12 6 7 18 5 11 19 14 15 16 8
19538726 1263407 15 16 12 14 11 19 8 13 5 9 10 3 7 4 18 6 17 1 2
28963088 656835 16 2 1 15 12 19 6 8 11 9 5 4 10 7 14 18 17 3 13
18266946 1193300 15 16 6 9 14 7 13 10 4 11 5 17 12 8 18 19 1 2 3
25017614 938705 15 16 13 6 8 7 11 19 5 4 2 12 3 17 18 14 9 10 1
19385138 1384865 15 16 9 7 12 14 5 10 8 11 3 13 6 4 18 19 17 1 2
18266946 1107502 15 16 6 9 14 7 13 10 4 11 5 17 12 8 18 19 1 2 3
22989998 1093408 16 15 6 7 12 11 5 4 1 14 2 13 9 10 19 18 8 17 3
31776886 644672 13 11 6 3 4 18 10 12 14 8 5 9 17 19 2 1 15 16 7
24807852 1005447 16 15 8 17 1 13 7 19 5 2 10 6 3 4 18 14 11 12 9
18057498 887524 15 16 10 9 14 7 13 17 6 11 4 5 12 8 18 19 1 2 3
19687460 602606 15 16 8 11 14 18 5 4 10 19 1 13 12 6 9 7 17 3 2
24807852 1094146 16 15 8 17 1 13 7 19 5 2 10 6 3 4 18 14 11 12 9
21305758 860577 2 1 17 3 5 13 19 18 11 4 8 14 10 9 6 7 15 16 12
20508428 1070263 9 5 10 7 14 6 8 17 15 11 4 13 12 16 19 18 1 2 3
28412188 776650 16 15 11 12 19 14 5 7 3 18 13 4 8 17 1 2 9 10 6
20548518 704642 9 10 5 6 11 12 8 17 15 14 4 13 7 16 19 18 1 2 3
23527862 1003975 1 2 3 17 16 13 9 6 19 15 18 10 8 14 11 12 4 5 7
20706276 1105149 9 10 5 6 19 18 8 17 15 14 4 13 7 16 11 12 1 2 3
19725086 1804310 15 16 6 11 14 18 4 8 10 19 1 13 12 5 9 7 17 3 2
20282878 955769 1 2 3 17 18 13 9 4 12 6 7 10 8 11 14 19 15 16 5
18266946 860735 15 16 6 9 14 7 13 10 4 11 5 17 12 8 19 18 1 2 3
25465386 904462 2 1 17 3 16 8 9 14 7 15 6 10 13 5 4 18 19 12 11
17937024 1193426 15 16 8 18 14 19 10 17 4 11 5 13 12 6 9 7 1 2 3
20508428 725363 9 5 10 7 14 6 8 17 15 11 4 13 12 16 18 19 1 2 3
19725086 1345631 15 16 6 11 14 18 4 8 10 19 1 13 12 5 9 7 17 3 2
17997928 1474479 15 16 8 12 11 18 13 17 6 9 10 5 7 4 14 19 1 2 3
23847692 717156 1 2 17 10 12 9 18 6 19 11 7 13 5 14 16 15 8 3 4
23389506 740217 1 2 3 17 6 13 11 4 15 18 9 12 8 16 19 14 5 10 7
25608576 1114053 2 1 17 3 4 5 15 6 19 8 11 16 13 7 18 14 9 10 12
22551738 810746 9 5 10 7 14 6 15 17 4 11 13 16 12 8 18 19 1 2 3
19364710 1877543 15 16 9 12 11 14 5 10 8 7 3 13 6 4 19 18 17 1 2
26524058 904000 16 15 3 8 17 13 11 18 9 1 10 12 2 5 14 19 6 4 7
18266946 746104 15 16 6 9 14 7 13 10 4 11 5 17 12 8 18 19 1 2 3
20548518 992027 9 10 5 6 11 12 8 17 15 14 4 13 7 16 18 19 1 2 3
20265368 1117423 1 2 3 17 10 13 9 4 12 6 7 18 5 11 19 14 15 16 8
22181418 681273 11 12 9 14 7 19 8 10 3 4 2 13 5 17 18 6 15 16 1
19687460 1406189 15 16 8 11 14 18 5 4 10 19 1 13 12 6 9 7 17 3 2
18054452 1061698 15 16 8 7 11 12 13 17 6 14 10 5 9 4 19 18 1 2 3
22359984 1234363 15 16 12 14 9 19 4 5 3 11 2 8 7 17 6 18 13 10 1
19538726 1490094 15 16 12 19 11 14 8 13 5 9 10 3 7 4 6 18 17 1 2
27052296 498022 12 8 6 11 14 18 1 13 10 9 16 2 7 5 4 19 17 3 15
19332886 867471 15 16 9 7 14 19 5 10 8 18 3 13 6 4 11 12 17 1 2
23444648 962415 16 15 18 11 12 14 5 6 1 19 2 13 7 17 9 10 8 4 3
26277472 827678 12 11 6 4 13 18 19 14 1 8 2 5 3 17 15 16 9 7 10
22266962 1407848 15 16 12 11 9 19 4 6 3 7 2 13 8 17 14 18 5 10 1
22419580 872406 12 11 9 14 18 19 13 4 2 6 3 5 8 1 16 15 7 10 17
23918030 704850 11 8 4 12 19 18 13 3 5 14 15 17 6 10 9 7 1 2 16
20588886 717614 1 2 3 17 19 13 7 4 9 18 6 10 8 14 11 12 15 16 5
29245794 1007583 2 1 3 16 4 15 9 6 5 8 11 10 17 7 14 19 18 13 12
23073858 878154 16 15 6 11 19 18 10 5 1 14 2 13 12 17 9 7 8 4 3
28903146 651195 16 1 2 15 7 5 18 4 12 9 6 8 10 11 19 14 17 3 13
19538726 1299754 15 16 12 19 11 14 8 13 5 9 10 3 7 4 6 18 17 1 2
25025564 624940 16 15 8 17 1 13 18 14 5 2 10 6 3 4 11 12 19 7 9
28762592 657310 16 15 9 12 19 11 3 7 13 14 8 17 18 5 1 2 4 10 6
22266962 1071248 15 16 12 11 9 19 4 6 3 7 2 13 8 17 18 14 5 10 1
26857574 762878 1 2 17 12 16 19 6 5 18 15 7 13 10 9 11 14 8 3 4
29275346 765920 1 2 17 16 10 15 18 6 12 9 7 13 5 11 14 19 4 3 8
18266946 1017098 15 16 6 9 14 7 13 10 4 11 5 17 12 8 19 18 1 2 3
23400498 995985 1 2 3 17 16 13 9 6 12 15 11 10 8 18 19 14 7 4 5
27351008 848367 16 15 5 9 17 10 18 7 13 1 3 8 2 4 19 14 11 12 6
22780438 936286 16 15 9 18 12 11 13 7 2 6 3 4 8 1 19 14 5 10 17
17937024 1152929 15 16 8 19 14 18 10 17 4 11 5 13 12 6 7 9 1 2 3
26909552 513449 2 1 3 5 10 4 15 18 11 7 12 16 17 9 14 19 6 13 8
18266946 861062 15 16 6 9 14 7 13 10 4 11 5 17 12 8 19 18 1 2 3
19424882 1543741 15 16 12 19 11 14 5 13 4 18 3 10 6 8 9 7 17 1 2
27782430 955554 16 15 8 1 17 2 11 12 18 13 4 7 3 6 19 14 9 10 5
24401890 795609 2 1 17 3 5 13 11 19 16 4 6 9 10 15 7 18 14 8 12
17997928 1376003 15 16 8 12 11 18 13 17 6 9 10 5 7 4 14 19 1 2 3
22714184 1153156 16 15 18 7 12 11 5 6 1 9 2 13 10 17 14 19 8 4 3
21963122 757450 7 5 10 9 11 14 17 4 13 12 1 3 6 8 18 19 15 16 2
23499668 1055374 16 15 6 18 12 11 5 8 2 9 10 4 7 1 14 19 13 17 3
21456766 1170433 2 1 17 3 5 13 14 18 9 4 6 11 10 7 15 16 19 8 12
18056618 980038 15 16 8 12 11 18 13 17 6 14 4 5 9 10 19 7 1 2 3
18054452 1168961 15 16 8 7 11 12 13 17 6 14 10 5 9 4 18 19 1 2 3
24521102 522752 1 2 17 10 9 7 8 4 19 14 6 13 5 18 12 11 16 15 3
19332886 1113042 15 16 9 7 14 19 5 10 8 18 3 13 6 4 11 12 17 1 2
19538726 1624500 15 16 12 19 11 14 8 13 5 9 10 3 7 4 6 18 17 1 2
18129306 886245 15 16 8 7 19 18 13 17 6 14 10 5 9 4 11 12 1 2 3
24103890 998694 2 1 17 3 4 5 11 19 16 8 6 7 13 15 18 14 9 10 12
21229414 975884 2 1 17 3 5 13 14 19 9 4 8 11 10 7 6 18 15 16 12
28630506 627075 16 15 11 12 18 14 3 6 5 19 10 17 9 13 1 2 8 4 7
21277552 1285963 2 1 17 3 5 13 19 8 9 4 6 11 10 7 18 14 15 16 12
19385138 1180243 15 16 9 7 12 14 5 10 8 11 3 13 6 4 18 19 17 1 2
27946824 878728 16 15 4 1 17 2 18 7 11 13 8 6 3 12 19 14 9 10 5
17997928 1324577 15 16 8 12 11 18 13 17 6 9 10 5 7 4 19 14 1 2 3
24807852 931611 16 15 8 17 1 13 7 19 5 2 10 6 3 4 18 14 11 12 9
24807852 788813 16 15 8 17 1 13 7 19 5 2 10 6 3 4 18 14 11 12 9
27643630 1090893 1 2 3 16 13 15 9 6 12 8 11 10 17 18 19 14 4 5 7
20508428 708628 9 5 10 7 14 6 8 17 15 11 4 13 12 16 18 19 1 2 3
19538726 1596825 15 16 12 19 11 14 8 13 5 9 10 3 7 4 18 6 17 1 2
18057498 1051131 15 16 10 7 14 9 13 17 6 11 4 5 12 8 18 19 1 2 3
29450338 1252336 2 1 3 16 4 15 18 13 11 8 12 9 17 5 14 19 7 10 6
18129306 1056718 15 16 8 7 19 18 13 17 6 14 10 5 9 4 11 12 1 2 3
18132976 908963 15 16 6 7 19 18 13 17 4 14 10 5 9 8 11 12 1 2 3
24817794 876410 1 2 3 17 12 13 15 4 9 18 7 16 8 11 19 14 5 10 6
20265368 793589 1 2 3 17 10 13 9 4 12 6 7 18 5 11 19 14 15 16 8
17997928 1171727 15 16 8 12 11 18 13 17 6 9 10 5 7 4 14 19 1 2 3
20732366 862922 1 2 3 17 8 13 14 6 12 18 9 19 4 11 15 16 5 10 7
28903146 871298 16 1 2 15 7 5 18 4 12 9 6 8 10 11 14 19 17 3 13
21136856 1187459 2 1 17 3 5 8 14 19 10 4 6 11 13 9 7 18 15 16 12
20265368 1092723 1 2 3 17 10 13 9 4 12 6 7 18 5 11 19 14 15 16 8
17997928 995866 15 16 8 12 11 18 13 17 6 9 10 5 7 4 14 19 1 2 3
17937024 871186 15 16 8 18 14 19 10 17 4 11 5 13 12 6 9 7 1 2 3
20265368 1164091 1 2 3 17 10 13 9 4 12 6 7 18 5 11 19 14 15 16 8
22595074 623516 9 10 5 6 11 12 15 17 8 14 13 16 7 4 18 19 1 2 3
24807852 926480 16 15 8 17 1 13 7 19 5 2 10 6 3 4 18 14 11 12 9
23255528 696608 1 2 3 17 16 13 18 4 12 15 7 9 8 11 19 14 5 10 6
20702952 778639 9 5 10 7 19 6 8 17 15 14 4 13 18 16 11 12 1 2 3
22495350 800850 12 11 9 18 7 19 13 8 2 6 3 5 10 1 14 4 16 15 17
25025564 703034 16 15 8 17 1 13 18 14 5 2 10 6 3 4 11 12 19 7 9
22880780 1292889 11 5 6 9 12 7 8 4 16 19 1 13 10 15 18 14 17 3 2
17997928 998066 15 16 8 12 11 18 13 17 6 9 10 5 7 4 14 19 1 2 3
22869048 937578 16 15 14 11 12 18 10 4 2 6 3 5 8 1 9 19 7 13 17
27522800 974091 1 2 3 15 13 16 18 4 12 8 7 9 17 11 19 14 5 10 6
17937024 1465980 15 16 8 19 14 18 10 17 4 11 5 13 12 6 7 9 1 2 3
21172410 607546 2 1 17 3 4 5 11 12 19 8 6 9 13 7 18 14 15 16 10
18128112 1094403 15 16 6 19 14 18 13 17 4 9 10 5 7 8 11 12 1 2 3
28547548 444885 10 1 2 5 9 4 16 8 7 11 6 15 12 18 19 14 17 3 13
19725086 1481192 15 16 6 11 14 18 4 8 10 19 1 13 12 5 9 7 17 3 2
19687460 907300 15 16 8 11 14 18 5 4 10 19 1 13 12 6 9 7 17 3 2
17997928 1564287 15 16 8 12 11 18 13 17 6 9 10 5 7 4 14 19 1 2 3
22714184 1135070 16 15 18 7 12 11 5 6 1 9 2 13 10 17 19 14 8 4 3
21302550 842960 2 1 17 3 4 5 19 12 14 8 9 11 13 7 6 18 15 16 10
24088758 1085137 2 1 17 3 4 5 19 12 16 8 6 11 13 15 18 14 9 10 7
18055520 930692 15 16 8 18 12 19 13 17 6 11 4 5 9 10 7 14 1 2 3
26727796 614159 16 15 3 17 1 13 18 8 9 5 10 11 2 12 19 14 6 4 7
22410208 990504 15 16 9 12 11 19 8 5 3 14 2 4 7 17 6 18 13 10 1
24807852 1076532 16 15 8 17 1 13 7 19 5 2 10 6 3 4 18 14 11 12 9
18266946 1157079 15 16 6 9 14 7 13 10 4 11 5 17 12 8 18 19 1 2 3
18057498 1488133 15 16 10 9 14 7 13 17 6 11 4 5 12 8 18 19 1 2 3
20316024 1007694 1 2 3 17 8 13 9 6 12 18 7 10 4 11 19 14 15 16 5
22595074 670143 9 10 5 6 11 12 15 17 8 14 13 16 7 4 19 18 1 2 3
27351008 843749 16 15 5 9 17 10 18 7 13 1 3 8 2 4 19 14 11 12 6
24949670 1111909 1 2 3 17 10 13 15 18 19 9 7 16 5 14 11 12 8 4 6
25483542 1254129 2 1 17 3 16 4 11 14 10 15 6 9 13 5 7 18 19 8 12
28655734 559321 11 12 17 6 8 18 16 7 5 4 2 15 3 13 14 19 9 10 1
19278506 1324598 15 16 9 7 11 12 5 10 8 18 3 13 6 4 19 14 17 1 2
19725086 1350094 15 16 6 11 14 18 4 8 10 19 1 13 12 5 9 7 17 3 2
18124442 1630075 15 16 8 18 14 19 13 17 6 9 10 5 7 4 12 11 1 2 3
25558394 941007 2 1 17 3 4 5 15 19 11 8 6 16 13 7 18 14 9 10 12
25796584 682704 2 1 17 3 5 13 15 19 9 4 6 16 10 7 18 14 12 8 11
19364710 1317997 15 16 9 12 11 14 5 10 8 7 3 13 6 4 19 18 17 1 2
19538726 1373931 15 16 12 19 11 14 8 13 5 9 10 3 7 4 6 18 17 1 2
19424882 1573277 15 16 12 14 11 19 5 13 4 18 3 10 6 8 9 7 17 1 2
26199292 748787 15 16 8 3 2 13 11 6 19 1 10 12 17 5 18 14 7 4 9
27962336 557165 16 15 9 4 5 10 18 7 17 2 3 8 1 13 19 14 11 12 6
22101364 569445 11 12 19 9 7 14 4 8 3 5 2 13 10 17 6 18 15 16 1
22744822 957361 15 16 12 9 7 11 8 6 3 5 2 13 10 4 18 14 19 17 1
28681554 842926 16 15 18 12 19 11 3 7 13 14 5 17 9 10 1 2 6 8 4
25025564 1133690 16 15 8 17 1 13 18 14 5 2 10 6 3 4 11 12 19 7 9
20282878 1137231 1 2 3 17 18 13 9 4 12 6 7 10 8 11 14 19 15 16 5
22880780 1367349 11 5 6 9 12 7 8 4 16 19 1 13 10 15 18 14 17 3 2
29440456 920176 2 1 3 16 4 15 18 13 5 8 11 7 17 9 14 19 6 10 12
20265368 1038466 1 2 3 17 10 13 9 4 12 6 7 18 5 11 14 19 15 16 8
27832112 575649 12 11 9 18 7 19 15 8 2 6 3 16 10 1 14 4 5 13 17
21649148 716904 2 1 17 3 5 13 19 18 11 4 9 14 10 7 15 16 6 8 12
24384290 941084 2 1 17 3 5 13 14 19 16 4 9 11 10 15 6 7 18 8 12
18266946 1020422 15 16 6 9 14 7 13 10 4 11 5 17 12 8 19 18 1 2 3
23055504 1395997 16 15 6 11 19 18 10 4 1 14 2 5 12 17 9 7 8 13 3
22266962 1104327 15 16 12 11 9 19 4 6 3 7 2 13 8 17 18 14 5 10 1
17937024 931284 15 16 8 19 14 18 10 17 4 11 5 13 12 6 9 7 1 2 3
17997928 1094752 15 16 8 12 11 18 13 17 6 9 10 5 7 4 14 19 1 2 3
27273792 1011193 16 15 9 5 1 10 18 14 13 2 3 8 17 4 11 12 19 7 6
24375480 975950 1 2 17 10 12 9 6 4 13 11 7 8 5 18 14 19 16 15 3
19364710 1974654 15 16 9 12 11 14 5 10 8 7 3 13 6 4 19 18 17 1 2
28171268 753669 16 15 5 2 17 1 18 19 11 13 8 6 3 12 4 14 7 10 9
17937024 1274799 15 16 8 19 14 18 10 17 4 11 5 13 12 6 7 9 1 2 3
18057498 1460475 15 16 10 7 14 9 13 17 6 11 4 5 12 8 18 19 1 2 3
24807852 784993 16 15 8 17 1 13 7 19 5 2 10 6 3 4 18 14 11 12 9
28833210 667777 14 13 17 6 8 18 16 19 5 4 2 15 3 7 11 12 9 10 1
20682446 637040 1 2 3 17 8 13 14 6 12 18 11 9 4 19 16 15 7 10 5
20646604 1083950 1 2 3 17 6 13 14 4 12 18 11 9 8 19 15 16 5 10 7
20265368 1013609 1 2 3 17 10 13 9 4 12 6 7 18 5 11 19 14 15 16 8
20265368 609352 1 2 3 17 10 13 9 4 12 6 7 18 5 11 14 19 15 16 8
17937024 1530018 15 16 8 19 14 18 10 17 4 11 5 13 12 6 7 9 1 2 3
25970150 1058159 10 1 2 5 9 4 6 17 7 11 13 8 12 18 14 19 16 15 3
27683086 939751 1 2 3 16 13 15 18 4 19 8 7 9 17 14 11 12 5 10 6
19538726 1384075 15 16 12 19 11 14 8 13 5 9 10 3 7 4 6 18 17 1 2
20282878 797545 1 2 3 17 18 13 9 4 12 6 7 10 8 11 19 14 15 16 5
18266946 744183 15 16 6 9 14 7 13 10 4 11 5 17 12 8 19 18 1 2 3
28533176 908726 16 15 11 12 19 14 13 7 3 18 8 5 6 17 1 2 9 10 4
17937024 1027801 15 16 8 19 14 18 10 17 4 11 5 13 12 6 7 9 1 2 3
21003146 974836 1 2 3 17 6 13 14 18 12 9 7 19 10 11 16 15 4 5 8
17997928 1104074 15 16 8 12 11 18 13 17 6 9 10 5 7 4 14 19 1 2 3
20508428 1190393 9 5 10 7 14 6 8 17 15 11 4 13 12 16 18 19 1 2 3
18132976 1447041 15 16 6 7 19 18 13 17 4 14 10 5 9 8 11 12 1 2 3
29771454 794878 1 15 16 2 17 8 19 7 18 13 5 12 3 6 4 14 9 10 11
20508428 1152539 9 5 10 7 14 6 8 17 15 11 4 13 12 16 19 18 1 2 3
22780438 1160523 16 15 9 18 12 11 13 7 2 6 3 4 8 1 14 19 5 10 17
17997928 1521843 15 16 8 12 11 18 13 17 6 9 10 5 7 4 14 19 1 2 3
19725086 1114878 15 16 6 11 14 18 4 8 10 19 1 13 12 5 9 7 17 3 2
26724274 616592 16 15 3 5 17 13 11 8 9 1 10 7 2 12 14 19 18 4 6
23384290 773233 1 2 3 17 12 13 7 4 15 18 11 9 8 16 14 19 5 10 6
21003146 638865 1 2 3 17 6 13 14 18 12 9 7 19 10 11 15 16 4 5 8
25025564 559091 16 15 8 17 1 13 18 14 5 2 10 6 3 4 11 12 19 7 9
27643630 841003 1 2 3 16 13 15 9 6 12 8 11 10 17 18 19 14 4 5 7
25970150 1041545 10 1 2 5 9 4 6 17 7 11 13 8 12 18 19 14 16 15 3
22756804 1150504 16 15 14 11 12 19 10 6 2 18 3 5 8 1 9 7 4 13 17
20265368 942195 1 2 3 17 10 13 9 4 12 6 7 18 5 11 19 14 15 16 8
17997928 1698807 15 16 8 12 11 18 13 17 6 9 10 5 7 4 14 19 1 2 3
28938184 753616 16 2 1 15 9 19 8 4 18 14 5 6 10 7 11 12 17 3 13
29228160 964626 2 1 3 16 5 15 7 18 10 4 11 6 17 9 14 19 8 13 12
18266946 969984 15 16 6 9 14 7 13 10 4 11 5 17 12 8 18 19 1 2 3
19450012 1432307 15 16 12 11 18 14 5 13 4 7 3 10 6 8 9 19 17 1 2
17937024 1150948 15 16 8 19 14 18 10 17 4 11 5 13 12 6 7 9 1 2 3
26809856 736785 1 2 17 10 12 9 6 5 16 14 7 13 11 15 18 19 4 3 8
20265368 1127613 1 2 3 17 10 13 9 4 12 6 7 18 5 11 14 19 15 16 8
23624200 889288 1 2 3 17 10 13 11 18 15 9 7 12 5 16 19 14 6 4 8
19364710 1732888 15 16 9 12 11 14 5 10 8 7 3 13 6 4 18 19 17 1 2
22663284 681859 12 11 14 18 6 19 5 9 2 8 3 10 4 1 15 16 7 13 17
20265368 1027131 1 2 3 17 10 13 9 4 12 6 7 18 5 11 19 14 15 16 8
17997928 1422201 15 16 8 12 11 18 13 17 6 9 10 5 7 4 14 19 1 2 3
18132976 1331016 15 16 6 7 19 18 13 17 4 14 10 5 9 8 11 12 1 2 3
19725086 1047933 15 16 6 11 14 18 4 8 10 19 1 13 12 5 9 7 17 3 2
20265368 950943 1 2 3 17 10 13 9 4 12 6 7 18 5 11 19 14 15 16 8
19687460 1012000 15 16 8 11 14 18 5 4 10 19 1 13 12 6 9 7 17 3 2
21112254 1242995 2 1 17 3 5 8 14 19 10 4 11 9 13 7 6 18 15 16 12
22287504 766799 15 16 12 11 14 19 5 6 3 8 2 13 4 17 7 18 9 10 1
18054452 1185335 15 16 8 7 11 12 13 17 6 14 10 5 9 4 18 19 1 2 3
24807852 1136946 16 15 8 17 1 13 7 19 5 2 10 6 3 4 18 14 11 12 9
17937024 1046309 15 16 8 18 14 19 10 17 4 11 5 13 12 6 7 9 1 2 3
21229414 978690 2 1 17 3 5 13 14 19 9 4 8 11 10 7 6 18 15 16 12
17997928 1332830 15 16 8 12 11 18 13 17 6 9 10 5 7 4 14 19 1 2 3
22820186 1196109 10 5 4 13 1 17 12 19 7 2 8 9 3 6 18 14 15 16 11
24413028 1009208 15 16 9 11 12 19 1 6 3 14 13 2 7 17 8 18 5 10 4
23213522 758125 16 15 11 9 7 18 13 8 2 6 3 5 10 1 19 14 12 4 17
23381474 1102389 1 2 3 17 16 13 9 6 12 15 11 10 8 18 19 14 4 5 7
18266946 1209312 15 16 6 9 14 7 13 10 4 11 5 17 12 8 18 19 1 2 3
19687460 1152945 15 16 8 11 14 18 5 4 10 19 1 13 12 6 9 7 17 3 2
18266946 922928 15 16 6 9 14 7 13 10 4 11 5 17 12 8 19 18 1 2 3
22881660 902795 16 15 14 11 12 18 13 7 2 6 3 10 8 1 9 19 5 4 17
18055520 1143359 15 16 8 18 12 19 13 17 6 11 4 5 9 10 7 14 1 2 3
22786430 1065489 16 15 7 9 12 11 5 6 1 14 2 13 10 17 18 19 8 4 3
17937024 1340273 15 16 8 19 14 18 10 17 4 11 5 13 12 6 7 9 1 2 3
20265368 1340795 1 2 3 17 10 13 9 4 12 6 7 18 5 11 19 14 15 16 8
19687460 982960 15 16 8 11 14 18 5 4 10 19 1 13 12 6 9 7 17 3 2
23255528 1160372 1 2 3 17 16 13 18 4 12 15 7 9 8 11 14 19 5 10 6
19385138 1227053 15 16 9 7 12 14 5 10 8 11 3 13 6 4 18 19 17 1 2
23393666 870713 1 2 3 17 16 13 18 4 19 15 7 9 8 14 11 12 5 10 6
18128112 1116095 15 16 6 18 14 19 13 17 4 9 10 5 7 8 12 11 1 2 3
17937024 851134 15 16 8 19 14 18 10 17 4 11 5 13 12 6 7 9 1 2 3
18124442 1438036 15 16 8 18 14 19 13 17 6 9 10 5 7 4 12 11 1 2 3
22728494 866451 9 18 14 11 12 19 13 5 2 6 3 10 8 1 7 4 16 15 17
21277552 1150919 2 1 17 3 5 13 19 8 9 4 6 11 10 7 18 14 15 16 12
24861008 739646 15 16 13 6 8 18 12 19 5 4 2 7 3 17 11 14 9 10 1
20265368 1145703 1 2 3 17 10 13 9 4 12 6 7 18 5 11 19 14 15 16 8
29292098 652101 1 2 17 16 12 15 6 5 18 9 7 13 10 11 14 19 4 3 8
25829616 1142715 2 1 17 3 5 13 15 19 14 4 9 16 10 7 6 18 12 8 11
22783566 1217731 16 15 14 11 12 19 10 6 2 18 3 13 8 1 9 7 5 4 17
18128112 891749 15 16 6 18 14 19 13 17 4 9 10 5 7 8 11 12 1 2 3
22904452 1041119 16 15 11 12 18 19 10 4 2 6 3 5 8 1 9 14 7 13 17
20265368 1105306 1 2 3 17 10 13 9 4 12 6 7 18 5 11 19 14 15 16 8
18266946 1091873 15 16 6 9 14 7 13 10 4 11 5 17 12 8 18 19 1 2 3
22595074 1014200 9 10 5 6 11 12 15 17 8 14 13 16 7 4 18 19 1 2 3
25347822 1157186 2 1 17 3 16 4 19 6 11 15 8 9 13 5 18 14 7 10 12
24807852 763087 16 15 8 17 1 13 7 19 5 2 10 6 3 4 18 14 11 12 9
20265368 835857 1 2 3 17 10 13 9 4 12 6 7 18 5 11 14 19 15 16 8
23093138 890765 16 15 6 7 12 11 10 5 1 14 2 13 9 17 18 19 8 4 3
27614198 574942 8 4 5 17 1 13 15 19 7 2 10 16 3 6 18 14 11 12 9
22780438 1075725 16 15 9 18 12 11 13 7 2 6 3 4 8 1 14 19 5 10 17
25025564 913236 16 15 8 17 1 13 18 14 5 2 10 6 3 4 11 12 19 7 9
22287504 817777 15 16 12 11 14 19 5 6 3 8 2 13 4 17 7 18 9 10 1
17997928 1418020 15 16 8 12 11 18 13 17 6 9 10 5 7 4 14 19 1 2 3
23527862 666887 1 2 3 17 16 13 9 6 19 15 18 10 8 14 11 12 4 5 7
19364710 1473427 15 16 9 12 11 14 5 10 8 7 3 13 6 4 18 19 17 1 2
20282878 1165021 1 2 3 17 18 13 9 4 12 6 7 10 8 11 19 14 15 16 5
17997928 1650083 15 16 8 12 11 18 13 17 6 9 10 5 7 4 14 19 1 2 3
17997928 776411 15 16 8 12 11 18 13 17 6 9 10 5 7 4 19 14 1 2 3
27522800 1042400 1 2 3 15 13 16 18 4 12 8 7 9 17 11 14 19 5 10 6
17997928 620259 15 16 8 12 11 18 13 17 6 9 10 5 7 4 14 19 1 2 3
18266946 983530 15 16 6 9 14 7 13 10 4 11 5 17 12 8 19 18 1 2 3
24679784 850068 1 2 3 17 8 13 15 6 12 18 9 16 4 11 19 14 5 10 7
20328118 986934 1 2 3 17 10 13 18 4 19 6 7 14 5 9 11 12 15 16 8
27106938 827605 16 15 9 5 1 10 18 7 13 2 3 8 17 4 14 19 11 12 6
18057498 1393898 15 16 10 7 14 9 13 17 6 11 4 5 12 8 18 19 1 2 3
19687460 1400050 15 16 8 11 14 18 5 4 10 19 1 13 12 6 9 7 17 3 2
28636514 1051134 16 15 18 12 19 11 3 6 13 14 10 17 9 5 1 2 8 4 7
24821388 641400 1 2 3 17 8 13 15 6 19 18 9 16 4 14 11 12 5 10 7
20265368 942251 1 2 3 17 10 13 9 4 12 6 7 18 5 11 19 14 15 16 8
24375142 587628 15 16 9 11 18 14 2 7 3 19 13 1 12 17 8 6 5 10 4
22661954 936150 2 1 3 5 10 4 18 13 11 6 12 7 17 9 14 19 15 16 8
17937024 795651 15 16 8 19 14 18 10 17 4 11 5 13 12 6 7 9 1 2 3
17937024 1245546 15 16 8 19 14 18 10 17 4 11 5 13 12 6 7 9 1 2 3
24807852 954600 16 15 8 17 1 13 7 19 5 2 10 6 3 4 14 18 11 12 9
22783566 791828 16 15 14 11 12 19 10 6 2 18 3 13 8 1 9 7 5 4 17
17997928 1838094 15 16 8 12 11 18 13 17 6 9 10 5 7 4 14 19 1 2 3
22783566 807327 16 15 14 11 12 19 10 6 2 18 3 13 8 1 9 7 5 4 17
20739520 627020 1 2 3 17 8 13 11 6 19 18 9 12 4 14 15 16 5 10 7
19278506 880537 15 16 9 7 11 12 5 10 8 18 3 13 6 4 19 14 17 1 2
22266962 1131376 15 16 12 11 9 19 4 6 3 7 2 13 8 17 18 14 5 10 1
19538726 1889954 15 16 12 19 11 14 8 13 5 9 10 3 7 4 18 6 17 1 2
17937024 1199490 15 16 8 19 14 18 10 17 4 11 5 13 12 6 7 9 1 2 3
18266946 665411 15 16 6 9 14 7 13 10 4 11 5 17 12 8 19 18 1 2 3
25970150 841412 10 1 2 5 9 4 6 17 7 11 13 8 12 18 14 19 16 15 3
24384290 1337178 2 1 17 3 5 13 14 19 16 4 9 11 10 15 6 7 18 8 12
17937024 1383444 15 16 8 19 14 18 10 17 4 11 5 13 12 6 7 9 1 2 3
21113794 909893 2 1 17 3 5 8 11 19 10 4 6 9 13 7 18 14 15 16 12
19364710 1914655 15 16 9 12 11 14 5 10 8 7 3 13 6 4 19 18 17 1 2
18057498 1023764 15 16 10 7 14 9 13 17 6 11 4 5 12 8 18 19 1 2 3
27351008 648898 16 15 5 9 17 10 18 7 13 1 3 8 2 4 19 14 11 12 6
19538726 1330130 15 16 12 19 11 14 8 13 5 9 10 3 7 4 18 6 17 1 2
26664506 563830 1 2 17 10 19 9 18 6 16 14 7 13 5 15 12 11 8 3 4
21003146 1094138 1 2 3 17 6 13 14 18 12 9 7 19 10 11 16 15 4 5 8
17367328 1391115 11 12 8 19 14 18 13 17 6 9 10 5 7 4 15 16 1 2 3
24493308 632987 1 2 17 10 19 9 8 4 18 14 7 13 5 6 12 11 16 15 3
20265368 660091 1 2 3 17 10 13 9 4 12 6 7 18 5 11 19 14 15 16 8
24949670 1065214 1 2 3 17 10 13 15 18 19 9 7 16 5 14 11 12 8 4 6
27782430 748168 16 15 8 1 17 2 11 12 18 13 4 7 3 6 19 14 9 10 5
17997928 1413590 15 16 8 12 11 18 13 17 6 9 10 5 7 4 14 19 1 2 3
18266946 806722 15 16 6 9 14 7 13 10 4 11 5 17 12 8 19 18 1 2 3
17997928 855897 15 16 8 12 11 18 13 17 6 9 10 5 7 4 14 19 1 2 3
23539778 589498 10 5 4 17 1 13 18 14 7 2 8 9 3 6 16 15 19 12 11
23381474 1276196 1 2 3 17 16 13 9 6 12 15 11 10 8 18 19 14 4 5 7
22266962 1429236 15 16 12 11 9 19 4 6 3 7 2 13 8 17 18 14 5 10 1
19692188 484088 11 8 6 12 16 18 10 17 7 15 4 13 14 5 19 9 1 2 3
24818700 921704 1 2 3 17 10 13 15 18 12 9 7 16 5 11 14 19 6 4 8
20282878 784398 1 2 3 17 18 13 9 4 12 6 7 10 8 11 19 14 15 16 5
28674096 979779 16 15 11 12 18 14 3 7 13 19 5 17 9 10 1 2 6 8 4
24516702 760613 1 2 17 10 19 9 6 4 13 14 7 8 5 18 12 11 16 15 3
18266946 1082342 15 16 6 9 14 7 13 10 4 11 5 17 12 8 19 18 1 2 3
28674096 1130518 16 15 11 12 18 14 3 7 13 19 5 17 9 10 1 2 6 8 4
22266962 1351216 15 16 12 11 9 19 4 6 3 7 2 13 8 17 18 14 5 10 1
20508428 972276 9 5 10 7 14 6 8 17 15 11 4 13 12 16 18 19 1 2 3
24807852 823592 16 15 8 17 1 13 7 19 5 2 10 6 3 4 18 14 11 12 9
22387910 1281101 15 16 9 14 18 19 8 6 3 7 2 13 4 17 11 12 5 10 1
18129306 1027559 15 16 8 7 19 18 13 17 6 14 10 5 9 4 11 12 1 2 3
29855180 622887 2 1 17 16 4 15 11 19 5 13 8 7 3 6 14 18 9 10 12
20328118 1184206 1 2 3 17 10 13 18 4 19 6 7 14 5 9 11 12 15 16 8
28180782 906811 7 18 11 10 19 9 3 6 13 14 4 17 12 5 2 1 15 16 8
26866494 466462 12 11 8 6 13 7 9 14 1 17 2 4 3 10 19 18 15 16 5
19538726 1725294 15 16 12 19 11 14 8 13 5 9 10 3 7 4 6 18 17 1 2
24424610 501869 13 4 8 3 2 5 14 18 19 1 10 12 17 6 15 16 11 7 9
18054452 1097120 15 16 8 7 11 12 13 17 6 14 10 5 9 4 19 18 1 2 3
20739520 667937 1 2 3 17 8 13 11 6 19 18 9 12 4 14 15 16 5 10 7
21229414 989736 2 1 17 3 5 13 14 19 9 4 8 11 10 7 6 18 15 16 12
25347822 1240555 2 1 17 3 16 4 19 6 11 15 8 9 13 5 18 14 7 10 12
31504010 767898 13 14 18 3 4 8 12 11 10 6 7 19 17 5 2 1 15 16 9
20508428 927723 9 5 10 7 14 6 8 17 15 11 4 13 12 16 19 18 1 2 3
18054452 1302662 15 16 8 7 11 12 13 17 6 14 10 5 9 4 19 18 1 2 3
20548518 976050 9 10 5 6 11 12 8 17 15 14 4 13 7 16 18 19 1 2 3
20265368 964542 1 2 3 17 10 13 9 4 12 6 7 18 5 11 19 14 15 16 8
20265368 727785 1 2 3 17 10 13 9 4 12 6 7 18 5 11 14 19 15 16 8
17937024 1374786 15 16 8 19 14 18 10 17 4 11 5 13 12 6 7 9 1 2 3
22820186 559226 10 5 4 17 1 13 12 19 7 2 8 9 3 6 18 14 15 16 11
23133614 821320 16 15 11 18 9 12 13 6 2 7 3 5 10 1 19 14 8 4 17
22820186 445717 10 5 4 17 1 13 12 19 7 2 8 9 3 6 18 14 15 16 11
17937024 1176879 15 16 8 19 14 18 10 17 4 11 5 13 12 6 7 9 1 2 3
28390128 517041 16 15 1 10 5 9 18 19 8 4 3 11 2 6 7 14 12 13 17
18055520 764622 15 16 8 18 12 19 13 17 6 11 4 5 9 10 7 14 1 2 3
19538726 1198514 15 16 12 14 11 19 8 13 5 9 10 3 7 4 18 6 17 1 2
20316024 781239 1 2 3 17 8 13 9 6 12 18 7 10 4 11 19 14 15 16 5
18266946 1483120 15 16 6 9 14 7 13 10 4 11 5 17 12 8 18 19 1 2 3
18266946 1112312 15 16 6 9 14 7 13 10 4 11 5 17 12 8 18 19 1 2 3
17937024 1412485 15 16 8 19 14 18 10 17 4 11 5 13 12 6 7 9 1 2 3
22780438 837169 16 15 9 18 12 11 13 7 2 6 3 4 8 1 14 19 5 10 17
19725086 1032640 15 16 6 11 14 18 4 8 10 19 1 13 12 5 9 7 17 3 2
22989998 850617 16 15 6 7 12 11 5 4 1 14 2 13 9 10 19 18 8 17 3
24375142 1036142 15 16 9 11 18 14 2 7 3 19 13 1 12 17 8 6 5 10 4
24807852 1062241 16 15 8 17 1 13 7 19 5 2 10 6 3 4 18 14 11 12 9
22551738 825994 9 5 10 7 14 6 15 17 4 11 13 16 12 8 19 18 1 2 3
18266946 782939 15 16 6 9 14 7 13 10 4 11 5 17 12 8 19 18 1 2 3
21229414 823535 2 1 17 3 5 13 14 19 9 4 8 11 10 7 6 18 15 16 12
20282878 859770 1 2 3 17 18 13 9 4 12 6 7 10 8 11 19 14 15 16 5
20508428 734866 9 5 10 7 14 6 8 17 15 11 4 13 12 16 18 19 1 2 3
19687460 834215 15 16 8 11 14 18 5 4 10 19 1 13 12 6 9 7 17 3 2
17937024 1476408 15 16 8 19 14 18 10 17 4 11 5 13 12 6 7 9 1 2 3
25259696 591743 13 4 3 5 1 17 14 18 19 10 12 7 2 9 16 15 6 8 11
21456766 802940 2 1 17 3 5 13 14 19 9 4 6 11 10 7 15 16 18 8 12
22783566 1141189 16 15 14 11 12 19 10 6 2 18 3 13 8 1 9 7 5 4 17
22111538 617891 6 5 10 9 11 7 17 4 13 19 1 3 12 8 18 14 15 16 2
24817794 742906 1 2 3 17 12 13 15 4 9 18 7 16 8 11 14 19 5 10 6
28636514 851211 16 15 18 12 19 11 3 6 13 14 10 17 9 5 1 2 8 4 7
18266946 978885 15 16 6 9 14 7 13 10 4 11 5 17 12 8 19 18 1 2 3
24375142 702412 15 16 9 11 18 14 2 7 3 19 13 1 12 17 8 6 5 10 4
29329732 519751 16 15 2 5 10 7 18 6 11 9 17 13 1 12 19 14 4 3 8
23888660 922847 1 2 17 10 19 9 18 6 12 14 7 13 5 11 16 15 4 3 8
18057498 1230266 15 16 10 7 14 9 13 17 6 11 4 5 12 8 18 19 1 2 3
19725086 886152 15 16 6 11 14 18 4 8 10 19 1 13 12 5 9 7 17 3 2
20636218 612858 1 2 3 17 19 13 14 4 12 18 7 9 8 11 15 16 5 10 6
28436736 993383 16 15 11 12 19 14 13 7 3 18 4 5 8 17 1 2 9 10 6
28533176 840692 16 15 11 12 19 14 13 7 3 18 8 5 6 17 1 2 9 10 4
18266946 1057537 15 16 6 9 14 7 13 10 4 11 5 17 12 8 18 19 1 2 3
18057498 1113835 15 16 10 7 14 9 13 17 6 11 4 5 12 8 18 19 1 2 3
25355072 912255 2 1 17 3 16 4 11 12 19 15 8 9 13 5 18 14 7 10 6
22231722 980888 15 16 12 11 14 19 4 5 3 7 2 13 8 17 6 18 9 10 1
19364710 1752648 15 16 9 12 11 14 5 10 8 7 3 13 6 4 19 18 17 1 2
27690660 999355 1 2 3 15 13 16 9 8 12 18 7 10 17 11 19 14 4 5 6
20282878 1320094 1 2 3 17 18 13 9 4 12 6 7 10 8 11 14 19 15 16 5
19364710 1298716 15 16 9 12 11 14 5 10 8 7 3 13 6 4 19 18 17 1 2
19538726 1518716 15 16 12 14 11 19 8 13 5 9 10 3 7 4 18 6 17 1 2
19687460 836699 15 16 8 11 14 18 5 4 10 19 1 13 12 6 9 7 17 3 2
20265368 748951 1 2 3 17 10 13 9 4 12 6 7 18 5 11 19 14 15 16 8
19538726 1685262 15 16 12 19 11 14 8 13 5 9 10 3 7 4 6 18 17 1 2
20508428 1139131 9 5 10 7 14 6 8 17 15 11 4 13 12 16 18 19 1 2 3
20328118 909645 1 2 3 17 10 13 18 4 19 6 7 14 5 9 11 12 15 16 8
23847692 599310 1 2 17 10 12 9 18 6 19 11 7 13 5 14 15 16 8 3 4
18055520 1616975 15 16 8 18 12 19 13 17 6 11 4 5 9 10 7 14 1 2 3
25650290 463191 12 11 7 6 13 18 5 9 1 8 2 4 3 17 14 19 15 16 10
26471040 946613 15 16 6 4 13 18 12 11 1 8 2 5 3 17 19 14 9 7 10
25449802 990791 2 1 17 3 16 8 14 19 10 15 6 9 13 5 4 7 18 12 11
17937024 1638149 15 16 8 19 14 18 10 17 4 11 5 13 12 6 7 9 1 2 3
24807852 747008 16 15 8 17 1 13 7 19 5 2 10 6 3 4 14 18 11 12 9
18266946 1269368 15 16 6 9 14 7 13 10 4 11 5 17 12 8 18 19 1 2 3
20265368 999119 1 2 3 17 10 13 9 4 12 6 7 18 5 11 19 14 15 16 8
19687460 752799 15 16 8 11 14 18 5 4 10 19 1 13 12 6 9 7 17 3 2
19725086 1191033 15 16 6 11 14 18 4 8 10 19 1 13 12 5 9 7 17 3 2
23630500 815638 1 2 3 17 8 13 18 7 15 6 11 12 4 16 14 19 5 10 9
18039214 792896 15 16 8 7 12 18 13 17 6 11 10 5 9 4 14 19 1 2 3
18054452 944987 15 16 8 7 11 12 13 17 6 14 10 5 9 4 18 19 1 2 3
27750664 837219 16 15 5 1 17 2 11 12 18 13 4 6 3 8 19 14 9 10 7
28636514 1259979 16 15 18 12 19 11 3 6 13 14 10 17 9 5 1 2 8 4 7
24375142 972800 15 16 9 11 18 14 2 7 3 19 13 1 12 17 8 6 5 10 4
21368990 1038353 2 1 17 3 5 4 14 19 9 10 6 11 13 7 8 18 15 16 12
18055520 1294042 15 16 8 18 12 19 13 17 6 11 4 5 9 10 7 14 1 2 3
19725086 1927343 15 16 6 11 14 18 4 8 10 19 1 13 12 5 9 7 17 3 2
18039214 906318 15 16 8 7 12 18 13 17 6 11 10 5 9 4 14 19 1 2 3
21361914 1131231 2 1 17 3 5 8 14 18 10 4 6 9 13 7 15 16 19 12 11
20500070 763513 1 2 3 17 8 13 9 4 12 6 10 18 5 11 19 14 15 16 7
29450338 566561 2 1 3 16 4 15 18 13 11 8 12 9 17 5 14 19 7 10 6
23932014 502812 19 4 8 18 14 6 13 3 5 11 15 17 12 10 9 7 1 2 16
23133614 587452 16 15 11 18 9 12 13 6 2 7 3 5 10 1 19 14 8 4 17
17997928 1579827 15 16 8 12 11 18 13 17 6 9 10 5 7 4 14 19 1 2 3
19538726 1091406 15 16 12 19 11 14 8 13 5 9 10 3 7 4 18 6 17 1 2
24490890 910388 1 2 17 12 11 5 6 8 18 9 4 13 10 7 19 14 16 15 3
20328118 984280 1 2 3 17 10 13 18 4 19 6 7 14 5 9 11 12 15 16 8
17937024 1037869 15 16 8 19 14 18 10 17 4 11 5 13 12 6 7 9 1 2 3
20508428 962978 9 5 10 7 14 6 8 17 15 11 4 13 12 16 18 19 1 2 3
22780438 1170319 16 15 9 18 12 11 13 7 2 6 3 4 8 1 19 14 5 10 17
23527862 1130099 1 2 3 17 16 13 9 6 19 15 18 10 8 14 11 12 4 5 7
20508428 770761 9 5 10 7 14 6 8 17 15 11 4 13 12 16 18 19 1 2 3
22820186 1085398 10 5 4 17 1 13 12 19 7 2 8 9 3 6 18 14 15 16 11
29275346 617224 1 2 17 16 10 15 18 6 12 9 7 13 5 11 19 14 4 3 8
20646604 1058412 1 2 3 17 6 13 14 4 12 18 11 9 8 19 15 16 5 10 7
24807852 868858 16 15 8 17 1 13 7 19 5 2 10 6 3 4 18 14 11 12 9
23255528 915189 1 2 3 17 16 13 18 4 12 15 7 9 8 11 14 19 5 10 6
18266946 1303745 15 16 6 9 14 7 13 10 4 11 5 17 12 8 19 18 1 2 3
19385138 1256569 15 16 9 7 12 14 5 10 8 11 3 13 6 4 18 19 17 1 2
24807852 873868 16 15 8 17 1 13 7 19 5 2 10 6 3 4 18 14 11 12 9
19874852 1015907 11 6 7 12 16 9 5 10 8 15 13 17 18 4 19 14 1 2 3
19385138 1539903 15 16 9 7 12 14 5 10 8 11 3 13 6 4 18 19 17 1 2
24807852 940807 16 15 8 17 1 13 7 19 5 2 10 6 3 4 18 14 11 12 9
22245476 608277 12 18 6 11 9 7 4 8 1 5 2 13 10 17 19 14 15 16 3
29292098 633768 1 2 17 16 12 15 6 5 18 9 7 13 10 11 14 19 4 3 8
24807852 1160318 16 15 8 17 1 13 7 19 5 2 10 6 3 4 18 14 11 12 9
28630506 737411 16 15 11 12 18 14 3 6 5 19 10 17 9 13 1 2 8 4 7
19385138 1489416 15 16 9 7 12 14 5 10 8 11 3 13 6 4 18 19 17 1 2
20265368 914871 1 2 3 17 10 13 9 4 12 6 7 18 5 11 19 14 15 16 8
18039214 1133435 15 16 8 7 12 18 13 17 6 11 10 5 9 4 19 14 1 2 3
17937024 1342801 15 16 8 19 14 18 10 17 4 11 5 13 12 6 7 9 1 2 3
23669658 586691 8 5 4 3 2 13 11 7 19 1 10 12 17 6 18 14 15 16 9
27820090 528806 12 7 9 11 6 18 15 4 2 8 3 16 13 1 19 14 5 10 17
20265368 1092058 1 2 3 17 10 13 9 4 12 6 7 18 5 11 19 14 15 16 8
17997928 981192 15 16 8 12 11 18 13 17 6 9 10 5 7 4 14 19 1 2 3
18266946 1162029 15 16 6 9 14 7 13 10 4 11 5 17 12 8 18 19 1 2 3
18266946 767421 15 16 6 9 14 7 13 10 4 11 5 17 12 8 18 19 1 2 3
21172410 800851 2 1 17 3 4 5 11 12 19 8 6 9 13 7 18 14 15 16 10
25331538 1175603 2 1 17 3 16 4 11 19 14 15 6 9 13 5 8 18 7 10 12
18266946 871251 15 16 6 9 14 7 13 10 4 11 5 17 12 8 19 18 1 2 3
20508428 1027036 9 5 10 7 14 6 8 17 15 11 4 13 12 16 19 18 1 2 3
20282878 660367 1 2 3 17 18 13 9 4 12 6 7 10 8 11 14 19 15 16 5
22495350 1406919 12 11 9 18 7 19 13 8 2 6 3 5 10 1 14 4 16 15 17
24807852 1163542 16 15 8 17 1 13 7 19 5 2 10 6 3 4 18 14 11 12 9
22266962 1365270 15 16 12 11 9 19 4 6 3 7 2 13 8 17 14 18 5 10 1
17937024 1236352 15 16 8 19 14 18 10 17 4 11 5 13 12 6 7 9 1 2 3
18129306 1063320 15 16 8 7 19 18 13 17 6 14 10 5 9 4 11 12 1 2 3
33295234 690878 12 11 9 10 7 14 16 18 3 19 13 15 5 17 2 1 6 4 8
20265368 1192441 1 2 3 17 10 13 9 4 12 6 7 18 5 11 19 14 15 16 8
17937024 1114770 15 16 8 19 14 18 10 17 4 11 5 13 12 6 7 9 1 2 3
23381474 838262 1 2 3 17 16 13 9 6 12 15 11 10 8 18 19 14 4 5 7
17997928 1690015 15 16 8 12 11 18 13 17 6 9 10 5 7 4 14 19 1 2 3
22266962 1207835 15 16 12 11 9 19 4 6 3 7 2 13 8 17 18 14 5 10 1
27957930 566169 12 11 18 19 7 14 13 6 3 9 5 4 10 17 1 2 15 16 8
20265368 891904 1 2 3 17 10 13 9 4 12 6 7 18 5 11 19 14 15 16 8
23630940 640284 1 2 3 17 19 13 9 6 15 18 14 10 8 16 11 12 4 5 7
28636514 1153804 16 15 18 12 19 11 3 6 13 14 10 17 9 5 1 2 8 4 7
18266946 774086 15 16 6 9 14 7 13 10 4 11 5 17 12 8 18 19 1 2 3
22662374 816349 12 11 9 14 18 19 13 5 2 6 3 10 8 1 4 7 16 15 17
20328118 727582 1 2 3 17 10 13 18 4 19 6 7 14 5 9 11 12 15 16 8
25724806 667280 2 1 17 3 5 8 15 14 10 4 9 16 13 7 6 18 19 12 11
25483542 1204855 2 1 17 3 16 4 11 19 10 15 6 9 13 5 7 18 14 8 12
18054452 1053058 15 16 8 7 11 12 13 17 6 14 10 5 9 4 19 18 1 2 3
20328118 1347944 1 2 3 17 10 13 18 4 19 6 7 14 5 9 11 12 15 16 8
20265368 1177635 1 2 3 17 10 13 9 4 12 6 7 18 5 11 14 19 15 16 8
19364710 1008028 15 16 9 12 11 14 5 10 8 7 3 13 6 4 18 19 17 1 2
21112254 1120878 2 1 17 3 5 8 14 19 10 4 11 9 13 7 6 18 15 16 12
17937024 1133709 15 16 8 19 14 18 10 17 4 11 5 13 12 6 7 9 1 2 3
26325426 741250 2 1 3 4 16 8 9 18 5 15 11 10 17 7 19 14 6 13 12
18266946 995129 15 16 6 9 14 7 13 10 4 11 5 17 12 8 19 18 1 2 3
23458344 1199861 1 2 3 17 19 13 14 4 15 18 7 9 8 16 11 12 5 10 6
28963088 767947 16 2 1 15 12 19 6 8 11 9 5 4 10 7 14 18 17 3 13
24807852 1260885 16 15 8 17 1 13 7 19 5 2 10 6 3 4 18 14 11 12 9
17997928 1407531 15 16 8 12 11 18 13 17 6 9 10 5 7 4 14 19 1 2 3
18266946 1009091 15 16 6 9 14 7 13 10 4 11 5 17 12 8 19 18 1 2 3
24384290 665940 2 1 17 3 5 13 14 19 16 4 9 11 10 15 6 7 18 8 12
17997928 1531597 15 16 8 12 11 18 13 17 6 9 10 5 7 4 14 19 1 2 3
22756804 1448098 16 15 14 11 12 19 10 6 2 18 3 5 8 1 9 7 4 13 17
20265368 1010477 1 2 3 17 10 13 9 4 12 6 7 18 5 11 19 14 15 16 8
24905912 1161859 15 16 13 6 8 18 11 9 5 4 2 7 3 17 19 14 12 10 1
24571270 864031 1 2 17 10 9 7 8 4 12 14 6 13 5 11 18 19 16 15 3
20282878 1067430 1 2 3 17 18 13 9 4 12 6 7 10 8 11 14 19 15 16 5
24807852 794995 16 15 8 17 1 13 7 19 5 2 10 6 3 4 18 14 11 12 9
20282878 1143694 1 2 3 17 18 13 9 4 12 6 7 10 8 11 14 19 15 16 5
24807852 1199166 16 15 8 17 1 13 7 19 5 2 10 6 3 4 18 14 11 12 9
24807852 1054503 16 15 8 17 1 13 7 19 5 2 10 6 3 4 18 14 11 12 9
17937024 1197211 15 16 8 19 14 18 10 17 4 11 5 13 12 6 7 9 1 2 3
22266962 1463076 15 16 12 11 9 19 4 6 3 7 2 13 8 17 18 14 5 10 1
29228160 1196542 2 1 3 16 5 15 7 8 10 4 11 6 17 9 14 19 18 13 12
23255528 709883 1 2 3 17 16 13 18 4 12 15 7 9 8 11 14 19 5 10 6
26516128 922349 1 2 17 10 12 9 18 6 16 11 7 13 5 15 14 19 8 3 4
24355740 877999 1 2 17 10 12 9 8 4 18 11 7 13 5 6 14 19 16 15 3
17997928 1521208 15 16 8 12 11 18 13 17 6 9 10 5 7 4 14 19 1 2 3
20265368 711746 1 2 3 17 10 13 9 4 12 6 7 18 5 11 19 14 15 16 8
24807852 735529 16 15 8 17 1 13 7 19 5 2 10 6 3 4 14 18 11 12 9
19725086 1537375 15 16 6 11 14 18 4 8 10 19 1 13 12 5 9 7 17 3 2
21112254 802899 2 1 17 3 5 8 14 19 10 4 11 9 13 7 6 18 15 16 12
17997928 1085887 15 16 8 12 11 18 13 17 6 9 10 5 7 4 19 14 1 2 3
17937024 1360295 15 16 8 18 14 19 10 17 4 11 5 13 12 6 9 7 1 2 3
17937024 920641 15 16 8 18 14 19 10 17 4 11 5 13 12 6 7 9 1 2 3
27782430 562366 16 15 8 1 17 2 11 12 18 13 4 7 3 6 19 14 9 10 5
17997928 1022610 15 16 8 12 11 18 13 17 6 9 10 5 7 4 14 19 1 2 3
18054452 855178 15 16 8 7 11 12 13 17 6 14 10 5 9 4 19 18 1 2 3
19450012 1388499 15 16 12 11 18 14 5 13 4 7 3 10 6 8 9 19 17 1 2
25786074 913228 2 1 17 3 5 13 15 14 11 4 9 16 10 7 6 18 19 8 12
22101364 1247228 11 12 19 9 7 14 4 8 3 5 2 13 10 17 6 18 15 16 1
21159674 549149 11 12 8 14 16 19 10 13 4 15 3 5 18 6 7 9 17 1 2
24493308 714093 1 2 17 10 19 9 8 4 18 14 7 13 5 6 12 11 16 15 3
24807852 813979 16 15 8 17 1 13 7 19 5 2 10 6 3 4 18 14 11 12 9
20627460 1009604 1 2 3 17 19 13 14 6 12 18 7 9 8 11 15 16 4 5 10
27962336 812951 16 15 9 4 5 10 18 7 17 2 3 8 1 13 14 19 11 12 6
27918026 592987 12 11 9 10 7 14 13 18 3 19 5 8 6 17 2 1 15 16 4
18266946 896185 15 16 6 9 14 7 13 10 4 11 5 17 12 8 19 18 1 2 3
22532678 935853 15 16 11 14 7 19 5 9 3 8 2 13 4 17 18 6 12 10 1
22900324 764108 16 15 9 14 18 19 13 7 2 6 3 4 8 1 12 11 5 10 17
27782430 797761 16 15 8 1 17 2 11 12 18 13 4 7 3 6 19 14 9 10 5
22231722 1173255 15 16 12 11 14 19 4 5 3 7 2 13 8 17 6 18 9 10 1
20282878 1043792 1 2 3 17 18 13 9 4 12 6 7 10 8 11 19 14 15 16 5
23255528 1259878 1 2 3 17 16 13 18 4 12 15 7 9 8 11 19 14 5 10 6
21229414 1314744 2 1 17 3 5 13 14 19 9 4 8 11 10 7 6 18 15 16 12
18266946 864415 15 16 6 9 14 7 13 10 4 11 5 17 12 8 19 18 1 2 3
24128698 912645 2 1 17 3 4 5 14 19 16 8 11 7 13 15 6 18 9 10 12
24679784 736214 1 2 3 17 8 13 15 6 12 18 9 16 4 11 19 14 5 10 7
17937024 1436638 15 16 8 19 14 18 10 17 4 11 5 13 12 6 7 9 1 2 3
18132976 1100589 15 16 6 7 19 18 13 17 4 14 10 5 9 8 11 12 1 2 3
22595074 1200890 9 10 5 6 11 12 15 17 8 14 13 16 7 4 19 18 1 2 3
22167030 935166 11 12 9 14 7 19 5 10 3 8 2 13 4 17 6 18 15 16 1
19862748 1064936 11 6 7 12 16 9 13 10 8 15 4 17 18 5 14 19 1 2 3
26766438 736100 1 2 17 10 16 9 18 6 19 15 7 13 5 14 12 11 8 3 4
17997928 1249154 15 16 8 12 11 18 13 17 6 9 10 5 7 4 14 19 1 2 3
23423508 798732 1 2 3 17 8 13 11 6 15 18 9 12 4 16 14 19 5 10 7
17997928 821217 15 16 8 12 11 18 13 17 6 9 10 5 7 4 19 14 1 2 3
26282446 866727 2 1 3 5 16 4 18 8 11 15 12 7 17 9 14 19 6 13 10
25488578 849978 2 1 17 3 16 8 9 19 14 15 4 10 13 5 7 18 11 12 6
21277552 1496781 2 1 17 3 5 13 19 8 9 4 6 11 10 7 18 14 15 16 12
17997928 615179 15 16 8 12 11 18 13 17 6 9 10 5 7 4 14 19 1 2 3
29292098 750037 1 2 17 16 12 15 6 5 18 9 7 13 10 11 14 19 4 3 8
23527862 1029845 1 2 3 17 16 13 9 6 19 15 18 10 8 14 11 12 4 5 7
27782430 924301 16 15 8 1 17 2 11 12 18 13 4 7 3 6 19 14 9 10 5
25558394 849476 2 1 17 3 4 5 15 19 11 8 6 16 13 7 18 14 9 10 12
24679784 676724 1 2 3 17 8 13 15 6 12 18 9 16 4 11 14 19 5 10 7
20871282 615033 1 2 3 17 10 13 14 18 12 9 7 19 5 11 16 15 6 4 8
27105676 604532 10 1 2 9 15 5 18 4 7 16 8 6 12 11 19 14 17 3 13
22780438 1218012 16 15 9 18 12 11 13 7 2 6 3 4 8 1 14 19 5 10 17
22989998 1260699 16 15 6 7 12 11 5 4 1 14 2 13 9 10 19 18 8 17 3
20508428 732813 9 5 10 7 14 6 8 17 15 11 4 13 12 16 18 19 1 2 3
25465386 936152 2 1 17 3 16 8 9 19 7 15 6 10 13 5 4 18 14 12 11
22756804 824471 16 15 14 11 12 19 10 4 2 18 3 5 8 1 9 7 6 13 17
24375480 971021 1 2 17 10 12 9 6 4 13 11 7 8 5 18 19 14 16 15 3
17997928 1058356 15 16 8 12 11 18 13 17 6 9 10 5 7 4 14 19 1 2 3
24375142 925979 15 16 9 11 18 14 2 7 3 19 13 1 12 17 8 6 5 10 4
28674096 984985 16 15 11 12 18 14 3 7 13 19 5 17 9 10 1 2 6 8 4
24310238 1356616 2 1 17 3 5 8 9 19 16 4 6 10 13 15 7 18 11 12 14
20694866 872678 1 2 3 17 6 13 14 4 12 18 9 19 8 11 15 16 5 10 7
20265368 1108602 1 2 3 17 10 13 9 4 12 6 7 18 5 11 19 14 15 16 8
23246770 969192 1 2 3 17 16 13 18 6 12 15 7 9 8 11 14 19 4 5 10
20265368 969214 1 2 3 17 10 13 9 4 12 6 7 18 5 11 14 19 15 16 8
27750664 1044921 16 15 5 1 17 2 11 12 18 13 4 6 3 8 19 14 9 10 7
24807852 876202 16 15 8 17 1 13 7 19 5 2 10 6 3 4 18 14 11 12 9
27861368 956985 14 7 9 11 12 18 15 4 2 8 3 16 13 1 6 19 5 10 17
19450012 1469384 15 16 12 11 18 14 5 13 4 7 3 10 6 8 9 19 17 1 2
20265368 881384 1 2 3 17 10 13 9 4 12 6 7 18 5 11 19 14 15 16 8
19278506 1727840 15 16 9 7 11 12 5 10 8 18 3 13 6 4 19 14 17 1 2
18266946 1279040 15 16 6 9 14 7 13 10 4 11 5 17 12 8 18 19 1 2 3
26377338 1232018 2 1 3 5 16 4 11 8 9 15 18 7 17 10 14 19 12 13 6
17997928 1180011 15 16 8 12 11 18 13 17 6 9 10 5 7 4 14 19 1 2 3
18266946 945036 15 16 6 9 14 7 13 10 4 11 5 17 12 8 18 19 1 2 3
21112254 1396404 2 1 17 3 5 8 14 19 10 4 11 9 13 7 6 18 15 16 12
28782630 829967 16 15 11 19 18 14 3 7 13 9 5 17 12 10 1 2 6 8 4
28674096 911422 16 15 11 12 18 14 3 7 13 19 5 17 9 10 1 2 6 8 4
20636218 884076 1 2 3 17 19 13 14 4 12 18 7 9 8 11 15 16 5 10 6
23775164 721735 11 12 9 14 15 19 4 6 3 16 2 13 8 17 18 7 5 10 1
26791342 861708 2 1 3 5 10 4 15 18 7 6 11 16 17 9 14 19 8 13 12
22231722 922182 15 16 12 11 14 19 4 5 3 7 2 13 8 17 6 18 9 10 1
21312162 812030 2 1 17 3 4 5 14 19 11 8 6 9 13 7 15 16 18 10 12
20265368 874246 1 2 3 17 10 13 9 4 12 6 7 18 5 11 19 14 15 16 8
17997928 1249684 15 16 8 12 11 18 13 17 6 9 10 5 7 4 14 19 1 2 3
17997928 1000362 15 16 8 12 11 18 13 17 6 9 10 5 7 4 14 19 1 2 3
18055520 909082 15 16 8 18 12 19 13 17 6 11 4 5 9 10 7 14 1 2 3
20265368 921313 1 2 3 17 10 13 9 4 12 6 7 18 5 11 19 14 15 16 8
18266946 1097882 15 16 6 9 14 7 13 10 4 11 5 17 12 8 18 19 1 2 3
25812178 770141 2 1 17 3 5 13 15 14 9 4 8 16 10 7 6 18 19 12 11
26524058 802752 16 15 3 13 17 8 11 18 9 1 10 12 2 5 14 19 6 4 7
24045742 767425 14 5 10 9 18 19 15 13 8 7 3 16 6 4 11 12 17 1 2
23381474 997317 1 2 3 17 16 13 9 6 12 15 11 10 8 18 19 14 4 5 7
25792640 685666 2 1 17 3 5 13 15 14 11 4 6 16 10 9 7 18 19 8 12
25347822 966171 2 1 17 3 16 4 19 6 11 15 8 9 13 5 18 14 7 10 12
21368990 1118860 2 1 17 3 5 4 14 19 9 10 6 11 13 7 8 18 15 16 12
25056580 1063390 15 16 13 8 6 18 7 9 5 4 2 10 3 17 14 19 11 12 1
17997928 419451 15 16 8 12 11 18 13 17 6 9 10 5 7 4 14 19 1 2 3
26857574 1084062 1 2 17 12 16 19 6 5 18 15 7 13 10 9 11 14 8 3 4
22756804 734227 16 15 14 11 12 19 10 6 2 18 3 5 8 1 9 7 4 13 17
20265368 1213479 1 2 3 17 10 13 9 4 12 6 7 18 5 11 19 14 15 16 8
19687460 901589 15 16 8 11 14 18 5 4 10 19 1 13 12 6 9 7 17 3 2
24384290 1050096 2 1 17 3 5 13 14 19 16 4 9 11 10 15 6 7 18 8 12
23278794 684293 12 5 9 11 6 7 17 10 13 18 3 1 8 4 14 19 16 15 2
20508428 807323 9 5 10 7 14 6 8 17 15 11 4 13 12 16 19 18 1 2 3
18057498 1021276 15 16 10 7 14 9 13 17 6 11 4 5 12 8 18 19 1 2 3
20646604 854723 1 2 3 17 6 13 14 4 12 18 11 9 8 19 15 16 5 10 7
22872848 1018256 16 15 18 11 12 19 13 7 2 6 3 10 8 1 9 14 5 4 17
22101364 782125 11 12 19 9 7 14 4 8 3 5 2 13 10 17 18 6 15 16 1
23255528 742642 1 2 3 17 16 13 18 4 12 15 7 9 8 11 19 14 5 10 6
18132976 1220098 15 16 6 7 19 18 13 17 4 14 10 5 9 8 11 12 1 2 3
22231722 1178531 15 16 12 11 14 19 4 5 3 7 2 13 8 17 6 18 9 10 1
22786430 895915 16 15 7 9 12 11 5 6 1 14 2 13 10 17 19 18 8 4 3
20508428 1181538 9 5 10 7 14 6 8 17 15 11 4 13 12 16 18 19 1 2 3
17997928 751546 15 16 8 12 11 18 13 17 6 9 10 5 7 4 14 19 1 2 3
19687460 871982 15 16 8 11 14 18 5 4 10 19 1 13 12 6 9 7 17 3 2
17937024 1061956 15 16 8 18 14 19 10 17 4 11 5 13 12 6 7 9 1 2 3
20265368 1280560 1 2 3 17 10 13 9 4 12 6 7 18 5 11 19 14 15 16 8
27106938 779449 16 15 9 5 1 10 18 7 13 2 3 8 17 4 14 19 11 12 6
24807852 837318 16 15 8 17 1 13 7 19 5 2 10 6 3 4 18 14 11 12 9
28444008 746220 1 2 17 12 19 11 16 5 13 9 7 15 10 6 18 14 4 3 8
17997928 1864201 15 16 8 12 11 18 13 17 6 9 10 5 7 4 14 19 1 2 3
26791342 676705 2 1 3 5 10 4 15 18 7 6 11 16 17 9 19 14 8 13 12
24807852 695544 16 15 8 17 1 13 7 19 5 2 10 6 3 4 18 14 11 12 9
19538726 1427178 15 16 12 19 11 14 8 13 5 9 10 3 7 4 18 6 17 1 2
17997928 1511331 15 16 8 12 11 18 13 17 6 9 10 5 7 4 14 19 1 2 3
18057498 866594 15 16 10 7 14 9 13 17 6 11 4 5 12 8 18 19 1 2 3
21981206 1005975 9 8 6 14 16 18 5 4 10 15 1 13 19 7 11 12 17 3 2
23092416 1338830 16 15 7 11 12 18 10 6 1 14 2 13 5 17 9 19 8 4 3
22756804 781751 16 15 14 11 12 19 10 6 2 18 3 5 8 1 9 7 4 13 17
17997928 1150072 15 16 8 12 11 18 13 17 6 9 10 5 7 4 14 19 1 2 3
20903190 737323 1 2 3 17 10 13 18 6 12 9 11 14 5 19 15 16 7 4 8
17937024 762767 15 16 8 19 14 18 10 17 4 11 5 13 12 6 9 7 1 2 3
24807852 1501074 16 15 8 17 1 13 7 19 5 2 10 6 3 4 18 14 11 12 9
19538726 1268479 15 16 12 14 11 19 8 13 5 9 10 3 7 4 18 6 17 1 2
19538726 1966993 15 16 12 19 11 14 8 13 5 9 10 3 7 4 18 6 17 1 2
27750664 815823 16 15 5 1 17 2 11 12 18 13 4 6 3 8 19 14 9 10 7
26516128 1011333 1 2 17 10 12 9 18 6 16 11 7 13 5 15 14 19 8 3 4
23384290 816864 1 2 3 17 12 13 7 4 15 18 11 9 8 16 14 19 5 10 6
18129306 981553 15 16 8 7 19 18 13 17 6 14 10 5 9 4 11 12 1 2 3
17212548 1226084 9 10 7 18 14 19 13 17 6 11 4 5 12 8 15 16 1 2 3
20282878 829199 1 2 3 17 18 13 9 4 12 6 7 10 8 11 14 19 15 16 5
23400498 1014701 1 2 3 17 16 13 9 7 12 15 11 10 8 18 19 14 6 4 5
22595074 816574 9 10 5 6 11 12 15 17 8 14 13 16 7 4 18 19 1 2 3
25786074 635117 2 1 17 3 5 13 15 14 11 4 9 16 10 7 6 18 19 8 12
20328118 838843 1 2 3 17 10 13 18 4 19 6 7 14 5 9 11 12 15 16 8
24807852 938850 16 15 8 17 1 13 7 19 5 2 10 6 3 4 18 14 11 12 9
17997928 1517849 15 16 8 12 11 18 13 17 6 9 10 5 7 4 19 14 1 2 3
17937024 1527258 15 16 8 19 14 18 10 17 4 11 5 13 12 6 7 9 1 2 3
24807852 1457945 16 15 8 17 1 13 7 19 5 2 10 6 3 4 18 14 11 12 9
17997928 824008 15 16 8 12 11 18 13 17 6 9 10 5 7 4 14 19 1 2 3
18055520 1268576 15 16 8 18 12 19 13 17 6 11 4 5 9 10 7 14 1 2 3
22266962 1557094 15 16 12 11 9 19 4 6 3 7 2 13 8 17 18 14 5 10 1
18128112 1352304 15 16 6 19 14 18 13 17 4 9 10 5 7 8 11 12 1 2 3
24807852 949232 16 15 8 17 1 13 7 19 5 2 10 6 3 4 18 14 11 12 9
17937024 1357434 15 16 8 19 14 18 10 17 4 11 5 13 12 6 7 9 1 2 3
24807852 660609 16 15 8 17 1 13 7 19 5 2 10 6 3 4 18 14 11 12 9
29292098 898388 1 2 17 16 12 15 6 5 18 9 7 13 10 11 14 19 4 3 8
19364710 1774496 15 16 9 12 11 14 5 10 8 7 3 13 6 4 18 19 17 1 2
17997928 796337 15 16 8 12 11 18 13 17 6 9 10 5 7 4 19 14 1 2 3
22580388 970683 12 11 14 18 6 19 10 5 2 8 3 13 4 1 7 9 16 15 17
18057498 1216273 15 16 10 7 14 9 13 17 6 11 4 5 12 8 18 19 1 2 3
24807852 1404482 16 15 8 17 1 13 7 19 5 2 10 6 3 4 18 14 11 12 9
18266946 767011 15 16 6 9 14 7 13 10 4 11 5 17 12 8 18 19 1 2 3
28684466 513382 5 2 1 12 11 19 16 8 6 9 4 15 10 7 18 14 17 3 13
27867168 942268 12 7 9 11 6 18 15 10 2 8 3 16 4 1 19 14 5 13 17
17997928 2208944 15 16 8 12 11 18 13 17 6 9 10 5 7 4 14 19 1 2 3
22551738 1146588 9 5 10 7 14 6 15 17 4 11 13 16 12 8 18 19 1 2 3
29275346 688261 1 2 17 16 10 15 18 6 12 9 7 13 5 11 19 14 4 3 8
28630506 1229677 16 15 11 12 18 14 3 6 5 19 10 17 9 13 1 2 8 4 7
21526608 695677 11 12 9 14 18 19 4 6 3 7 2 13 8 17 16 15 5 10 1
17997928 1687207 15 16 8 12 11 18 13 17 6 9 10 5 7 4 14 19 1 2 3
24807852 1029299 16 15 8 17 1 13 7 19 5 2 10 6 3 4 18 14 11 12 9
19725086 836898 15 16 6 11 14 18 4 8 10 19 1 13 12 5 9 7 17 3 2
22551738 923452 9 5 10 7 14 6 15 17 4 11 13 16 12 8 18 19 1 2 3
23149614 817135 12 6 8 11 19 18 10 4 1 14 2 13 5 17 9 7 15 16 3
22595074 676986 9 10 5 6 11 12 15 17 8 14 13 16 7 4 18 19 1 2 3
22359984 729063 15 16 12 14 9 19 4 5 3 11 2 8 7 17 18 6 13 10 1
18057498 1150935 15 16 10 7 14 9 13 17 6 11 4 5 12 8 18 19 1 2 3
18129306 1451610 15 16 8 7 19 18 13 17 6 14 10 5 9 4 11 12 1 2 3
21368990 1335766 2 1 17 3 5 4 14 19 9 10 6 11 13 7 8 18 15 16 12
26471040 977922 15 16 6 4 13 18 12 11 1 8 2 5 3 17 19 14 9 7 10
26724274 721321 16 15 3 5 17 13 11 18 9 1 10 7 2 12 14 19 8 4 6
26577496 893158 15 16 7 4 13 6 12 14 1 8 2 5 3 17 19 18 11 9 10
23381474 1042651 1 2 3 17 16 13 9 6 12 15 11 10 8 18 19 14 4 5 7
24807852 1106016 16 15 8 17 1 13 7 19 5 2 10 6 3 4 18 14 11 12 9
24807852 1061948 16 15 8 17 1 13 7 19 5 2 10 6 3 4 18 14 11 12 9
20508428 1109342 9 5 10 7 14 6 8 17 15 11 4 13 12 16 18 19 1 2 3
24413028 683122 15 16 9 11 12 19 1 6 3 14 13 2 7 17 8 18 5 10 4
25558394 927601 2 1 17 3 4 5 15 19 11 8 6 16 13 7 18 14 9 10 12
17997928 1303994 15 16 8 12 11 18 13 17 6 9 10 5 7 4 19 14 1 2 3
20548518 904647 9 10 5 6 11 12 8 17 15 14 4 13 7 16 18 19 1 2 3
27690660 631132 1 2 3 16 13 15 9 8 12 18 7 10 17 11 19 14 4 5 6
22101364 883810 11 12 19 9 7 14 4 8 3 5 2 13 10 17 18 6 15 16 1
23381474 772221 1 2 3 17 16 13 9 6 12 15 11 10 8 18 19 14 4 5 7
17997928 1033118 15 16 8 12 11 18 13 17 6 9 10 5 7 4 14 19 1 2 3
19687460 1017124 15 16 8 11 14 18 5 4 10 19 1 13 12 6 9 7 17 3 2
19538726 1170195 15 16 12 19 11 14 8 13 5 9 10 3 7 4 18 6 17 1 2
25025564 693848 16 15 8 17 1 13 18 19 5 2 10 6 3 4 11 12 14 7 9
18266946 951143 15 16 6 9 14 7 13 10 4 11 5 17 12 8 18 19 1 2 3
20265368 1060791 1 2 3 17 10 13 9 4 12 6 7 18 5 11 19 14 15 16 8
22551738 736133 9 5 10 7 14 6 15 17 4 11 13 16 12 8 19 18 1 2 3
27351008 497920 16 15 5 9 17 10 18 7 13 1 3 8 2 4 14 19 11 12 6
22820186 1288914 10 5 4 17 1 13 12 19 7 2 8 9 3 6 18 14 15 16 11
20265368 997138 1 2 3 17 10 13 9 4 12 6 7 18 5 11 19 14 15 16 8
24807852 993139 16 15 8 17 1 13 7 19 5 2 10 6 3 4 14 18 11 12 9
18128112 961530 15 16 6 18 14 19 13 17 4 9 10 5 7 8 11 12 1 2 3
18055520 855164 15 16 8 18 12 19 13 17 6 11 4 5 9 10 14 7 1 2 3
21229414 1433718 2 1 17 3 5 13 14 19 9 4 8 11 10 7 6 18 15 16 12
27829878 581713 12 11 9 10 7 14 13 18 3 19 4 8 5 17 2 1 15 16 6
24679784 718036 1 2 3 17 8 13 15 6 12 18 9 16 4 11 19 14 5 10 7
21229414 882470 2 1 17 3 5 13 14 19 9 4 8 11 10 7 6 18 15 16 12
20732366 874257 1 2 3 17 8 13 14 6 12 18 9 19 4 11 15 16 5 10 7
18266946 976303 15 16 6 9 14 7 13 10 4 11 5 17 12 8 18 19 1 2 3
18266946 1103921 15 16 6 9 14 7 13 10 4 11 5 17 12 8 19 18 1 2 3
22854874 996196 16 15 18 7 19 14 5 6 1 9 2 13 10 17 11 12 8 4 3
18266946 982431 15 16 6 9 14 7 13 10 4 11 5 17 12 8 18 19 1 2 3
22756804 913216 16 15 14 11 12 19 10 6 2 18 3 5 8 1 9 7 4 13 17
19687460 1237226 15 16 8 11 14 18 5 4 10 19 1 13 12 6 9 7 17 3 2
22714184 903592 16 15 18 7 12 11 5 6 1 9 2 13 10 17 14 19 8 4 3
17997928 1556694 15 16 8 12 11 18 13 17 6 9 10 5 7 4 14 19 1 2 3
20732366 794448 1 2 3 17 8 13 14 6 12 18 9 19 4 11 15 16 5 10 7
20265368 1018999 1 2 3 17 10 13 9 4 12 6 7 18 5 11 14 19 15 16 8
20328118 1395782 1 2 3 17 10 13 18 4 19 6 7 14 5 9 11 12 15 16 8
21277552 622889 2 1 17 3 5 13 19 8 9 4 6 11 10 7 18 14 15 16 12
20328118 1004877 1 2 3 17 10 13 18 4 19 6 7 14 5 9 11 12 15 16 8
22820186 661402 10 5 4 17 1 13 12 19 7 2 8 9 3 6 18 14 15 16 11
24891350 1004011 1 2 3 17 8 13 15 7 12 6 11 16 4 18 19 14 5 10 9
17997928 1166597 15 16 8 12 11 18 13 17 6 9 10 5 7 4 14 19 1 2 3
29253310 888581 1 2 17 16 19 15 6 5 12 9 7 13 10 11 14 18 4 3 8
23669658 464797 8 5 4 3 2 13 11 7 19 1 10 12 17 6 18 14 15 16 9
22495350 1224783 12 11 9 18 7 19 13 8 2 6 3 5 10 1 14 4 16 15 17
17997928 1294508 15 16 8 12 11 18 13 17 6 9 10 5 7 4 14 19 1 2 3
21112254 1464607 2 1 17 3 5 8 14 19 10 4 11 9 13 7 6 18 15 16 12
23888660 502261 1 2 17 10 19 9 18 6 12 14 7 13 5 11 16 15 4 3 8
28636514 863714 16 15 18 12 19 11 3 6 13 14 10 17 9 5 1 2 8 4 7
23381474 742282 1 2 3 17 16 13 9 6 12 15 11 10 8 18 19 14 4 5 7
20682446 760440 1 2 3 17 8 13 14 6 12 18 11 9 4 19 15 16 7 10 5
20022012 1329568 15 16 8 7 14 18 5 4 10 19 1 13 9 6 11 12 17 3 2
19424882 2229042 15 16 12 14 11 19 5 13 4 18 3 10 6 8 9 7 17 1 2
18054452 915415 15 16 8 7 11 12 13 17 6 14 10 5 9 4 19 18 1 2 3
18054452 1088387 15 16 8 7 11 12 13 17 6 14 10 5 9 4 18 19 1 2 3
22714184 696670 16 15 18 7 12 11 5 6 1 9 2 13 10 17 14 19 8 4 3
19364710 1476123 15 16 9 12 11 14 5 10 8 7 3 13 6 4 18 19 17 1 2
22231722 1695179 15 16 12 11 14 19 4 5 3 7 2 13 8 17 6 18 9 10 1
19364710 1075513 15 16 9 12 11 14 5 10 8 7 3 13 6 4 18 19 17 1 2
20328118 796391 1 2 3 17 10 13 18 4 19 6 7 14 5 9 11 12 15 16 8
20265368 1269236 1 2 3 17 10 13 9 4 12 6 7 18 5 11 14 19 15 16 8
24807852 1128151 16 15 8 17 1 13 7 19 5 2 10 6 3 4 18 14 11 12 9
22231722 941617 15 16 12 11 14 19 4 5 3 7 2 13 8 17 6 18 9 10 1
26664506 1015570 1 2 17 10 19 9 18 6 16 14 7 13 5 15 12 11 8 3 4
17937024 1100988 15 16 8 19 14 18 10 17 4 11 5 13 12 6 7 9 1 2 3
22820186 625630 10 5 4 17 1 13 12 19 7 2 8 9 3 6 18 14 15 16 11
21277552 1204350 2 1 17 3 5 13 19 8 9 4 6 11 10 7 18 14 15 16 12
20040070 976092 15 16 6 7 14 18 4 8 10 19 1 13 9 5 11 12 17 3 2
29292098 676764 1 2 17 15 12 16 6 5 18 9 7 13 10 11 19 14 4 3 8
20282878 893777 1 2 3 17 18 13 9 4 12 6 7 10 8 11 14 19 15 16 5
19364710 1416547 15 16 9 12 11 14 5 10 8 7 3 13 6 4 19 18 17 1 2
17997928 1603402 15 16 8 12 11 18 13 17 6 9 10 5 7 4 14 19 1 2 3
20265368 935077 1 2 3 17 10 13 9 4 12 6 7 18 5 11 19 14 15 16 8
26471040 810858 15 16 6 4 13 18 12 11 1 8 2 5 3 17 19 14 9 7 10
22231722 699789 15 16 12 11 14 19 4 5 3 7 2 13 8 17 6 18 9 10 1
22874316 656252 14 4 9 7 18 19 5 13 15 6 3 17 8 16 11 12 10 1 2
28762592 708378 16 15 9 12 19 11 3 7 13 14 8 17 18 5 1 2 4 10 6
18055520 1184475 15 16 8 18 12 19 13 17 6 11 4 5 9 10 7 14 1 2 3
18266946 1146644 15 16 6 9 14 7 13 10 4 11 5 17 12 8 18 19 1 2 3
20871282 814914 1 2 3 17 10 13 14 18 12 9 7 19 5 11 15 16 6 4 8
31488708 1224446 13 14 18 3 4 8 12 19 10 6 7 9 17 5 2 1 15 16 11
