10158209 3194502 2 1 15 26 6 23 22 13 12 14 19 5 9 7 21 11 4 20 18 8 17 25 24 10 16 3
10172680 2004608 21 26 6 15 23 22 11 20 12 14 5 19 9 1 2 13 7 4 18 25 8 10 17 24 3 16
10283007 1701126 23 3 13 9 11 4 22 21 19 16 20 14 18 15 6 7 12 5 1 24 2 10 25 17 8 26
10121687 2070300 23 11 14 22 12 25 1 15 10 8 20 4 18 7 2 21 5 9 19 13 16 6 26 3 24 17
10141838 2040677 22 2 12 23 11 1 25 15 10 9 4 20 18 8 14 21 5 19 7 3 16 26 6 13 17 24
10158106 2871221 21 1 15 26 6 23 22 12 13 14 7 5 9 19 2 11 4 18 20 24 17 25 10 8 16 3
10122794 3834636 23 14 11 13 12 25 1 8 15 2 20 18 4 7 26 21 5 19 9 22 6 16 3 10 17 24
10120153 2080984 23 11 13 22 12 2 8 15 1 21 20 7 18 4 26 25 19 9 5 16 6 14 3 10 24 17
10121046 3326519 26 23 12 11 14 2 8 1 15 21 4 20 18 7 13 25 19 5 9 3 22 10 6 16 24 17
10148184 2027291 23 12 8 2 11 21 17 10 3 15 20 18 19 4 16 1 5 9 7 13 14 6 26 22 25 24
10158222 2341707 1 15 2 26 6 23 13 22 11 16 5 9 19 7 21 12 18 20 4 17 25 8 24 10 3 14
10160579 1972360 1 15 2 26 6 23 22 11 12 14 5 9 19 7 21 13 20 4 18 17 25 8 24 10 3 16
10153091 2379227 8 12 23 11 14 25 24 15 21 9 4 18 20 7 13 1 5 19 3 2 26 22 6 16 10 17
10175678 2375745 1 26 21 2 11 12 13 16 22 20 5 19 15 9 6 14 18 4 7 17 8 24 10 25 3 23
10162330 1736264 1 15 2 26 6 23 22 3 14 11 5 9 19 7 21 12 20 4 18 17 25 8 24 10 16 13
10149022 2386765 11 13 12 8 16 17 21 10 3 15 4 18 20 19 23 1 5 9 7 22 14 26 6 2 25 24
10184335 2548919 21 9 15 2 6 16 22 13 12 14 5 18 1 19 23 11 4 7 20 24 10 25 8 17 3 26
10179924 1418516 21 23 6 15 11 12 13 16 22 20 5 19 9 1 2 14 18 4 7 25 8 10 17 24 3 26
10149107 2848872 23 12 13 8 16 17 21 10 3 15 19 20 18 4 11 1 5 9 7 22 26 14 6 2 24 25
10134500 2076706 11 2 12 23 14 8 10 1 9 15 7 4 18 20 22 25 19 5 21 6 3 26 13 16 17 24
10164014 1891120 2 21 26 15 6 23 22 11 14 3 7 5 19 9 1 12 20 4 18 8 24 10 17 25 16 13
10138030 3290162 13 11 23 12 2 24 25 21 1 9 8 4 20 18 14 15 19 7 5 6 16 22 3 26 10 17
10158222 2795321 1 15 2 26 6 23 13 22 11 16 5 9 19 7 21 12 18 20 4 17 25 8 24 10 3 14
10155313 2452731 13 12 11 23 7 24 25 2 9 15 8 18 4 20 26 1 5 19 21 6 14 3 16 22 10 17
10184506 2728203 21 15 8 6 23 12 13 16 22 20 5 9 19 1 26 11 18 4 7 24 17 10 25 2 3 14
10121428 2414478 22 12 13 2 23 1 25 8 10 15 7 20 18 4 11 21 5 19 9 6 26 14 3 16 24 17
10226847 1750645 19 22 7 23 11 6 3 13 21 9 1 20 15 12 4 16 14 18 5 2 26 17 8 24 10 25
10160579 2401327 1 2 15 26 6 23 22 11 12 14 5 19 9 7 21 13 20 4 18 17 8 25 24 10 16 3
10169411 1957208 15 6 21 2 7 26 22 14 3 11 9 1 5 19 23 12 20 18 4 17 25 24 8 10 16 13
10162452 2578071 11 8 22 12 7 21 17 10 2 15 4 19 20 18 14 1 5 9 3 16 6 13 26 23 25 24
10169802 1937853 21 15 6 2 23 11 22 13 12 14 5 9 1 19 26 20 4 7 18 24 17 25 10 8 3 16
10158209 1201667 1 15 2 26 6 23 22 12 13 14 5 9 19 7 21 11 4 18 20 17 25 8 10 24 16 3
10249572 2957771 21 11 22 26 13 2 8 15 4 9 5 14 20 18 3 7 19 1 12 25 16 17 10 6 23 24
10173017 2316869 1 6 21 2 11 23 22 13 12 14 5 9 15 19 26 20 4 7 18 17 10 25 24 8 16 3
10147426 2768039 11 13 22 8 12 25 1 3 10 15 4 18 20 19 16 21 5 7 9 6 14 2 26 23 17 24
10162330 2543000 1 2 15 26 6 22 23 3 14 11 5 19 9 7 21 12 20 4 18 17 8 25 10 24 13 16
10217761 2441772 12 13 8 2 11 4 25 21 15 3 18 14 19 9 16 7 20 5 1 24 23 26 22 6 17 10
10158106 2354585 15 1 21 26 6 23 22 12 13 14 9 5 7 19 2 11 4 18 20 25 17 24 10 8 16 3
10120145 3185332 12 11 22 2 13 1 25 10 8 15 18 4 20 7 23 21 5 9 19 14 16 26 3 6 24 17
10159628 2668085 1 2 15 26 6 13 12 11 22 16 5 19 9 7 21 14 18 4 20 17 8 25 10 24 3 23
10120982 3664512 11 23 12 22 13 1 25 8 10 15 4 20 18 7 26 21 5 19 9 16 2 14 3 6 24 17
10174859 2287957 13 16 11 2 12 25 24 15 9 8 7 20 4 19 3 21 5 1 18 6 14 22 26 23 17 10
10162330 2289544 1 2 15 26 6 23 22 3 14 11 5 19 9 7 21 12 20 4 18 17 8 25 10 24 16 13
10174859 2203690 16 11 13 2 12 25 24 15 9 8 20 4 7 19 3 21 5 1 18 14 22 6 26 23 10 17
10158209 2444186 1 2 15 26 6 23 22 12 13 14 5 19 9 7 21 11 4 18 20 17 8 25 24 10 16 3
10173261 2076192 4 16 23 8 7 1 25 10 3 15 12 9 20 19 11 21 5 18 14 13 6 22 26 2 17 24
10162330 2687797 1 2 15 26 6 22 23 14 3 11 5 19 9 7 21 12 20 18 4 17 8 25 24 10 16 13
10123458 2332068 22 12 23 2 11 1 25 10 15 8 4 20 18 7 13 21 5 19 9 3 26 14 6 16 24 17
10162330 2430117 1 2 15 26 6 23 22 3 14 11 5 19 9 7 21 12 20 4 18 17 8 25 10 24 16 13
10123516 2602261 13 23 14 11 12 15 25 21 8 2 7 20 18 4 22 1 9 5 19 6 16 10 3 26 17 24
10166441 1518900 21 15 2 23 7 13 12 22 11 16 5 1 9 19 26 14 18 20 4 24 25 10 17 8 6 3
10147842 1408991 11 13 23 2 12 1 25 3 10 15 4 18 20 19 16 21 5 7 9 6 14 22 26 8 24 17
10164839 3269794 21 6 15 2 7 11 3 22 12 14 5 1 9 19 23 26 4 20 18 24 25 17 10 8 13 16
10163886 3276995 21 15 1 2 6 23 13 11 22 16 5 19 9 7 26 12 18 4 20 25 24 17 8 10 14 3
10162227 3297561 1 15 21 26 6 23 22 3 14 11 5 9 7 19 2 12 20 4 18 17 25 24 8 10 16 13
10160579 1982007 1 15 2 26 6 23 22 11 12 14 5 9 19 7 21 13 20 4 18 17 25 8 10 24 16 3
10158952 2629890 1 2 15 26 6 3 23 22 12 14 5 19 9 7 21 11 4 20 18 17 8 25 24 10 16 13
10161513 1948830 1 26 2 6 21 22 23 12 11 14 5 19 7 9 15 13 20 18 4 17 10 8 25 24 16 3
10162330 1924514 1 15 2 26 6 23 22 3 14 11 5 9 19 7 21 12 20 4 18 17 25 8 10 24 16 13
10246107 1339359 16 13 23 21 22 19 7 4 8 11 9 14 18 5 3 15 1 20 12 10 6 17 24 25 26 2
10147861 2102850 16 8 11 23 14 21 17 10 15 3 4 19 7 20 12 1 5 18 9 6 26 22 13 2 24 25
10208692 2466666 22 16 8 13 12 15 3 11 21 7 20 9 19 14 18 2 1 4 5 24 6 10 23 26 17 25
10143823 2275982 2 14 11 13 12 17 21 15 10 9 20 18 4 8 22 1 5 19 7 16 6 3 23 26 25 24
10120102 4073782 22 12 13 2 23 8 10 1 15 21 7 20 18 4 11 25 19 5 9 6 26 14 16 3 17 24
10149297 3075551 23 12 8 22 16 24 25 15 3 21 20 18 19 4 11 1 5 9 7 13 14 2 6 26 17 10
10158209 2245299 1 15 2 26 6 22 23 13 12 14 5 9 19 7 21 11 4 20 18 17 25 8 24 10 16 3
10195457 2257963 3 26 1 6 21 8 16 12 11 14 7 18 5 9 15 13 19 20 4 2 10 17 25 24 23 22
10173397 1980173 4 22 16 8 7 1 25 3 10 15 12 20 9 19 11 21 5 14 18 13 2 6 26 23 17 24
10144371 2138586 23 22 13 2 16 1 25 8 15 9 18 20 12 4 11 21 5 7 19 14 26 6 10 3 17 24
10239765 2249208 13 21 22 6 11 26 23 19 15 7 18 5 20 14 3 4 12 1 9 10 25 17 24 16 8 2
10122829 2746505 22 16 23 12 11 25 1 15 8 2 7 4 20 18 14 21 5 9 19 6 3 13 26 10 17 24
10169802 3286787 21 6 15 2 23 11 22 13 12 14 5 1 9 19 26 20 4 7 18 24 25 17 8 10 3 16
10162330 2211326 1 2 15 26 6 23 22 14 3 11 5 19 9 7 21 12 20 18 4 17 8 25 10 24 16 13
10169802 1746330 21 15 6 2 23 22 11 13 12 14 5 9 1 19 26 20 4 7 18 24 17 25 10 8 3 16
10162227 2964335 21 15 1 26 6 22 23 11 14 3 7 9 5 19 2 12 20 4 18 24 25 17 8 10 16 13
10118972 1742788 22 2 11 23 12 25 15 1 8 21 20 7 4 18 14 10 9 5 19 26 6 16 3 13 24 17
10185791 1966944 1 21 2 6 26 22 23 3 18 14 5 15 19 9 11 12 20 4 7 17 24 8 10 25 13 16
10173337 1985596 21 2 15 6 23 26 22 12 11 14 5 19 9 1 7 13 20 18 4 24 8 10 17 25 3 16
10170676 1894003 21 6 15 2 23 11 22 12 13 14 5 9 1 19 26 20 4 18 7 25 10 17 8 24 3 16
10145788 2570517 12 23 8 22 16 2 25 1 15 21 18 20 19 4 11 3 7 5 9 14 13 24 6 26 10 17
10149022 2998026 13 12 11 8 16 17 21 10 3 15 18 20 4 19 23 1 5 9 7 14 26 22 2 6 25 24
10175455 1887491 15 26 23 25 7 11 3 12 13 14 1 19 9 5 21 22 4 18 20 17 8 2 24 10 16 6
10150318 2971394 12 11 16 23 8 25 24 3 15 21 18 4 19 20 22 1 5 7 9 14 26 6 2 13 10 17
10188371 1759705 15 2 16 21 23 22 13 11 18 14 1 19 9 5 6 12 20 4 7 17 8 10 24 25 26 3
10186421 1912390 1 9 21 26 6 23 3 11 22 14 5 18 15 19 2 12 7 4 20 17 25 24 10 8 13 16
10171508 2340295 21 15 23 6 26 22 11 20 12 14 5 1 19 9 2 13 7 4 18 24 17 8 10 25 3 16
10168225 2042889 15 21 1 2 6 23 22 3 14 11 19 5 9 7 26 12 20 4 18 17 24 25 10 8 13 16
10163264 2882558 1 26 2 6 21 22 23 3 14 11 5 19 7 9 15 12 20 4 18 17 10 8 25 24 13 16
10176461 2035984 6 21 15 2 11 12 13 16 22 20 1 5 9 19 26 14 18 4 7 25 24 17 10 8 3 23
10158383 2146126 1 15 2 26 6 23 11 22 12 14 5 9 19 7 21 13 4 20 18 17 25 8 24 10 16 3
10158412 2490665 21 1 15 26 6 11 3 12 23 14 7 5 9 19 2 22 4 18 20 24 17 25 10 8 16 13
10160032 2493869 1 2 6 21 15 11 3 23 12 14 5 19 9 7 26 22 4 20 18 17 8 10 24 25 13 16
10122524 2790009 2 22 12 23 13 24 25 15 8 21 4 20 18 7 11 1 5 9 19 16 26 14 3 6 10 17
10181740 1485136 6 15 21 2 23 22 12 11 18 14 1 9 5 19 26 16 20 4 7 25 17 24 8 10 3 13
10123388 3625910 13 23 14 11 12 1 25 8 15 2 7 20 18 4 22 21 5 19 9 3 16 6 26 10 24 17
10169470 2301151 21 15 6 2 23 22 11 12 20 14 5 1 9 19 26 13 7 18 4 25 17 10 24 8 16 3
10158106 2198384 15 1 21 26 6 22 23 12 13 14 9 5 7 19 2 11 4 18 20 25 17 24 10 8 3 16
10168858 2041989 12 3 11 22 14 17 21 15 9 8 20 19 4 7 23 10 5 1 18 26 2 16 13 6 25 24
10119502 2186527 22 11 14 13 12 8 10 15 1 21 20 4 18 7 23 25 19 9 5 2 16 6 3 26 17 24
10122484 2218718 13 3 11 22 12 1 25 15 8 2 18 7 4 20 23 21 5 9 19 14 6 16 26 10 17 24
10158209 1883418 1 15 2 26 6 22 23 12 13 14 5 9 19 7 21 11 4 18 20 17 25 8 10 24 3 16
10160579 3392516 1 15 2 26 6 22 23 12 11 14 5 9 19 7 21 13 20 18 4 17 25 8 24 10 3 16
10154745 1441283 8 16 12 23 11 17 21 10 15 3 19 4 18 20 7 1 5 14 9 26 6 13 22 2 24 25
10182215 2137228 21 23 15 6 2 13 26 11 12 14 5 19 1 9 16 18 7 4 20 24 8 17 10 25 22 3
10154326 2322786 23 11 22 12 2 24 25 15 21 9 20 4 7 18 14 1 5 19 3 13 16 6 8 26 10 17
10158106 1794062 1 21 15 26 6 23 22 12 13 14 5 7 9 19 2 11 4 18 20 17 24 25 8 10 3 16
10148288 1168314 23 13 8 11 12 15 1 21 3 2 20 18 19 4 16 10 9 5 7 22 14 6 26 24 17 25
10160579 1877021 1 15 2 26 6 23 22 12 11 14 5 9 19 7 21 13 20 18 4 17 25 8 24 10 3 16
10214406 2445036 26 16 21 3 2 23 8 11 18 14 20 9 15 5 1 12 19 4 7 25 10 6 17 24 13 22
10147662 1931094 8 23 12 11 14 1 25 10 15 3 19 7 20 4 16 21 5 18 9 2 13 26 6 22 17 24
10158209 2527984 1 2 15 26 6 23 22 12 13 14 5 19 9 7 21 11 4 18 20 17 8 25 10 24 16 3
10162330 2361387 1 15 2 26 6 22 23 14 3 11 5 9 19 7 21 12 20 18 4 17 25 8 10 24 16 13
10121794 2493019 23 13 2 11 12 1 25 10 15 8 18 7 20 4 22 21 5 19 9 14 6 16 3 26 24 17
10122994 2523133 12 11 22 23 14 24 25 8 15 21 18 4 20 7 2 1 5 19 9 3 16 26 13 6 17 10
10157970 1637121 11 22 8 23 16 25 15 1 3 21 4 20 19 12 13 10 9 5 18 26 2 6 14 7 17 24
10120066 2872682 13 11 14 22 12 2 8 1 15 21 7 4 18 20 23 25 19 5 9 3 16 6 26 10 17 24
10160469 2402954 1 6 2 21 15 3 23 22 12 14 5 9 19 7 26 11 4 20 18 17 10 8 24 25 16 13
10121102 3472316 13 12 11 2 6 10 8 15 1 21 7 18 4 20 23 25 19 9 5 3 14 16 26 22 24 17
10156000 2328156 23 10 22 2 6 1 25 9 8 15 7 12 20 4 11 21 5 18 19 13 14 26 16 3 24 17
10158383 1729851 1 2 15 26 6 11 23 22 12 14 5 19 9 7 21 13 4 20 18 17 8 25 24 10 16 3
10132575 1421703 11 2 23 12 13 10 8 9 1 15 4 7 20 18 14 25 19 21 5 16 6 22 3 26 24 17
10158119 2936356 1 15 21 26 6 13 23 11 22 16 5 9 7 19 2 12 18 4 20 17 25 24 8 10 3 14
10140873 2254215 2 14 13 23 11 1 25 8 15 7 4 18 12 20 26 21 5 19 9 3 10 6 16 22 17 24
10159893 2855466 26 21 2 15 6 22 23 12 13 14 19 5 7 9 1 11 4 18 20 10 24 8 17 25 3 16
10201481 1146942 15 16 21 2 23 3 22 13 12 18 1 9 5 7 11 14 19 4 20 17 10 25 8 24 26 6
10153264 2180863 22 11 23 13 7 1 25 2 9 15 20 4 18 8 12 10 5 19 21 16 3 14 6 26 17 24
10159317 2357376 1 2 26 6 21 11 23 22 12 14 5 7 19 9 15 13 4 20 18 17 8 10 25 24 16 3
10137211 1763117 22 7 11 23 13 17 21 2 10 15 20 8 4 18 12 1 5 19 9 26 6 16 3 14 25 24
10119719 3033919 11 22 2 12 13 10 8 1 15 21 7 4 20 18 14 25 19 5 9 6 3 16 26 23 17 24
10139568 2215951 12 3 11 23 26 1 25 9 8 15 18 7 4 20 22 10 5 21 19 14 6 16 2 13 17 24
10159288 2947089 1 6 15 2 21 23 22 12 13 14 5 7 9 19 26 11 4 18 20 17 8 25 10 24 3 16
10158209 2782670 15 1 2 26 6 23 22 13 12 14 9 5 19 7 21 11 4 20 18 25 17 8 10 24 3 16
10159628 2590701 1 2 15 26 6 13 12 11 22 16 5 19 9 7 21 14 18 4 20 17 8 25 24 10 3 23
10158873 2596817 15 2 26 21 6 11 3 23 12 14 9 7 19 5 1 22 4 20 18 17 8 10 24 25 16 13
10137630 2371364 23 11 22 26 13 25 24 8 9 15 18 4 20 7 12 1 5 19 21 14 16 2 3 6 10 17
10162330 2723256 1 2 15 26 6 23 22 3 14 11 5 19 9 7 21 12 20 4 18 17 8 25 10 24 13 16
10122459 2727594 16 11 13 22 12 25 1 8 15 2 4 7 18 20 23 21 5 19 9 3 6 14 26 10 17 24
10153764 2633351 11 22 14 8 23 25 24 15 21 9 4 20 18 7 12 1 5 19 3 16 26 6 13 2 10 17
10249523 1375135 21 13 3 11 7 23 6 15 8 18 5 20 1 4 22 12 14 9 19 17 10 2 16 26 25 24
10159143 1901314 2 1 26 6 21 23 22 12 13 14 7 5 19 9 15 11 4 18 20 8 17 10 24 25 16 3
10158952 2620095 1 2 15 26 6 3 23 22 12 14 5 19 9 7 21 11 4 20 18 17 8 25 10 24 16 13
10145192 2375515 12 11 8 23 14 25 15 1 3 21 20 4 19 7 16 10 9 5 18 26 22 2 6 13 17 24
10121363 1966854 22 11 2 23 12 1 25 10 15 8 20 4 7 18 14 21 5 19 9 26 16 6 3 13 24 17
10167271 2542877 26 21 15 2 1 22 23 12 13 14 19 5 9 7 8 11 4 18 20 10 6 25 17 24 3 16
10148115 2749945 22 11 8 12 16 17 21 10 3 15 20 4 19 18 14 1 5 9 7 13 6 2 26 23 25 24
10140018 2993057 11 23 13 12 2 25 1 10 15 9 4 20 8 18 14 21 5 7 19 16 22 6 3 26 17 24
10158657 1589646 22 23 11 12 14 25 24 9 2 15 7 20 4 8 18 1 5 21 19 3 16 26 6 13 17 10
10185295 1502080 2 26 1 21 11 23 22 3 18 14 9 19 5 15 6 12 20 4 7 10 8 17 24 25 16 13
10118719 1591881 2 22 11 23 13 1 25 10 8 15 7 20 4 18 12 21 5 9 19 6 26 16 3 14 17 24
10153808 1660390 8 12 13 2 23 25 24 15 21 9 7 20 18 4 11 1 5 19 3 6 26 14 16 22 10 17
10160636 1729900 21 26 2 15 6 23 3 22 12 14 5 19 7 9 1 11 4 20 18 24 10 8 17 25 16 13
10175748 2296325 21 1 10 2 6 22 11 12 20 14 15 5 9 19 23 13 7 18 4 24 17 25 8 26 16 3
10125703 1711215 22 12 14 3 23 25 1 8 15 2 4 20 18 7 11 21 5 19 9 6 26 10 13 16 17 24
10163264 2148449 1 26 2 6 21 22 23 11 14 3 5 19 7 9 15 12 20 4 18 17 10 8 25 24 16 13
10169470 2292482 21 15 6 2 23 22 11 12 20 14 5 1 9 19 26 13 7 18 4 25 17 10 8 24 3 16
10163264 1917940 1 26 2 6 21 23 22 14 11 3 5 19 7 9 15 12 20 18 4 17 10 8 24 25 16 13
10225529 1564383 21 23 3 6 16 13 7 8 11 4 5 18 14 1 15 12 20 19 9 25 24 10 17 2 22 26
10120705 2487891 12 13 22 2 23 1 25 8 10 15 18 7 20 4 11 21 5 19 9 14 6 26 3 16 24 17
10121934 2764923 22 23 11 10 13 1 25 15 8 2 7 20 4 18 12 21 5 9 19 6 16 26 3 14 24 17
10147887 3805161 12 23 11 8 14 1 25 10 15 3 20 19 7 4 16 21 5 18 9 26 22 13 6 2 24 17
10294238 1060406 23 9 15 2 22 3 21 13 4 7 14 18 1 19 26 11 5 20 12 24 25 17 10 8 6 16
10158209 1704741 15 2 1 26 6 23 22 13 12 14 9 19 5 7 21 11 4 20 18 25 8 17 24 10 16 3
10263565 1699905 11 6 2 9 22 23 13 3 12 4 14 1 19 15 21 7 20 5 18 26 17 8 25 24 16 10
10121777 2551125 23 2 12 22 13 25 1 10 15 8 20 4 18 7 11 21 5 19 9 16 26 14 6 3 17 24
10170869 1873319 21 15 6 2 23 22 11 12 13 14 5 1 9 19 26 20 4 18 7 24 25 10 17 8 3 16
10162505 1545637 2 1 21 6 15 11 23 12 22 14 19 9 5 7 26 13 4 18 20 8 17 25 24 10 16 3
10158222 2525302 1 15 2 26 6 23 13 11 22 16 5 9 19 7 21 12 18 4 20 17 25 8 24 10 3 14
10124193 1760204 2 11 13 23 26 25 24 8 15 21 4 7 18 20 12 1 5 19 9 3 6 14 16 22 17 10
10158209 2523047 15 1 2 26 6 23 22 13 12 14 9 5 19 7 21 11 4 20 18 25 17 8 10 24 3 16
10122623 2487111 22 11 23 12 13 25 15 21 8 2 7 4 20 18 14 1 9 5 19 6 26 16 3 10 17 24
10175637 1821163 1 21 2 6 26 23 13 22 16 20 5 15 19 9 11 12 18 7 4 17 24 8 10 25 3 14
10121692 2452878 12 11 2 22 14 1 25 10 15 8 18 4 20 7 23 21 5 19 9 3 16 26 6 13 24 17
10123116 3364703 11 12 26 23 6 25 1 10 8 15 4 18 7 20 22 21 5 9 19 16 14 3 13 2 24 17
10122630 1961705 11 2 14 23 13 21 17 10 8 15 4 20 18 7 12 1 5 9 19 16 26 6 3 22 24 25
10121085 2493985 23 11 13 22 12 25 1 15 10 8 20 7 18 4 2 21 5 9 19 16 6 14 3 26 17 24
10158209 3142560 15 1 2 26 6 23 22 12 13 14 9 5 19 7 21 11 4 18 20 25 17 8 24 10 16 3
10173158 2242907 1 6 21 2 11 22 23 12 13 14 5 9 15 19 26 20 4 18 7 17 25 24 8 10 3 16
10120705 3193942 12 22 13 2 23 25 1 8 10 15 18 20 7 4 11 21 5 19 9 14 26 6 3 16 17 24
10144665 2129798 22 14 11 23 13 17 21 15 8 9 20 18 4 12 26 1 5 19 7 2 10 16 6 3 24 25
10121613 1799893 2 12 11 23 14 1 25 8 10 15 4 18 7 20 22 21 5 19 9 3 26 6 13 16 17 24
10153483 2108333 11 13 12 8 22 25 24 15 21 9 4 18 20 7 23 1 5 19 3 16 14 26 6 2 10 17
10159143 2121672 2 1 26 6 21 22 23 12 13 14 7 5 19 9 15 11 4 18 20 8 17 10 25 24 16 3
10122190 2324114 22 12 11 2 13 25 24 15 8 21 20 18 4 7 23 1 5 9 19 26 14 16 6 3 10 17
10163264 2381013 1 26 2 6 21 23 22 11 14 3 5 19 7 9 15 12 20 4 18 17 10 8 25 24 16 13
10160562 1932543 2 26 1 6 21 13 12 22 11 16 7 19 5 9 15 14 18 20 4 8 10 17 25 24 3 23
10145729 3231491 13 22 8 11 12 25 24 3 1 21 18 20 19 4 16 15 9 7 5 14 2 6 23 26 17 10
10162330 3595462 1 15 2 26 6 22 23 11 14 3 5 9 19 7 21 12 20 4 18 17 25 8 10 24 16 13
10160579 2223053 1 2 15 26 6 22 23 12 11 14 5 19 9 7 21 13 20 18 4 17 8 25 24 10 16 3
10164586 1899787 23 8 12 11 7 25 24 2 15 21 20 19 18 4 16 1 5 3 9 13 6 14 26 22 17 10
10139880 2198316 2 11 13 22 12 25 24 21 1 9 8 4 18 20 23 15 19 7 5 6 16 14 26 3 17 10
10176559 2142698 22 11 16 8 14 25 1 3 9 15 20 4 19 12 23 21 5 7 18 2 26 10 13 6 24 17
10207838 1436588 26 16 1 21 3 8 22 12 18 14 20 9 5 15 6 11 4 19 7 2 10 17 24 25 13 23
10145477 2108881 23 13 14 2 11 25 1 15 8 9 4 12 18 20 22 21 5 19 7 3 6 10 16 26 17 24
10182633 1299549 21 23 15 6 2 12 13 22 11 14 5 19 1 9 16 18 7 20 4 24 8 17 25 10 3 26
10122190 3014610 22 12 11 2 13 25 24 8 15 21 20 18 4 7 23 1 5 19 9 26 14 16 6 3 17 10
10238685 2026665 21 3 6 22 11 4 8 19 15 2 5 18 14 20 13 7 12 1 9 25 10 16 17 24 23 26
10122261 2377776 13 12 23 11 14 1 25 10 15 8 7 18 20 4 2 21 5 19 9 3 26 22 6 16 17 24
10162227 1633883 15 21 1 26 6 23 22 3 14 11 9 7 5 19 2 12 20 4 18 25 24 17 10 8 13 16
10119688 2737570 2 11 23 12 13 25 1 10 8 15 7 4 20 18 14 21 5 9 19 6 16 22 26 3 17 24
10147896 3249086 12 8 23 22 16 1 25 10 3 15 18 19 20 4 11 21 5 9 7 14 2 13 6 26 17 24
10159628 1967467 1 15 2 26 6 12 13 22 11 16 5 9 19 7 21 14 18 20 4 17 25 8 24 10 3 23
10144143 2305155 13 11 2 23 22 17 21 15 8 9 18 4 20 12 26 1 5 19 7 14 16 10 3 6 24 25
10175265 1709976 21 2 1 6 26 22 23 20 12 14 15 19 5 9 11 13 7 4 18 24 8 17 10 25 3 16
10173523 1884964 21 1 6 2 11 13 23 16 22 20 15 5 9 19 26 12 18 4 7 25 17 10 24 8 14 3
10160562 1906232 1 2 26 6 21 13 12 22 11 16 5 7 19 9 15 14 18 20 4 17 8 10 25 24 23 3
10121609 2046184 11 22 23 12 13 15 25 8 1 21 7 4 20 18 14 2 9 19 5 6 3 16 26 10 17 24
10158209 2302476 1 2 15 26 6 22 23 12 13 14 5 19 9 7 21 11 4 18 20 17 8 25 24 10 3 16
10147449 1789173 13 11 22 8 12 17 21 3 10 15 18 4 20 19 16 1 5 7 9 14 6 2 23 26 24 25
10160579 2888463 1 15 2 26 6 23 22 12 11 14 5 9 19 7 21 13 20 18 4 17 25 8 24 10 3 16
10158209 2467104 1 15 2 26 6 23 22 13 12 14 5 9 19 7 21 11 4 20 18 17 25 8 24 10 3 16
10122994 2815900 11 22 12 23 14 24 25 8 15 21 4 20 18 7 2 1 5 19 9 16 26 3 13 6 10 17
10143939 2083149 22 14 11 23 2 1 25 8 15 9 20 18 4 12 13 21 5 7 19 26 10 16 3 6 17 24
10137050 2405377 23 2 12 22 13 1 25 8 9 15 20 4 18 7 11 10 5 19 21 16 26 14 6 3 17 24
10160562 2502896 1 2 26 6 21 13 12 11 22 16 5 7 19 9 15 14 18 4 20 17 8 10 24 25 3 23
10147523 3389004 11 8 12 22 14 17 21 10 15 3 4 19 20 7 23 1 5 18 9 16 2 26 13 6 24 25
10164773 3282348 1 21 6 26 15 11 3 12 23 14 5 7 9 19 8 22 4 18 20 25 10 2 24 17 16 13
10147919 2260864 23 8 12 22 16 17 21 10 3 15 20 19 18 4 11 1 5 9 7 13 2 14 6 26 25 24
10267650 2191547 11 21 22 13 2 15 25 8 4 7 14 5 20 18 23 9 1 19 12 16 6 26 10 3 17 24
10155190 1383307 11 23 7 13 8 21 17 10 3 15 4 19 20 18 12 1 5 9 14 16 2 22 6 26 24 25
10159628 1985843 1 15 2 26 6 12 13 11 22 16 5 9 19 7 21 14 18 4 20 17 25 8 10 24 23 3
10162330 1618168 2 15 1 26 6 23 22 3 14 11 19 9 5 7 21 12 20 4 18 8 25 17 24 10 13 16
10132575 2598604 23 11 2 12 13 10 8 1 9 15 20 4 7 18 14 25 19 5 21 22 16 6 26 3 24 17
10121533 2611988 11 3 13 22 12 25 1 10 8 15 4 7 18 20 2 21 5 9 19 16 6 14 23 26 24 17
10197852 2699512 16 11 8 13 12 7 25 1 2 3 9 4 19 14 18 21 15 5 20 6 22 10 23 26 17 24
10158222 2544964 1 2 15 26 6 23 13 11 22 16 5 19 9 7 21 12 18 4 20 17 8 25 24 10 14 3
10119656 2881645 23 11 12 22 13 8 10 1 15 21 20 4 18 7 26 25 19 5 9 2 16 14 6 3 24 17
10174384 2181420 11 7 14 22 12 24 25 2 1 8 4 20 18 19 3 21 15 9 5 16 13 6 23 26 10 17
10120238 2534996 11 12 22 2 13 21 17 8 10 15 4 18 20 7 23 1 5 19 9 16 14 26 3 6 24 25
10120238 3321536 22 11 12 2 13 21 17 8 10 15 20 4 18 7 23 1 5 19 9 26 16 14 3 6 25 24
10173303 1643865 21 2 23 6 7 22 26 3 14 11 5 9 19 1 15 12 20 4 18 25 10 8 24 17 16 13
10119734 1949780 22 11 23 12 13 8 2 15 1 21 4 7 20 18 14 25 19 9 5 3 6 16 26 10 17 24
10121498 2696277 12 11 14 2 23 24 25 1 8 21 20 4 18 7 13 15 9 5 19 26 16 6 3 22 10 17
10120798 1666800 12 13 22 2 23 21 17 10 8 15 18 7 20 4 11 1 5 9 19 14 6 26 16 3 24 25
10169077 1381375 2 15 23 21 7 22 26 12 13 14 9 1 19 5 6 11 4 18 20 10 17 8 24 25 16 3
10159143 2575519 1 26 2 6 21 23 22 12 13 14 5 19 7 9 15 11 4 18 20 17 10 8 24 25 16 3
10122856 2486474 12 16 11 2 13 1 25 8 10 15 18 4 7 20 23 21 5 19 9 14 3 6 26 22 17 24
10203011 2122535 15 1 2 3 16 12 13 11 8 22 9 5 20 7 21 14 18 4 19 25 17 24 10 6 23 26
10150873 1707738 12 14 8 23 11 21 25 1 10 9 20 18 4 7 22 15 3 5 19 26 6 2 16 13 24 17
10119317 2251650 22 11 14 13 12 15 25 8 1 21 20 4 18 7 23 10 9 19 5 2 16 6 3 26 17 24
10148092 2495589 22 11 8 12 16 1 25 10 3 15 20 4 19 18 14 21 5 9 7 13 6 2 23 26 17 24
10147870 1782157 22 8 11 23 14 1 25 10 15 3 20 19 4 7 12 21 5 18 9 2 6 26 13 16 24 17
10219569 1641885 6 16 21 12 13 22 4 7 19 8 14 9 5 18 3 11 20 15 1 10 17 25 23 24 2 26
10162263 2323413 21 26 2 15 6 23 22 12 11 14 5 19 7 9 1 13 20 18 4 24 10 8 25 17 16 3
10195551 1936547 26 1 15 2 21 8 23 12 16 14 18 5 9 7 3 11 4 20 19 10 17 25 24 6 13 22
10148948 1312307 2 23 12 8 22 25 24 1 21 9 4 20 18 7 11 15 19 5 3 26 16 14 6 13 10 17
10148458 1990065 8 11 22 23 14 25 24 15 3 21 19 4 20 7 12 1 5 9 18 26 16 2 6 13 10 17
10122557 2138955 11 14 23 13 12 15 25 1 8 21 4 18 20 7 26 2 9 5 19 16 6 22 3 10 17 24
10166620 1960037 21 15 26 2 7 22 16 12 13 14 5 1 19 9 23 11 4 18 20 25 17 8 10 24 3 6
10120022 2616781 3 13 11 22 12 15 25 1 8 21 7 18 4 20 2 10 9 5 19 6 14 16 26 23 24 17
10120641 3113962 2 26 12 23 11 10 8 1 15 21 7 4 18 20 22 25 19 5 9 6 3 14 13 16 24 17
10210110 1422886 1 7 26 21 11 16 22 8 12 14 9 15 20 5 3 13 4 19 18 17 10 2 24 25 23 6
10141454 1693443 23 22 11 12 13 2 24 21 25 9 7 20 4 18 14 15 19 1 5 6 26 16 17 3 8 10
10158209 2374916 1 15 2 26 6 22 23 12 13 14 5 9 19 7 21 11 4 18 20 17 25 8 10 24 3 16
10150400 2198610 11 12 13 8 16 24 25 3 15 21 4 20 18 19 23 1 5 7 9 22 26 14 6 2 10 17
10159628 2942056 1 2 15 26 6 13 12 22 11 16 5 19 9 7 21 14 18 20 4 17 8 25 24 10 3 23
10148415 2352546 16 11 13 23 8 25 1 3 10 15 19 4 18 20 12 21 5 7 9 6 26 14 22 2 24 17
10180056 3171774 22 3 12 11 14 21 17 1 2 8 4 19 20 7 18 10 15 5 9 6 26 23 16 13 24 25
10147661 2665419 16 11 8 23 14 21 17 10 3 15 4 7 19 20 12 1 5 9 18 6 22 26 13 2 25 24
10159143 2261837 1 26 2 6 21 22 23 12 13 14 5 19 7 9 15 11 4 18 20 17 10 8 25 24 3 16
10145461 1890479 23 8 13 11 12 3 2 1 25 15 20 19 18 4 16 21 7 5 9 22 6 14 24 26 10 17
10236941 2775680 4 25 7 19 8 16 3 13 12 21 20 5 15 1 11 22 9 14 18 23 17 24 26 2 6 10
10202928 2057678 24 26 23 6 9 11 22 12 14 20 5 19 7 1 15 13 4 18 21 17 2 8 25 10 16 3
10148827 1767347 22 13 11 8 12 24 25 3 15 21 20 18 4 19 16 1 5 7 9 2 14 6 26 23 17 10
10122011 2892766 11 14 22 13 12 1 25 8 15 2 4 18 20 7 23 21 5 19 9 16 6 26 3 10 24 17
10158222 2799783 1 2 15 26 6 13 23 11 22 16 5 19 9 7 21 12 18 4 20 17 8 25 10 24 3 14
10125460 2827729 12 3 11 23 26 25 24 8 15 21 18 7 4 20 22 1 5 19 9 14 6 16 2 13 17 10
10119153 3658645 12 2 22 23 13 8 10 1 15 21 18 4 20 7 11 25 19 5 9 14 16 26 3 6 24 17
10149022 2906706 11 12 13 8 16 17 21 10 3 15 4 20 18 19 23 1 5 9 7 22 26 14 2 6 24 25
10118177 2242864 2 23 11 12 13 15 25 1 8 21 7 20 4 18 14 10 9 5 19 6 22 16 3 26 17 24
10120982 2349853 23 11 12 22 13 1 25 8 10 15 20 4 18 7 26 21 5 19 9 2 16 14 3 6 17 24
10186665 1929365 15 23 21 6 2 22 13 18 11 14 1 19 5 9 16 12 20 7 4 17 8 24 10 25 26 3
10159628 2577548 1 2 15 26 6 12 13 11 22 16 5 19 9 7 21 14 18 4 20 17 8 25 24 10 23 3
10121171 1663483 14 13 11 22 12 1 25 10 8 15 18 7 4 20 2 21 5 9 19 6 3 16 26 23 24 17
10119734 1929583 11 22 23 12 13 2 8 1 15 21 7 4 20 18 14 25 19 5 9 6 3 16 10 26 24 17
10169470 2420587 21 6 15 2 23 22 11 20 12 14 5 9 1 19 26 13 7 4 18 25 10 17 8 24 3 16
10175904 1769662 21 8 15 6 23 22 26 11 12 14 5 19 9 1 7 13 20 4 18 24 10 17 25 2 16 3
10183802 1263915 21 16 23 6 15 13 26 12 11 14 5 9 19 1 2 18 7 20 4 25 10 8 17 24 3 22
10160579 2291767 1 2 15 26 6 23 22 11 12 14 5 19 9 7 21 13 20 4 18 17 8 25 24 10 3 16
10150985 2283835 16 11 22 23 12 25 1 10 3 15 19 4 20 18 14 21 5 9 7 6 26 2 13 8 17 24
10159893 2807971 21 26 2 15 6 23 22 12 13 14 5 19 7 9 1 11 4 18 20 24 10 8 17 25 16 3
10135288 1762281 11 13 16 22 12 2 8 1 9 15 7 18 4 20 23 25 19 5 21 6 14 3 10 26 17 24
10169470 1665418 21 6 15 2 23 22 11 20 12 14 5 9 1 19 26 13 7 4 18 25 10 17 24 8 16 3
10160579 2341054 1 2 15 26 6 22 23 11 12 14 5 19 9 7 21 13 20 4 18 17 8 25 10 24 16 3
10166620 2835639 21 15 26 2 7 22 16 13 12 14 5 1 19 9 23 11 4 20 18 25 17 8 24 10 6 3
10168225 2171670 21 15 1 2 6 22 23 3 14 11 5 19 9 7 26 12 20 4 18 24 17 25 10 8 16 13
10176174 2267223 1 21 10 2 6 23 13 16 22 20 5 15 9 19 11 12 18 4 7 17 24 25 8 26 3 14
10158106 2074611 21 1 15 26 6 23 22 13 12 14 7 5 9 19 2 11 4 20 18 24 17 25 10 8 3 16
10162330 2539371 1 15 2 26 6 23 22 14 3 11 5 9 19 7 21 12 20 18 4 17 25 8 10 24 13 16
10121491 2474809 12 2 14 23 11 15 25 1 8 21 20 4 18 7 22 10 9 5 19 26 3 6 13 16 17 24
10121706 2261816 2 12 11 23 14 21 17 8 10 15 4 18 7 20 22 1 5 19 9 3 26 6 16 13 24 25
10157670 3054429 23 22 8 16 7 21 17 3 10 15 12 20 19 4 11 1 5 18 9 14 13 6 26 2 24 25
10158515 2848063 1 2 15 26 6 11 3 23 12 14 5 19 9 7 21 22 4 20 18 17 8 25 10 24 16 13
10159628 2748650 1 2 15 26 6 12 13 11 22 16 5 19 9 7 21 14 18 4 20 17 8 25 24 10 3 23
10140018 2668295 23 11 13 12 2 1 25 15 10 9 20 4 8 18 14 21 5 19 7 22 16 6 3 26 24 17
10160579 2339457 1 15 2 26 6 23 22 12 11 14 5 9 19 7 21 13 20 18 4 17 25 8 24 10 3 16
10158412 2875234 1 15 21 26 6 11 3 23 12 14 5 9 7 19 2 22 4 20 18 17 25 24 10 8 16 13
10160579 2494216 1 15 2 26 6 23 22 11 12 14 5 9 19 7 21 13 20 4 18 17 25 8 24 10 3 16
10272802 2046323 3 21 22 2 11 8 6 7 15 18 1 5 20 14 13 12 19 4 9 17 25 26 10 16 24 23
10122190 3002965 11 12 22 2 13 24 25 8 15 21 4 18 20 7 23 1 5 19 9 16 14 26 6 3 17 10
10160067 2253199 2 21 26 15 6 11 23 22 12 14 7 5 19 9 1 13 4 20 18 8 24 10 17 25 3 16
10137011 2139312 23 13 11 12 7 1 25 10 15 2 20 8 4 18 14 21 5 19 9 22 6 16 26 3 17 24
10204891 1856334 17 23 16 21 6 7 13 11 3 18 5 14 9 1 15 12 20 4 19 10 8 2 24 25 26 22
10171508 1846205 21 23 15 6 26 11 22 12 20 14 5 19 1 9 2 13 7 18 4 24 8 17 10 25 3 16
10167994 2021611 1 15 21 2 6 22 23 3 14 11 9 19 5 7 26 12 20 4 18 17 24 25 10 8 13 16
10147951 2468911 8 11 12 22 14 1 25 10 15 3 19 7 20 4 16 21 5 18 9 26 13 23 6 2 17 24
10159449 1883883 2 1 26 6 21 11 3 12 23 14 7 5 19 9 15 22 4 18 20 8 17 10 25 24 16 13
10118719 2920237 2 22 11 23 13 25 1 8 10 15 7 20 4 18 12 21 5 19 9 6 26 16 14 3 24 17
10154521 2725023 26 12 23 22 11 1 25 2 9 15 4 18 20 8 7 10 5 19 21 3 14 16 6 13 17 24
10126333 1541214 14 11 13 22 12 8 2 25 1 15 18 4 7 20 23 21 19 9 5 6 16 3 10 26 17 24
10165332 2373642 1 26 21 2 6 13 23 22 11 16 9 7 5 19 15 12 18 20 4 17 25 24 8 10 3 14
10150581 1887664 23 13 12 2 11 24 25 9 1 21 4 7 8 20 22 15 19 18 5 3 6 14 26 16 10 17
10158209 2646943 1 2 15 26 6 23 22 13 12 14 5 19 9 7 21 11 4 20 18 17 8 25 24 10 16 3
10136298 2469999 11 12 22 2 13 1 25 9 8 15 4 18 20 7 23 10 5 21 19 16 14 26 6 3 17 24
10175591 2319538 25 15 26 6 23 22 11 20 12 14 5 9 19 1 21 13 7 4 18 24 10 8 2 17 16 3
10121363 1684120 11 22 2 23 12 25 1 10 15 8 4 20 7 18 14 21 5 19 9 16 26 6 3 13 24 17
10210361 3376931 7 16 12 23 4 17 21 1 10 2 20 9 18 19 11 3 5 15 14 13 6 26 22 8 25 24
10121934 2748617 22 23 11 10 13 25 1 8 15 2 7 20 4 18 12 21 5 19 9 6 16 26 3 14 17 24
10160343 1845522 22 11 8 7 16 21 17 3 10 15 20 4 19 12 14 1 5 18 9 13 6 2 26 23 24 25
10169304 1489447 15 21 26 2 7 13 12 11 22 16 1 5 19 9 23 14 18 4 20 17 25 8 24 10 6 3
10160579 2981443 2 15 1 26 6 22 23 11 12 14 19 9 5 7 21 13 20 4 18 8 25 17 24 10 3 16
10152195 2667877 12 16 11 8 14 3 24 1 25 15 20 4 7 19 23 21 18 5 9 26 2 13 22 6 17 10
10162330 2049309 1 15 2 26 6 22 23 3 14 11 5 9 19 7 21 12 20 4 18 17 25 8 24 10 13 16
10159628 2091460 1 2 15 26 6 12 13 22 11 16 5 19 9 7 21 14 18 20 4 17 8 25 10 24 23 3
10119688 2449182 2 11 23 12 13 1 25 10 8 15 7 4 20 18 14 21 5 9 19 6 16 22 26 3 24 17
10124193 2827743 11 2 13 23 26 25 24 8 15 21 7 4 18 20 12 1 5 19 9 6 3 14 16 22 10 17
10162330 2471454 1 15 2 26 6 23 22 14 3 11 5 9 19 7 21 12 20 18 4 17 25 8 24 10 16 13
10147919 2047126 23 8 12 22 16 17 21 10 3 15 20 19 18 4 11 1 5 9 7 13 2 14 6 26 25 24
10158106 1885804 1 21 15 26 6 23 22 13 12 14 5 7 9 19 2 11 4 20 18 17 24 25 10 8 3 16
10175952 2313465 26 1 2 21 11 12 13 22 16 20 19 5 9 15 6 14 18 7 4 8 17 10 24 25 3 23
10158209 3312400 1 15 2 26 6 22 23 13 12 14 5 9 19 7 21 11 4 20 18 17 25 8 24 10 16 3
10178740 2313718 21 25 26 6 23 22 11 20 12 14 1 5 19 9 15 13 7 4 18 24 17 8 2 10 16 3
10122962 2225797 14 11 2 13 12 25 1 8 10 15 18 4 20 7 22 21 5 19 9 6 3 16 26 23 17 24
10170268 1996333 21 23 15 6 7 22 26 12 11 14 5 19 1 9 2 13 20 18 4 24 8 17 25 10 3 16
10148106 2742432 12 11 8 22 14 21 17 10 3 15 20 7 19 4 16 1 5 9 18 26 13 2 23 6 24 25
10170055 1949467 21 6 23 15 7 13 26 22 11 16 5 9 19 1 2 12 18 20 4 25 10 8 24 17 14 3
10252320 2408907 21 6 22 26 13 2 8 4 15 9 5 14 20 18 12 11 19 7 1 24 16 17 3 10 25 23
10147641 2832452 22 11 12 8 14 3 2 25 1 15 20 4 18 19 23 21 7 9 5 13 16 26 24 6 17 10
10145282 2577494 26 11 13 22 12 25 1 15 2 9 8 4 18 20 23 21 5 19 7 6 16 14 3 10 17 24
10159317 2249883 2 26 1 6 21 11 23 22 12 14 7 19 5 9 15 13 4 20 18 8 10 17 25 24 16 3
10173882 1751961 25 15 21 23 6 22 11 12 13 14 5 9 1 19 26 20 4 18 7 17 10 24 8 2 16 3
10122815 2202735 22 11 13 16 12 25 1 15 8 2 20 7 18 4 23 21 5 9 19 26 6 14 3 10 17 24
10140550 3065235 13 16 22 23 12 10 8 1 21 9 18 4 20 7 11 2 19 5 15 14 6 26 24 3 17 25
10122250 2470659 23 11 13 22 12 24 25 15 8 21 20 7 18 4 2 1 5 9 19 16 6 14 3 26 10 17
10169470 2722517 21 6 15 2 23 22 11 20 12 14 5 9 1 19 26 13 7 4 18 25 10 17 8 24 16 3
10148795 2625478 8 11 12 23 14 21 17 3 10 15 19 4 20 7 16 1 5 18 9 26 22 13 6 2 25 24
10213071 2339292 21 1 6 11 26 16 8 12 13 14 15 5 9 7 3 19 4 18 20 24 17 10 2 25 22 23
10120764 2458753 11 2 22 23 13 25 24 8 15 21 4 7 20 18 12 1 5 19 9 16 6 26 14 3 17 10
10180727 1834709 15 21 23 6 26 14 3 11 22 20 1 5 19 9 2 12 18 4 7 17 24 8 25 10 16 13
10137198 2537228 11 22 2 12 13 1 25 9 8 15 7 4 20 18 14 10 5 21 19 6 3 16 26 23 17 24
10159143 2837331 26 1 2 6 21 22 23 12 13 14 19 5 7 9 15 11 4 18 20 10 17 8 25 24 3 16
10175668 2485056 21 1 10 2 6 22 23 12 13 14 15 5 9 19 11 20 4 18 7 24 17 25 8 26 3 16
10135946 2399182 23 2 11 12 13 25 24 8 9 15 20 7 4 18 14 1 5 19 21 22 6 16 26 3 10 17
10159628 2503999 1 15 2 26 6 12 13 11 22 16 5 9 19 7 21 14 18 4 20 17 25 8 24 10 3 23
10174495 1983800 21 26 1 2 11 22 23 20 12 14 15 19 5 9 6 13 7 4 18 24 8 17 25 10 3 16
10158209 1701933 2 15 1 26 6 23 22 12 13 14 19 9 5 7 21 11 4 18 20 8 25 17 24 10 16 3
10158209 2412743 1 15 2 26 6 23 22 12 13 14 5 9 19 7 21 11 4 18 20 17 25 8 24 10 16 3
10163264 2228260 1 26 2 6 21 23 22 14 11 3 5 19 7 9 15 12 20 18 4 17 10 8 25 24 13 16
10184248 1576295 25 15 21 2 6 22 13 11 18 14 5 9 1 19 23 12 20 4 7 17 10 24 8 26 3 16
10170676 2066918 21 6 15 2 23 22 11 12 13 14 5 9 1 19 26 20 4 18 7 25 10 17 8 24 3 16
10181300 1926138 21 6 15 2 23 22 13 11 18 14 5 9 1 19 26 12 20 4 7 24 10 25 17 8 3 16
10122514 4227550 13 23 2 11 12 25 15 10 21 8 7 18 20 4 22 1 9 19 5 6 14 16 26 3 17 24
10159726 1759487 1 2 6 21 15 23 22 13 12 14 5 19 9 7 26 11 4 20 18 17 8 10 24 25 16 3
10160579 2967821 1 15 2 26 6 23 22 12 11 14 5 9 19 7 21 13 20 18 4 17 25 8 24 10 16 3
10148479 2828992 16 12 8 23 11 17 21 10 3 15 4 18 19 20 22 1 5 9 7 6 14 26 2 13 25 24
10119688 3247128 2 11 23 12 13 25 1 8 10 15 7 4 20 18 14 21 5 19 9 6 16 22 26 3 17 24
10205137 1163189 21 1 26 6 3 23 8 11 18 14 15 5 20 9 16 12 19 4 7 25 17 2 24 10 13 22
10161983 2898574 11 13 8 22 7 3 24 1 25 15 4 12 19 20 23 21 18 5 9 16 14 6 2 26 10 17
10123495 3675328 14 13 23 11 12 21 17 8 15 2 18 7 20 4 22 1 5 19 9 6 3 16 26 10 25 24
10158383 2013552 1 15 2 26 6 23 11 22 12 14 5 9 19 7 21 13 4 20 18 17 25 8 24 10 3 16
10167803 1893805 11 16 3 23 14 24 25 9 15 8 7 4 19 20 12 21 5 18 1 6 26 22 2 13 10 17
10158106 3076427 21 1 15 26 6 23 22 12 13 14 7 5 9 19 2 11 4 18 20 24 17 25 10 8 3 16
10148115 2615821 11 22 8 12 16 21 17 3 10 15 4 20 19 18 14 1 5 7 9 6 13 2 26 23 25 24
10249393 1479130 2 15 6 26 23 22 13 4 21 11 14 1 9 18 19 7 20 12 5 8 25 10 24 17 16 3
10121613 2251035 12 2 11 23 14 1 25 10 8 15 18 4 7 20 22 21 5 9 19 26 3 6 13 16 24 17
10166560 2180915 11 16 12 23 8 24 25 15 2 21 4 19 18 20 7 1 5 9 3 26 6 14 22 13 10 17
10205201 1907012 1 16 21 2 26 22 3 13 12 18 5 9 15 7 11 14 19 4 20 24 17 25 10 8 23 6
10157841 2559041 6 23 8 16 7 21 17 10 3 15 12 20 19 4 11 1 5 9 18 14 13 22 2 26 25 24
10124994 1850398 11 13 23 12 6 24 25 2 1 21 4 7 20 18 14 15 9 19 5 16 3 22 10 26 8 17
10154690 2311723 22 12 13 23 11 1 25 9 2 15 4 20 18 8 7 10 5 21 19 3 26 14 6 16 17 24
10173664 1934719 1 21 6 2 11 23 13 16 22 20 5 15 9 19 26 12 18 4 7 17 24 25 10 8 14 3
10159893 2528401 2 21 26 15 6 22 23 12 13 14 7 5 19 9 1 11 4 18 20 8 24 10 17 25 16 3
10174585 2068596 4 23 16 8 7 25 1 3 10 15 12 20 9 19 11 21 5 14 18 6 13 2 26 22 24 17
10168225 2090180 21 15 1 2 6 23 22 3 14 11 5 19 9 7 26 12 20 4 18 24 17 25 10 8 16 13
10123103 1800181 12 22 11 23 14 1 25 8 10 15 18 7 4 20 26 21 5 19 9 3 6 16 13 2 17 24
10147919 2232647 23 12 8 22 16 17 21 3 10 15 20 18 19 4 11 1 5 7 9 13 14 2 6 26 24 25
10145257 3137948 12 23 8 11 14 25 2 1 15 21 18 20 19 4 16 3 7 5 9 26 13 22 6 24 17 10
10147842 1552043 11 13 23 2 12 1 25 3 10 15 4 18 20 19 16 21 5 7 9 6 14 22 26 8 24 17
10153325 2706274 12 23 8 11 14 24 25 15 21 9 18 20 4 7 2 1 5 19 3 26 22 6 16 13 10 17
10146673 1593163 22 8 11 23 16 25 15 3 1 21 20 19 4 18 12 10 9 7 5 13 2 26 6 14 17 24
10199773 1813912 26 6 1 21 7 8 11 23 12 14 19 9 15 5 3 22 4 20 18 2 10 17 24 25 16 13
10146516 2156572 12 8 23 2 11 24 3 25 1 15 18 19 20 4 16 21 7 9 5 14 6 13 26 22 17 10
10186665 1659634 21 23 15 6 2 13 22 11 18 14 5 19 1 9 16 12 20 4 7 24 8 17 25 10 3 26
10152970 2317623 23 11 12 13 7 1 25 2 9 15 20 4 18 8 14 10 5 19 21 22 16 3 6 26 17 24
10118812 2585277 22 11 2 23 13 17 21 10 8 15 20 4 7 18 12 1 5 9 19 26 16 6 14 3 25 24
10181830 1590067 25 15 21 2 6 3 14 11 22 20 5 9 1 19 23 12 18 4 7 17 10 24 8 26 16 13
10165664 2516000 11 7 8 23 13 25 24 15 2 21 4 20 19 18 12 1 5 9 3 16 22 26 14 6 10 17
10158849 3131129 1 21 15 26 6 3 23 22 12 14 5 7 9 19 2 11 4 20 18 17 24 25 8 10 16 13
10148999 2108291 11 12 13 8 16 25 1 3 10 15 4 20 18 19 23 21 5 7 9 22 26 14 6 2 17 24
10120332 2931047 14 22 11 23 13 8 2 1 15 21 18 20 4 7 12 25 19 5 9 10 26 16 6 3 17 24
10125371 3235696 12 14 13 11 23 25 1 8 15 2 20 18 7 4 26 21 5 19 9 10 6 3 16 22 17 24
10163886 2181741 11 8 22 12 7 25 24 15 2 21 4 19 20 18 14 1 5 9 3 16 6 13 23 26 10 17
10122847 2720191 23 13 12 2 22 25 1 10 15 8 18 7 20 4 11 21 5 19 9 14 6 26 16 3 17 24
10162330 1854922 1 15 2 26 6 23 22 3 14 11 5 9 19 7 21 12 20 4 18 17 25 8 24 10 13 16
10122917 2574816 14 12 11 22 13 25 1 15 8 2 18 20 4 7 23 21 5 9 19 10 26 16 3 6 17 24
10174920 2121921 21 15 6 2 23 12 13 22 16 20 5 9 1 19 26 11 18 7 4 24 17 25 10 8 14 3
10175678 2678578 1 21 26 2 11 12 13 16 22 20 5 15 19 9 6 14 18 4 7 17 24 8 10 25 3 23
10163733 1940920 11 8 12 22 7 21 17 10 2 15 4 19 18 20 13 1 5 9 3 16 6 14 26 23 24 25
10167994 2516171 21 15 1 2 6 22 23 3 14 11 5 19 9 7 26 12 20 4 18 25 24 17 8 10 13 16
10161513 1839675 2 1 26 6 21 23 22 11 12 14 7 5 19 9 15 13 20 4 18 8 17 10 25 24 16 3
10166429 1908669 21 6 15 2 7 13 12 11 22 16 5 9 1 19 23 14 18 4 20 25 10 17 24 8 3 26
10170852 2136871 3 22 11 12 7 25 24 2 1 8 19 20 4 18 14 21 15 9 5 6 13 16 26 23 10 17
10120982 3097210 23 11 12 22 13 25 1 10 8 15 20 4 18 7 26 21 5 9 19 2 16 14 3 6 24 17
10118968 2313960 12 2 22 23 13 15 25 1 8 21 18 4 20 7 11 10 9 5 19 14 16 26 3 6 17 24
10136965 1905924 11 2 12 22 14 1 25 9 8 15 4 20 18 7 23 10 5 21 19 16 26 3 6 13 17 24
10144734 2084204 14 23 13 2 11 15 8 1 21 9 18 4 12 20 22 25 19 5 7 10 3 6 26 16 17 24
10122847 1943519 2 26 12 23 11 25 1 10 15 8 7 4 18 20 22 21 5 19 9 6 3 14 16 13 17 24
10146810 2884901 8 11 12 23 14 21 17 10 3 15 19 4 20 7 16 1 5 9 18 2 22 26 6 13 24 25
10158222 2915681 1 15 2 26 6 13 23 11 22 16 5 9 19 7 21 12 18 4 20 17 25 8 24 10 3 14
10159317 2158057 2 1 26 6 21 11 23 22 12 14 7 5 19 9 15 13 4 20 18 8 17 10 25 24 3 16
10169265 2089608 11 13 12 3 14 25 24 15 9 8 4 7 20 19 16 21 5 1 18 22 26 23 2 6 17 10
10155424 2034564 7 11 12 8 16 21 17 15 10 3 20 4 18 19 23 1 5 9 14 13 22 26 2 6 25 24
10152016 2066055 23 11 13 8 12 25 1 15 2 9 20 7 18 4 22 21 5 19 3 16 6 14 10 26 24 17
10148489 2292844 11 23 12 2 14 25 1 3 10 15 4 7 20 19 8 21 5 18 9 22 13 26 6 16 17 24
10158383 2246707 1 2 15 26 6 23 11 22 12 14 5 19 9 7 21 13 4 20 18 17 8 25 24 10 3 16
10184318 1430676 15 21 9 2 6 16 22 13 12 14 1 5 18 19 23 11 4 7 20 17 24 25 10 8 26 3
10169981 1919729 11 8 12 23 14 1 25 10 2 15 4 19 20 7 18 21 5 9 3 22 6 26 13 16 17 24
10162330 2219178 1 15 2 26 6 23 22 3 14 11 5 9 19 7 21 12 20 4 18 17 25 8 10 24 13 16
10149125 3408105 11 8 12 22 23 1 25 3 10 15 4 19 18 20 16 21 5 7 9 26 6 14 2 13 24 17
10164014 1974351 21 26 2 15 6 23 22 3 14 11 5 19 7 9 1 12 20 4 18 24 10 8 17 25 16 13
10176461 2171423 21 15 6 2 11 13 12 16 22 20 5 9 1 19 26 14 18 4 7 24 17 25 8 10 3 23
10120153 2610776 13 11 23 22 12 2 8 1 15 21 18 7 20 4 26 25 19 5 9 14 6 16 3 10 17 24
10174690 2263571 13 12 8 11 7 17 21 10 1 2 18 20 19 4 16 3 5 9 15 14 23 6 26 22 25 24
10147670 2237355 22 11 8 23 14 21 17 10 3 15 7 4 19 20 12 1 5 9 18 6 26 2 13 16 24 25
10177729 1815768 11 12 22 3 14 24 25 2 1 8 4 20 19 7 18 21 15 9 5 26 23 6 13 16 10 17
10168310 2424093 12 3 11 23 14 17 21 15 9 8 20 19 4 7 16 10 5 1 18 26 2 22 6 13 25 24
10122444 2365939 14 11 22 23 13 1 25 8 15 2 18 4 20 7 12 21 5 19 9 10 16 26 3 6 17 24
10138355 2342038 12 26 2 23 22 1 25 8 9 15 18 4 20 7 11 10 5 19 21 14 3 16 6 13 17 24
10137155 2461776 23 12 2 22 13 25 24 8 9 15 20 18 4 7 11 1 5 19 21 16 14 26 6 3 17 10
10196622 1687908 6 1 15 2 7 22 16 23 13 14 18 5 9 19 21 11 4 20 12 24 17 25 10 8 26 3
10205543 2961101 21 15 8 2 11 3 22 12 16 18 5 1 19 20 7 13 4 14 9 25 17 10 24 26 23 6
10155261 2363569 12 2 11 23 8 25 24 3 15 21 18 19 4 20 7 1 5 14 9 26 6 16 22 13 10 17
10169470 2831820 21 6 15 2 23 22 11 12 20 14 5 9 1 19 26 13 7 18 4 25 10 17 24 8 3 16
10148833 3033509 23 22 16 12 11 1 25 3 10 15 19 20 4 18 14 21 5 7 9 8 2 6 26 13 17 24
10176985 2014558 1 21 10 2 6 13 12 16 22 20 5 15 9 19 11 14 18 4 7 17 24 25 8 26 23 3
10160579 2333544 1 2 15 26 6 23 22 11 12 14 5 19 9 7 21 13 20 4 18 17 8 25 24 10 16 3
10163264 2942737 1 26 2 6 21 23 22 3 14 11 5 19 7 9 15 12 20 4 18 17 10 8 24 25 16 13
10167740 1902308 22 3 11 23 14 24 25 15 9 8 7 19 4 20 12 21 5 1 18 6 2 26 16 13 10 17
10120483 3974337 2 22 11 23 12 25 1 10 8 15 7 20 4 18 14 21 5 9 19 6 26 16 13 3 24 17
10146703 2198017 12 11 8 23 14 1 25 10 3 15 20 4 19 7 16 21 5 9 18 26 22 2 13 6 17 24
10158567 1887321 2 15 26 21 6 23 22 13 12 14 7 9 19 5 1 11 4 20 18 8 17 10 24 25 3 16
10172583 2280621 12 11 8 13 14 25 24 15 2 21 20 4 19 7 18 1 5 9 3 23 16 26 6 22 10 17
10168596 2111521 6 21 15 2 23 22 11 20 12 14 1 5 9 19 26 13 7 4 18 25 24 17 8 10 3 16
10207055 1995453 9 1 2 21 15 26 23 3 11 14 18 5 19 7 6 22 20 12 4 10 17 8 24 25 13 16
10158209 1697775 1 2 15 26 6 23 22 12 13 14 5 19 9 7 21 11 4 18 20 17 8 25 24 10 3 16
10200050 2727701 1 15 16 3 6 26 23 11 22 18 5 9 20 7 21 14 12 4 19 17 25 2 10 24 8 13
10158209 1882870 1 15 2 26 6 23 22 12 13 14 5 9 19 7 21 11 4 18 20 17 25 8 10 24 3 16
10208602 2187926 21 9 1 2 6 22 16 23 13 14 7 18 5 19 15 11 4 20 12 25 10 17 24 8 3 26
10158106 2964054 21 1 15 26 6 23 22 12 13 14 7 5 9 19 2 11 4 18 20 24 17 25 10 8 3 16
10173292 1931782 6 1 21 2 11 22 23 12 20 14 9 5 15 19 26 13 7 18 4 25 17 24 8 10 3 16
10150985 2700125 22 11 16 23 12 25 1 10 3 15 20 4 19 18 14 21 5 9 7 2 26 6 8 13 24 17
10212107 1755525 11 12 16 2 13 4 25 15 21 3 14 18 9 19 8 7 20 1 5 22 24 6 26 23 17 10
10122190 3428224 22 11 12 2 13 25 24 8 15 21 20 4 18 7 23 1 5 19 9 26 16 14 3 6 10 17
10158209 2578599 15 1 2 26 6 23 22 12 13 14 9 5 19 7 21 11 4 18 20 25 17 8 24 10 3 16
10158939 1969683 26 2 15 1 6 11 23 12 22 14 19 7 9 5 21 13 4 18 20 10 8 25 17 24 3 16
10121363 3038967 2 22 11 23 12 25 1 10 15 8 7 20 4 18 14 21 5 19 9 6 26 16 3 13 17 24
10164318 3058807 21 6 15 2 7 22 26 12 13 14 5 1 9 19 23 11 4 18 20 24 25 17 10 8 3 16
10122250 2968224 13 11 23 22 12 24 25 8 15 21 18 7 20 4 2 1 5 19 9 14 6 16 3 26 10 17
10225013 1930810 2 16 13 11 21 8 23 15 19 7 20 9 18 14 3 4 12 1 5 26 10 24 6 22 25 17
10159893 3115530 21 26 2 15 6 22 23 13 12 14 5 19 7 9 1 11 4 20 18 24 10 8 17 25 3 16
10175522 1317160 16 7 11 2 12 25 24 3 1 15 9 20 4 19 8 21 18 14 5 6 13 22 23 26 10 17
10265407 2040010 11 22 21 23 13 7 25 8 4 9 14 20 5 18 26 15 1 19 12 16 10 17 6 3 2 24
10158412 2909597 1 15 21 26 6 11 3 12 23 14 5 9 7 19 2 22 4 18 20 17 25 24 10 8 16 13
10146650 2901875 23 8 12 2 11 15 25 3 1 21 20 19 18 4 16 10 9 7 5 13 6 14 26 22 17 24
10263284 1198301 13 23 3 21 22 19 7 8 12 4 14 18 5 1 16 11 15 9 20 10 24 17 25 6 2 26
10147462 2404831 23 8 12 11 14 25 1 3 10 15 7 19 20 4 16 21 5 18 9 13 2 26 6 22 17 24
10120483 2292215 22 2 11 23 12 1 25 8 10 15 20 7 4 18 14 21 5 19 9 26 6 16 3 13 17 24
10158741 3039914 26 15 2 21 6 23 11 22 12 14 19 9 7 5 1 13 4 20 18 10 17 8 25 24 3 16
10188179 1739329 11 10 23 13 12 1 25 2 7 15 4 9 20 14 18 21 5 19 3 16 6 22 26 8 24 17
10162688 1983829 26 2 15 21 6 22 23 3 14 11 19 7 9 5 1 12 20 4 18 10 8 17 24 25 13 16
10167514 1884730 21 15 6 2 7 22 26 12 11 14 5 9 1 19 23 13 20 18 4 24 17 25 8 10 3 16
10120705 3176580 12 13 22 2 23 25 1 8 10 15 18 7 20 4 11 21 5 19 9 14 6 26 3 16 17 24
10158106 1955894 1 15 21 26 6 23 22 12 13 14 5 9 7 19 2 11 4 18 20 17 25 24 10 8 16 3
10163886 2377367 22 8 11 12 7 24 25 15 2 21 20 19 4 18 14 1 5 9 3 13 6 16 23 26 10 17
10162330 2091074 1 15 2 26 6 22 23 3 14 11 5 9 19 7 21 12 20 4 18 17 25 8 10 24 16 13
10120805 1684626 14 11 12 22 13 8 2 15 1 21 18 4 20 7 23 25 19 9 5 10 16 26 3 6 17 24
10162263 2629558 21 26 2 15 6 23 22 11 12 14 5 19 7 9 1 13 20 4 18 24 10 8 17 25 3 16
10250193 2049047 21 3 13 22 11 2 8 15 4 9 5 14 18 20 16 7 19 1 12 25 6 10 17 24 23 26
10147569 2398700 8 12 23 11 14 21 17 3 10 15 19 20 7 4 16 1 5 18 9 2 26 13 6 22 24 25
10149264 2526922 14 11 22 8 23 25 24 1 21 9 18 4 20 7 12 15 19 5 3 6 16 26 13 2 10 17
10158209 2938433 1 15 2 26 6 23 22 12 13 14 5 9 19 7 21 11 4 18 20 17 25 8 24 10 3 16
10147887 2555589 12 23 11 8 14 1 25 10 15 3 20 19 7 4 16 21 5 18 9 26 22 13 6 2 24 17
10158209 2312214 1 15 2 26 6 22 23 12 13 14 5 9 19 7 21 11 4 18 20 17 25 8 24 10 16 3
10164263 2062105 11 7 8 23 13 1 25 2 10 15 4 20 19 18 12 21 5 3 9 16 22 26 14 6 17 24
10159449 2679313 1 26 2 6 21 3 11 23 12 14 5 19 7 9 15 22 4 20 18 17 10 8 24 25 16 13
10148982 1929945 8 11 12 23 16 1 25 3 10 15 19 4 18 20 13 21 5 7 9 6 26 14 22 2 17 24
10158209 1873988 1 15 2 26 6 23 22 12 13 14 5 9 19 7 21 11 4 18 20 17 25 8 24 10 3 16
10160067 2094077 21 2 26 15 6 11 23 22 12 14 5 7 19 9 1 13 4 20 18 24 8 10 25 17 3 16
10123570 3104055 12 26 11 23 14 15 25 1 8 21 18 4 7 20 22 2 9 5 19 10 3 6 13 16 17 24
10167596 1819040 15 21 23 2 7 11 3 22 12 14 1 5 19 9 6 26 4 20 18 17 25 8 10 24 16 13
10158209 2178174 1 15 2 26 6 23 22 12 13 14 5 9 19 7 21 11 4 18 20 17 25 8 24 10 3 16
10149125 1801961 12 11 8 22 23 25 1 3 10 15 18 4 19 20 16 21 5 7 9 14 26 6 13 2 17 24
10121887 2329965 2 13 23 11 12 17 21 10 15 8 20 7 18 4 22 1 5 19 9 16 6 14 3 26 24 25
10142150 2112023 11 12 14 23 7 24 25 2 15 21 4 18 8 20 22 1 5 19 9 3 26 6 16 13 10 17
10161513 2959283 26 2 1 6 21 23 22 12 11 14 19 7 5 9 15 13 20 18 4 10 8 17 25 24 16 3
10120828 2658891 22 14 11 13 12 25 1 8 10 15 20 18 4 7 23 21 5 19 9 2 6 16 3 26 17 24
10146810 986104 12 8 11 23 14 21 17 10 3 15 20 19 4 7 16 1 5 9 18 26 2 22 6 13 24 25
10198120 1604170 22 12 16 2 13 1 25 7 3 15 19 14 9 4 11 21 5 20 18 8 23 6 26 10 17 24
10148184 2332559 8 11 22 23 16 1 25 10 3 15 19 4 20 18 12 21 5 9 7 2 26 13 14 6 17 24
10169171 1380306 21 7 15 2 23 12 13 11 22 16 5 9 1 19 26 14 18 4 20 25 10 17 8 24 3 6
10159709 1846612 22 2 11 8 7 25 1 15 10 3 20 19 4 12 14 21 5 9 18 13 6 16 23 26 17 24
10122459 2363204 16 11 13 22 12 25 1 15 8 2 4 7 18 20 23 21 5 9 19 3 6 14 26 10 24 17
10158515 2806856 1 15 2 26 6 11 3 12 23 14 5 9 19 7 21 22 4 18 20 17 25 8 24 10 16 13
10160476 2586284 1 15 21 26 6 23 22 12 11 14 5 9 7 19 2 13 20 18 4 17 25 24 10 8 3 16
10147759 2471306 23 22 11 26 8 3 24 1 25 15 18 19 4 20 12 21 7 5 9 14 6 16 13 2 10 17
10122521 2452943 11 13 12 2 6 21 17 8 10 15 4 7 18 20 23 1 5 19 9 16 3 14 22 26 24 25
10173179 1980160 23 8 16 4 11 1 25 3 10 15 20 19 9 12 7 21 5 14 18 13 2 6 26 22 17 24
10160562 2301560 1 2 26 6 21 12 13 11 22 16 5 7 19 9 15 14 18 4 20 17 8 10 25 24 23 3
10184142 2015003 21 9 15 2 6 16 22 12 13 14 5 18 1 19 23 11 4 20 7 25 10 17 8 24 26 3
10160476 2026549 1 21 15 26 6 22 23 11 12 14 5 7 9 19 2 13 20 4 18 17 24 25 10 8 16 3
10165099 2532621 21 6 15 2 7 12 13 11 22 16 5 1 9 19 23 14 18 4 20 24 25 17 10 8 3 26
10118972 1376145 22 2 11 23 12 25 15 8 1 21 20 7 4 18 14 10 9 19 5 26 6 16 3 13 17 24
10137581 2333039 12 13 22 2 23 1 25 8 9 15 20 18 7 4 11 10 5 19 21 26 14 6 16 3 17 24
10163873 2324662 1 15 21 2 6 23 22 12 13 14 9 19 5 7 26 11 4 18 20 17 24 25 8 10 16 3
10187020 1903116 21 9 23 6 15 22 16 12 13 14 5 18 19 1 2 11 4 20 7 25 10 8 17 24 3 26
10160046 2256043 11 23 12 26 14 25 24 9 2 15 4 20 7 8 18 1 5 21 19 22 13 3 6 16 17 10
10210157 3107976 1 21 9 3 6 22 8 12 23 14 5 15 18 7 16 11 4 20 19 17 25 10 24 2 26 13
10160937 1715507 15 26 2 21 6 23 22 12 11 14 9 19 7 5 1 13 20 18 4 17 10 8 24 25 16 3
10159628 3145082 1 15 2 26 6 13 12 11 22 16 5 9 19 7 21 14 18 4 20 17 25 8 24 10 23 3
10153325 3399631 23 12 8 11 14 24 25 15 21 9 20 18 4 7 2 1 5 19 3 22 26 6 16 13 10 17
10120483 2671332 11 2 22 23 12 1 25 10 8 15 4 7 20 18 14 21 5 9 19 16 6 26 3 13 24 17
10147755 1930993 12 11 23 8 14 17 21 3 10 15 20 4 7 19 16 1 5 18 9 26 22 13 2 6 24 25
10123216 2621414 11 14 13 22 12 24 25 8 15 21 4 18 7 20 2 1 5 19 9 16 6 3 26 23 17 10
10168596 2394377 21 6 15 2 23 22 11 20 12 14 5 1 9 19 26 13 7 4 18 24 25 17 8 10 3 16
10121892 3203656 11 23 12 2 14 25 1 10 15 8 4 20 18 7 13 21 5 19 9 16 22 26 3 6 17 24
10163185 2836807 23 8 12 11 7 1 25 10 2 15 20 19 18 4 16 21 5 9 3 13 6 14 22 26 17 24
10261357 1812060 11 21 22 23 13 9 15 8 4 7 14 5 20 18 26 2 1 19 12 16 17 10 6 3 25 24
10169268 2456057 11 3 16 23 14 17 21 9 15 8 7 19 4 20 12 10 5 18 1 6 22 26 13 2 25 24
10160579 2750504 1 15 2 26 6 23 22 11 12 14 5 9 19 7 21 13 20 4 18 17 25 8 24 10 16 3
10121293 2365490 23 22 16 13 12 2 8 1 15 21 18 20 4 7 11 25 19 5 9 14 26 6 3 10 17 24
10178983 2795276 16 4 11 22 7 3 25 24 1 15 9 12 19 20 13 21 14 18 5 6 8 2 26 23 17 10
10123265 2784934 22 11 14 23 12 24 25 15 8 21 20 4 18 7 2 1 5 9 19 26 16 6 13 3 17 10
10160067 2201558 21 26 2 15 6 11 23 12 22 14 5 19 7 9 1 13 4 18 20 24 10 8 25 17 16 3
10188418 2408369 10 11 22 13 12 25 1 2 7 15 9 4 20 14 18 21 5 19 3 6 16 26 8 23 24 17
10122011 2383669 14 22 11 13 12 1 25 8 15 2 18 20 4 7 23 21 5 19 9 6 26 16 10 3 17 24
10164263 1988237 7 8 11 23 13 1 25 10 2 15 20 19 4 18 12 21 5 9 3 22 26 16 6 14 17 24
10148215 2346573 12 11 2 23 22 24 25 1 21 9 18 4 20 7 8 15 19 5 3 14 16 26 13 6 10 17
10162688 1725823 26 15 2 21 6 23 22 3 14 11 19 9 7 5 1 12 20 4 18 10 17 8 24 25 16 13
10160199 3003316 21 2 26 15 6 11 3 23 12 14 5 7 19 9 1 22 4 20 18 24 8 10 17 25 16 13
10151646 1865304 23 12 8 11 14 3 1 2 10 15 20 18 19 4 16 21 5 7 9 13 26 22 24 6 25 17
10220693 1170682 13 16 12 22 11 4 2 15 25 19 14 9 18 20 21 7 3 1 5 8 6 10 24 26 17 23
10177989 2621912 2 23 25 21 7 13 12 11 22 16 9 19 5 1 15 14 18 4 20 8 26 10 17 24 3 6
10168210 1864897 2 21 23 6 7 22 26 13 12 14 9 5 19 1 15 11 4 20 18 10 25 8 17 24 3 16
10124122 2616446 12 13 14 2 11 1 25 8 10 15 20 7 18 4 22 21 5 19 9 23 3 6 16 26 17 24
10216070 1765152 1 16 21 3 26 13 23 8 22 11 5 9 15 7 4 12 18 19 20 24 17 25 2 10 14 6
10197070 1714709 21 23 15 6 2 7 13 11 3 18 5 14 1 9 16 12 20 4 19 24 8 17 25 10 26 22
10198667 1526644 25 6 15 2 7 3 11 12 14 20 5 9 1 19 26 22 4 18 21 24 10 17 8 23 16 13
10121466 2392651 13 16 11 22 12 25 1 8 10 15 18 4 7 20 2 21 5 19 9 14 3 6 26 23 17 24
10149911 2683022 14 8 22 11 12 17 21 10 3 15 18 19 20 4 16 1 5 9 7 6 2 13 23 26 25 24
10166827 2100861 11 16 7 23 8 24 25 2 15 21 4 19 20 18 12 1 5 3 9 26 6 22 14 13 17 10
10159628 2543266 1 2 15 26 6 12 13 22 11 16 5 19 9 7 21 14 18 20 4 17 8 25 24 10 3 23
10121356 2384321 12 11 2 23 6 10 8 15 1 21 18 4 7 20 22 25 19 9 5 14 26 3 16 13 17 24
10147661 2540586 8 16 11 23 14 21 17 10 3 15 19 4 7 20 12 1 5 9 18 26 6 22 13 2 25 24
10173886 1764636 21 26 6 15 23 11 22 12 13 14 5 19 9 1 2 20 4 18 7 25 8 10 17 24 3 16
10123265 3284800 22 14 11 23 12 24 25 15 8 21 20 18 4 7 2 1 5 9 19 26 6 16 3 13 17 10
10166827 2915944 7 11 16 23 8 24 25 15 2 21 20 4 19 18 12 1 5 9 3 22 26 6 14 13 10 17
10140899 2401520 22 2 11 23 12 1 25 10 15 9 20 8 4 18 14 21 5 7 19 26 6 16 13 3 17 24
10175678 1941757 1 21 26 2 11 13 12 16 22 20 5 15 19 9 6 14 18 4 7 17 24 8 10 25 3 23
10124555 1654538 14 16 22 23 12 1 25 15 8 2 18 4 20 7 11 21 5 9 19 10 6 26 3 13 17 24
10133370 1348276 22 2 11 23 12 10 8 9 1 15 20 7 4 18 14 25 19 21 5 26 6 16 3 13 24 17
10175987 1601128 21 15 6 2 23 12 13 16 22 20 5 1 9 19 26 11 18 4 7 24 25 10 8 17 14 3
10158222 1967536 1 2 15 26 6 23 13 22 11 16 5 19 9 7 21 12 18 20 4 17 8 25 10 24 14 3
10170268 1532187 21 15 23 6 7 26 22 12 11 14 5 1 19 9 2 13 20 18 4 24 17 8 10 25 16 3
10158209 2065207 1 15 2 26 6 23 22 13 12 14 5 9 19 7 21 11 4 20 18 17 25 8 10 24 3 16
10140649 2290499 13 23 22 2 16 25 15 21 8 7 12 18 20 4 11 1 9 5 19 6 14 26 10 3 17 24
10156604 1935152 12 7 16 8 11 17 21 10 15 3 18 20 4 19 2 1 5 14 9 23 13 6 22 26 25 24
10121145 2846381 11 23 22 10 13 1 25 8 15 2 4 7 20 18 12 21 5 19 9 16 6 26 3 14 24 17
10158222 2965384 1 2 15 26 6 13 23 11 22 16 5 19 9 7 21 12 18 4 20 17 8 25 10 24 14 3
10159449 2034551 1 26 2 6 21 3 11 12 23 14 5 19 7 9 15 22 4 18 20 17 10 8 24 25 13 16
10162330 2496579 1 2 15 26 6 22 23 3 14 11 5 19 9 7 21 12 20 4 18 17 8 25 24 10 16 13
10183145 1746004 21 23 15 6 26 22 13 11 18 14 5 19 1 9 2 12 20 4 7 24 8 17 10 25 16 3
10226900 1763153 21 23 3 6 16 8 22 12 11 4 5 18 14 1 15 7 19 20 9 25 24 10 2 17 13 26
10185021 2223765 1 26 21 2 11 22 23 18 3 14 5 19 15 9 6 12 20 7 4 17 8 24 10 25 13 16
10185021 1995141 1 21 26 2 11 23 22 3 18 14 5 15 19 9 6 12 20 4 7 17 24 8 25 10 13 16
10143606 2072347 2 11 13 23 22 21 25 15 1 9 20 4 18 12 26 8 7 19 5 10 16 14 3 6 24 17
10123090 2283155 22 2 11 12 13 25 24 8 15 21 4 20 7 18 14 1 5 19 9 3 16 6 26 23 17 10
10159596 1632696 22 6 2 23 11 15 8 9 1 21 20 12 4 7 26 25 19 18 5 10 14 3 13 16 17 24
10158222 2532824 1 15 2 26 6 23 13 11 22 16 5 9 19 7 21 12 18 4 20 17 25 8 24 10 3 14
10159628 2124571 1 2 15 26 6 13 12 11 22 16 5 19 9 7 21 14 18 4 20 17 8 25 24 10 3 23
10162330 2458663 1 15 2 26 6 23 22 3 14 11 5 9 19 7 21 12 20 4 18 17 25 8 24 10 13 16
10140018 2433503 13 23 11 12 2 1 25 10 15 9 8 20 4 18 14 21 5 7 19 6 22 16 3 26 24 17
10169304 1656317 21 15 26 2 7 13 12 11 22 16 5 1 19 9 23 14 18 4 20 25 17 8 24 10 3 6
10211135 1473214 3 16 26 1 11 22 8 13 12 18 5 9 7 15 21 14 19 4 20 24 10 2 17 25 23 6
10122537 2507862 2 11 14 23 13 1 25 10 8 15 20 4 18 7 12 21 5 9 19 26 16 6 3 22 17 24
10187959 1514943 21 25 26 6 23 14 3 22 11 20 1 5 19 9 15 12 18 7 4 24 17 8 10 2 13 16
10162330 2564950 1 15 2 26 6 23 22 3 14 11 5 9 19 7 21 12 20 4 18 17 25 8 24 10 13 16
10145951 2381665 23 12 8 11 14 25 15 3 1 21 7 20 19 4 16 10 9 18 5 13 26 2 6 22 17 24
10158209 2781866 2 15 1 26 6 22 23 12 13 14 19 9 5 7 21 11 4 18 20 8 25 17 24 10 3 16
10147896 2745367 12 23 8 22 16 25 1 3 10 15 18 20 19 4 11 21 5 7 9 14 13 2 6 26 17 24
10153015 3172056 7 23 12 8 16 25 24 1 15 21 20 19 18 4 11 3 14 5 9 13 22 26 2 6 17 10
10158106 2293819 1 21 15 26 6 23 22 13 12 14 5 7 9 19 2 11 4 20 18 17 24 25 10 8 16 3
10159628 2527598 1 2 15 26 6 13 12 22 11 16 5 19 9 7 21 14 18 20 4 17 8 25 10 24 23 3
10121363 2324661 2 22 11 23 12 1 25 10 15 8 7 20 4 18 14 21 5 19 9 6 26 16 13 3 17 24
10155415 2921661 11 22 23 2 14 25 1 8 9 15 4 20 12 7 13 21 5 19 18 16 26 3 10 6 24 17
10166243 2626395 21 1 15 2 6 22 23 11 12 14 5 9 19 7 26 13 20 4 18 25 17 24 8 10 3 16
10159986 2885308 2 15 26 21 6 12 13 22 11 16 7 9 19 5 1 14 18 20 4 8 17 10 25 24 23 3
10145285 1928199 13 22 11 8 12 2 25 1 15 21 18 20 4 19 16 3 7 5 9 14 24 6 26 23 10 17
10121025 2355128 22 12 11 2 13 25 1 15 10 8 20 18 4 7 23 21 5 9 19 26 14 16 6 3 17 24
10213570 1895255 16 8 21 15 6 23 26 7 4 12 14 18 5 9 1 11 19 20 3 2 10 24 25 17 13 22
10162330 1841369 1 2 15 26 6 23 22 11 14 3 5 19 9 7 21 12 20 4 18 17 8 25 10 24 16 13
10160579 2145650 1 15 2 26 6 23 22 11 12 14 5 9 19 7 21 13 20 4 18 17 25 8 24 10 16 3
10158119 2337256 1 15 21 26 6 23 13 11 22 16 5 9 7 19 2 12 18 4 20 17 25 24 10 8 14 3
10140929 2005768 23 12 11 2 13 21 17 15 10 9 20 18 4 8 14 1 5 19 7 22 3 16 6 26 25 24
10120764 2588031 22 11 2 23 13 25 24 8 15 21 20 4 7 18 12 1 5 19 9 26 16 6 14 3 17 10
10145882 1989212 11 13 14 22 3 1 25 15 8 9 4 12 18 20 23 21 5 19 7 16 6 10 26 2 17 24
10158209 2451338 1 15 2 26 6 23 22 12 13 14 5 9 19 7 21 11 4 18 20 17 25 8 24 10 3 16
10170069 2625231 12 11 16 23 3 25 24 2 15 8 18 4 19 20 7 1 5 21 9 14 26 6 22 13 17 10
10124358 1427506 13 12 14 2 23 21 17 10 15 8 7 20 18 4 11 1 5 19 9 3 26 6 16 22 25 24
10122178 3168606 13 11 14 22 12 25 1 8 15 2 7 4 18 20 23 21 5 19 9 3 16 6 26 10 17 24
10120145 2583919 22 11 12 2 13 25 1 10 8 15 20 4 18 7 23 21 5 9 19 26 16 14 3 6 24 17
10170852 2050730 22 11 3 12 7 25 24 1 2 8 20 4 19 18 14 21 15 5 9 13 16 6 26 23 17 10
10122190 2654723 12 11 22 2 13 25 24 15 8 21 18 4 20 7 23 1 5 9 19 14 16 26 6 3 10 17
10158106 3274889 1 21 15 26 6 23 22 13 12 14 5 7 9 19 2 11 4 20 18 17 24 25 8 10 3 16
10175904 2303434 21 8 15 6 23 22 26 12 11 14 5 19 9 1 7 13 20 18 4 24 10 17 25 2 3 16
10148533 1763147 16 12 23 8 11 17 21 3 10 15 4 18 20 19 2 1 5 7 9 6 14 13 22 26 25 24
10136965 2918626 2 12 11 22 14 25 1 8 9 15 20 18 4 7 23 10 5 19 21 26 3 16 13 6 17 24
10159143 2484871 1 26 2 6 21 22 23 13 12 14 5 19 7 9 15 11 4 20 18 17 10 8 25 24 3 16
10119588 3326970 2 23 13 11 12 8 10 1 15 21 20 18 7 4 22 25 19 5 9 16 14 6 3 26 17 24
10162227 1970340 1 21 15 26 6 23 22 11 14 3 5 7 9 19 2 12 20 4 18 17 24 25 10 8 16 13
10159156 2520297 2 1 26 6 21 23 13 22 11 16 7 5 19 9 15 12 18 20 4 8 17 10 24 25 3 14
10122690 2580695 2 22 12 23 6 25 1 10 15 8 4 20 18 7 11 21 5 19 9 3 26 14 16 13 17 24
10146811 3260850 12 16 8 23 11 3 24 1 25 15 18 4 19 20 22 21 7 5 9 14 6 26 13 2 17 10
10150597 3122307 11 8 12 23 14 3 24 1 25 15 4 19 20 7 16 21 18 5 9 22 2 26 6 13 17 10
10121620 2922216 22 11 12 13 14 25 1 8 15 2 20 4 18 7 23 21 5 19 9 26 16 3 6 10 17 24
10175678 2096625 1 26 21 2 11 13 12 22 16 20 5 19 15 9 6 14 18 7 4 17 8 24 10 25 3 23
10158119 2080896 21 1 15 26 6 13 23 11 22 16 7 5 9 19 2 12 18 4 20 24 17 25 10 8 14 3
10158504 1551306 23 8 13 11 12 2 25 9 1 15 20 19 18 4 16 3 7 21 5 22 6 14 26 24 10 17
10188735 2144932 25 15 26 6 23 22 12 11 18 14 5 9 19 1 21 16 20 4 7 24 10 8 17 2 3 13
10184142 2570607 21 15 9 2 6 16 22 13 12 14 5 1 18 19 23 11 4 7 20 25 17 10 8 24 3 26
10141012 2565619 13 12 11 23 7 17 21 15 10 2 8 18 4 20 26 1 5 9 19 6 14 3 22 16 24 25
10120982 3612859 11 23 12 22 13 25 1 8 10 15 4 20 18 7 26 21 5 19 9 16 2 14 3 6 24 17
10162452 2256298 11 22 8 12 7 21 17 10 2 15 4 20 19 18 14 1 5 9 3 16 13 6 23 26 25 24
10151008 1549649 22 11 16 23 12 21 17 10 3 15 20 4 19 18 14 1 5 9 7 2 26 6 13 8 25 24
10174997 1662754 11 12 7 3 14 24 25 1 2 8 4 18 20 19 23 21 15 5 9 26 13 22 16 6 17 10
10159143 2617233 2 1 26 6 21 23 22 12 13 14 7 5 19 9 15 11 4 18 20 8 17 10 24 25 3 16
10149084 2342422 13 23 12 8 16 1 25 10 3 15 18 19 20 4 11 21 5 9 7 14 22 26 6 2 24 17
10123388 1950469 13 23 14 11 12 25 1 8 15 2 7 20 18 4 22 21 5 19 9 3 16 6 10 26 24 17
10158222 3022920 1 2 15 26 6 23 13 11 22 16 5 19 9 7 21 12 18 4 20 17 8 25 24 10 3 14
10254299 2171026 11 21 22 26 13 2 24 4 15 7 14 5 20 18 3 19 9 12 1 16 25 17 10 6 23 8
10164847 2083581 12 11 13 8 7 21 17 10 2 15 20 4 18 19 23 1 5 9 3 26 16 14 6 22 24 25
10162688 2065386 2 26 15 21 6 23 22 3 14 11 7 19 9 5 1 12 20 4 18 8 10 17 24 25 13 16
10140923 2943510 12 11 2 22 23 25 1 15 10 9 18 4 20 8 14 21 5 19 7 3 16 26 13 6 17 24
10185136 1046211 2 26 15 21 23 22 13 11 18 14 9 19 1 5 6 12 20 4 7 10 8 17 24 25 16 3
10160579 2654291 1 2 15 26 6 23 22 11 12 14 5 19 9 7 21 13 20 4 18 17 8 25 10 24 3 16
10229943 1904678 21 12 16 22 13 2 4 3 7 19 5 18 9 14 6 11 20 1 15 25 17 10 24 8 23 26
10155304 2303468 7 16 11 23 8 1 25 10 3 15 20 19 4 18 12 21 5 9 14 22 2 26 13 6 17 24
10124193 1808819 11 13 2 23 26 25 24 8 15 21 7 18 4 20 12 1 5 19 9 6 14 3 22 16 17 10
10147343 1360923 22 23 8 11 12 10 15 3 1 21 20 18 19 4 16 2 9 7 5 13 14 6 24 26 17 25
10278904 1570683 13 11 3 16 4 21 7 8 12 14 20 1 5 9 22 6 15 19 18 26 2 17 10 23 25 24
10158280 1937952 21 1 15 26 6 11 23 22 12 14 7 5 9 19 2 13 4 20 18 24 17 25 10 8 3 16
10145538 2158295 22 11 8 12 13 3 24 25 1 15 20 4 19 18 14 21 7 9 5 2 16 6 23 26 10 17
10174495 1811050 1 26 21 2 11 23 22 20 12 14 5 19 15 9 6 13 7 4 18 17 8 24 10 25 3 16
10145673 2538939 23 2 11 13 8 3 24 1 25 15 20 19 4 18 12 21 7 5 9 22 6 16 14 26 17 10
10137686 2444892 22 13 12 2 23 25 24 8 9 15 7 18 20 4 11 1 5 19 21 6 14 26 3 16 17 10
10159628 2645848 1 15 2 26 6 12 13 11 22 16 5 9 19 7 21 14 18 4 20 17 25 8 24 10 3 23
10263631 2264502 13 22 21 12 16 25 11 7 8 4 14 20 5 18 23 9 1 15 19 6 10 24 3 17 26 2
10179510 1931093 21 26 2 1 11 13 12 16 22 20 15 19 9 5 6 14 18 4 7 25 8 10 17 24 3 23
10122815 2278559 22 13 11 16 12 25 1 15 8 2 20 18 7 4 23 21 5 9 19 26 14 6 10 3 17 24
10158383 2727023 1 2 15 26 6 23 11 12 22 14 5 19 9 7 21 13 4 18 20 17 8 25 10 24 16 3
10119599 2464120 2 22 11 23 13 1 25 10 15 8 7 20 4 18 12 21 5 19 9 6 26 16 14 3 17 24
10124062 2448158 12 14 13 22 23 1 25 15 8 2 20 18 7 4 11 21 5 9 19 26 10 6 3 16 17 24
10124062 2127928 14 13 12 22 23 1 25 15 8 2 18 7 20 4 11 21 5 9 19 10 6 26 16 3 24 17
10207756 1846014 9 1 15 2 6 16 22 23 13 14 18 5 19 7 21 11 4 20 12 10 17 24 25 8 3 26
10159156 2925779 1 26 2 6 21 23 13 22 11 16 5 19 7 9 15 12 18 20 4 17 10 8 24 25 14 3
10157841 2643266 8 23 6 16 7 21 17 10 3 15 19 20 12 4 11 1 5 9 18 22 13 14 26 2 25 24
10159628 2071561 2 1 15 26 6 13 12 11 22 16 19 5 9 7 21 14 18 4 20 8 17 25 24 10 3 23
10160476 2055711 1 15 21 26 6 22 23 11 12 14 5 9 7 19 2 13 20 4 18 17 25 24 8 10 16 3
10149911 1865140 23 16 12 8 11 25 24 15 3 21 20 4 18 19 2 1 5 9 7 13 6 14 26 22 17 10
10162227 2752554 1 21 15 26 6 23 22 3 14 11 5 7 9 19 2 12 20 4 18 17 24 25 8 10 16 13
10158209 2041909 1 15 2 26 6 22 23 12 13 14 5 9 19 7 21 11 4 18 20 17 25 8 24 10 16 3
10122528 2661898 2 11 22 23 12 25 24 15 8 21 7 4 20 18 14 1 5 9 19 6 16 26 13 3 10 17
10122265 2182993 13 11 23 22 12 1 25 8 15 2 18 7 20 4 26 21 5 19 9 14 6 16 3 10 17 24
10206454 1983393 3 21 1 26 7 22 8 12 11 14 9 15 5 20 16 13 19 18 4 10 25 17 2 24 23 6
10120347 1740539 16 11 13 22 12 2 8 15 1 21 4 7 18 20 23 25 19 9 5 3 6 14 26 10 17 24
10159893 2503777 2 21 26 15 6 23 22 12 13 14 7 5 19 9 1 11 4 18 20 8 24 10 17 25 3 16
10158119 1828406 1 15 21 26 6 23 13 11 22 16 5 9 7 19 2 12 18 4 20 17 25 24 10 8 14 3
10119599 2233086 22 11 2 23 13 25 1 10 15 8 20 4 7 18 12 21 5 19 9 26 16 6 14 3 17 24
10122528 2666529 2 11 22 23 12 25 24 15 8 21 7 4 20 18 14 1 5 9 19 6 16 26 3 13 10 17
10159628 2282772 2 15 1 26 6 12 13 22 11 16 19 9 5 7 21 14 18 20 4 8 25 17 24 10 3 23
10140923 1819895 12 2 11 22 23 1 25 15 10 9 18 20 4 8 14 21 5 19 7 3 26 16 13 6 17 24
10134433 2702336 12 22 23 11 14 10 8 1 9 15 18 20 7 4 2 25 19 5 21 3 26 13 6 16 24 17
10184318 3497016 21 9 15 2 6 16 22 13 12 14 5 18 1 19 23 11 4 7 20 24 25 17 10 8 26 3
10123062 2686389 3 13 11 23 26 25 1 8 10 15 7 18 4 20 12 21 5 19 9 6 14 16 22 2 17 24
10209130 1687300 6 15 26 9 2 22 3 20 11 12 5 1 19 18 23 14 21 4 7 25 17 8 10 24 16 13
10210532 1499056 3 1 16 21 11 22 8 12 13 18 7 5 9 15 6 14 19 20 4 2 17 10 24 25 26 23
10169802 2361819 15 21 6 2 23 22 11 13 12 14 9 5 1 19 26 20 4 7 18 17 24 25 8 10 16 3
10160476 1956302 15 21 1 26 6 22 23 12 11 14 9 7 5 19 2 13 20 18 4 25 24 17 10 8 3 16
10122444 2708168 14 11 22 23 13 25 1 8 15 2 18 4 20 7 12 21 5 19 9 10 16 26 6 3 17 24
10123288 2441704 12 2 11 22 14 15 25 21 10 8 18 20 4 7 23 1 9 5 19 26 16 3 13 6 17 24
10123090 2286202 2 11 22 12 13 24 25 15 8 21 20 7 4 18 14 1 5 9 19 16 6 3 26 23 10 17
10176448 1963782 1 21 2 6 26 12 13 16 22 20 5 15 19 9 11 14 18 4 7 17 24 8 10 25 3 23
10162330 1694943 1 15 2 26 6 23 22 14 3 11 5 9 19 7 21 12 20 18 4 17 25 8 24 10 13 16
10172714 2059384 21 15 23 6 26 11 22 12 13 14 5 1 19 9 2 20 4 18 7 24 17 8 10 25 16 3
10121363 2936997 11 2 22 23 12 25 1 10 15 8 4 7 20 18 14 21 5 19 9 16 6 26 3 13 17 24
10120576 2732351 22 11 2 23 12 21 17 8 10 15 20 4 7 18 14 1 5 19 9 26 16 6 3 13 24 25
10207298 1847565 16 15 2 21 3 13 12 11 8 22 7 9 20 5 1 14 18 4 19 10 17 25 24 6 23 26
10179170 1772626 25 21 15 2 6 12 11 16 22 20 5 1 9 19 23 14 18 4 7 17 24 10 8 26 13 3
10136234 2356241 23 22 16 13 12 8 2 9 1 15 18 20 4 7 11 25 19 21 5 14 26 6 3 10 17 24
10162330 2776821 1 15 2 26 6 22 23 3 14 11 5 9 19 7 21 12 20 4 18 17 25 8 24 10 16 13
10158567 2519522 15 2 26 21 6 23 22 12 13 14 9 7 19 5 1 11 4 18 20 17 8 10 25 24 3 16
10162330 2204280 1 15 2 26 6 23 22 3 14 11 5 9 19 7 21 12 20 4 18 17 25 8 24 10 13 16
10119158 2824552 12 13 22 2 23 25 24 1 8 21 18 7 20 4 11 15 9 5 19 14 6 26 3 16 17 10
10159893 2475820 21 2 26 15 6 22 23 12 13 14 5 7 19 9 1 11 4 18 20 24 8 10 17 25 16 3
10185295 1996187 1 26 2 21 11 23 22 3 18 14 5 19 9 15 6 12 20 4 7 17 8 10 25 24 13 16
10140801 1858704 11 23 12 2 13 25 1 15 10 9 4 20 18 8 14 21 5 19 7 16 22 3 6 26 17 24
10163873 2261012 21 15 1 2 6 22 23 13 12 14 5 19 9 7 26 11 4 20 18 25 24 17 8 10 3 16
10162330 2056316 1 2 15 26 6 23 22 3 14 11 5 19 9 7 21 12 20 4 18 17 8 25 24 10 16 13
10158383 2783010 1 15 2 26 6 11 23 22 12 14 5 9 19 7 21 13 4 20 18 17 25 8 24 10 16 3
10121780 2428929 23 11 14 22 12 17 21 10 15 8 20 4 18 7 2 1 5 19 9 13 16 6 3 26 24 25
10184318 2095812 21 9 15 2 6 22 16 12 13 14 5 18 1 19 23 11 4 20 7 24 25 17 10 8 26 3
10165292 3106094 21 15 1 2 6 12 13 22 11 16 5 19 9 7 26 14 18 20 4 25 24 17 10 8 3 23
10175952 2119680 26 2 1 21 11 13 12 16 22 20 19 9 5 15 6 14 18 4 7 8 10 17 25 24 3 23
10158106 2366904 21 1 15 26 6 22 23 13 12 14 7 5 9 19 2 11 4 20 18 24 17 25 10 8 16 3
10147920 1990605 22 8 13 11 12 25 1 10 3 15 20 19 18 4 16 21 5 9 7 2 6 14 26 23 17 24
10159143 3432389 1 26 2 6 21 23 22 13 12 14 5 19 7 9 15 11 4 20 18 17 10 8 25 24 3 16
10164318 2577581 21 15 6 2 7 26 22 12 13 14 5 9 1 19 23 11 4 18 20 24 17 25 10 8 16 3
10162330 2082707 1 15 2 26 6 23 22 14 3 11 5 9 19 7 21 12 20 18 4 17 25 8 10 24 16 13
10166364 2493000 14 11 8 23 7 24 25 15 2 21 18 4 19 20 12 1 5 9 3 6 16 26 13 22 10 17
10165648 2337987 21 6 15 2 7 22 26 13 12 14 5 9 1 19 23 11 4 20 18 25 10 17 24 8 16 3
10145734 1740777 8 12 11 22 14 25 15 1 3 21 19 20 4 7 16 10 9 5 18 2 23 26 6 13 24 17
10160579 1803073 1 15 2 26 6 23 22 11 12 14 5 9 19 7 21 13 20 4 18 17 25 8 24 10 16 3
10121892 2352329 23 12 11 2 14 1 25 10 15 8 20 18 4 7 13 21 5 19 9 22 26 16 3 6 24 17
10122178 2502449 14 11 13 22 12 25 1 8 15 2 18 4 7 20 23 21 5 19 9 6 16 3 26 10 17 24
10166837 2056919 1 21 6 26 15 23 22 12 11 14 5 7 9 19 8 13 20 18 4 25 10 2 24 17 3 16
10120876 2585543 12 26 2 23 22 8 10 1 15 21 18 4 20 7 11 25 19 5 9 14 3 16 6 13 24 17
10248436 1505476 21 13 2 22 7 15 25 8 23 12 5 18 20 4 11 9 1 19 14 6 10 16 3 26 24 17
10144368 2221227 23 13 14 2 22 1 25 15 8 9 20 12 18 4 11 21 5 19 7 16 6 10 3 26 17 24
10136434 1577345 22 11 23 12 13 9 25 1 8 15 20 4 7 18 14 2 21 5 19 26 16 6 10 3 17 24
10145951 2201060 12 8 23 11 14 25 15 1 3 21 20 19 7 4 16 10 9 5 18 26 2 13 6 22 17 24
10186704 2577503 21 23 15 16 2 22 13 11 18 14 5 19 1 9 6 12 20 4 7 24 8 25 17 10 3 26
10145951 1944800 8 12 23 11 14 15 25 1 3 21 19 20 7 4 16 10 9 5 18 2 26 13 6 22 17 24
10141116 1620538 2 11 23 13 16 8 10 15 1 21 4 18 20 12 7 25 19 9 5 3 26 22 6 14 17 24
10166145 1716697 21 15 2 23 7 6 13 22 11 16 5 1 9 19 26 12 18 20 4 25 17 10 24 8 3 14
10158106 3268598 1 15 21 26 6 23 22 12 13 14 5 9 7 19 2 11 4 18 20 17 25 24 10 8 3 16
10218738 1492872 2 3 16 21 11 8 13 18 22 14 20 5 9 15 1 12 19 7 4 25 17 10 24 6 23 26
10124723 1668626 22 14 12 23 11 1 25 8 15 2 4 18 20 7 13 21 5 19 9 3 10 26 6 16 17 24
10160191 2492554 23 6 13 2 11 15 8 1 9 21 20 12 7 4 22 25 19 5 18 10 14 3 16 26 17 24
10176797 2296756 26 25 15 6 23 22 11 12 13 14 19 5 9 1 21 20 4 18 7 8 24 10 2 17 3 16
10119656 2841806 12 23 11 22 13 8 10 1 15 21 18 20 4 7 26 25 19 5 9 14 2 16 6 3 17 24
10121129 2383485 14 22 11 23 26 15 25 1 8 21 18 7 4 20 12 10 9 5 19 6 3 16 2 13 17 24
10199273 1815785 1 2 15 21 26 8 23 12 22 14 9 7 19 5 3 11 4 18 20 25 10 17 24 6 13 16
10158383 2154619 1 2 15 26 6 11 23 22 12 14 5 19 9 7 21 13 4 20 18 17 8 25 24 10 16 3
10160579 1997698 15 2 1 26 6 22 23 12 11 14 9 19 5 7 21 13 20 18 4 25 8 17 24 10 16 3
10158209 3022098 15 1 2 26 6 22 23 12 13 14 9 5 19 7 21 11 4 18 20 25 17 8 10 24 16 3
10150400 3380620 12 11 13 8 16 24 25 15 3 21 20 4 18 19 23 1 5 9 7 26 22 14 2 6 17 10
10221046 2243992 21 9 6 23 15 7 4 22 16 12 5 18 1 14 8 13 3 20 19 25 10 2 17 24 11 26
10158952 2497276 1 2 15 26 6 3 23 12 22 14 5 19 9 7 21 11 4 18 20 17 8 25 24 10 16 13
10160579 2398370 1 15 2 26 6 23 22 12 11 14 5 9 19 7 21 13 20 18 4 17 25 8 24 10 16 3
10159143 2519457 2 1 26 6 21 23 22 12 13 14 7 5 19 9 15 11 4 18 20 8 17 10 25 24 16 3
10166738 3329272 21 26 1 2 6 13 12 11 22 16 5 7 9 19 15 14 18 4 20 24 25 17 8 10 23 3
10158209 2891562 1 15 2 26 6 23 22 12 13 14 5 9 19 7 21 11 4 18 20 17 25 8 10 24 16 3
10122640 3556694 11 22 14 23 26 1 25 8 10 15 4 7 18 20 12 21 5 19 9 16 3 6 2 13 24 17
10167951 2603612 22 7 11 23 12 1 25 2 10 15 19 20 4 18 14 21 5 3 9 6 26 16 13 8 24 17
10121145 2797066 11 22 23 10 13 25 1 15 8 2 4 20 7 18 12 21 5 9 19 16 26 6 3 14 17 24
10136298 2156323 11 22 12 2 13 1 25 8 9 15 4 20 18 7 23 10 5 19 21 16 26 14 3 6 17 24
10202450 1310352 24 26 2 6 9 22 11 14 12 20 5 19 7 1 15 13 4 21 18 17 8 23 10 25 3 16
10162330 2456964 1 15 2 26 6 23 22 3 14 11 5 9 19 7 21 12 20 4 18 17 25 8 24 10 13 16
10120332 3540035 14 11 22 23 13 8 2 1 15 21 18 4 20 7 12 25 19 5 9 10 16 26 6 3 17 24
10188818 1993080 22 16 11 13 12 1 25 2 7 15 20 9 4 14 18 21 5 19 3 10 6 8 26 23 24 17
10154633 2681782 23 26 12 22 11 25 24 2 9 15 20 4 18 8 7 1 5 19 21 16 3 14 6 13 17 10
10177073 2184230 4 23 16 8 7 25 24 3 1 15 12 20 9 19 11 21 18 14 5 13 22 6 26 2 10 17
10121456 2566095 22 11 2 23 12 21 17 10 15 8 20 4 7 18 14 1 5 19 9 26 16 6 3 13 25 24
10168844 2179027 21 6 15 2 7 22 26 12 11 14 5 9 1 19 23 13 20 18 4 25 10 17 8 24 3 16
10121363 2372217 22 2 11 23 12 25 1 15 10 8 20 7 4 18 14 21 5 9 19 26 6 16 3 13 17 24
10181107 1895892 21 6 15 2 23 22 13 18 11 14 5 9 1 19 26 12 20 7 4 25 10 17 8 24 16 3
10159525 2000695 21 1 15 26 6 12 13 11 22 16 7 5 9 19 2 14 18 4 20 24 17 25 10 8 3 23
10152764 1968042 23 11 22 13 12 25 24 15 21 9 18 4 20 7 8 1 5 19 3 14 16 2 6 26 10 17
10159525 2343548 1 21 15 26 6 13 12 11 22 16 5 7 9 19 2 14 18 4 20 17 24 25 8 10 3 23
10168310 1723122 12 11 3 23 14 21 17 9 15 8 20 4 19 7 16 10 5 18 1 26 22 2 6 13 25 24
10163264 1372864 1 26 2 6 21 23 22 14 3 11 5 19 7 9 15 12 20 18 4 17 10 8 24 25 13 16
10162227 2191600 15 1 21 26 6 22 23 3 14 11 9 5 7 19 2 12 20 4 18 25 17 24 10 8 13 16
10207409 2795323 16 26 1 21 3 13 23 11 8 22 9 20 5 15 7 12 18 4 19 10 2 17 24 25 6 14
10188425 1906561 9 1 21 26 6 23 22 11 3 14 18 5 15 19 2 12 20 4 7 25 17 24 8 10 16 13
10164318 1801365 21 6 15 2 7 22 26 13 12 14 5 1 9 19 23 11 4 20 18 24 25 17 10 8 3 16
10159143 2656474 2 1 26 6 21 23 22 13 12 14 7 5 19 9 15 11 4 20 18 8 17 10 25 24 3 16
10197852 2364046 16 11 22 13 12 7 25 1 2 3 9 4 19 14 18 21 15 5 20 6 10 8 23 26 17 24
10186162 2348380 21 9 15 2 6 26 22 3 11 14 5 18 1 19 23 12 20 7 4 24 25 17 10 8 16 13
10169034 2111797 21 23 6 15 7 12 13 11 22 16 5 19 9 1 2 14 18 4 20 25 8 10 17 24 3 26
10158209 2732300 1 15 2 26 6 23 22 13 12 14 5 9 19 7 21 11 4 20 18 17 25 8 24 10 16 3
10159628 2127371 1 15 2 26 6 12 13 22 11 16 5 9 19 7 21 14 18 20 4 17 25 8 24 10 3 23
10194502 3092418 3 26 21 15 6 8 23 11 12 14 7 18 5 9 1 16 19 4 20 2 10 24 17 25 13 22
10121777 3222412 2 12 23 22 13 25 1 10 15 8 4 18 20 7 11 21 5 19 9 26 14 16 3 6 17 24
10158741 2230690 26 15 2 21 6 11 23 22 12 14 19 9 7 5 1 13 4 20 18 10 17 8 25 24 3 16
10159525 2634635 21 1 15 26 6 13 12 11 22 16 7 5 9 19 2 14 18 4 20 24 17 25 8 10 23 3
10168596 2124537 21 6 15 2 23 11 22 20 12 14 5 1 9 19 26 13 7 4 18 24 25 17 10 8 3 16
10159906 2411430 21 2 26 15 6 23 13 11 22 16 5 7 19 9 1 12 18 4 20 24 8 10 17 25 14 3
10140929 1819124 23 12 11 2 13 21 17 15 10 9 20 18 4 8 14 1 5 19 7 22 3 16 6 26 25 24
10148963 2180645 23 14 12 2 13 15 25 21 10 9 20 8 18 4 11 1 19 5 7 16 6 26 3 22 24 17
10159886 2257058 1 26 2 6 21 3 23 22 12 14 5 19 7 9 15 11 4 20 18 17 10 8 25 24 16 13
10188273 1939222 1 9 21 2 6 23 22 11 3 14 5 18 15 19 26 12 20 4 7 17 10 25 8 24 16 13
10159616 2898508 22 2 11 8 7 21 17 3 10 15 20 19 4 12 14 1 5 18 9 13 6 16 26 23 25 24
10123024 1932404 12 14 11 22 13 17 21 15 8 2 20 18 4 7 23 1 5 9 19 26 10 16 6 3 24 25
10155678 2453779 13 12 11 23 6 1 25 2 9 15 18 8 4 20 7 10 5 19 21 14 26 3 22 16 24 17
10158209 2072182 2 15 1 26 6 22 23 13 12 14 19 9 5 7 21 11 4 20 18 8 25 17 10 24 3 16
10159628 3688131 1 15 2 26 6 12 13 22 11 16 5 9 19 7 21 14 18 20 4 17 25 8 10 24 3 23
10216402 1742848 26 16 21 3 2 8 22 12 18 14 20 9 15 5 1 11 4 19 7 25 10 6 24 17 23 13
10147426 1851758 22 11 13 8 12 1 25 3 10 15 20 4 18 19 16 21 5 7 9 2 6 14 23 26 17 24
10145167 2806951 22 11 23 26 14 1 25 8 15 9 20 4 18 12 13 21 5 7 19 2 16 3 10 6 17 24
10147741 2041140 11 12 13 22 23 3 24 1 25 15 4 20 18 19 8 21 7 5 9 16 26 14 2 6 17 10
10122725 2180638 14 2 11 22 12 1 25 10 15 8 18 7 4 20 23 21 5 19 9 6 3 16 26 13 17 24
10159628 2707492 1 15 2 26 6 13 12 11 22 16 5 9 19 7 21 14 18 4 20 17 25 8 10 24 3 23
10175794 2285226 21 15 6 2 23 13 12 22 16 20 5 1 9 19 26 11 18 7 4 25 17 10 8 24 14 3
10136403 2515044 12 11 22 2 13 24 25 8 9 15 18 4 20 7 23 1 5 19 21 14 16 26 3 6 10 17
10141733 2424161 13 22 14 26 23 1 25 8 15 7 12 20 18 4 11 21 5 19 9 3 10 6 16 2 24 17
10177467 1904891 3 22 23 16 7 25 24 9 15 8 19 20 12 4 11 21 5 18 1 6 13 14 2 26 17 10
10174769 1942885 26 2 1 21 11 23 22 12 20 14 19 9 5 15 6 13 7 18 4 8 10 17 25 24 16 3
10121733 2160113 23 2 11 12 13 25 24 15 8 21 20 7 4 18 14 1 5 9 19 22 6 16 3 26 10 17
10170676 2128632 21 15 6 2 23 11 22 13 12 14 5 1 9 19 26 20 4 7 18 25 17 10 24 8 16 3
10124040 3068796 12 22 23 13 16 17 21 15 8 2 18 20 4 7 11 1 5 9 19 14 26 3 10 6 25 24
10146579 2123111 12 11 23 22 14 25 1 9 10 15 8 4 20 7 13 21 5 18 19 26 16 2 3 6 17 24
10162330 2073888 1 15 2 26 6 23 22 3 14 11 5 9 19 7 21 12 20 4 18 17 25 8 24 10 16 13
10160579 2595468 1 15 2 26 6 23 22 12 11 14 5 9 19 7 21 13 20 18 4 17 25 8 24 10 16 3
10159893 2318505 2 21 26 15 6 23 22 12 13 14 7 5 19 9 1 11 4 18 20 8 24 10 17 25 3 16
10160579 2744912 2 1 15 26 6 22 23 12 11 14 19 5 9 7 21 13 20 18 4 8 17 25 24 10 3 16
10158209 2015016 1 15 2 26 6 23 22 12 13 14 5 9 19 7 21 11 4 18 20 17 25 8 10 24 16 3
10148377 1981941 22 14 8 11 12 15 25 1 3 21 20 18 19 4 16 10 9 5 7 13 6 2 26 23 24 17
10149084 2664773 23 12 13 8 16 1 25 10 3 15 19 20 18 4 11 21 5 9 7 22 26 14 6 2 24 17
10159628 2791839 1 2 15 26 6 12 13 11 22 16 5 19 9 7 21 14 18 4 20 17 8 25 24 10 23 3
10158657 1917554 22 23 11 12 14 24 25 2 9 15 7 20 4 8 18 1 5 19 21 3 16 26 13 6 10 17
10146811 1999648 16 12 8 23 11 3 24 1 25 15 4 18 19 20 22 21 7 5 9 6 14 26 2 13 17 10
10187951 2283971 15 26 2 1 7 22 16 23 13 14 9 12 19 5 21 11 4 20 18 25 10 8 17 24 6 3
10160476 2955940 21 15 1 26 6 23 22 11 12 14 7 9 5 19 2 13 20 4 18 24 25 17 10 8 16 3
10180233 1684216 21 6 15 2 23 22 13 18 11 14 5 1 9 19 26 12 20 7 4 24 25 17 10 8 3 16
10160067 3161096 21 26 2 15 6 11 23 12 22 14 5 19 7 9 1 13 4 18 20 24 10 8 25 17 3 16
10161215 1918392 11 10 23 2 6 9 25 1 15 21 7 12 20 4 26 8 18 5 19 13 14 22 3 16 17 24
10158209 2023853 2 1 15 26 6 23 22 12 13 14 19 5 9 7 21 11 4 18 20 8 17 25 24 10 3 16
10159906 1464467 21 2 26 15 6 23 13 11 22 16 5 7 19 9 1 12 18 4 20 24 8 10 17 25 3 14
10147144 2837453 23 11 2 8 14 25 1 3 10 15 20 4 19 7 12 21 5 18 9 22 16 26 6 13 17 24
10123812 3218225 22 11 13 6 12 25 24 8 15 21 20 4 18 7 23 1 5 19 9 2 16 14 26 3 10 17
10140929 1802183 12 11 23 2 13 17 21 15 10 9 18 4 20 8 14 1 5 19 7 3 16 22 6 26 24 25
10301861 1528385 2 26 15 12 9 6 3 13 22 7 14 19 1 18 23 21 5 20 4 10 8 25 24 17 11 16
10152210 2640746 11 22 13 12 7 1 25 2 9 15 4 20 8 18 14 10 5 19 21 16 26 6 3 23 24 17
10120982 2935478 11 23 12 22 13 1 25 8 10 15 4 20 18 7 26 21 5 19 9 16 2 14 3 6 24 17
10207825 1465911 21 15 23 6 16 22 13 11 8 18 5 9 7 1 3 12 20 4 19 25 10 2 17 24 14 26
10145538 3135835 11 22 8 12 13 3 24 1 25 15 4 20 19 18 14 21 7 5 9 16 2 6 26 23 17 10
10122582 1557701 11 23 12 22 13 15 25 10 21 8 4 20 18 7 26 1 9 19 5 16 2 14 3 6 17 24
10120684 2081778 23 13 14 11 12 2 8 1 15 21 20 7 18 4 22 25 19 5 9 16 6 10 3 26 24 17
10159249 2667124 23 8 11 12 13 25 2 1 9 15 20 19 4 18 14 3 7 5 21 22 6 16 26 24 10 17
10170214 3484192 11 12 13 3 7 24 25 2 15 8 4 20 18 19 16 1 5 21 9 6 23 14 22 26 17 10
10163750 2181947 21 2 1 6 15 12 13 11 22 16 5 19 9 7 26 14 18 4 20 25 8 17 24 10 23 3
10122327 2145262 11 23 12 22 14 25 1 8 15 2 4 20 18 7 13 21 5 19 9 3 16 26 10 6 24 17
10119571 2925063 2 23 12 22 13 8 10 1 15 21 4 20 18 7 11 25 19 5 9 26 16 14 3 6 17 24
10120420 3873220 12 13 23 2 22 25 24 1 8 21 20 7 18 4 11 15 9 5 19 26 6 14 3 16 17 10
10159893 2294760 26 21 2 15 6 23 22 12 13 14 19 5 7 9 1 11 4 18 20 10 24 8 17 25 3 16
10132575 2402567 2 23 11 12 13 10 8 1 9 15 7 20 4 18 14 25 19 5 21 6 22 16 3 26 24 17
10118719 2617987 22 2 11 23 13 25 1 8 10 15 20 7 4 18 12 21 5 19 9 26 6 16 14 3 17 24
10139201 3443113 11 22 13 12 7 25 24 2 15 21 4 20 8 18 14 1 5 19 9 16 26 6 23 3 10 17
10124473 1783522 12 11 13 2 6 25 24 15 8 21 18 4 7 20 23 1 5 9 19 14 16 3 22 26 17 10
10152210 2825936 22 11 13 12 7 1 25 2 9 15 20 4 8 18 14 10 5 19 21 26 16 6 3 23 17 24
10119753 1814058 23 26 11 12 13 2 8 1 15 21 20 7 4 18 14 25 19 5 9 22 6 16 10 3 17 24
10165265 2316341 11 23 22 2 12 25 1 3 9 15 4 18 20 19 16 10 5 7 21 6 14 13 26 8 17 24
10122611 2042414 22 14 12 23 11 8 2 1 15 21 4 18 20 7 13 25 19 5 9 3 10 26 6 16 24 17
10160032 2946644 1 6 2 21 15 11 3 23 12 14 5 9 19 7 26 22 4 20 18 17 10 8 24 25 16 13
10140899 2267280 2 11 22 23 12 25 1 10 15 9 8 4 20 18 14 21 5 7 19 6 16 26 3 13 17 24
10148161 2918104 12 8 23 2 11 1 25 3 10 15 18 19 20 4 16 21 5 7 9 14 6 13 26 22 17 24
10160067 2790935 21 26 2 15 6 11 23 22 12 14 5 19 7 9 1 13 4 20 18 24 10 8 25 17 3 16
10145522 2351942 11 23 22 13 6 25 1 15 8 9 4 12 20 18 14 21 5 19 7 16 3 2 10 26 17 24
10132575 2560264 23 2 11 12 13 10 8 1 9 15 20 7 4 18 14 25 19 5 21 22 6 16 26 3 24 17
10146810 2312647 11 12 8 23 14 21 17 10 3 15 4 20 19 7 16 1 5 9 18 22 26 2 6 13 25 24
10172714 1712103 21 15 23 6 26 11 22 12 13 14 5 1 19 9 2 20 4 18 7 24 17 8 25 10 16 3
10169690 2344754 21 15 6 2 23 3 11 12 20 14 5 1 9 19 26 22 7 18 4 25 17 10 8 24 16 13
10124685 2570015 11 14 22 23 26 25 24 15 8 21 4 18 7 20 12 1 5 9 19 16 6 3 2 13 17 10
10159021 2206128 11 23 10 2 6 15 8 1 9 21 4 20 12 7 22 25 19 5 18 16 13 14 3 26 17 24
10162263 2025741 21 2 26 15 6 23 22 11 12 14 5 7 19 9 1 13 20 4 18 24 8 10 17 25 16 3
10158209 2082809 1 2 15 26 6 22 23 12 13 14 5 19 9 7 21 11 4 18 20 17 8 25 24 10 16 3
10124012 3066906 26 2 12 23 11 25 24 8 15 21 4 7 18 20 22 1 5 19 9 3 6 14 13 16 17 10
10146103 1671019 11 23 14 22 12 2 25 1 15 21 4 20 18 19 8 3 7 5 9 16 13 6 24 26 10 17
10121688 2506998 11 12 2 22 14 1 25 8 10 15 4 18 20 7 23 21 5 19 9 3 26 16 13 6 17 24
10196956 2702955 22 23 16 13 12 25 1 11 7 15 4 20 9 14 18 21 5 19 3 8 2 6 26 10 17 24
10159893 3434008 21 26 2 15 6 22 23 12 13 14 5 19 7 9 1 11 4 18 20 24 10 8 25 17 3 16
10160579 1387651 1 15 2 26 6 23 22 12 11 14 5 9 19 7 21 13 20 18 4 17 25 8 24 10 3 16
10121998 2198016 22 14 11 23 26 2 8 15 1 21 4 18 7 20 12 25 19 9 5 3 10 6 13 16 17 24
10159143 2225058 2 1 26 6 21 22 23 12 13 14 7 5 19 9 15 11 4 18 20 8 17 10 25 24 3 16
10173523 2438100 1 21 6 2 11 23 13 16 22 20 5 15 9 19 26 12 18 4 7 17 25 10 24 8 14 3
10158515 2562780 1 15 2 26 6 11 3 12 23 14 5 9 19 7 21 22 4 18 20 17 25 8 10 24 13 16
10120764 2832661 2 22 11 23 13 24 25 15 8 21 7 20 4 18 12 1 5 9 19 6 26 16 3 14 10 17
10167080 2009839 2 11 23 3 14 24 25 9 15 8 19 4 20 7 12 21 5 18 1 26 16 22 6 13 10 17
10165319 1709441 1 26 21 2 6 23 22 13 12 14 9 7 5 19 15 11 4 20 18 17 25 24 10 8 3 16
10123495 2851850 14 23 13 11 12 17 21 8 15 2 18 20 7 4 22 1 5 19 9 6 16 3 26 10 24 25
10144605 1783502 14 13 11 22 2 15 8 21 1 9 18 12 4 20 23 25 19 7 5 6 3 16 10 26 17 24
10133932 2299086 2 22 11 12 13 10 8 1 9 15 20 4 7 18 14 25 19 5 21 16 3 6 23 26 24 17
10120483 3360479 2 22 11 23 12 25 1 10 8 15 7 20 4 18 14 21 5 9 19 6 26 16 13 3 17 24
10159819 2208553 8 2 16 23 11 21 17 10 15 3 12 19 4 20 7 1 5 18 9 14 26 6 22 13 25 24
10159449 2498089 2 1 26 6 21 11 3 12 23 14 7 5 19 9 15 22 4 18 20 8 17 10 24 25 16 13
10119763 3617014 12 23 11 2 22 15 25 1 8 21 18 20 4 7 13 10 9 5 19 14 16 26 3 6 17 24
10195467 1926724 21 15 16 2 23 7 13 3 11 18 5 1 9 14 6 12 20 19 4 25 17 10 8 24 22 26
10149243 2364280 11 23 13 2 12 25 24 15 3 21 4 20 18 19 16 1 5 9 7 6 22 14 8 26 17 10
10180182 2210408 2 11 23 3 7 21 17 9 15 8 19 4 20 12 14 10 5 18 1 26 16 22 6 13 25 24
10185021 2794425 1 26 21 2 11 23 22 18 3 14 5 19 15 9 6 12 20 7 4 17 8 24 10 25 13 16
10163409 2129914 1 15 6 2 21 22 23 3 14 11 5 9 7 19 26 12 20 4 18 17 25 8 10 24 16 13
10180436 2228932 13 8 23 16 4 17 21 10 3 15 12 19 20 9 7 1 5 18 14 6 26 22 11 2 25 24
10188418 1973992 22 11 10 13 12 25 1 2 7 15 20 4 9 14 18 21 5 19 3 26 16 6 8 23 24 17
10156273 2017781 12 11 13 23 7 24 25 2 9 15 8 4 18 20 22 1 5 19 21 26 6 14 3 16 17 10
10159986 2499022 15 26 2 21 6 13 12 11 22 16 9 19 7 5 1 14 18 4 20 17 10 8 24 25 23 3
10147551 2075741 23 8 11 12 13 10 15 1 3 21 20 19 4 18 14 2 9 5 7 22 6 16 26 24 25 17
10120145 3515583 22 12 11 2 13 1 25 10 8 15 20 18 4 7 23 21 5 9 19 26 14 16 3 6 17 24
10120661 2701792 11 23 2 12 13 17 21 10 15 8 4 20 7 18 14 1 5 19 9 16 22 6 26 3 25 24
10175748 2343086 21 1 10 2 6 22 11 20 12 14 15 5 9 19 23 13 7 4 18 24 17 25 8 26 3 16
10119686 2187806 11 12 23 2 14 10 8 15 1 21 4 18 20 7 13 25 19 9 5 16 26 22 3 6 17 24
10174635 2109315 1 2 26 21 11 23 22 13 12 14 5 9 19 15 6 20 4 7 18 17 10 8 24 25 16 3
10160579 3480304 1 15 2 26 6 22 23 11 12 14 5 9 19 7 21 13 20 4 18 17 25 8 10 24 3 16
10236663 2250677 4 7 19 22 11 3 21 13 9 16 12 15 1 20 23 6 5 14 18 8 24 17 26 2 10 25
10145781 1688285 22 13 11 8 12 3 24 1 25 15 20 18 4 19 16 21 7 5 9 2 14 6 26 23 10 17
10159893 2010744 2 21 26 15 6 22 23 12 13 14 7 5 19 9 1 11 4 18 20 8 24 10 17 25 3 16
10159143 2621950 2 1 26 6 21 23 22 13 12 14 7 5 19 9 15 11 4 20 18 8 17 10 24 25 3 16
10121925 2854646 2 11 22 12 13 25 1 10 15 8 20 7 4 18 14 21 5 19 9 16 6 3 26 23 24 17
10158849 1452131 1 21 15 26 6 3 23 12 22 14 5 7 9 19 2 11 4 18 20 17 24 25 10 8 16 13
10219021 2153411 21 15 23 3 16 7 13 8 11 4 5 1 18 14 6 12 20 19 9 25 17 24 10 2 26 22
10150485 2597608 12 13 23 8 16 24 25 15 3 21 20 18 19 4 11 1 5 9 7 26 14 22 6 2 17 10
10121613 3234560 2 12 11 23 14 25 1 10 8 15 4 18 7 20 22 21 5 9 19 3 26 6 16 13 17 24
10163264 2061037 1 26 2 6 21 22 23 11 14 3 5 19 7 9 15 12 20 4 18 17 10 8 25 24 16 13
10162330 2389892 1 15 2 26 6 23 22 3 14 11 5 9 19 7 21 12 20 4 18 17 25 8 24 10 13 16
10168596 2233907 21 15 6 2 23 22 11 20 12 14 5 9 1 19 26 13 7 4 18 24 17 25 10 8 3 16
10122612 2940534 11 23 12 2 14 25 15 21 10 8 4 20 18 7 13 1 9 5 19 16 22 26 3 6 17 24
10148833 2831919 16 23 22 12 11 1 25 10 3 15 4 19 20 18 14 21 5 9 7 6 8 2 26 13 24 17
10181895 1701311 25 15 21 23 6 14 3 22 11 20 5 9 1 19 26 12 18 7 4 17 10 24 8 2 13 16
10146989 3356501 13 12 11 8 16 25 24 15 1 21 18 20 4 19 23 3 7 9 5 14 26 22 6 2 10 17
10163886 1820029 22 8 11 12 7 24 25 15 2 21 20 19 4 18 14 1 5 9 3 13 6 16 23 26 10 17
10121114 2179522 23 11 22 12 13 1 25 8 15 2 7 4 20 18 14 21 5 19 9 6 16 26 10 3 17 24
10164963 2008566 11 14 8 23 7 1 25 10 2 15 4 18 19 20 12 21 5 9 3 16 6 26 22 13 17 24
10122942 2783543 23 12 2 22 13 25 24 15 8 21 20 18 4 7 11 1 5 9 19 16 14 26 6 3 17 10
10209476 2152093 26 16 1 21 7 23 6 11 22 18 20 9 15 5 3 13 12 4 19 2 10 17 24 25 14 8
10146516 2734301 12 23 8 2 11 24 3 1 25 15 18 20 19 4 16 21 7 5 9 14 13 6 26 22 17 10
10164263 2188745 7 11 8 23 13 1 25 10 2 15 20 4 19 18 12 21 5 9 3 22 16 26 14 6 24 17
10159628 1930706 1 15 2 26 6 13 12 11 22 16 5 9 19 7 21 14 18 4 20 17 25 8 24 10 3 23
10173499 1648664 2 26 15 21 23 22 11 20 12 14 9 19 1 5 6 13 7 4 18 10 8 17 24 25 16 3
10133032 1493424 22 11 12 2 13 8 10 9 1 15 20 4 18 7 23 25 19 21 5 26 16 14 3 6 24 17
10158209 2275685 1 15 2 26 6 23 22 12 13 14 5 9 19 7 21 11 4 18 20 17 25 8 24 10 3 16
10159143 1764368 2 26 1 6 21 23 22 12 13 14 7 19 5 9 15 11 4 18 20 8 10 17 24 25 3 16
10158209 3069749 1 2 15 26 6 23 22 13 12 14 5 19 9 7 21 11 4 20 18 17 8 25 24 10 3 16
10145238 2136969 8 11 22 23 13 24 25 15 1 21 19 4 20 18 12 3 7 9 5 26 16 2 14 6 17 10
10159886 3046507 26 1 2 6 21 3 23 12 22 14 19 5 7 9 15 11 4 18 20 10 17 8 25 24 16 13
10156993 2404969 12 11 7 2 16 25 24 15 3 21 18 4 20 19 8 1 5 9 14 23 22 13 26 6 10 17
10118634 2487758 12 22 11 2 13 25 15 8 1 21 18 20 4 7 23 10 9 19 5 14 26 16 3 6 17 24
10121171 2251134 14 13 11 22 12 25 1 10 8 15 18 7 4 20 2 21 5 9 19 6 3 16 26 23 24 17
10164839 1463602 21 15 6 2 7 3 11 22 12 14 5 9 1 19 23 26 4 20 18 24 17 25 8 10 16 13
10147488 2295698 13 12 11 8 16 25 15 3 1 21 18 20 4 19 23 10 9 7 5 14 26 22 2 6 17 24
10192788 1769606 17 6 26 21 23 13 22 11 18 14 5 9 19 1 15 12 20 4 7 10 2 8 24 25 3 16
10160636 2634077 21 26 2 15 6 3 23 22 12 14 5 19 7 9 1 11 4 20 18 24 10 8 25 17 16 13
10121045 2146621 11 22 2 12 13 1 25 10 8 15 7 4 20 18 14 21 5 9 19 6 3 16 23 26 17 24
10168225 1864800 21 15 1 2 6 22 23 11 14 3 5 19 9 7 26 12 20 4 18 24 17 25 10 8 16 13
10162330 2457194 1 15 2 26 6 23 22 11 14 3 5 9 19 7 21 12 20 4 18 17 25 8 10 24 16 13
10172676 1997112 21 15 25 23 6 22 11 20 12 14 1 9 5 19 26 13 7 4 18 24 10 17 8 2 16 3
10145538 1637814 22 11 8 12 13 3 24 25 1 15 20 4 19 18 14 21 7 9 5 2 16 6 26 23 10 17
10122011 2411377 14 22 11 13 12 1 25 15 8 2 18 20 4 7 23 21 5 9 19 6 26 16 10 3 24 17
10120764 2301679 22 2 11 23 13 25 24 15 8 21 20 7 4 18 12 1 5 9 19 26 6 16 14 3 10 17
10121363 2830195 2 22 11 23 12 25 1 10 15 8 7 20 4 18 14 21 5 19 9 6 26 16 13 3 17 24
10166474 2882598 21 15 1 2 6 22 23 12 11 14 5 19 9 7 26 13 20 18 4 24 17 25 8 10 16 3
10177815 1916396 21 15 6 2 23 14 3 11 22 20 5 9 1 19 26 12 18 4 7 24 17 25 10 8 13 16
10148115 2069600 11 22 8 12 16 17 21 3 10 15 4 20 19 18 14 1 5 7 9 6 13 2 23 26 25 24
10159628 2335292 2 1 15 26 6 13 12 22 11 16 19 5 9 7 21 14 18 20 4 8 17 25 24 10 3 23
10163873 2454604 21 1 15 2 6 23 22 12 13 14 5 9 19 7 26 11 4 18 20 25 17 24 10 8 3 16
10164263 2188949 11 7 8 23 13 25 1 10 2 15 4 20 19 18 12 21 5 9 3 16 22 26 14 6 17 24
10122178 2368584 13 14 11 22 12 1 25 15 8 2 7 18 4 20 23 21 5 9 19 3 6 16 26 10 24 17
10119588 2476645 2 23 13 11 12 10 8 15 1 21 20 18 7 4 22 25 19 9 5 16 14 6 26 3 17 24
10160579 2762027 1 2 15 26 6 22 23 11 12 14 5 19 9 7 21 13 20 4 18 17 8 25 10 24 3 16
10173696 1941946 1 21 6 2 11 3 23 12 20 14 5 15 9 19 26 22 7 18 4 17 25 10 8 24 13 16
10163750 1959241 21 2 1 6 15 13 12 11 22 16 5 19 9 7 26 14 18 4 20 25 8 17 10 24 23 3
10184335 1582038 21 9 15 2 6 11 3 13 12 14 5 18 1 19 23 22 4 7 20 25 10 17 24 8 26 16
10163264 2752592 26 2 1 6 21 23 22 3 14 11 19 7 5 9 15 12 20 4 18 10 8 17 25 24 13 16
10121313 2366608 11 14 22 23 12 21 17 8 10 15 4 18 20 7 2 1 5 19 9 16 6 26 13 3 24 25
10160579 2453207 1 15 2 26 6 23 22 11 12 14 5 9 19 7 21 13 20 4 18 17 25 8 24 10 3 16
10208263 1721754 3 15 21 2 7 8 16 11 12 14 1 9 5 20 23 13 19 4 18 17 25 24 10 26 22 6
10159143 3438138 1 26 2 6 21 23 22 13 12 14 5 19 7 9 15 11 4 20 18 17 10 8 25 24 3 16
10140208 2101755 23 22 11 12 13 17 21 15 10 9 20 8 4 18 14 1 5 19 7 2 6 16 3 26 24 25
10187844 2042104 21 16 2 15 23 22 13 11 18 14 5 9 19 1 6 12 20 4 7 25 10 8 24 17 3 26
10145951 2933214 12 8 23 11 14 25 15 1 3 21 20 19 7 4 16 10 9 5 18 26 2 13 6 22 17 24
10160579 2403917 1 15 2 26 6 23 22 11 12 14 5 9 19 7 21 13 20 4 18 17 25 8 24 10 16 3
10140044 2723140 23 2 13 22 11 25 24 1 21 9 20 4 18 8 12 15 19 5 7 16 3 14 6 26 17 10
10149685 2206673 12 11 13 22 16 1 25 3 10 15 20 4 18 19 8 21 5 7 9 23 26 14 2 6 24 17
10123520 2534580 11 22 14 23 26 25 1 10 15 8 4 7 18 20 12 21 5 19 9 16 3 6 2 13 17 24
10161312 1970436 2 26 21 15 6 12 13 11 22 16 7 19 5 9 1 14 18 4 20 8 10 24 17 25 3 23
10119899 2431559 11 22 14 13 12 2 8 1 15 21 4 20 18 7 23 25 19 5 9 16 26 6 3 10 17 24
10148963 3059609 12 23 14 2 13 25 15 21 10 9 18 20 8 4 11 1 19 5 7 26 16 6 22 3 17 24
10151384 2688639 11 23 13 12 7 24 25 2 9 15 4 20 8 18 14 1 5 19 21 16 22 6 26 3 10 17
10175040 2457798 1 26 21 2 11 3 23 12 20 14 5 19 15 9 6 22 7 18 4 17 8 24 10 25 16 13
10300878 1876085 8 15 12 2 23 21 3 13 22 7 14 9 18 1 19 11 5 20 4 10 25 26 24 17 16 6
10158280 2152479 15 1 21 26 6 11 23 22 12 14 9 5 7 19 2 13 4 20 18 25 17 24 8 10 3 16
10152564 2462029 11 23 14 13 12 25 1 15 2 9 4 20 18 7 8 21 5 19 3 16 22 6 26 10 24 17
10187837 2154486 1 21 9 26 6 23 22 13 12 14 5 15 18 19 2 11 4 7 20 17 24 25 10 8 16 3
10175678 1735271 1 26 21 2 11 12 13 16 22 20 5 19 15 9 6 14 18 4 7 17 8 24 10 25 3 23
10141118 1995078 13 23 12 2 22 1 25 15 10 9 18 20 8 4 11 21 5 19 7 14 16 26 3 6 17 24
10169981 2629358 12 8 11 23 14 1 25 10 2 15 20 19 4 7 18 21 5 9 3 26 6 22 13 16 24 17
10122265 2716937 23 11 13 22 12 1 25 8 15 2 20 7 18 4 26 21 5 19 9 16 6 14 3 10 24 17
10159726 2590949 2 6 1 21 15 23 22 13 12 14 19 9 5 7 26 11 4 20 18 8 10 17 24 25 3 16
10141571 2233405 2 14 22 23 11 8 15 25 21 9 4 18 7 20 12 10 19 5 1 26 6 3 16 13 17 24
10177214 3038043 13 23 3 16 7 24 25 9 15 8 12 20 19 4 11 21 5 18 1 14 22 6 26 2 17 10
10180700 2656296 8 22 23 16 4 25 1 10 3 15 19 20 12 9 7 21 5 18 14 26 2 13 6 11 17 24
10174920 2716719 21 15 6 2 23 13 12 16 22 20 5 9 1 19 26 11 18 4 7 24 17 25 10 8 3 14
10121363 2624365 2 22 11 23 12 25 1 10 15 8 7 20 4 18 14 21 5 19 9 6 26 16 13 3 17 24
10164586 1691088 23 8 12 11 7 25 24 15 2 21 20 19 18 4 16 1 5 9 3 13 6 14 22 26 10 17
