START
808
782
START
820
818
START
754
754
START
840
836
START
748
748
START
882
882
START
826
826
START
794
772
START
788
788
START
832
826
START
890
890
START
806
806
START
778
778
START
832
824
START
770
770
START
716
716
START
744
744
START
818
690
START
788
788
START
862
792
START
802
758
START
774
774
START
828
772
START
752
752
START
834
802
START
726
726
START
754
754
START
798
774
START
758
758
START
840
776
START
728
706
START
816
816
START
796
796
START
788
788
START
734
734
START
810
750
START
834
834
START
712
712
START
748
748
START
862
786
START
794
744
START
790
720
START
778
778
START
786
786
START
784
784
START
852
806
START
758
758
START
920
796
START
766
766
START
906
836
START
822
800
START
818
764
START
778
778
START
836
836
START
804
766
START
882
768
START
846
812
START
886
874
START
740
740
START
698
698
START
828
692
START
812
812
START
950
820
START
824
824
START
764
764
START
778
778
START
772
772
START
862
818
START
792
778
START
804
764
START
800
800
START
782
782
START
780
780
START
824
824
START
748
748
START
766
766
START
774
774
START
776
776
START
750
750
START
822
822
START
860
860
START
872
844
START
844
756
START
868
858
START
758
758
START
830
830
START
822
822
START
778
670
START
698
698
START
836
752
START
734
734
START
770
770
START
802
802
START
778
778
START
786
786
START
822
822
START
774
774
START
900
706
START
842
806
START
746
746
START
880
808
START
810
810
START
752
752
START
738
738
START
752
752
START
820
812
START
842
842
START
800
800
START
830
830
START
854
812
START
752
752
START
764
764
START
762
762
START
756
756
START
852
800
START
784
784
START
808
798
START
758
758
START
770
770
START
748
748
START
894
760
START
736
736
START
804
804
START
838
798
START
884
796
START
826
804
START
778
778
START
890
786
START
786
786
START
844
788
START
804
786
START
828
828
START
924
874
START
902
744
START
852
790
START
890
760
START
742
742
START
814
814
START
866
836
START
848
812
START
772
772
START
806
798
START
898
896
START
848
804
START
774
774
START
810
810
START
768
768
START
794
794
START
838
820
START
806
806
START
896
760
START
756
756
START
714
714
START
904
692
START
766
760
START
742
742
START
716
716
START
706
706
START
864
732
START
738
738
START
784
784
START
812
812
START
754
754
START
844
760
START
838
828
START
824
824
START
826
826
START
712
712
START
718
718
START
748
748
START
662
662
START
878
864
START
850
850
START
952
840
START
752
752
START
800
784
START
764
764
START
848
762
START
732
732
START
822
744
START
768
768
START
816
764
START
808
808
START
796
796
START
808
792
START
680
680
START
794
794
START
792
792
START
792
792
START
778
778
START
778
778
START
838
816
START
798
798
START
696
686
START
782
782
START
810
788
START
778
778
START
760
760
START
886
818
START
902
852
START
794
794
START
866
796
START
758
758
START
782
782
START
800
800
START
716
716
START
830
830
START
774
774
START
814
802
START
844
730
START
860
852
START
858
818
START
846
778
START
814
814
START
782
732
START
758
758
START
774
736
START
698
698
START
774
774
START
834
834
START
924
776
START
676
676
START
814
814
START
846
742
START
840
840
START
800
800
START
834
702
START
836
684
START
766
736
START
944
808
START
824
792
START
772
772
START
792
792
START
834
790
START
858
790
START
802
802
START
802
784
START
882
782
START
866
732
START
808
808
START
820
820
START
776
776
START
776
728
START
786
786
START
766
766
START
748
706
START
840
840
START
876
752
START
880
812
START
822
720
START
798
798
START
734
734
START
744
744
START
772
772
START
796
766
START
826
714
START
896
800
START
792
792
START
850
830
START
732
732
START
766
766
START
792
792
START
858
700
START
820
820
START
878
844
START
790
790
START
796
796
START
876
762
START
722
722
START
854
836
START
864
828
START
790
790
START
800
800
START
872
770
START
854
790
START
856
754
START
864
734
START
754
754
START
914
778
START
712
712
START
788
788
START
796
768
START
846
846
START
822
758
START
726
726
START
796
796
START
862
848
START
786
764
START
832
824
START
850
762
START
834
820
START
822
750
START
818
738
START
852
682
START
806
700
START
798
754
START
806
786
START
780
780
START
720
720
START
872
752
START
812
812
START
872
826
START
880
716
START
774
762
START
840
806
START
698
698
START
780
770
START
824
798
START
796
796
START
832
832
START
908
700
START
822
798
START
860
774
START
818
744
START
892
816
START
740
740
START
836
836
START
864
854
START
746
746
START
808
800
START
932
792
START
818
818
START
874
808
START
768
768
START
852
804
START
858
746
START
766
754
START
832
796
START
872
816
START
794
794
START
720
720
START
858
858
START
844
844
START
706
706
START
806
790
START
820
772
START
756
756
START
888
866
START
720
720
START
838
838
START
938
760
START
882
818
START
860
774
START
836
796
START
796
796
START
818
812
START
728
728
START
826
748
START
788
768
START
750
750
START
858
830
START
874
836
START
750
750
START
790
790
START
846
808
START
742
742
START
776
776
START
778
778
START
776
724
START
756
756
START
824
824
START
784
758
START
826
826
START
814
814
START
864
804
START
746
746
START
836
836
START
862
758
START
708
708
START
750
750
START
822
766
START
700
700
START
744
744
START
840
802
START
854
812
START
804
804
START
858
846
START
830
752
START
842
772
START
840
838
START
770
760
START
818
818
START
782
782
START
846
846
START
802
710
START
852
734
START
764
764
START
884
728
START
754
754
START
762
762
START
748
748
START
830
830
START
840
840
START
734
734
START
858
758
START
860
860
START
848
836
START
812
778
START
778
762
START
756
756
START
762
708
START
816
800
START
816
802
START
792
792
START
930
788
START
760
760
START
816
808
START
944
842
START
810
722
START
880
834
START
848
818
START
688
688
START
768
768
START
792
776
START
794
764
START
868
824
START
768
762
START
846
666
START
816
816
START
894
864
START
826
826
START
834
834
START
876
784
START
820
820
START
792
768
START
882
844
START
718
718
START
812
812
START
800
800
START
798
798
START
774
774
START
880
880
START
848
836
START
864
752
START
880
814
START
928
876
START
788
744
START
738
738
START
816
804
START
752
716
START
884
806
START
898
758
START
876
838
START
836
764
START
832
804
START
864
828
START
706
706
START
816
816
START
858
796
START
894
856
START
804
804
START
844
844
START
750
750
START
744
744
START
770
752
START
842
842
START
838
838
START
814
810
START
796
796
START
854
854
START
750
750
START
866
806
START
818
818
START
874
862
START
790
768
START
878
878
START
732
732
START
802
802
START
844
844
START
768
756
START
756
756
START
760
760
START
834
802
START
858
818
START
818
710
START
784
764
START
812
812
START
856
788
START
838
810
START
790
790
START
714
714
START
784
784
START
778
778
START
838
810
START
818
818
START
724
724
START
722
722
START
830
782
START
752
752
START
792
792
START
820
792
START
734
734
START
858
854
START
786
778
START
732
732
START
760
760
START
864
864
START
860
772
START
824
824
START
752
752
START
770
770
START
836
792
START
822
822
START
856
738
START
826
730
START
836
828
START
878
858
START
818
802
START
900
810
START
804
804
START
738
738
START
822
822
START
800
800
START
834
808
START
858
828
START
806
806
START
834
834
START
768
768
START
836
752
START
774
774
START
716
692
START
772
726
START
844
742
START
812
812
START
782
782
START
938
746
START
840
830
START
824
824
START
712
712
START
800
800
START
892
748
START
778
778
START
824
824
START
824
824
START
770
770
START
804
804
START
776
776
START
820
820
START
756
756
START
788
788
START
864
818
START
778
778
START
884
766
START
826
826
START
942
828
START
792
792
START
826
826
START
742
742
START
768
768
START
830
828
START
870
716
START
838
838
START
758
758
START
830
830
START
826
786
START
892
880
START
784
756
START
790
790
START
758
758
START
800
750
START
834
746
START
808
748
START
812
812
START
824
824
START
778
736
START
852
830
START
848
812
START
844
738
START
808
808
START
802
798
START
818
812
START
826
750
START
852
788
START
848
800
START
806
730
START
840
840
START
824
730
START
800
798
START
862
740
START
854
840
START
758
758
START
726
726
START
698
698
START
812
812
START
834
750
START
776
776
START
734
734
START
782
782
START
782
782
START
798
798
START
866
864
START
836
834
START
836
790
START
836
836
START
770
770
START
820
778
START
808
760
START
844
772
START
842
842
START
810
790
START
856
800
START
802
780
START
802
802
START
796
796
START
758
758
START
834
788
START
824
780
START
798
784
START
890
824
START
800
800
START
766
766
START
776
776
START
872
812
START
758
758
START
774
774
START
834
738
START
822
734
START
806
772
START
842
842
START
758
758
START
744
744
START
828
828
START
740
740
START
778
778
START
844
748
START
872
834
START
808
784
START
788
788
START
744
744
START
900
772
START
822
800
START
868
862
START
800
800
START
900
834
START
792
792
START
842
834
START
710
710
START
790
790
START
844
844
START
710
710
START
904
894
START
880
830
START
888
844
START
726
726
START
804
776
START
806
806
START
754
754
START
802
802
START
824
760
START
806
806
START
796
796
START
904
854
START
788
780
START
768
768
START
922
754
START
820
820
START
866
722
START
860
824
START
806
806
START
888
876
START
868
868
START
760
760
START
830
768
START
818
784
START
836
784
START
778
778
START
792
792
START
738
738
START
876
802
START
860
800
START
904
784
START
770
770
START
880
734
START
830
714
START
796
796
START
784
728
START
924
808
START
864
864
START
878
822
START
816
768
START
754
754
START
756
756
START
752
730
START
832
832
START
832
748
START
760
760
START
820
820
START
796
796
START
820
820
START
784
784
START
810
800
START
784
746
START
912
892
START
796
796
START
772
772
START
732
732
START
742
742
START
868
826
START
768
768
START
822
802
START
880
880
START
764
764
START
826
728
START
862
768
START
822
784
START
730
730
START
842
760
START
824
754
START
806
762
START
774
760
START
840
780
START
842
742
START
842
842
START
722
722
START
826
762
START
824
804
START
794
794
START
846
846
START
864
848
START
818
806
START
862
756
START
842
806
START
798
798
START
842
842
START
822
796
START
812
808
START
880
814
START
846
790
START
708
708
START
876
812
START
782
782
START
768
768
START
866
784
START
772
772
START
814
814
START
736
736
START
900
794
START
892
882
START
784
724
START
798
750
START
838
838
START
782
782
START
790
790
START
800
800
START
814
742
START
840
840
START
830
742
START
844
776
START
766
766
START
736
736
START
858
798
START
764
764
START
790
790
START
774
774
START
740
740
START
870
770
START
736
736
START
770
770
START
756
756
START
890
890
START
904
774
START
794
794
START
912
866
START
780
780
START
804
804
START
860
856
START
770
770
START
816
816
START
778
778
START
774
774
START
810
768
START
852
696
START
766
766
START
922
734
START
834
812
START
882
768
START
818
808
START
802
720
START
764
764
START
884
732
START
834
834
START
800
752
START
810
800
START
856
820
START
854
854
START
860
860
START
754
754
START
732
732
START
764
764
START
800
800
START
866
764
START
764
764
START
834
834
START
756
756
START
808
808
START
864
816
START
852
798
START
754
754
START
772
772
START
824
824
START
794
756
START
816
814
START
848
764
START
858
814
START
908
832
START
830
714
START
792
792
START
788
788
START
872
838
START
860
842
START
896
756
START
802
772
START
864
760
START
858
858
START
668
668
START
728
728
START
942
754
START
730
730
START
874
858
START
804
738
START
822
818
START
834
834
START
772
772
START
798
798
START
740
740
START
764
740
START
742
740
START
812
808
START
880
836
START
828
780
START
826
814
START
790
768
START
810
804
START
754
754
START
820
814
START
828
818
START
748
748
START
922
860
START
920
816
START
740
740
START
804
720
START
736
736
START
816
816
START
952
774
START
848
848
START
764
764
START
866
734
START
854
716
START
754
754
START
760
748
START
726
726
START
956
766
START
928
802
START
804
804
START
756
756
START
824
824
START
874
860
START
862
824
START
784
784
START
852
792
START
798
798
START
886
784
START
740
740
START
816
780
START
760
760
START
706
706
START
792
792
START
744
744
START
806
768
START
788
788
START
808
746
START
806
806
START
820
820
START
852
850
START
796
796
START
814
752
START
810
800
START
826
826
START
788
754
START
792
734
START
830
784
START
842
818
START
752
752
START
728
728
START
830
792
START
808
808
START
814
790
START
742
742
START
860
752
START
806
806
START
732
732
START
774
756
START
800
800
START
860
798
START
794
794
START
900
832
START
782
782
START
824
824
START
834
818
START
890
808
START
828
828
START
834
814
START
730
730
START
846
822
START
830
830
START
744
744
START
790
788
START
788
658
START
814
734
START
874
868
START
856
816
START
858
858
START
790
790
START
800
800
START
814
814
START
726
726
START
858
858
START
832
832
START
816
776
START
846
790
START
856
778
START
772
764
START
804
804
START
694
694
START
804
750
START
824
774
START
804
804
START
742
742
START
720
720
START
802
802
START
820
750
START
790
790
START
744
744
START
896
742
START
776
776
START
874
874
START
826
826
START
794
794
START
872
812
START
754
754
START
812
812
START
732
732
START
774
774
START
836
796
START
840
770
START
750
750
START
836
836
START
826
824
START
862
758
START
824
776
START
814
814
START
870
754
START
774
774
START
820
820
START
820
814
START
822
822
START
878
854
START
798
798
START
830
790
START
868
756
START
782
780
START
846
826
START
846
824
START
792
792
START
818
758
START
862
862
START
748
748
START
802
666
START
846
712
START
824
738
START
854
854
START
830
696
START
736
736
START
756
756
START
846
846
START
824
742
START
800
800
START
834
768
START
742
742
START
808
764
START
850
786
START
820
820
START
796
796
START
768
768
START
774
774
START
828
828
START
782
756
START
744
744
START
782
782
START
852
802
START
762
762
START
916
846
START
804
780
START
918
778
START
838
838
START
920
832
START
814
814
START
788
772
START
840
752
START
818
818
