START
808 0
728 66
690 66
670 66
646 66
626 66
606 66
606 66
START
820 0
752 66
704 66
664 66
636 66
626 66
626 66
START
754 0
662 66
636 66
624 66
610 66
610 66
START
840 0
740 66
692 66
656 66
640 66
628 66
614 66
614 66
START
748 0
694 66
678 66
622 66
612 66
612 66
START
882 0
776 66
694 66
660 66
628 66
618 66
616 66
616 66
START
826 0
702 66
654 66
640 66
628 66
616 66
612 66
606 66
606 66
START
794 0
734 66
702 66
670 66
646 66
642 66
608 66
586 66
586 66
START
788 0
692 66
652 66
640 66
618 66
618 66
START
832 0
756 66
696 66
672 66
658 66
646 66
638 66
626 66
616 66
610 66
610 66
START
890 0
762 66
694 66
650 66
640 66
630 66
618 66
612 66
600 66
600 66
START
806 0
706 66
678 66
656 66
652 66
640 66
636 66
624 66
624 66
START
778 0
684 66
666 66
620 66
612 66
608 66
608 66
START
832 0
748 66
698 66
678 66
654 66
646 66
644 66
644 66
START
770 0
698 66
658 66
620 66
596 66
586 66
586 66
START
716 0
674 66
658 66
614 66
578 66
578 66
START
744 0
676 66
638 66
620 66
604 66
592 66
592 66
START
818 0
712 66
674 66
638 66
622 66
614 66
600 66
598 66
598 66
START
788 0
706 66
658 66
638 66
616 66
612 66
604 66
592 66
592 66
START
862 0
766 66
714 66
686 66
666 66
662 66
652 66
650 66
640 66
640 66
START
802 0
698 66
668 66
636 66
616 66
602 66
602 66
START
774 0
706 66
656 66
632 66
626 66
604 66
604 66
START
828 0
752 66
644 66
642 66
622 66
622 66
START
752 0
704 66
656 66
638 66
626 66
606 66
604 66
604 66
START
834 0
746 66
694 66
658 66
646 66
640 66
636 66
624 66
624 66
START
726 0
674 66
642 66
640 66
600 66
598 66
598 66
START
754 0
670 66
642 66
618 66
612 66
600 66
600 66
START
798 0
746 66
690 66
660 66
650 66
628 66
606 66
602 66
602 66
START
758 0
702 66
646 66
614 66
602 66
598 66
590 66
590 66
START
840 0
760 66
694 66
670 66
646 66
636 66
628 66
626 66
626 66
START
728 0
682 66
662 66
642 66
622 66
606 66
606 66
START
816 0
722 66
678 66
642 66
590 66
586 66
586 66
START
796 0
730 66
690 66
652 66
624 66
620 66
620 66
START
788 0
660 66
632 66
612 66
608 66
608 66
START
734 0
652 66
628 66
620 66
602 66
594 66
594 66
START
810 0
710 66
628 66
608 66
608 66
START
834 0
734 66
678 66
650 66
628 66
610 66
600 66
600 66
START
712 0
656 66
648 66
628 66
604 66
602 66
592 66
592 66
START
748 0
692 66
666 66
638 66
618 66
598 66
598 66
START
862 0
730 66
690 66
648 66
622 66
620 66
616 66
592 66
592 66
START
794 0
694 66
638 66
618 66
618 66
START
790 0
728 66
692 66
672 66
660 66
650 66
644 66
634 66
622 66
618 66
612 66
602 66
602 66
START
778 0
682 66
622 66
610 66
598 66
598 66
START
786 0
714 66
662 66
628 66
612 66
590 66
586 66
586 66
START
784 0
720 66
668 66
644 66
622 66
610 66
582 66
582 66
START
852 0
740 66
680 66
648 66
638 66
630 66
628 66
612 66
602 66
602 66
START
758 0
686 66
646 66
610 66
600 66
596 66
596 66
START
920 0
798 66
726 66
670 66
624 66
602 66
590 66
590 66
START
766 0
698 66
650 66
614 66
610 66
608 66
604 66
604 66
START
906 0
774 66
678 66
646 66
626 66
618 66
610 66
598 66
598 66
START
822 0
702 66
656 66
648 66
644 66
636 66
634 66
626 66
626 66
START
818 0
728 66
680 66
660 66
632 66
620 66
618 66
618 66
START
778 0
718 66
678 66
638 66
606 66
606 66
START
836 0
768 66
686 66
654 66
634 66
620 66
620 66
START
804 0
676 66
636 66
618 66
608 66
608 66
START
882 0
762 66
696 66
632 66
608 66
606 66
606 66
START
846 0
758 66
716 66
684 66
648 66
628 66
620 66
608 66
604 66
600 66
594 66
590 66
590 66
START
886 0
758 66
682 66
630 66
616 66
606 66
606 66
START
740 0
668 66
640 66
626 66
618 66
606 66
606 66
START
698 0
638 66
618 66
614 66
610 66
610 66
START
828 0
728 66
668 66
660 66
640 66
636 66
636 66
START
812 0
724 66
704 66
684 66
672 66
658 66
648 66
640 66
630 66
626 66
624 66
624 66
START
950 0
814 66
722 66
664 66
632 66
618 66
606 66
606 66
START
824 0
738 66
700 66
674 66
654 66
634 66
620 66
606 66
606 66
START
764 0
702 66
662 66
640 66
624 66
612 66
612 66
START
778 0
674 66
630 66
626 66
614 66
610 66
606 66
598 66
594 66
594 66
START
772 0
724 66
680 66
646 66
626 66
606 66
598 66
594 66
594 66
START
862 0
762 66
668 66
642 66
628 66
624 66
608 66
608 66
START
792 0
710 66
650 66
622 66
618 66
606 66
606 66
START
804 0
708 66
666 66
630 66
628 66
612 66
602 66
602 66
START
800 0
728 66
672 66
640 66
628 66
622 66
620 66
620 66
START
782 0
698 66
642 66
628 66
616 66
606 66
606 66
START
780 0
698 66
654 66
618 66
610 66
610 66
START
824 0
708 66
672 66
636 66
620 66
600 66
590 66
586 66
586 66
START
748 0
684 66
648 66
628 66
618 66
606 66
602 66
602 66
START
766 0
710 66
686 66
666 66
640 66
616 66
600 66
598 66
598 66
START
774 0
714 66
660 66
638 66
622 66
622 66
START
776 0
704 66
668 66
654 66
626 66
610 66
602 66
592 66
592 66
START
750 0
678 66
638 66
614 66
612 66
606 66
606 66
START
822 0
734 66
686 66
672 66
664 66
660 66
642 66
634 66
622 66
606 66
606 66
START
860 0
764 66
710 66
658 66
626 66
606 66
598 66
598 66
START
872 0
758 66
696 66
662 66
646 66
622 66
614 66
590 66
586 66
586 66
START
844 0
748 66
704 66
648 66
632 66
598 66
596 66
596 66
START
868 0
762 66
722 66
682 66
664 66
644 66
640 66
638 66
630 66
628 66
628 66
START
758 0
704 66
668 66
640 66
626 66
618 66
608 66
600 66
600 66
START
830 0
692 66
672 66
646 66
632 66
624 66
618 66
618 66
START
822 0
734 66
670 66
634 66
630 66
622 66
614 66
612 66
612 66
START
778 0
700 66
670 66
646 66
634 66
614 66
602 66
592 66
592 66
START
698 0
646 66
624 66
616 66
616 66
START
836 0
744 66
712 66
684 66
660 66
636 66
636 66
START
734 0
674 66
650 66
640 66
628 66
618 66
614 66
606 66
604 66
604 66
START
770 0
686 66
642 66
608 66
600 66
598 66
598 66
START
802 0
718 66
670 66
642 66
622 66
618 66
616 66
616 66
START
778 0
706 66
674 66
666 66
652 66
640 66
630 66
622 66
622 66
START
786 0
702 66
658 66
618 66
608 66
604 66
604 66
START
822 0
736 66
676 66
648 66
622 66
608 66
606 66
604 66
604 66
START
774 0
698 66
668 66
636 66
624 66
622 66
622 66
START
900 0
764 66
712 66
664 66
626 66
602 66
582 66
582 66
START
842 0
778 66
724 66
688 66
666 66
654 66
652 66
638 66
626 66
626 66
START
746 0
694 66
660 66
654 66
650 66
646 66
610 66
608 66
608 66
START
880 0
748 66
696 66
668 66
656 66
652 66
648 66
640 66
640 66
START
810 0
756 66
712 66
688 66
664 66
642 66
618 66
606 66
596 66
596 66
START
752 0
702 66
664 66
630 66
610 66
610 66
START
738 0
708 66
680 66
656 66
636 66
624 66
616 66
610 66
610 66
START
752 0
660 66
630 66
602 66
602 66
START
820 0
712 66
632 66
608 66
590 66
578 66
578 66
START
842 0
736 66
676 66
648 66
620 66
612 66
612 66
START
800 0
712 66
664 66
644 66
644 66
START
830 0
752 66
698 66
648 66
628 66
612 66
600 66
600 66
START
854 0
738 66
686 66
654 66
626 66
606 66
604 66
604 66
START
752 0
694 66
660 66
644 66
624 66
620 66
620 66
START
764 0
652 66
628 66
620 66
604 66
604 66
START
762 0
722 66
702 66
670 66
638 66
626 66
618 66
606 66
600 66
596 66
596 66
START
756 0
704 66
664 66
640 66
632 66
622 66
610 66
590 66
590 66
START
852 0
748 66
690 66
658 66
634 66
598 66
598 66
START
784 0
720 66
668 66
648 66
636 66
598 66
598 66
START
808 0
736 66
672 66
660 66
652 66
648 66
628 66
628 66
START
758 0
716 66
682 66
662 66
630 66
622 66
612 66
606 66
598 66
594 66
594 66
START
770 0
702 66
650 66
618 66
602 66
594 66
594 66
START
748 0
708 66
668 66
628 66
600 66
594 66
590 66
590 66
START
894 0
762 66
718 66
690 66
664 66
636 66
616 66
606 66
604 66
604 66
START
736 0
676 66
646 66
616 66
608 66
602 66
602 66
START
804 0
706 66
664 66
644 66
628 66
608 66
604 66
604 66
START
838 0
754 66
676 66
644 66
632 66
620 66
620 66
START
884 0
774 66
714 66
676 66
628 66
602 66
598 66
590 66
590 66
START
826 0
708 66
666 66
618 66
616 66
616 66
START
778 0
714 66
690 66
658 66
628 66
624 66
624 66
START
890 0
790 66
722 66
662 66
646 66
622 66
614 66
614 66
START
786 0
702 66
664 66
616 66
616 66
START
844 0
686 66
658 66
650 66
644 66
636 66
616 66
614 66
606 66
598 66
598 66
START
804 0
710 66
658 66
640 66
626 66
620 66
604 66
600 66
594 66
590 66
590 66
START
828 0
712 66
676 66
654 66
632 66
618 66
614 66
610 66
610 66
START
924 0
796 66
720 66
696 66
682 66
670 66
658 66
642 66
636 66
624 66
616 66
616 66
START
902 0
786 66
702 66
646 66
636 66
616 66
596 66
586 66
586 66
START
852 0
762 66
704 66
664 66
660 66
644 66
636 66
634 66
634 66
START
890 0
756 66
676 66
642 66
614 66
606 66
606 66
START
742 0
666 66
658 66
642 66
628 66
628 66
START
814 0
738 66
702 66
678 66
654 66
634 66
618 66
614 66
610 66
610 66
START
866 0
778 66
698 66
646 66
628 66
626 66
622 66
614 66
606 66
598 66
598 66
START
848 0
752 66
678 66
648 66
632 66
620 66
614 66
612 66
612 66
START
772 0
700 66
634 66
620 66
620 66
START
806 0
754 66
694 66
658 66
636 66
624 66
606 66
598 66
594 66
594 66
START
898 0
770 66
698 66
666 66
646 66
626 66
616 66
602 66
590 66
590 66
START
848 0
726 66
664 66
624 66
604 66
590 66
586 66
586 66
START
774 0
710 66
672 66
644 66
620 66
600 66
590 66
586 66
586 66
START
810 0
736 66
680 66
648 66
632 66
618 66
614 66
610 66
610 66
START
768 0
670 66
652 66
636 66
632 66
622 66
622 66
START
794 0
722 66
688 66
644 66
632 66
620 66
616 66
612 66
600 66
600 66
START
838 0
702 66
654 66
618 66
610 66
610 66
START
806 0
718 66
690 66
682 66
662 66
654 66
646 66
644 66
632 66
608 66
600 66
600 66
START
896 0
776 66
728 66
686 66
654 66
622 66
602 66
590 66
590 66
START
756 0
680 66
638 66
622 66
608 66
594 66
594 66
START
714 0
676 66
656 66
642 66
630 66
628 66
628 66
START
904 0
776 66
708 66
644 66
626 66
610 66
592 66
586 66
582 66
582 66
START
766 0
708 66
652 66
610 66
582 66
582 66
START
742 0
672 66
644 66
624 66
616 66
606 66
598 66
598 66
START
716 0
686 66
658 66
642 66
622 66
610 66
610 66
START
706 0
678 66
650 66
634 66
632 66
630 66
630 66
START
864 0
772 66
680 66
648 66
628 66
624 66
604 66
602 66
602 66
START
738 0
694 66
668 66
646 66
612 66
612 66
START
784 0
696 66
644 66
608 66
600 66
600 66
START
812 0
740 66
648 66
616 66
604 66
596 66
596 66
START
754 0
640 66
624 66
620 66
618 66
606 66
606 66
START
844 0
760 66
700 66
674 66
642 66
618 66
612 66
606 66
606 66
START
838 0
762 66
674 66
638 66
618 66
618 66
START
824 0
728 66
676 66
632 66
616 66
608 66
608 66
START
826 0
746 66
682 66
654 66
634 66
626 66
626 66
START
712 0
644 66
624 66
624 66
START
718 0
660 66
636 66
628 66
608 66
598 66
594 66
586 66
586 66
START
748 0
688 66
654 66
620 66
600 66
600 66
START
662 0
632 66
616 66
604 66
604 66
START
878 0
710 66
674 66
642 66
622 66
606 66
604 66
604 66
START
850 0
748 66
692 66
668 66
650 66
638 66
626 66
616 66
606 66
606 66
START
952 0
778 66
734 66
702 66
662 66
630 66
622 66
620 66
620 66
START
752 0
708 66
680 66
636 66
630 66
626 66
618 66
612 66
606 66
606 66
START
800 0
716 66
664 66
630 66
616 66
596 66
586 66
586 66
START
764 0
670 66
652 66
636 66
630 66
630 66
START
848 0
708 66
672 66
652 66
640 66
636 66
636 66
START
732 0
676 66
646 66
624 66
618 66
618 66
START
822 0
738 66
682 66
650 66
642 66
636 66
624 66
616 66
616 66
START
768 0
704 66
656 66
640 66
636 66
634 66
630 66
622 66
618 66
614 66
610 66
610 66
START
816 0
720 66
672 66
652 66
632 66
620 66
608 66
608 66
START
808 0
756 66
708 66
672 66
664 66
652 66
640 66
640 66
START
796 0
736 66
688 66
648 66
616 66
600 66
588 66
588 66
START
808 0
732 66
680 66
660 66
646 66
634 66
622 66
616 66
616 66
START
680 0
638 66
626 66
622 66
622 66
START
794 0
672 66
632 66
612 66
594 66
594 66
START
792 0
724 66
668 66
640 66
628 66
626 66
626 66
START
792 0
704 66
688 66
668 66
640 66
640 66
START
778 0
722 66
686 66
666 66
630 66
614 66
614 66
START
778 0
698 66
670 66
650 66
650 66
START
838 0
764 66
718 66
674 66
650 66
630 66
614 66
614 66
START
798 0
734 66
706 66
682 66
660 66
628 66
610 66
610 66
START
696 0
668 66
660 66
650 66
642 66
634 66
608 66
598 66
598 66
START
782 0
702 66
664 66
644 66
636 66
626 66
626 66
START
810 0
714 66
666 66
646 66
630 66
620 66
614 66
612 66
600 66
600 66
START
778 0
730 66
696 66
672 66
624 66
592 66
592 66
START
760 0
668 66
644 66
630 66
606 66
592 66
592 66
START
886 0
764 66
702 66
662 66
634 66
614 66
594 66
594 66
START
902 0
758 66
686 66
646 66
632 66
618 66
614 66
610 66
610 66
START
794 0
746 66
670 66
634 66
622 66
616 66
610 66
610 66
START
866 0
760 66
706 66
670 66
650 66
642 66
630 66
626 66
600 66
594 66
590 66
590 66
START
758 0
694 66
638 66
630 66
606 66
606 66
START
782 0
706 66
682 66
660 66
640 66
632 66
620 66
620 66
START
800 0
708 66
668 66
644 66
640 66
620 66
600 66
600 66
START
716 0
652 66
608 66
604 66
604 66
START
830 0
698 66
674 66
652 66
616 66
608 66
608 66
START
774 0
682 66
658 66
636 66
620 66
620 66
START
814 0
730 66
682 66
666 66
642 66
634 66
634 66
START
844 0
732 66
690 66
650 66
646 66
646 66
START
860 0
736 66
672 66
646 66
622 66
610 66
598 66
598 66
START
858 0
740 66
644 66
620 66
618 66
598 66
598 66
START
846 0
750 66
682 66
650 66
630 66
614 66
606 66
598 66
598 66
START
814 0
726 66
662 66
658 66
646 66
632 66
630 66
630 66
START
782 0
704 66
670 66
644 66
628 66
614 66
610 66
610 66
START
758 0
690 66
638 66
632 66
632 66
START
774 0
714 66
674 66
642 66
620 66
618 66
618 66
START
698 0
618 66
612 66
600 66
600 66
START
774 0
710 66
656 66
640 66
620 66
606 66
604 66
604 66
START
834 0
738 66
650 66
648 66
636 66
620 66
620 66
START
924 0
762 66
674 66
654 66
636 66
628 66
610 66
606 66
602 66
600 66
600 66
START
676 0
652 66
626 66
598 66
598 66
START
814 0
752 66
672 66
648 66
628 66
620 66
606 66
606 66
START
846 0
732 66
668 66
628 66
612 66
600 66
600 66
START
840 0
724 66
668 66
652 66
636 66
632 66
632 66
START
800 0
724 66
668 66
634 66
632 66
632 66
START
834 0
746 66
706 66
668 66
636 66
630 66
620 66
612 66
612 66
START
836 0
746 66
664 66
648 66
624 66
612 66
612 66
START
766 0
722 66
690 66
662 66
642 66
628 66
624 66
622 66
622 66
START
944 0
782 66
722 66
690 66
662 66
648 66
624 66
614 66
606 66
606 66
START
824 0
676 66
646 66
622 66
600 66
582 66
582 66
START
772 0
696 66
650 66
642 66
626 66
622 66
622 66
START
792 0
712 66
656 66
628 66
616 66
606 66
606 66
START
834 0
752 66
688 66
644 66
616 66
606 66
590 66
590 66
START
858 0
756 66
696 66
658 66
638 66
616 66
616 66
START
802 0
706 66
656 66
630 66
630 66
START
802 0
716 66
672 66
648 66
638 66
630 66
630 66
START
882 0
730 66
676 66
656 66
642 66
634 66
622 66
602 66
602 66
START
866 0
742 66
688 66
650 66
628 66
624 66
624 66
START
808 0
694 66
660 66
626 66
602 66
592 66
592 66
START
820 0
738 66
698 66
642 66
622 66
618 66
618 66
START
776 0
696 66
662 66
624 66
622 66
622 66
START
776 0
720 66
682 66
666 66
660 66
636 66
628 66
626 66
626 66
START
786 0
738 66
682 66
658 66
642 66
634 66
604 66
600 66
600 66
START
766 0
702 66
666 66
616 66
592 66
586 66
582 66
582 66
START
748 0
668 66
644 66
616 66
600 66
600 66
START
840 0
728 66
678 66
650 66
626 66
606 66
600 66
600 66
START
876 0
764 66
718 66
676 66
660 66
646 66
630 66
618 66
604 66
600 66
600 66
START
880 0
732 66
662 66
642 66
626 66
614 66
600 66
600 66
START
822 0
714 66
690 66
674 66
672 66
660 66
620 66
586 66
586 66
START
798 0
722 66
672 66
626 66
600 66
578 66
578 66
START
734 0
692 66
660 66
646 66
634 66
626 66
626 66
START
744 0
648 66
630 66
622 66
614 66
598 66
594 66
594 66
START
772 0
706 66
666 66
642 66
618 66
608 66
600 66
600 66
START
796 0
712 66
672 66
648 66
628 66
618 66
606 66
606 66
START
826 0
740 66
694 66
654 66
638 66
622 66
612 66
612 66
START
896 0
788 66
736 66
684 66
656 66
638 66
622 66
606 66
604 66
604 66
START
792 0
668 66
636 66
620 66
604 66
596 66
596 66
START
850 0
738 66
696 66
656 66
628 66
614 66
614 66
START
732 0
656 66
626 66
612 66
600 66
600 66
START
766 0
652 66
626 66
626 66
START
792 0
712 66
682 66
646 66
644 66
644 66
START
858 0
762 66
692 66
660 66
648 66
628 66
618 66
604 66
604 66
START
820 0
720 66
686 66
660 66
652 66
640 66
638 66
630 66
606 66
596 66
596 66
START
878 0
760 66
700 66
672 66
662 66
660 66
642 66
622 66
622 66
START
790 0
710 66
666 66
650 66
638 66
636 66
628 66
628 66
START
796 0
724 66
684 66
668 66
648 66
640 66
620 66
606 66
606 66
START
876 0
764 66
696 66
666 66
652 66
628 66
618 66
610 66
610 66
START
722 0
678 66
650 66
648 66
646 66
634 66
634 66
START
854 0
738 66
690 66
644 66
634 66
622 66
614 66
614 66
START
864 0
760 66
672 66
654 66
634 66
626 66
620 66
620 66
START
790 0
738 66
694 66
654 66
628 66
616 66
606 66
606 66
START
800 0
740 66
696 66
672 66
652 66
636 66
600 66
600 66
START
872 0
740 66
680 66
652 66
624 66
624 66
START
854 0
750 66
704 66
656 66
620 66
614 66
610 66
602 66
598 66
590 66
590 66
START
856 0
724 66
688 66
654 66
626 66
614 66
604 66
604 66
START
864 0
748 66
684 66
644 66
636 66
628 66
626 66
626 66
START
754 0
702 66
670 66
650 66
630 66
614 66
614 66
START
914 0
758 66
686 66
658 66
636 66
632 66
612 66
600 66
588 66
588 66
START
712 0
666 66
638 66
618 66
616 66
608 66
596 66
586 66
586 66
START
788 0
728 66
690 66
662 66
630 66
602 66
586 66
586 66
START
796 0
736 66
690 66
626 66
614 66
612 66
612 66
START
846 0
734 66
662 66
630 66
614 66
610 66
610 66
START
822 0
718 66
646 66
612 66
610 66
610 66
START
726 0
686 66
656 66
628 66
612 66
600 66
600 66
START
796 0
722 66
690 66
660 66
642 66
630 66
620 66
610 66
610 66
START
862 0
742 66
684 66
654 66
636 66
624 66
622 66
622 66
START
786 0
686 66
654 66
640 66
624 66
610 66
610 66
START
832 0
716 66
672 66
644 66
638 66
636 66
604 66
604 66
START
850 0
754 66
684 66
648 66
628 66
612 66
588 66
588 66
START
834 0
758 66
714 66
672 66
636 66
624 66
624 66
START
822 0
710 66
662 66
648 66
622 66
618 66
618 66
START
818 0
730 66
694 66
666 66
646 66
642 66
642 66
START
852 0
748 66
672 66
614 66
602 66
600 66
600 66
START
806 0
736 66
688 66
674 66
668 66
652 66
624 66
620 66
618 66
618 66
START
798 0
746 66
704 66
662 66
632 66
608 66
608 66
START
806 0
720 66
672 66
648 66
622 66
610 66
608 66
608 66
START
780 0
706 66
662 66
646 66
630 66
626 66
618 66
598 66
594 66
594 66
START
720 0
692 66
678 66
668 66
652 66
652 66
START
872 0
720 66
688 66
660 66
652 66
638 66
602 66
590 66
590 66
START
812 0
744 66
694 66
662 66
642 66
610 66
610 66
START
872 0
752 66
672 66
644 66
628 66
620 66
610 66
602 66
598 66
590 66
590 66
START
880 0
774 66
712 66
662 66
634 66
622 66
614 66
606 66
606 66
START
774 0
718 66
672 66
656 66
644 66
638 66
628 66
628 66
START
840 0
720 66
650 66
634 66
612 66
604 66
604 66
START
698 0
662 66
630 66
622 66
612 66
606 66
598 66
594 66
594 66
START
780 0
680 66
652 66
648 66
644 66
636 66
636 66
START
824 0
724 66
664 66
632 66
622 66
622 66
START
796 0
686 66
654 66
624 66
606 66
606 66
START
832 0
744 66
712 66
616 66
616 66
START
908 0
768 66
700 66
656 66
654 66
640 66
624 66
620 66
618 66
606 66
606 66
START
822 0
758 66
718 66
682 66
652 66
632 66
618 66
618 66
START
860 0
744 66
672 66
636 66
586 66
582 66
582 66
START
818 0
714 66
634 66
622 66
620 66
620 66
START
892 0
792 66
720 66
654 66
630 66
622 66
622 66
START
740 0
696 66
674 66
654 66
640 66
640 66
START
836 0
736 66
680 66
652 66
636 66
630 66
618 66
612 66
592 66
592 66
START
864 0
752 66
684 66
662 66
638 66
636 66
636 66
START
746 0
686 66
654 66
626 66
598 66
598 66
START
808 0
734 66
666 66
646 66
630 66
626 66
614 66
614 66
START
932 0
812 66
744 66
668 66
634 66
590 66
590 66
START
818 0
726 66
678 66
644 66
618 66
616 66
616 66
START
874 0
730 66
662 66
630 66
630 66
START
768 0
696 66
648 66
636 66
624 66
608 66
604 66
600 66
600 66
START
852 0
732 66
700 66
658 66
626 66
626 66
START
858 0
762 66
694 66
668 66
640 66
626 66
614 66
608 66
604 66
604 66
START
766 0
714 66
678 66
652 66
634 66
628 66
618 66
614 66
612 66
612 66
START
832 0
728 66
690 66
674 66
658 66
638 66
622 66
616 66
616 66
START
872 0
752 66
672 66
648 66
624 66
606 66
606 66
START
794 0
714 66
658 66
630 66
620 66
614 66
610 66
608 66
604 66
604 66
START
720 0
664 66
636 66
624 66
606 66
598 66
594 66
594 66
START
858 0
752 66
694 66
638 66
618 66
598 66
598 66
START
844 0
716 66
694 66
674 66
646 66
622 66
616 66
616 66
START
706 0
682 66
662 66
628 66
620 66
618 66
618 66
START
806 0
750 66
704 66
676 66
650 66
646 66
626 66
626 66
START
820 0
728 66
680 66
642 66
624 66
604 66
602 66
592 66
592 66
START
756 0
692 66
660 66
640 66
624 66
616 66
600 66
600 66
START
888 0
776 66
692 66
664 66
650 66
620 66
604 66
604 66
START
720 0
648 66
622 66
620 66
616 66
592 66
592 66
START
838 0
750 66
682 66
628 66
622 66
618 66
614 66
610 66
610 66
START
938 0
770 66
686 66
622 66
606 66
600 66
600 66
START
882 0
766 66
686 66
636 66
616 66
616 66
START
860 0
748 66
696 66
678 66
660 66
650 66
642 66
638 66
638 66
START
836 0
700 66
672 66
648 66
636 66
636 66
START
796 0
706 66
670 66
654 66
642 66
618 66
598 66
598 66
START
818 0
746 66
680 66
638 66
618 66
618 66
START
728 0
680 66
654 66
638 66
630 66
630 66
START
826 0
750 66
690 66
646 66
626 66
606 66
606 66
START
788 0
714 66
662 66
626 66
610 66
608 66
608 66
START
750 0
682 66
662 66
642 66
634 66
630 66
630 66
START
858 0
766 66
706 66
674 66
642 66
642 66
START
874 0
766 66
694 66
654 66
614 66
582 66
582 66
START
750 0
646 66
634 66
596 66
586 66
586 66
START
790 0
718 66
680 66
652 66
632 66
632 66
START
846 0
760 66
712 66
672 66
650 66
622 66
618 66
618 66
START
742 0
674 66
640 66
628 66
616 66
614 66
606 66
590 66
590 66
START
776 0
700 66
672 66
646 66
630 66
630 66
START
778 0
714 66
672 66
648 66
630 66
624 66
624 66
START
776 0
660 66
620 66
604 66
598 66
598 66
START
756 0
700 66
672 66
626 66
618 66
610 66
610 66
START
824 0
742 66
690 66
664 66
648 66
638 66
622 66
614 66
612 66
612 66
START
784 0
678 66
644 66
632 66
624 66
618 66
618 66
START
826 0
726 66
686 66
648 66
610 66
604 66
600 66
600 66
START
814 0
724 66
650 66
630 66
612 66
598 66
594 66
594 66
START
864 0
736 66
696 66
668 66
652 66
640 66
628 66
622 66
616 66
612 66
604 66
592 66
592 66
START
746 0
682 66
650 66
632 66
624 66
618 66
616 66
616 66
START
836 0
764 66
692 66
652 66
616 66
612 66
604 66
604 66
START
862 0
774 66
730 66
686 66
662 66
652 66
650 66
650 66
START
708 0
672 66
652 66
640 66
628 66
628 66
START
750 0
690 66
666 66
646 66
634 66
618 66
612 66
612 66
START
822 0
730 66
662 66
626 66
604 66
600 66
594 66
590 66
590 66
START
700 0
676 66
660 66
636 66
628 66
622 66
622 66
START
744 0
704 66
672 66
648 66
632 66
632 66
START
840 0
734 66
700 66
674 66
650 66
630 66
618 66
602 66
602 66
START
854 0
726 66
692 66
656 66
640 66
612 66
600 66
600 66
START
804 0
708 66
660 66
640 66
628 66
624 66
620 66
618 66
618 66
START
858 0
766 66
690 66
638 66
626 66
624 66
624 66
START
830 0
726 66
674 66
650 66
626 66
598 66
592 66
592 66
START
842 0
726 66
660 66
640 66
614 66
614 66
START
840 0
738 66
688 66
676 66
650 66
642 66
636 66
634 66
626 66
626 66
START
770 0
678 66
650 66
624 66
616 66
610 66
610 66
START
818 0
750 66
722 66
650 66
634 66
618 66
612 66
600 66
600 66
START
782 0
706 66
662 66
638 66
602 66
594 66
594 66
START
846 0
718 66
696 66
656 66
640 66
626 66
620 66
612 66
600 66
600 66
START
802 0
710 66
678 66
646 66
634 66
624 66
620 66
620 66
START
852 0
762 66
686 66
652 66
644 66
632 66
630 66
620 66
604 66
604 66
START
764 0
676 66
642 66
638 66
610 66
604 66
604 66
START
884 0
780 66
712 66
684 66
660 66
648 66
632 66
624 66
600 66
600 66
START
754 0
714 66
680 66
652 66
632 66
624 66
600 66
600 66
START
762 0
698 66
670 66
662 66
654 66
646 66
618 66
612 66
612 66
START
748 0
694 66
656 66
616 66
598 66
594 66
594 66
START
830 0
722 66
670 66
646 66
626 66
602 66
594 66
594 66
START
840 0
720 66
676 66
656 66
640 66
632 66
624 66
600 66
600 66
START
734 0
690 66
638 66
604 66
592 66
592 66
START
858 0
758 66
674 66
642 66
624 66
614 66
612 66
612 66
START
860 0
748 66
676 66
652 66
630 66
628 66
624 66
622 66
616 66
612 66
604 66
594 66
586 66
586 66
START
848 0
720 66
692 66
660 66
632 66
616 66
610 66
610 66
START
812 0
706 66
660 66
636 66
624 66
618 66
618 66
START
778 0
700 66
650 66
612 66
596 66
588 66
588 66
START
756 0
688 66
666 66
650 66
642 66
628 66
616 66
600 66
598 66
598 66
START
762 0
710 66
670 66
646 66
630 66
620 66
612 66
610 66
610 66
START
816 0
752 66
688 66
642 66
622 66
610 66
604 66
604 66
START
816 0
732 66
680 66
620 66
620 66
START
792 0
692 66
664 66
636 66
612 66
612 66
START
930 0
814 66
722 66
666 66
630 66
626 66
626 66
START
760 0
684 66
626 66
620 66
608 66
608 66
START
816 0
708 66
668 66
640 66
626 66
614 66
606 66
606 66
START
944 0
808 66
700 66
676 66
660 66
640 66
632 66
606 66
602 66
598 66
590 66
590 66
START
810 0
706 66
670 66
648 66
630 66
614 66
606 66
602 66
598 66
590 66
590 66
START
880 0
720 66
656 66
632 66
630 66
628 66
628 66
START
848 0
760 66
716 66
680 66
624 66
614 66
602 66
578 66
578 66
START
688 0
660 66
632 66
620 66
620 66
START
768 0
696 66
664 66
636 66
620 66
604 66
596 66
596 66
START
792 0
708 66
652 66
634 66
622 66
618 66
614 66
600 66
600 66
START
794 0
698 66
650 66
640 66
630 66
616 66
616 66
START
868 0
756 66
708 66
672 66
648 66
624 66
610 66
610 66
START
768 0
690 66
658 66
646 66
614 66
608 66
608 66
START
846 0
746 66
694 66
658 66
634 66
622 66
612 66
612 66
START
816 0
728 66
692 66
664 66
660 66
656 66
654 66
654 66
START
894 0
768 66
674 66
656 66
648 66
636 66
620 66
614 66
610 66
602 66
598 66
590 66
590 66
START
826 0
750 66
706 66
668 66
654 66
642 66
622 66
614 66
590 66
590 66
START
834 0
734 66
678 66
646 66
634 66
634 66
START
876 0
774 66
718 66
686 66
660 66
640 66
630 66
618 66
616 66
602 66
578 66
578 66
START
820 0
680 66
664 66
648 66
640 66
628 66
622 66
622 66
START
792 0
726 66
690 66
660 66
652 66
652 66
START
882 0
776 66
724 66
696 66
668 66
624 66
602 66
602 66
START
718 0
672 66
640 66
626 66
620 66
620 66
START
812 0
740 66
704 66
676 66
638 66
622 66
614 66
614 66
START
800 0
718 66
666 66
644 66
620 66
612 66
610 66
610 66
START
798 0
726 66
666 66
642 66
630 66
628 66
628 66
START
774 0
720 66
696 66
670 66
654 66
622 66
604 66
590 66
586 66
586 66
START
880 0
748 66
672 66
632 66
608 66
592 66
592 66
START
848 0
742 66
662 66
626 66
590 66
590 66
START
864 0
784 66
702 66
658 66
642 66
622 66
618 66
618 66
START
880 0
752 66
692 66
672 66
644 66
612 66
600 66
600 66
START
928 0
768 66
668 66
650 66
634 66
610 66
600 66
596 66
596 66
START
788 0
712 66
674 66
638 66
626 66
614 66
610 66
608 66
606 66
590 66
590 66
START
738 0
692 66
652 66
626 66
618 66
598 66
594 66
594 66
START
816 0
724 66
672 66
644 66
618 66
618 66
START
752 0
688 66
662 66
642 66
620 66
608 66
608 66
START
884 0
768 66
684 66
644 66
628 66
624 66
620 66
620 66
START
898 0
768 66
692 66
664 66
636 66
616 66
600 66
590 66
590 66
START
876 0
770 66
710 66
664 66
642 66
626 66
606 66
602 66
598 66
590 66
590 66
START
836 0
728 66
680 66
648 66
618 66
604 66
600 66
594 66
590 66
590 66
START
832 0
702 66
646 66
644 66
644 66
START
864 0
752 66
700 66
664 66
652 66
628 66
606 66
598 66
594 66
594 66
START
706 0
678 66
662 66
648 66
622 66
618 66
618 66
START
816 0
756 66
688 66
648 66
624 66
620 66
620 66
START
858 0
752 66
706 66
650 66
650 66
START
894 0
738 66
678 66
662 66
642 66
630 66
624 66
620 66
620 66
START
804 0
724 66
660 66
640 66
632 66
630 66
630 66
START
844 0
764 66
718 66
670 66
646 66
632 66
620 66
600 66
600 66
START
750 0
674 66
646 66
622 66
606 66
606 66
START
744 0
700 66
648 66
620 66
610 66
610 66
START
770 0
706 66
666 66
642 66
628 66
620 66
616 66
592 66
586 66
582 66
582 66
START
842 0
752 66
696 66
656 66
644 66
636 66
634 66
634 66
START
838 0
752 66
696 66
644 66
624 66
600 66
600 66
START
814 0
698 66
672 66
652 66
644 66
640 66
640 66
START
796 0
722 66
674 66
632 66
620 66
620 66
START
854 0
718 66
680 66
648 66
630 66
620 66
612 66
604 66
604 66
START
750 0
658 66
622 66
610 66
604 66
602 66
602 66
START
866 0
768 66
668 66
632 66
600 66
598 66
590 66
590 66
START
818 0
710 66
682 66
644 66
642 66
640 66
624 66
600 66
586 66
586 66
START
874 0
762 66
698 66
650 66
630 66
618 66
616 66
616 66
START
790 0
714 66
676 66
594 66
586 66
586 66
START
878 0
728 66
692 66
670 66
650 66
642 66
642 66
START
732 0
696 66
660 66
634 66
614 66
590 66
578 66
578 66
START
802 0
730 66
694 66
668 66
648 66
628 66
614 66
614 66
START
844 0
754 66
712 66
676 66
648 66
630 66
614 66
610 66
608 66
604 66
604 66
START
768 0
694 66
658 66
638 66
614 66
602 66
592 66
592 66
START
756 0
704 66
668 66
660 66
644 66
634 66
634 66
START
760 0
670 66
634 66
596 66
586 66
586 66
START
834 0
762 66
690 66
652 66
618 66
610 66
610 66
START
858 0
732 66
684 66
666 66
652 66
652 66
START
818 0
744 66
686 66
648 66
632 66
612 66
600 66
590 66
586 66
586 66
START
784 0
696 66
664 66
640 66
624 66
620 66
618 66
606 66
606 66
START
812 0
728 66
664 66
628 66
626 66
626 66
START
856 0
748 66
658 66
630 66
614 66
614 66
START
838 0
730 66
686 66
638 66
628 66
620 66
610 66
610 66
START
790 0
688 66
660 66
636 66
620 66
600 66
600 66
START
714 0
680 66
660 66
638 66
614 66
614 66
START
784 0
712 66
666 66
646 66
638 66
632 66
610 66
602 66
602 66
START
778 0
690 66
662 66
634 66
622 66
610 66
600 66
600 66
START
838 0
750 66
694 66
664 66
636 66
622 66
622 66
START
818 0
746 66
708 66
666 66
634 66
618 66
606 66
606 66
START
724 0
698 66
674 66
644 66
616 66
606 66
602 66
598 66
590 66
590 66
START
722 0
642 66
634 66
608 66
596 66
596 66
START
830 0
694 66
654 66
634 66
598 66
598 66
START
752 0
684 66
640 66
626 66
614 66
604 66
600 66
600 66
START
792 0
694 66
650 66
638 66
630 66
608 66
594 66
594 66
START
820 0
712 66
664 66
628 66
618 66
614 66
590 66
586 66
586 66
START
734 0
706 66
682 66
654 66
636 66
628 66
624 66
620 66
620 66
START
858 0
742 66
682 66
662 66
650 66
640 66
632 66
624 66
600 66
600 66
START
786 0
662 66
622 66
622 66
START
732 0
696 66
664 66
642 66
622 66
610 66
608 66
606 66
590 66
590 66
START
760 0
716 66
692 66
672 66
632 66
616 66
608 66
608 66
START
864 0
744 66
668 66
640 66
626 66
614 66
612 66
612 66
START
860 0
770 66
710 66
680 66
654 66
622 66
620 66
612 66
612 66
START
824 0
724 66
704 66
672 66
644 66
630 66
618 66
606 66
606 66
START
752 0
700 66
680 66
662 66
646 66
622 66
612 66
604 66
604 66
START
770 0
718 66
682 66
654 66
638 66
626 66
606 66
604 66
604 66
START
836 0
750 66
686 66
650 66
626 66
620 66
612 66
612 66
START
822 0
730 66
670 66
650 66
634 66
632 66
620 66
620 66
START
856 0
724 66
676 66
644 66
636 66
626 66
610 66
606 66
598 66
590 66
590 66
START
826 0
716 66
648 66
624 66
610 66
600 66
600 66
START
836 0
734 66
678 66
636 66
616 66
612 66
608 66
608 66
START
878 0
746 66
670 66
638 66
612 66
602 66
602 66
START
818 0
734 66
674 66
638 66
616 66
612 66
598 66
578 66
578 66
START
900 0
772 66
692 66
664 66
648 66
636 66
626 66
626 66
START
804 0
672 66
644 66
620 66
612 66
612 66
START
738 0
678 66
670 66
662 66
648 66
648 66
START
822 0
746 66
702 66
686 66
666 66
652 66
630 66
624 66
604 66
592 66
592 66
START
800 0
732 66
700 66
668 66
648 66
636 66
614 66
606 66
606 66
START
834 0
754 66
706 66
660 66
644 66
640 66
630 66
630 66
START
858 0
766 66
712 66
676 66
648 66
624 66
616 66
612 66
606 66
606 66
START
806 0
746 66
694 66
670 66
622 66
610 66
604 66
600 66
600 66
START
834 0
754 66
690 66
666 66
638 66
628 66
620 66
618 66
606 66
606 66
START
768 0
700 66
644 66
612 66
612 66
START
836 0
740 66
688 66
660 66
636 66
632 66
630 66
622 66
610 66
608 66
608 66
START
774 0
706 66
656 66
620 66
620 66
START
716 0
636 66
606 66
602 66
594 66
594 66
START
772 0
710 66
678 66
656 66
640 66
608 66
582 66
582 66
START
844 0
718 66
692 66
660 66
640 66
626 66
618 66
610 66
610 66
START
812 0
690 66
672 66
632 66
624 66
618 66
612 66
612 66
START
782 0
678 66
644 66
620 66
612 66
612 66
START
938 0
788 66
708 66
664 66
634 66
630 66
628 66
614 66
614 66
START
840 0
752 66
698 66
666 66
642 66
626 66
614 66
600 66
600 66
START
824 0
724 66
678 66
650 66
638 66
628 66
608 66
608 66
START
712 0
680 66
640 66
626 66
620 66
616 66
616 66
START
800 0
716 66
668 66
640 66
636 66
634 66
618 66
618 66
START
892 0
748 66
688 66
656 66
648 66
634 66
634 66
START
778 0
728 66
684 66
668 66
654 66
626 66
622 66
616 66
612 66
604 66
592 66
592 66
START
824 0
728 66
696 66
672 66
640 66
628 66
624 66
622 66
622 66
START
824 0
722 66
668 66
632 66
614 66
606 66
582 66
582 66
START
770 0
714 66
684 66
660 66
642 66
632 66
624 66
600 66
600 66
START
804 0
736 66
676 66
644 66
630 66
616 66
604 66
586 66
586 66
START
776 0
706 66
654 66
618 66
608 66
596 66
596 66
START
820 0
736 66
696 66
672 66
648 66
626 66
610 66
600 66
600 66
START
756 0
692 66
656 66
640 66
630 66
624 66
620 66
620 66
START
788 0
696 66
628 66
606 66
602 66
594 66
594 66
START
864 0
752 66
696 66
656 66
650 66
642 66
622 66
620 66
620 66
START
778 0
686 66
662 66
626 66
610 66
598 66
598 66
START
884 0
756 66
680 66
652 66
632 66
628 66
628 66
START
826 0
722 66
684 66
674 66
658 66
640 66
628 66
620 66
606 66
606 66
START
942 0
800 66
698 66
662 66
640 66
624 66
614 66
606 66
606 66
START
792 0
716 66
672 66
642 66
622 66
614 66
614 66
START
826 0
738 66
654 66
626 66
622 66
622 66
START
742 0
700 66
674 66
658 66
642 66
618 66
606 66
600 66
596 66
596 66
START
768 0
718 66
686 66
666 66
650 66
630 66
618 66
618 66
START
830 0
742 66
714 66
668 66
644 66
626 66
618 66
610 66
610 66
START
870 0
778 66
704 66
674 66
652 66
632 66
620 66
606 66
602 66
600 66
600 66
START
838 0
774 66
714 66
672 66
644 66
636 66
628 66
626 66
618 66
618 66
START
758 0
686 66
658 66
646 66
636 66
612 66
612 66
START
830 0
740 66
694 66
658 66
634 66
606 66
602 66
602 66
START
826 0
738 66
690 66
656 66
642 66
618 66
614 66
606 66
606 66
START
892 0
772 66
684 66
644 66
620 66
606 66
602 66
590 66
590 66
START
784 0
712 66
678 66
658 66
644 66
630 66
606 66
602 66
602 66
START
790 0
694 66
642 66
622 66
614 66
590 66
586 66
586 66
START
758 0
666 66
642 66
622 66
602 66
602 66
START
800 0
722 66
682 66
642 66
634 66
634 66
START
834 0
750 66
702 66
670 66
646 66
622 66
610 66
608 66
606 66
590 66
590 66
START
808 0
718 66
682 66
650 66
640 66
640 66
START
812 0
692 66
652 66
622 66
614 66
606 66
600 66
594 66
594 66
START
824 0
744 66
692 66
646 66
622 66
610 66
600 66
600 66
START
778 0
698 66
658 66
646 66
622 66
618 66
612 66
604 66
592 66
592 66
START
852 0
752 66
690 66
654 66
626 66
610 66
600 66
600 66
START
848 0
768 66
724 66
696 66
668 66
642 66
634 66
622 66
622 66
START
844 0
708 66
686 66
664 66
648 66
640 66
636 66
628 66
626 66
626 66
START
808 0
748 66
680 66
650 66
606 66
586 66
586 66
START
802 0
706 66
646 66
612 66
604 66
604 66
START
818 0
738 66
682 66
650 66
638 66
630 66
628 66
614 66
614 66
START
826 0
746 66
682 66
650 66
638 66
628 66
628 66
START
852 0
748 66
704 66
676 66
624 66
614 66
606 66
604 66
604 66
START
848 0
764 66
682 66
642 66
626 66
606 66
604 66
604 66
START
806 0
738 66
688 66
666 66
648 66
620 66
608 66
594 66
594 66
START
840 0
720 66
658 66
618 66
618 66
START
824 0
744 66
680 66
644 66
632 66
620 66
618 66
618 66
START
800 0
730 66
680 66
644 66
628 66
612 66
604 66
604 66
START
862 0
760 66
712 66
672 66
646 66
632 66
620 66
616 66
606 66
606 66
START
854 0
740 66
700 66
668 66
648 66
628 66
612 66
598 66
594 66
586 66
586 66
START
758 0
706 66
662 66
650 66
634 66
610 66
600 66
596 66
596 66
START
726 0
682 66
648 66
620 66
600 66
600 66
START
698 0
650 66
612 66
596 66
596 66
START
812 0
734 66
662 66
628 66
600 66
600 66
START
834 0
750 66
674 66
660 66
650 66
644 66
624 66
620 66
620 66
START
776 0
696 66
672 66
652 66
636 66
608 66
600 66
598 66
598 66
START
734 0
698 66
670 66
642 66
642 66
START
782 0
702 66
666 66
654 66
622 66
618 66
618 66
START
782 0
706 66
666 66
642 66
626 66
618 66
608 66
600 66
600 66
START
798 0
716 66
666 66
630 66
616 66
616 66
START
866 0
750 66
710 66
666 66
638 66
632 66
624 66
624 66
START
836 0
760 66
714 66
670 66
646 66
640 66
636 66
612 66
612 66
START
836 0
716 66
660 66
642 66
622 66
612 66
608 66
608 66
START
836 0
738 66
686 66
652 66
640 66
630 66
630 66
START
770 0
716 66
656 66
614 66
610 66
610 66
START
820 0
714 66
654 66
630 66
602 66
592 66
592 66
START
808 0
712 66
676 66
648 66
638 66
622 66
622 66
START
844 0
764 66
706 66
666 66
646 66
626 66
614 66
614 66
START
842 0
744 66
698 66
682 66
666 66
652 66
638 66
626 66
626 66
START
810 0
734 66
678 66
638 66
622 66
606 66
600 66
598 66
590 66
590 66
START
856 0
776 66
708 66
660 66
636 66
626 66
626 66
START
802 0
726 66
686 66
646 66
634 66
628 66
616 66
606 66
606 66
START
802 0
708 66
658 66
636 66
616 66
602 66
596 66
586 66
586 66
START
796 0
728 66
688 66
656 66
618 66
608 66
600 66
600 66
START
758 0
682 66
650 66
630 66
622 66
618 66
614 66
614 66
START
834 0
674 66
650 66
620 66
610 66
608 66
608 66
START
824 0
750 66
694 66
638 66
636 66
628 66
628 66
START
798 0
690 66
656 66
624 66
606 66
598 66
594 66
594 66
START
890 0
748 66
688 66
644 66
634 66
622 66
622 66
START
800 0
704 66
624 66
616 66
602 66
578 66
578 66
START
766 0
722 66
680 66
634 66
614 66
614 66
START
776 0
726 66
690 66
646 66
610 66
578 66
578 66
START
872 0
724 66
656 66
624 66
600 66
596 66
596 66
START
758 0
678 66
640 66
610 66
586 66
586 66
START
774 0
698 66
670 66
646 66
624 66
618 66
606 66
602 66
602 66
START
834 0
752 66
712 66
676 66
652 66
640 66
628 66
612 66
608 66
608 66
START
822 0
704 66
680 66
660 66
618 66
598 66
598 66
START
806 0
758 66
718 66
664 66
656 66
630 66
618 66
582 66
582 66
START
842 0
730 66
644 66
634 66
634 66
START
758 0
638 66
610 66
596 66
596 66
START
744 0
680 66
644 66
620 66
612 66
608 66
608 66
START
828 0
744 66
694 66
678 66
662 66
650 66
640 66
636 66
628 66
616 66
610 66
610 66
START
740 0
690 66
654 66
628 66
608 66
608 66
START
778 0
702 66
676 66
650 66
626 66
614 66
614 66
START
844 0
760 66
696 66
640 66
616 66
606 66
606 66
START
872 0
786 66
690 66
652 66
632 66
616 66
614 66
606 66
598 66
598 66
START
808 0
696 66
662 66
620 66
620 66
START
788 0
716 66
664 66
628 66
592 66
592 66
START
744 0
672 66
620 66
600 66
600 66
START
900 0
732 66
682 66
664 66
654 66
638 66
622 66
606 66
606 66
START
822 0
734 66
674 66
642 66
632 66
626 66
610 66
604 66
600 66
600 66
START
868 0
740 66
700 66
672 66
664 66
646 66
642 66
642 66
START
800 0
720 66
688 66
672 66
656 66
628 66
606 66
602 66
602 66
START
900 0
784 66
692 66
654 66
626 66
618 66
614 66
612 66
612 66
START
792 0
696 66
654 66
652 66
632 66
620 66
620 66
START
842 0
742 66
686 66
666 66
642 66
618 66
618 66
START
710 0
670 66
638 66
630 66
622 66
612 66
592 66
592 66
START
790 0
674 66
622 66
602 66
602 66
START
844 0
744 66
692 66
656 66
638 66
626 66
618 66
602 66
594 66
594 66
START
710 0
686 66
662 66
634 66
628 66
628 66
START
904 0
772 66
708 66
664 66
640 66
632 66
626 66
606 66
606 66
START
880 0
756 66
678 66
638 66
626 66
626 66
START
888 0
752 66
700 66
668 66
652 66
628 66
616 66
592 66
586 66
582 66
582 66
START
726 0
670 66
650 66
638 66
624 66
620 66
620 66
START
804 0
728 66
676 66
644 66
598 66
594 66
594 66
START
806 0
706 66
670 66
630 66
620 66
616 66
592 66
592 66
START
754 0
694 66
660 66
624 66
604 66
604 66
START
802 0
714 66
666 66
640 66
626 66
620 66
618 66
614 66
598 66
598 66
START
824 0
752 66
698 66
678 66
650 66
644 66
620 66
616 66
592 66
592 66
START
806 0
706 66
666 66
630 66
614 66
594 66
586 66
586 66
START
796 0
712 66
662 66
634 66
612 66
586 66
582 66
582 66
START
904 0
764 66
664 66
636 66
600 66
600 66
START
788 0
726 66
674 66
626 66
598 66
598 66
START
768 0
688 66
650 66
632 66
618 66
604 66
600 66
594 66
590 66
590 66
START
922 0
752 66
712 66
688 66
686 66
662 66
650 66
638 66
618 66
602 66
592 66
592 66
START
820 0
732 66
704 66
676 66
658 66
638 66
606 66
604 66
604 66
START
866 0
728 66
692 66
664 66
660 66
640 66
636 66
592 66
592 66
START
860 0
746 66
702 66
662 66
648 66
628 66
624 66
604 66
604 66
START
806 0
714 66
670 66
626 66
600 66
600 66
START
888 0
748 66
694 66
670 66
658 66
638 66
622 66
622 66
START
868 0
758 66
682 66
662 66
638 66
638 66
START
760 0
688 66
648 66
636 66
626 66
624 66
624 66
START
830 0
722 66
680 66
644 66
628 66
616 66
606 66
606 66
START
818 0
750 66
702 66
672 66
640 66
620 66
618 66
606 66
606 66
START
836 0
758 66
682 66
666 66
654 66
642 66
634 66
630 66
628 66
628 66
START
778 0
686 66
646 66
618 66
594 66
586 66
586 66
START
792 0
732 66
670 66
638 66
618 66
614 66
614 66
START
738 0
694 66
662 66
634 66
610 66
610 66
START
876 0
752 66
640 66
612 66
600 66
600 66
START
860 0
750 66
698 66
666 66
638 66
610 66
602 66
592 66
592 66
START
904 0
772 66
722 66
698 66
666 66
626 66
600 66
600 66
START
770 0
710 66
668 66
640 66
616 66
606 66
600 66
596 66
596 66
START
880 0
780 66
696 66
644 66
612 66
600 66
600 66
START
830 0
702 66
670 66
650 66
640 66
608 66
600 66
600 66
START
796 0
700 66
644 66
632 66
600 66
600 66
START
784 0
736 66
698 66
642 66
626 66
610 66
590 66
586 66
586 66
START
924 0
780 66
716 66
664 66
644 66
622 66
602 66
602 66
START
864 0
746 66
700 66
660 66
640 66
620 66
600 66
600 66
START
878 0
754 66
706 66
682 66
654 66
646 66
634 66
632 66
620 66
620 66
START
816 0
738 66
706 66
670 66
654 66
640 66
632 66
632 66
START
754 0
702 66
672 66
646 66
640 66
636 66
624 66
618 66
618 66
START
756 0
654 66
634 66
622 66
612 66
604 66
594 66
586 66
586 66
START
752 0
708 66
672 66
656 66
640 66
620 66
602 66
602 66
START
832 0
732 66
644 66
614 66
610 66
590 66
590 66
START
832 0
744 66
690 66
666 66
642 66
628 66
612 66
602 66
602 66
START
760 0
684 66
640 66
616 66
600 66
586 66
586 66
START
820 0
760 66
688 66
668 66
646 66
642 66
634 66
632 66
620 66
620 66
START
796 0
692 66
650 66
624 66
624 66
START
820 0
724 66
668 66
640 66
624 66
618 66
612 66
600 66
600 66
START
784 0
690 66
660 66
638 66
626 66
618 66
606 66
600 66
596 66
596 66
START
810 0
738 66
682 66
642 66
624 66
604 66
602 66
592 66
592 66
START
784 0
724 66
656 66
636 66
616 66
598 66
594 66
594 66
START
912 0
768 66
700 66
640 66
608 66
602 66
602 66
START
796 0
708 66
684 66
660 66
622 66
606 66
606 66
START
772 0
676 66
640 66
618 66
604 66
600 66
586 66
586 66
START
732 0
686 66
646 66
638 66
630 66
628 66
612 66
608 66
602 66
602 66
START
742 0
694 66
630 66
610 66
610 66
START
868 0
772 66
712 66
678 66
672 66
656 66
652 66
650 66
636 66
636 66
START
768 0
716 66
688 66
664 66
656 66
632 66
616 66
612 66
604 66
592 66
592 66
START
822 0
726 66
686 66
670 66
650 66
630 66
616 66
614 66
614 66
START
880 0
778 66
694 66
664 66
624 66
606 66
590 66
586 66
586 66
START
764 0
698 66
662 66
638 66
634 66
622 66
622 66
START
826 0
738 66
668 66
638 66
626 66
618 66
606 66
600 66
596 66
596 66
START
862 0
742 66
698 66
654 66
614 66
614 66
START
822 0
698 66
666 66
646 66
634 66
622 66
616 66
616 66
START
730 0
698 66
676 66
660 66
636 66
632 66
604 66
594 66
586 66
586 66
START
842 0
738 66
686 66
670 66
650 66
638 66
638 66
START
824 0
734 66
678 66
658 66
654 66
638 66
638 66
START
806 0
676 66
644 66
616 66
600 66
590 66
590 66
START
774 0
674 66
654 66
626 66
610 66
602 66
602 66
START
840 0
720 66
682 66
642 66
614 66
606 66
604 66
604 66
START
842 0
730 66
692 66
654 66
638 66
628 66
610 66
610 66
START
842 0
714 66
682 66
650 66
636 66
612 66
604 66
604 66
START
722 0
684 66
662 66
650 66
636 66
636 66
START
826 0
746 66
682 66
646 66
626 66
612 66
612 66
START
824 0
732 66
694 66
664 66
650 66
622 66
612 66
608 66
608 66
START
794 0
710 66
672 66
664 66
620 66
612 66
594 66
590 66
590 66
START
846 0
738 66
680 66
636 66
614 66
612 66
612 66
START
864 0
746 66
694 66
658 66
640 66
628 66
622 66
616 66
612 66
612 66
START
818 0
718 66
672 66
640 66
612 66
600 66
594 66
594 66
START
862 0
742 66
666 66
634 66
630 66
622 66
590 66
590 66
START
842 0
746 66
690 66
648 66
628 66
614 66
610 66
586 66
586 66
START
798 0
740 66
672 66
632 66
626 66
606 66
606 66
START
842 0
750 66
706 66
670 66
662 66
638 66
626 66
626 66
START
822 0
766 66
718 66
692 66
664 66
640 66
616 66
608 66
608 66
START
812 0
752 66
696 66
648 66
630 66
630 66
START
880 0
784 66
708 66
666 66
644 66
640 66
624 66
618 66
606 66
602 66
600 66
600 66
START
846 0
708 66
666 66
636 66
624 66
614 66
612 66
612 66
START
708 0
664 66
650 66
634 66
632 66
592 66
592 66
START
876 0
728 66
680 66
658 66
638 66
618 66
612 66
606 66
606 66
START
782 0
694 66
666 66
648 66
612 66
596 66
596 66
START
768 0
700 66
680 66
664 66
640 66
634 66
630 66
606 66
606 66
START
866 0
768 66
708 66
680 66
664 66
640 66
636 66
630 66
610 66
602 66
598 66
590 66
590 66
START
772 0
718 66
674 66
642 66
614 66
602 66
590 66
590 66
START
814 0
734 66
706 66
690 66
666 66
646 66
636 66
634 66
634 66
START
736 0
672 66
646 66
636 66
616 66
592 66
592 66
START
900 0
788 66
696 66
668 66
652 66
642 66
634 66
634 66
START
892 0
716 66
672 66
638 66
606 66
602 66
590 66
590 66
START
784 0
716 66
644 66
616 66
592 66
592 66
START
798 0
732 66
698 66
678 66
662 66
658 66
640 66
626 66
610 66
602 66
602 66
START
838 0
770 66
702 66
662 66
634 66
632 66
628 66
626 66
624 66
624 66
START
782 0
694 66
654 66
644 66
628 66
622 66
618 66
606 66
606 66
START
790 0
706 66
646 66
626 66
618 66
608 66
600 66
600 66
START
800 0
742 66
696 66
652 66
648 66
644 66
636 66
632 66
620 66
620 66
START
814 0
726 66
672 66
654 66
616 66
600 66
598 66
590 66
590 66
START
840 0
704 66
662 66
626 66
626 66
START
830 0
694 66
646 66
626 66
616 66
606 66
606 66
START
844 0
768 66
708 66
680 66
652 66
632 66
616 66
610 66
608 66
608 66
START
766 0
722 66
682 66
664 66
646 66
630 66
606 66
604 66
604 66
START
736 0
680 66
640 66
618 66
612 66
600 66
600 66
START
858 0
754 66
694 66
670 66
660 66
648 66
640 66
640 66
START
764 0
706 66
664 66
632 66
608 66
586 66
586 66
START
790 0
730 66
704 66
678 66
652 66
618 66
612 66
606 66
606 66
START
774 0
682 66
666 66
648 66
622 66
622 66
START
740 0
694 66
644 66
630 66
622 66
620 66
620 66
START
870 0
770 66
706 66
676 66
652 66
612 66
612 66
START
736 0
674 66
650 66
630 66
622 66
618 66
614 66
600 66
600 66
START
770 0
710 66
674 66
638 66
620 66
618 66
618 66
START
756 0
704 66
672 66
644 66
638 66
630 66
624 66
604 66
592 66
592 66
START
890 0
766 66
712 66
656 66
622 66
606 66
604 66
604 66
START
904 0
780 66
690 66
634 66
598 66
586 66
586 66
START
794 0
710 66
678 66
656 66
636 66
620 66
610 66
600 66
596 66
596 66
START
912 0
780 66
680 66
630 66
616 66
612 66
604 66
578 66
578 66
START
780 0
704 66
664 66
636 66
622 66
610 66
604 66
600 66
600 66
START
804 0
726 66
694 66
664 66
644 66
628 66
600 66
600 66
START
860 0
768 66
682 66
648 66
628 66
606 66
598 66
594 66
594 66
START
770 0
718 66
674 66
634 66
610 66
600 66
596 66
596 66
START
816 0
724 66
680 66
644 66
620 66
620 66
START
778 0
714 66
638 66
622 66
598 66
598 66
START
774 0
672 66
650 66
636 66
634 66
626 66
626 66
START
810 0
700 66
652 66
608 66
608 66
START
852 0
724 66
672 66
642 66
628 66
624 66
616 66
608 66
600 66
598 66
598 66
START
766 0
724 66
674 66
646 66
634 66
626 66
618 66
618 66
START
922 0
746 66
706 66
678 66
642 66
622 66
606 66
606 66
START
834 0
722 66
670 66
630 66
582 66
582 66
START
882 0
782 66
710 66
666 66
646 66
626 66
610 66
610 66
START
818 0
770 66
702 66
658 66
638 66
622 66
610 66
608 66
608 66
START
802 0
750 66
702 66
670 66
650 66
634 66
606 66
602 66
590 66
590 66
START
764 0
706 66
644 66
632 66
612 66
606 66
598 66
594 66
594 66
START
884 0
796 66
740 66
700 66
658 66
618 66
604 66
596 66
596 66
START
834 0
718 66
670 66
658 66
646 66
638 66
638 66
START
800 0
736 66
680 66
662 66
634 66
622 66
616 66
614 66
612 66
612 66
START
810 0
718 66
662 66
632 66
622 66
602 66
602 66
START
856 0
742 66
698 66
648 66
638 66
634 66
626 66
618 66
606 66
606 66
START
854 0
742 66
700 66
672 66
662 66
658 66
658 66
START
860 0
724 66
660 66
628 66
616 66
610 66
608 66
604 66
604 66
START
754 0
684 66
628 66
622 66
622 66
START
732 0
686 66
648 66
624 66
614 66
612 66
612 66
START
764 0
658 66
634 66
604 66
604 66
START
800 0
734 66
676 66
616 66
612 66
612 66
START
866 0
738 66
684 66
652 66
640 66
632 66
624 66
624 66
START
764 0
682 66
652 66
644 66
628 66
610 66
610 66
START
834 0
734 66
694 66
652 66
632 66
626 66
620 66
616 66
616 66
START
756 0
728 66
700 66
668 66
624 66
620 66
616 66
616 66
START
808 0
704 66
664 66
654 66
644 66
636 66
624 66
604 66
586 66
586 66
START
864 0
738 66
686 66
664 66
638 66
626 66
616 66
610 66
610 66
START
852 0
720 66
664 66
642 66
630 66
630 66
START
754 0
686 66
666 66
654 66
630 66
610 66
602 66
602 66
START
772 0
712 66
668 66
654 66
642 66
636 66
628 66
628 66
START
824 0
762 66
710 66
666 66
628 66
624 66
622 66
622 66
START
794 0
704 66
648 66
630 66
624 66
612 66
600 66
600 66
START
816 0
728 66
686 66
660 66
638 66
630 66
624 66
604 66
592 66
592 66
START
848 0
740 66
690 66
654 66
642 66
630 66
628 66
614 66
614 66
START
858 0
758 66
692 66
656 66
632 66
622 66
612 66
598 66
578 66
578 66
START
908 0
772 66
720 66
688 66
662 66
630 66
614 66
602 66
598 66
590 66
590 66
START
830 0
738 66
708 66
656 66
632 66
612 66
612 66
START
792 0
684 66
652 66
642 66
634 66
626 66
622 66
618 66
618 66
START
788 0
712 66
698 66
674 66
658 66
652 66
652 66
START
872 0
756 66
684 66
650 66
632 66
614 66
596 66
586 66
586 66
START
860 0
748 66
700 66
654 66
610 66
590 66
586 66
586 66
START
896 0
760 66
690 66
646 66
626 66
614 66
614 66
START
802 0
722 66
666 66
626 66
614 66
610 66
606 66
602 66
594 66
594 66
START
864 0
736 66
668 66
612 66
596 66
588 66
588 66
START
858 0
742 66
674 66
650 66
628 66
616 66
614 66
606 66
602 66
598 66
590 66
590 66
START
668 0
642 66
634 66
628 66
628 66
START
728 0
660 66
614 66
588 66
588 66
START
942 0
802 66
696 66
660 66
634 66
630 66
610 66
606 66
606 66
START
730 0
650 66
598 66
590 66
590 66
START
874 0
776 66
704 66
668 66
644 66
628 66
620 66
612 66
606 66
598 66
594 66
594 66
START
804 0
696 66
660 66
636 66
634 66
634 66
START
822 0
726 66
674 66
642 66
622 66
610 66
610 66
START
834 0
758 66
714 66
674 66
652 66
638 66
610 66
610 66
START
772 0
718 66
694 66
676 66
650 66
622 66
618 66
618 66
START
798 0
718 66
682 66
654 66
634 66
614 66
606 66
606 66
START
740 0
692 66
664 66
648 66
624 66
624 66
START
764 0
664 66
626 66
626 66
START
742 0
694 66
674 66
662 66
656 66
652 66
636 66
624 66
622 66
622 66
START
812 0
740 66
692 66
638 66
622 66
620 66
616 66
592 66
592 66
START
880 0
740 66
696 66
660 66
628 66
626 66
626 66
START
828 0
708 66
662 66
642 66
640 66
636 66
624 66
616 66
610 66
610 66
START
826 0
706 66
650 66
642 66
636 66
628 66
618 66
614 66
602 66
600 66
600 66
START
790 0
714 66
670 66
646 66
626 66
598 66
586 66
586 66
START
810 0
722 66
674 66
620 66
614 66
610 66
606 66
598 66
594 66
594 66
START
754 0
706 66
674 66
660 66
656 66
654 66
654 66
START
820 0
734 66
698 66
640 66
628 66
626 66
626 66
START
828 0
732 66
684 66
652 66
632 66
604 66
596 66
596 66
START
748 0
710 66
672 66
636 66
634 66
626 66
626 66
START
922 0
794 66
734 66
686 66
650 66
618 66
594 66
594 66
START
920 0
796 66
700 66
672 66
644 66
610 66
590 66
590 66
START
740 0
684 66
660 66
624 66
612 66
612 66
START
804 0
728 66
704 66
682 66
660 66
644 66
642 66
634 66
622 66
620 66
600 66
600 66
START
736 0
688 66
640 66
612 66
604 66
604 66
START
816 0
716 66
682 66
664 66
640 66
622 66
612 66
592 66
592 66
START
952 0
796 66
720 66
684 66
650 66
634 66
630 66
628 66
614 66
614 66
START
848 0
694 66
674 66
654 66
630 66
618 66
606 66
602 66
602 66
START
764 0
688 66
648 66
630 66
614 66
614 66
START
866 0
794 66
706 66
660 66
626 66
614 66
612 66
612 66
START
854 0
754 66
686 66
674 66
646 66
626 66
622 66
618 66
618 66
START
754 0
690 66
668 66
656 66
652 66
634 66
630 66
630 66
START
760 0
710 66
672 66
644 66
628 66
624 66
620 66
602 66
602 66
START
726 0
680 66
656 66
634 66
628 66
626 66
626 66
START
956 0
772 66
668 66
628 66
610 66
608 66
606 66
590 66
590 66
START
928 0
784 66
712 66
680 66
660 66
646 66
642 66
638 66
638 66
START
804 0
720 66
668 66
634 66
612 66
592 66
592 66
START
756 0
672 66
652 66
642 66
634 66
626 66
620 66
608 66
608 66
START
824 0
744 66
676 66
642 66
612 66
598 66
586 66
586 66
START
874 0
784 66
728 66
676 66
644 66
616 66
592 66
592 66
START
862 0
726 66
668 66
648 66
634 66
608 66
608 66
START
784 0
732 66
682 66
642 66
630 66
620 66
620 66
START
852 0
724 66
686 66
668 66
644 66
636 66
632 66
628 66
626 66
610 66
610 66
START
798 0
742 66
690 66
646 66
622 66
604 66
604 66
START
886 0
786 66
726 66
680 66
640 66
606 66
602 66
602 66
START
740 0
708 66
680 66
664 66
652 66
640 66
640 66
START
816 0
744 66
692 66
652 66
642 66
634 66
626 66
626 66
START
760 0
688 66
646 66
630 66
630 66
START
706 0
674 66
652 66
638 66
620 66
604 66
600 66
600 66
START
792 0
700 66
660 66
628 66
620 66
616 66
616 66
START
744 0
684 66
666 66
646 66
628 66
610 66
600 66
600 66
START
806 0
728 66
698 66
666 66
650 66
630 66
622 66
622 66
START
788 0
694 66
670 66
650 66
614 66
606 66
606 66
START
808 0
756 66
684 66
666 66
664 66
656 66
636 66
636 66
START
806 0
690 66
648 66
634 66
626 66
626 66
START
820 0
736 66
694 66
658 66
630 66
622 66
616 66
612 66
604 66
592 66
592 66
START
852 0
756 66
688 66
628 66
620 66
612 66
608 66
608 66
START
796 0
712 66
676 66
654 66
644 66
630 66
620 66
608 66
608 66
START
814 0
674 66
646 66
624 66
606 66
602 66
594 66
594 66
START
810 0
706 66
682 66
654 66
630 66
618 66
616 66
602 66
578 66
578 66
START
826 0
748 66
680 66
648 66
620 66
606 66
604 66
604 66
START
788 0
716 66
672 66
646 66
630 66
620 66
614 66
612 66
600 66
600 66
START
792 0
724 66
666 66
626 66
596 66
588 66
588 66
START
830 0
748 66
716 66
672 66
654 66
622 66
610 66
606 66
606 66
START
842 0
730 66
690 66
660 66
632 66
622 66
610 66
602 66
592 66
592 66
START
752 0
690 66
662 66
648 66
636 66
636 66
START
728 0
688 66
660 66
648 66
638 66
618 66
612 66
602 66
602 66
START
830 0
750 66
702 66
676 66
644 66
626 66
626 66
START
808 0
676 66
652 66
632 66
616 66
616 66
START
814 0
710 66
676 66
648 66
630 66
614 66
612 66
612 66
START
742 0
650 66
618 66
616 66
602 66
578 66
578 66
START
860 0
720 66
680 66
670 66
664 66
648 66
636 66
634 66
634 66
START
806 0
740 66
702 66
672 66
644 66
634 66
626 66
618 66
594 66
594 66
START
732 0
680 66
636 66
620 66
606 66
604 66
604 66
START
774 0
682 66
666 66
642 66
626 66
612 66
592 66
592 66
START
800 0
724 66
668 66
638 66
620 66
596 66
586 66
586 66
START
860 0
724 66
672 66
644 66
632 66
620 66
600 66
600 66
START
794 0
732 66
692 66
640 66
620 66
600 66
600 66
START
900 0
792 66
706 66
660 66
620 66
600 66
600 66
START
782 0
722 66
662 66
646 66
614 66
590 66
586 66
586 66
START
824 0
752 66
696 66
626 66
606 66
598 66
594 66
594 66
START
834 0
750 66
682 66
656 66
642 66
636 66
636 66
START
890 0
786 66
674 66
630 66
606 66
604 66
604 66
START
828 0
746 66
698 66
678 66
670 66
662 66
656 66
646 66
638 66
610 66
600 66
598 66
598 66
START
834 0
726 66
686 66
658 66
620 66
586 66
582 66
582 66
START
730 0
662 66
642 66
630 66
630 66
START
846 0
754 66
700 66
664 66
644 66
620 66
612 66
612 66
START
830 0
738 66
694 66
652 66
624 66
620 66
616 66
614 66
612 66
612 66
START
744 0
688 66
656 66
644 66
636 66
632 66
620 66
600 66
600 66
START
790 0
718 66
686 66
650 66
638 66
626 66
610 66
602 66
602 66
START
788 0
680 66
654 66
634 66
632 66
624 66
624 66
START
814 0
758 66
694 66
638 66
618 66
598 66
590 66
590 66
START
874 0
760 66
702 66
674 66
646 66
626 66
614 66
612 66
612 66
START
856 0
704 66
662 66
634 66
606 66
590 66
590 66
START
858 0
766 66
710 66
680 66
656 66
632 66
620 66
600 66
600 66
START
790 0
722 66
674 66
652 66
640 66
620 66
610 66
610 66
START
800 0
714 66
658 66
618 66
598 66
598 66
START
814 0
728 66
692 66
668 66
650 66
622 66
602 66
602 66
START
726 0
666 66
646 66
626 66
616 66
612 66
602 66
594 66
594 66
START
858 0
726 66
692 66
668 66
648 66
630 66
622 66
612 66
608 66
608 66
START
832 0
758 66
702 66
652 66
634 66
618 66
602 66
602 66
START
816 0
714 66
678 66
666 66
638 66
626 66
620 66
610 66
606 66
586 66
586 66
START
846 0
730 66
684 66
658 66
632 66
612 66
600 66
600 66
START
856 0
760 66
724 66
700 66
680 66
660 66
648 66
648 66
START
772 0
716 66
672 66
644 66
630 66
622 66
616 66
610 66
610 66
START
804 0
738 66
696 66
684 66
660 66
656 66
636 66
636 66
START
694 0
626 66
614 66
612 66
612 66
START
804 0
728 66
682 66
654 66
636 66
626 66
626 66
START
824 0
716 66
640 66
618 66
606 66
606 66
START
804 0
732 66
700 66
678 66
666 66
656 66
632 66
622 66
618 66
612 66
602 66
602 66
START
742 0
670 66
634 66
622 66
612 66
602 66
602 66
START
720 0
682 66
650 66
622 66
620 66
600 66
600 66
START
802 0
730 66
684 66
642 66
626 66
614 66
586 66
582 66
582 66
START
820 0
716 66
684 66
672 66
664 66
656 66
656 66
START
790 0
722 66
680 66
638 66
618 66
618 66
START
744 0
700 66
668 66
652 66
648 66
644 66
644 66
START
896 0
784 66
728 66
696 66
666 66
650 66
626 66
624 66
624 66
START
776 0
718 66
676 66
648 66
622 66
606 66
600 66
598 66
598 66
START
874 0
750 66
694 66
654 66
630 66
614 66
604 66
604 66
START
826 0
748 66
696 66
652 66
630 66
610 66
610 66
START
794 0
714 66
666 66
644 66
636 66
636 66
START
872 0
776 66
648 66
634 66
622 66
618 66
614 66
602 66
600 66
600 66
START
754 0
694 66
644 66
630 66
630 66
START
812 0
724 66
678 66
650 66
636 66
632 66
632 66
START
732 0
688 66
658 66
638 66
626 66
620 66
620 66
START
774 0
674 66
650 66
622 66
618 66
606 66
606 66
START
836 0
760 66
692 66
664 66
644 66
620 66
612 66
612 66
START
840 0
756 66
682 66
634 66
602 66
602 66
START
750 0
702 66
656 66
630 66
626 66
626 66
START
836 0
736 66
702 66
664 66
644 66
626 66
622 66
618 66
618 66
START
826 0
766 66
694 66
658 66
630 66
618 66
614 66
606 66
604 66
604 66
START
862 0
754 66
698 66
658 66
636 66
628 66
628 66
START
824 0
722 66
660 66
638 66
620 66
612 66
608 66
602 66
602 66
START
814 0
734 66
686 66
644 66
618 66
594 66
586 66
586 66
START
870 0
750 66
682 66
646 66
622 66
614 66
614 66
START
774 0
726 66
682 66
646 66
620 66
604 66
604 66
START
820 0
726 66
696 66
672 66
650 66
626 66
626 66
START
820 0
748 66
708 66
684 66
660 66
650 66
642 66
624 66
616 66
614 66
614 66
START
822 0
728 66
690 66
658 66
650 66
646 66
634 66
634 66
START
878 0
790 66
706 66
660 66
650 66
632 66
618 66
608 66
600 66
600 66
START
798 0
694 66
672 66
652 66
642 66
634 66
622 66
622 66
START
830 0
726 66
674 66
646 66
618 66
612 66
592 66
592 66
START
868 0
762 66
698 66
674 66
644 66
634 66
626 66
620 66
616 66
616 66
START
782 0
722 66
664 66
636 66
624 66
612 66
612 66
START
846 0
726 66
654 66
640 66
630 66
630 66
START
846 0
730 66
692 66
640 66
632 66
628 66
628 66
START
792 0
720 66
678 66
646 66
630 66
614 66
602 66
592 66
592 66
START
818 0
734 66
682 66
662 66
626 66
614 66
600 66
600 66
START
862 0
730 66
666 66
642 66
634 66
618 66
618 66
START
748 0
676 66
650 66
624 66
624 66
START
802 0
702 66
650 66
626 66
618 66
618 66
START
846 0
758 66
672 66
652 66
652 66
START
824 0
720 66
688 66
658 66
638 66
638 66
START
854 0
738 66
688 66
640 66
624 66
606 66
590 66
586 66
586 66
START
830 0
742 66
702 66
664 66
648 66
636 66
634 66
634 66
START
736 0
664 66
628 66
602 66
602 66
START
756 0
680 66
668 66
658 66
630 66
626 66
616 66
602 66
590 66
590 66
START
846 0
742 66
694 66
646 66
626 66
604 66
600 66
600 66
START
824 0
750 66
710 66
686 66
646 66
634 66
626 66
618 66
602 66
602 66
START
800 0
716 66
636 66
616 66
616 66
START
834 0
738 66
694 66
674 66
662 66
654 66
640 66
634 66
620 66
618 66
618 66
START
742 0
690 66
654 66
634 66
618 66
614 66
614 66
START
808 0
706 66
634 66
608 66
596 66
596 66
START
850 0
754 66
678 66
646 66
626 66
602 66
602 66
START
820 0
742 66
702 66
664 66
632 66
624 66
620 66
600 66
600 66
START
796 0
706 66
658 66
638 66
614 66
610 66
610 66
START
768 0
680 66
642 66
628 66
622 66
616 66
616 66
START
774 0
688 66
652 66
620 66
600 66
600 66
START
828 0
684 66
648 66
628 66
612 66
600 66
600 66
START
782 0
720 66
674 66
650 66
650 66
START
744 0
668 66
656 66
632 66
616 66
606 66
606 66
START
782 0
722 66
670 66
656 66
646 66
642 66
630 66
626 66
624 66
624 66
START
852 0
740 66
688 66
654 66
626 66
606 66
598 66
598 66
START
762 0
714 66
674 66
648 66
636 66
630 66
624 66
624 66
START
916 0
790 66
722 66
686 66
666 66
658 66
652 66
644 66
642 66
636 66
628 66
602 66
598 66
590 66
590 66
START
804 0
716 66
666 66
642 66
614 66
612 66
610 66
590 66
586 66
586 66
START
918 0
786 66
696 66
644 66
624 66
614 66
606 66
602 66
598 66
590 66
590 66
START
838 0
726 66
682 66
670 66
658 66
638 66
628 66
622 66
606 66
590 66
586 66
586 66
START
920 0
774 66
684 66
638 66
622 66
622 66
START
814 0
734 66
682 66
620 66
608 66
600 66
586 66
586 66
START
788 0
712 66
668 66
648 66
642 66
630 66
630 66
START
840 0
760 66
692 66
652 66
634 66
634 66
START
818 0
718 66
650 66
640 66
622 66
622 66
