606 85032 12 11 9 3 6 4 7 8 5 10 2 1
626 68548 2 5 10 6 8 4 11 7 1 3 9 12
610 57174 2 1 3 8 10 11 9 7 5 6 12 4
614 79282 10 11 5 6 2 9 12 7 1 3 4 8
612 56936 1 4 8 5 12 11 7 6 3 9 2 10
616 79303 2 1 3 9 10 6 7 11 5 4 8 12
606 90730 4 8 12 1 5 11 9 3 6 7 10 2
586 90726 2 10 5 6 3 9 11 7 1 12 4 8
618 69845 12 9 3 2 1 11 10 5 4 8 7 6
610 129319 1 7 8 4 12 9 11 6 2 3 10 5
600 128949 4 12 6 5 8 11 7 10 1 9 3 2
624 110135 2 1 10 5 3 8 4 6 9 7 11 12
608 87564 10 2 9 3 6 11 12 7 5 1 4 8
644 98849 6 10 5 2 12 9 3 1 7 11 4 8
586 129641 5 6 4 12 10 7 11 9 2 1 8 3
578 74287 5 6 10 2 4 8 11 1 12 7 9 3
592 85238 2 10 6 5 3 7 9 12 1 8 11 4
598 111653 3 2 1 10 9 11 8 6 12 7 4 5
592 100139 2 10 6 5 3 7 11 9 1 8 4 12
640 101379 2 1 7 8 10 5 6 4 3 9 11 12
602 67782 5 6 7 12 2 10 11 9 1 4 8 3
604 67824 10 2 3 9 6 7 8 11 5 1 4 12
622 56593 12 1 2 5 9 4 11 6 3 8 7 10
604 79050 10 2 3 1 5 7 8 4 6 11 9 12
624 90331 9 12 11 7 3 8 4 6 2 1 10 5
598 67840 12 7 4 5 9 11 8 6 3 2 1 10
600 67938 4 12 6 5 8 11 7 10 1 9 3 2
602 90267 3 9 11 10 2 12 7 6 1 4 8 5
590 79051 3 1 8 4 9 11 7 12 2 10 6 5
626 90268 1 7 2 9 4 8 11 12 5 6 10 3
606 67759 1 2 10 5 8 7 4 6 3 9 11 12
586 67832 3 1 2 10 9 7 11 6 12 8 4 5
620 67928 1 5 6 10 4 8 11 2 12 7 9 3
608 56653 3 8 4 5 12 7 1 6 9 11 2 10
594 67843 6 11 7 9 5 4 8 12 10 2 1 3
608 45373 4 8 7 12 5 6 11 9 1 10 2 3
600 79002 4 12 6 5 8 7 11 10 1 3 9 2
592 78855 10 2 3 1 6 11 7 8 5 9 12 4
598 67814 5 6 7 10 4 11 8 1 12 9 3 2
592 90120 5 6 10 2 12 9 11 3 4 7 8 1
618 45324 9 11 2 10 12 4 1 5 3 8 7 6
602 135077 10 6 5 3 2 7 11 9 1 8 4 12
598 56458 12 9 3 2 4 11 8 1 5 6 7 10
586 79022 12 8 4 5 9 7 11 6 3 1 2 10
582 78941 12 9 7 3 4 11 8 1 5 6 10 2
602 113632 7 12 9 6 8 4 11 5 3 1 2 10
596 69927 3 12 9 2 8 7 11 10 1 4 6 5
590 84609 3 1 2 10 9 11 7 6 12 4 8 5
604 88565 5 6 11 9 10 4 7 12 2 1 8 3
598 110969 10 2 3 1 5 11 9 12 6 7 8 4
626 110386 3 9 10 2 7 11 6 5 8 12 4 1
618 99964 3 9 12 2 1 11 10 5 8 4 7 6
606 68768 5 6 7 4 10 1 11 8 2 3 9 12
620 69792 12 7 4 8 9 11 6 1 3 10 5 2
608 58312 5 6 4 12 10 1 8 7 2 3 11 9
606 69811 9 12 11 7 3 1 4 8 2 10 5 6
590 139032 5 8 4 12 6 7 11 9 10 2 1 3
606 69943 2 3 9 12 10 1 7 8 5 6 11 4
606 69737 12 9 11 3 7 4 8 1 6 5 10 2
610 58212 3 1 2 10 7 9 11 6 8 12 4 5
636 69779 9 12 1 3 11 4 8 2 6 5 7 10
624 127451 12 7 9 2 3 8 11 10 1 4 6 5
606 81540 4 11 6 5 8 7 1 10 12 9 3 2
606 92916 3 9 11 12 8 7 4 6 1 2 10 5
612 69965 1 4 8 3 2 11 7 9 10 5 6 12
594 104483 1 8 4 5 2 7 11 6 3 9 12 10
594 92816 3 9 12 10 2 7 11 6 1 8 4 5
608 81380 5 2 4 1 6 11 7 8 10 9 12 3
606 69829 5 6 11 4 10 1 7 8 2 3 9 12
602 81302 7 12 9 6 8 4 11 5 3 1 2 10
620 81276 3 1 8 4 12 2 7 5 9 11 10 6
606 69802 4 11 6 5 8 7 1 10 12 9 3 2
610 58545 1 7 12 9 4 8 11 3 5 6 10 2
586 93249 5 6 4 12 10 7 11 9 2 1 8 3
602 81759 3 9 11 10 2 12 7 6 1 8 4 5
598 93126 10 2 3 1 5 11 9 12 6 7 8 4
622 58455 7 8 12 3 11 4 9 1 6 5 10 2
592 93145 4 12 9 5 8 7 11 6 1 3 2 10
606 70058 3 11 9 12 1 8 4 7 2 10 5 6
606 116219 2 12 9 3 10 7 11 8 5 6 4 1
598 81359 12 9 3 2 4 11 8 1 5 6 7 10
586 104399 12 8 4 5 9 7 11 6 3 1 2 10
596 81471 2 10 5 6 9 12 11 7 3 1 4 8
628 116054 10 8 1 2 5 4 11 3 6 7 12 9
600 92843 5 6 4 12 10 7 8 11 2 1 3 9
618 91952 2 1 10 5 3 7 8 6 9 12 11 4
612 110793 5 6 10 2 4 11 12 9 1 8 7 3
592 119215 10 2 3 1 6 11 7 8 5 9 12 4
616 85065 2 12 7 10 3 9 11 6 1 4 8 5
636 98406 9 12 11 7 2 10 5 6 3 1 4 8
604 121585 10 2 3 1 5 7 8 4 6 11 9 12
598 87503 10 2 3 1 5 11 9 12 6 7 8 4
616 90778 11 7 6 10 12 8 4 5 9 3 1 2
622 92779 5 6 10 2 9 11 3 1 12 4 7 8
604 69707 9 11 6 5 12 7 4 10 3 8 1 2
604 92853 6 4 8 7 5 1 11 12 10 2 3 9
622 69616 8 7 4 12 1 3 11 9 2 10 6 5
582 81210 2 10 6 5 1 8 11 4 3 7 9 12
626 104358 2 1 4 5 10 11 8 6 3 9 12 7
608 92687 1 4 2 5 8 7 11 6 3 12 9 10
640 92932 12 7 4 8 11 6 5 1 9 10 2 3
596 104352 1 4 6 5 8 7 11 10 3 12 9 2
610 58142 10 2 1 3 6 11 9 7 5 4 12 8
610 92665 2 3 1 8 10 11 9 7 5 6 12 4
602 46643 1 4 8 5 2 12 7 6 3 9 11 10
578 77104 12 7 9 3 4 8 11 1 5 6 10 2
612 88412 3 9 1 12 2 11 8 4 10 6 7 5
644 56712 8 7 9 12 4 11 3 6 1 10 2 5
600 81391 1 12 9 3 8 7 11 2 4 5 6 10
604 81460 4 5 6 12 8 7 11 9 1 2 10 3
620 69742 10 11 9 3 5 4 12 2 6 8 7 1
604 58106 12 7 8 6 9 11 4 5 3 2 1 10
596 115848 3 12 9 2 8 7 11 10 1 4 6 5
590 92830 5 8 4 12 6 7 11 9 10 2 1 3
598 69723 3 1 2 10 12 4 8 5 9 11 7 6
598 69723 3 1 2 10 12 4 8 5 9 11 7 6
628 81295 9 11 7 8 12 6 5 4 3 10 2 1
594 115924 1 8 4 5 2 7 11 6 3 9 12 10
594 69579 9 7 11 6 12 8 4 5 3 1 2 10
590 81221 10 2 1 3 6 7 11 9 5 8 4 12
604 104387 1 3 2 10 4 8 7 5 12 9 11 6
602 69696 5 6 10 12 4 7 11 9 1 8 2 3
604 81293 9 11 6 5 12 7 4 10 3 8 1 2
620 69726 5 6 8 7 10 1 4 11 2 3 12 9
590 103391 5 6 10 2 12 7 11 9 4 8 1 3
616 76795 10 6 7 11 5 4 8 12 2 1 3 9
624 88091 5 6 11 10 4 12 9 2 8 7 1 3
614 98811 3 9 12 2 8 11 4 1 7 6 5 10
616 57267 3 1 8 4 9 12 11 5 2 10 7 6
598 115992 4 8 7 6 12 9 11 5 1 3 2 10
590 115817 5 8 4 12 6 7 11 9 10 2 1 3
610 92814 12 9 7 3 6 11 4 8 5 10 2 1
616 127475 8 7 12 4 3 9 11 6 1 2 10 5
586 99996 10 2 1 3 6 11 7 9 5 4 8 12
634 102634 6 10 11 2 7 8 9 3 5 4 12 1
606 69980 9 12 11 7 3 1 4 8 2 10 5 6
628 58199 1 2 10 3 4 5 6 12 8 7 11 9
610 104433 3 7 9 12 8 4 11 6 1 2 10 5
598 115789 1 3 2 10 12 9 11 5 4 8 7 6
612 92671 7 8 4 6 12 11 10 5 9 3 1 2
620 46726 12 7 8 4 9 11 6 1 3 10 5 2
594 104337 10 12 9 3 6 11 7 2 5 4 8 1
590 110887 5 10 2 3 6 7 11 9 4 8 1 12
586 98977 2 1 8 3 10 7 11 9 5 6 4 12
586 110606 5 4 8 12 6 11 7 9 10 2 1 3
610 110124 3 7 9 12 8 4 11 6 1 2 10 5
622 79557 3 11 9 12 10 6 7 8 2 5 1 4
600 104217 2 3 9 12 10 6 11 7 5 1 4 8
610 58233 2 12 10 5 3 9 11 6 1 7 8 4
600 127361 12 4 6 5 11 8 7 10 9 3 1 2
590 93102 5 10 2 3 6 7 11 9 4 8 1 12
594 78054 3 9 12 10 2 7 11 6 1 8 4 5
628 78810 12 6 5 4 11 7 10 8 9 3 2 1
582 111422 12 9 7 3 4 11 8 1 5 6 10 2
582 76144 2 10 6 5 1 8 11 4 3 7 9 12
598 98280 1 3 2 10 12 9 11 5 4 8 7 6
610 78916 9 3 1 2 12 11 4 10 7 8 6 5
630 69679 7 8 4 1 11 9 12 3 10 6 5 2
602 92810 1 3 2 10 4 8 11 5 12 7 9 6
612 58066 1 4 8 12 5 6 7 9 2 10 11 3
600 77877 5 6 10 2 4 8 1 3 12 7 11 9
596 109791 8 4 1 3 7 11 12 9 6 5 10 2
606 100129 5 6 7 8 10 1 11 4 2 3 9 12
606 109558 12 11 9 3 6 4 7 8 5 10 2 1
618 76126 6 7 8 4 5 10 11 1 2 3 9 12
608 87331 4 8 7 12 1 11 3 9 5 6 10 2
626 78901 1 4 12 8 5 6 11 7 2 10 9 3
624 44187 3 7 8 6 1 12 4 5 2 9 11 10
586 101949 5 4 8 12 6 11 7 9 10 2 1 3
600 58074 1 12 9 3 8 7 11 2 4 5 6 10
604 46537 10 1 2 3 5 4 11 9 6 8 7 12
604 81486 10 2 3 9 5 1 11 12 6 4 8 7
606 104318 5 6 7 8 10 1 11 4 2 3 9 12
620 92810 6 10 11 9 5 7 2 12 4 8 1 3
606 111224 2 10 7 6 3 9 11 5 1 12 8 4
586 98382 12 8 4 5 9 7 11 6 3 1 2 10
630 67335 6 10 5 2 7 9 12 3 8 11 4 1
636 69742 7 12 9 6 4 11 10 5 8 1 3 2
618 58184 2 5 6 10 1 8 7 11 3 4 12 9
616 92597 8 7 12 4 3 9 11 6 1 2 10 5
610 127226 5 10 2 1 6 11 4 8 12 9 7 3
608 81225 1 4 2 5 8 7 11 6 3 12 9 10
640 81083 9 10 2 3 11 6 5 1 12 7 4 8
588 81248 5 6 10 2 12 7 9 3 4 8 11 1
616 92876 8 7 12 4 3 9 11 6 1 2 10 5
622 46581 5 6 10 11 4 8 7 12 1 2 3 9
594 58149 10 2 1 3 5 4 8 12 6 11 7 9
626 69809 12 9 3 1 7 11 4 8 6 10 5 2
640 58158 1 4 5 12 8 7 6 11 3 2 10 9
614 69584 11 6 5 10 9 7 3 2 12 4 8 1
650 46624 4 11 5 10 12 9 6 2 1 8 7 3
614 81389 12 4 8 1 9 7 3 2 11 6 5 10
610 81311 5 6 8 4 10 11 7 1 2 9 3 12
598 92754 4 8 7 6 12 9 11 5 1 3 2 10
626 69714 12 9 3 1 7 11 4 8 6 10 5 2
600 104295 5 6 12 4 10 11 7 8 2 9 3 1
592 69786 10 2 3 1 6 11 7 8 5 9 12 4
592 69690 3 9 12 7 1 11 4 8 2 10 5 6
594 81378 3 1 2 10 12 8 4 5 9 7 11 6
610 92735 1 2 10 5 8 4 11 6 3 7 9 12
610 83594 4 8 7 1 6 11 9 12 5 10 2 3
590 124113 12 4 8 5 9 11 7 6 3 1 2 10
606 64594 12 9 11 3 7 4 8 1 6 5 10 2
620 88478 7 8 6 5 11 4 1 10 9 12 3 2
600 78858 2 10 6 5 3 1 8 4 9 11 7 12
604 53809 2 1 8 3 10 4 7 12 5 6 11 9
608 77322 10 11 6 5 2 1 8 4 3 9 7 12
620 67039 4 11 8 1 5 6 7 10 12 9 3 2
634 87517 10 5 6 7 12 9 11 4 2 3 1 8
646 76611 2 12 3 9 1 4 8 7 5 6 10 11
598 98585 3 1 2 10 12 4 8 5 9 11 7 6
598 87485 5 6 7 10 4 11 8 1 12 9 3 2
598 109876 1 3 2 10 12 9 11 5 4 8 7 6
630 106587 12 9 11 3 1 4 7 8 2 5 6 10
610 96254 5 10 2 1 6 11 4 8 12 9 7 3
632 54801 10 7 11 8 5 6 12 4 2 3 9 1
618 67602 5 10 1 2 6 8 7 3 4 11 12 9
600 45171 2 3 9 12 10 6 11 7 1 5 4 8
604 78933 10 2 3 9 5 1 11 12 6 4 8 7
620 67660 10 11 9 3 5 4 12 2 6 8 7 1
600 112511 8 4 1 5 7 11 6 10 12 9 3 2
598 45260 10 2 1 3 5 8 4 12 6 7 11 9
606 78915 7 11 12 9 8 4 1 3 6 5 10 2
600 67759 5 6 4 12 10 7 8 11 2 1 3 9
632 67668 1 5 12 4 2 3 9 8 10 6 11 7
632 56505 6 7 10 2 5 8 1 3 4 11 12 9
612 90266 3 9 2 10 12 11 7 6 4 8 1 5
612 67761 9 3 2 10 12 11 7 6 1 4 8 5
622 90098 5 6 10 2 9 11 3 1 12 4 7 8
606 101437 2 10 11 9 5 6 7 12 1 4 8 3
582 67787 3 7 9 12 1 8 11 4 2 10 6 5
622 67641 9 3 2 1 12 7 8 4 11 10 6 5
606 67828 8 7 6 5 4 11 1 10 12 9 3 2
590 79060 5 10 2 3 6 7 11 9 4 8 1 12
616 67771 5 8 4 1 6 11 9 3 10 7 12 2
630 45349 2 3 12 9 1 4 8 7 10 5 6 11
630 67763 1 12 2 5 4 9 11 6 8 7 3 10
602 90166 10 2 1 3 5 11 4 8 6 9 12 7
624 67742 3 12 7 8 2 9 11 4 10 5 6 1
592 67748 12 4 8 1 9 11 7 3 5 6 10 2
618 67774 10 6 5 2 11 7 8 1 9 12 4 3
622 56583 9 11 3 10 12 8 7 6 1 4 2 5
626 102373 3 10 6 5 12 11 8 4 9 2 7 1
600 110035 4 5 6 10 8 7 11 2 1 12 9 3
582 98503 12 9 7 3 4 11 8 1 5 6 10 2
600 76140 4 5 6 10 8 7 11 2 1 12 9 3
600 99639 10 6 5 4 2 11 7 8 3 9 12 1
600 132586 2 3 9 12 10 6 11 7 5 1 4 8
600 100511 1 9 3 2 8 7 11 10 4 12 6 5
586 119760 1 12 4 8 3 9 11 7 2 10 5 6
578 106913 12 7 9 3 4 8 11 1 5 6 10 2
626 97850 12 9 11 4 5 6 7 8 10 2 3 1
594 98309 5 4 8 1 6 11 7 2 10 12 9 3
600 98868 5 6 4 12 10 7 8 11 2 1 3 9
606 90819 3 8 4 1 12 7 6 5 9 11 10 2
612 81212 12 6 5 4 9 7 11 8 3 2 10 1
604 104256 9 3 2 10 12 11 1 5 7 8 4 6
596 69736 3 1 4 8 9 12 11 7 2 10 5 6
614 69743 10 11 5 6 2 9 12 7 3 1 4 8
600 58054 4 12 6 5 8 11 7 10 1 9 3 2
626 35142 3 9 12 4 1 11 8 5 2 10 7 6
644 58087 2 5 10 6 1 3 9 12 8 4 11 7
604 92853 10 2 3 9 5 1 11 12 6 4 8 7
596 115751 1 4 6 5 8 7 11 10 3 12 9 2
622 92995 9 12 5 2 11 7 6 10 3 8 4 1
628 81189 10 6 5 2 11 7 9 12 3 8 4 1
606 100418 1 2 10 5 8 7 4 6 3 9 11 12
610 110269 10 2 1 3 6 11 9 7 5 4 12 8
634 88152 1 8 5 2 4 7 6 10 12 9 11 3
614 91138 6 5 10 12 7 4 11 9 8 1 2 3
620 88936 10 6 5 4 2 11 8 1 3 9 7 12
606 99372 12 9 3 2 8 7 1 10 4 11 6 5
600 90705 10 11 6 5 2 9 7 12 1 3 8 4
624 58268 3 7 8 6 1 12 4 5 2 9 11 10
590 115941 2 10 6 5 9 11 7 12 3 1 8 4
604 81364 9 11 6 10 12 7 5 2 3 8 4 1
626 81202 1 3 12 9 4 8 7 11 5 2 6 10
614 69722 6 12 9 7 5 4 11 8 10 2 1 3
588 104146 1 11 8 4 3 9 7 12 2 10 6 5
586 100126 5 4 8 12 6 11 7 9 10 2 1 3
586 99380 8 4 12 1 7 11 9 3 6 5 10 2
612 87167 10 5 6 3 2 11 7 9 1 4 8 12
610 87371 12 9 7 3 6 11 4 8 5 10 2 1
610 75891 3 11 6 10 9 7 5 2 12 8 4 1
600 87110 2 3 9 1 10 11 7 8 5 6 12 4
610 109452 4 8 7 1 6 11 9 12 5 10 3 2
622 98646 9 11 3 10 12 8 7 6 1 4 2 5
610 79028 8 3 1 2 7 9 11 10 4 12 6 5
604 81420 10 2 3 1 5 7 8 4 6 11 9 12
588 81344 5 6 10 2 12 7 9 3 4 8 11 1
624 69618 10 12 6 5 2 9 11 4 1 3 7 8
618 69793 12 9 3 2 1 11 10 5 4 8 7 6
642 69864 3 11 8 4 2 9 7 12 10 6 5 1
600 69719 8 4 1 5 7 11 6 10 12 9 3 2
618 104422 5 10 1 2 6 8 7 3 4 11 12 9
608 69765 2 10 6 5 3 1 7 8 9 12 11 4
608 81313 1 4 2 5 8 7 11 6 3 12 9 10
594 104220 6 11 7 9 5 4 8 12 10 2 1 3
652 58139 4 5 1 12 8 10 2 3 7 6 11 9
590 92823 12 1 8 4 9 11 7 6 3 2 10 5
610 69782 6 10 7 2 5 4 8 1 12 11 9 3
590 115804 2 10 6 5 9 11 7 12 3 1 8 4
606 92745 9 11 10 2 12 7 6 5 3 8 4 1
628 81200 4 11 5 10 8 7 6 2 12 9 1 3
604 69780 6 8 7 12 5 4 11 9 10 1 2 3
594 92765 3 9 12 10 2 7 11 6 1 8 4 5
636 69617 1 8 4 7 10 5 6 12 2 3 11 9
622 58114 4 6 5 12 7 11 10 9 8 1 2 3
606 58305 2 3 9 12 10 1 11 8 5 6 7 4
616 46696 12 4 1 5 3 8 2 10 9 11 7 6
606 115879 2 3 9 12 10 1 11 4 5 6 7 8
618 81208 5 4 1 12 7 8 11 9 6 10 2 3
582 69805 2 10 6 5 1 8 11 4 3 7 9 12
620 58281 3 9 12 7 2 1 11 8 10 5 6 4
622 69900 2 10 6 5 1 3 9 12 8 7 11 4
640 58230 8 4 11 12 7 6 10 9 1 5 2 3
592 104340 5 9 12 4 6 11 7 8 10 2 3 1
636 69720 2 3 1 8 5 10 11 4 6 9 12 7
598 58138 12 7 4 5 9 11 8 6 3 2 1 10
614 90852 8 4 1 3 7 12 9 2 6 5 11 10
590 67870 12 1 8 4 9 11 7 6 3 2 10 5
616 67795 11 7 6 10 12 8 4 5 9 3 1 2
630 45331 5 3 9 12 6 7 11 4 10 2 8 1
600 90302 8 4 5 1 7 11 6 10 12 9 3 2
626 56447 8 7 11 9 4 6 10 12 1 5 2 3
604 101281 2 1 8 3 10 4 7 12 5 6 11 9
612 101365 8 4 7 6 1 12 11 5 3 9 2 10
616 90204 4 12 7 8 6 11 9 3 5 10 2 1
606 67718 2 12 9 3 10 7 11 8 5 6 4 1
604 101442 5 6 11 9 10 4 7 12 2 1 8 3
594 78942 3 9 12 10 2 7 11 6 1 8 4 5
598 67844 1 3 2 10 12 9 11 5 4 8 7 6
616 78927 11 7 6 10 12 8 4 5 9 3 1 2
618 67716 12 3 7 8 9 11 6 4 2 10 5 1
626 78902 1 2 10 5 4 3 11 6 8 7 9 12
592 90053 10 2 3 1 6 11 7 8 5 9 12 4
600 78994 6 7 8 12 5 11 4 9 10 2 1 3
604 79035 3 2 1 10 9 11 4 5 12 7 8 6
592 67687 1 8 7 4 3 11 9 12 2 10 6 5
610 90301 5 10 2 1 6 11 4 8 12 9 7 3
600 67797 4 5 6 10 8 7 11 2 1 12 9 3
616 56571 4 7 12 8 6 11 9 3 5 10 2 1
638 90191 11 5 6 10 12 4 8 7 9 3 1 2
636 56544 10 6 11 7 3 5 9 8 2 1 12 4
598 79092 4 8 7 6 12 9 11 5 1 3 2 10
618 56533 12 3 7 8 9 11 6 4 2 10 5 1
630 56464 1 3 9 2 8 12 11 7 4 5 6 10
606 67679 12 11 9 3 6 4 7 8 5 10 2 1
608 67619 10 9 12 3 6 11 7 8 5 2 4 1
630 67714 7 6 5 10 12 4 8 1 9 11 3 2
642 56492 3 1 9 12 2 4 11 5 10 8 7 6
582 67745 5 6 10 2 4 11 8 1 12 9 7 3
586 56512 2 1 8 3 10 7 11 9 5 6 4 12
632 56530 10 6 8 7 1 5 4 11 2 3 12 9
618 79044 1 5 4 12 10 6 8 7 2 3 11 9
590 89981 3 2 10 5 9 11 7 6 12 1 8 4
630 56485 8 7 3 10 4 11 6 5 1 12 9 2
624 67697 2 1 10 5 3 8 4 6 9 7 11 12
598 56430 5 4 7 12 6 8 11 9 10 1 2 3
610 67756 5 4 12 8 6 11 9 7 10 2 1 3
612 101206 2 10 6 5 9 12 11 4 3 7 8 1
618 67638 2 1 10 5 3 7 8 6 9 12 11 4
600 78796 12 9 3 2 7 11 6 10 8 4 1 5
594 100393 5 4 8 1 6 11 7 2 10 12 9 3
592 135068 5 6 10 2 9 11 7 3 12 4 8 1
616 78851 4 8 1 3 5 11 12 9 6 7 10 2
604 79011 10 2 3 9 6 7 8 11 5 1 4 12
650 78922 5 7 6 10 4 12 9 11 1 8 3 2
628 56398 12 3 1 2 7 8 4 10 9 11 6 5
612 78743 1 9 3 2 4 12 11 10 8 7 6 5
590 90074 12 4 8 5 9 11 7 6 3 1 2 10
622 67645 12 9 11 3 8 7 6 10 4 1 5 2
632 56459 9 12 11 4 3 6 7 8 2 5 10 1
602 90083 3 9 11 10 2 12 7 6 1 4 8 5
600 78798 3 1 8 4 2 9 7 12 10 11 6 5
618 90183 3 9 12 2 1 11 10 5 8 4 7 6
624 67675 7 11 12 9 6 4 8 3 5 10 1 2
592 79060 4 7 8 1 12 9 11 3 5 6 10 2
614 56568 3 7 8 1 9 11 4 2 12 10 6 5
626 101317 6 8 7 3 5 4 1 12 10 11 2 9
610 67610 8 1 3 2 7 9 11 10 4 12 6 5
600 90061 5 6 4 12 10 7 8 11 2 1 3 9
594 67706 1 8 4 5 2 7 11 6 3 9 12 10
600 101310 5 6 12 4 10 11 7 8 2 9 3 1
620 78806 12 9 3 2 5 6 11 10 4 7 8 1
604 101242 5 6 11 9 10 4 7 12 2 1 8 3
604 67744 3 8 4 1 12 7 5 2 9 11 6 10
600 101317 4 8 3 1 12 7 9 2 5 6 11 10
600 78831 12 9 3 2 7 11 6 10 8 4 1 5
612 90027 2 10 5 6 1 8 4 11 3 7 12 9
594 67773 1 8 4 5 2 7 11 6 3 9 12 10
594 78815 1 8 4 5 2 7 11 6 3 9 12 10
600 90168 2 3 9 12 10 6 11 7 5 1 4 8
592 56434 5 9 12 4 6 11 7 8 10 2 3 1
612 79040 5 6 7 8 10 11 12 4 2 9 3 1
586 146117 2 1 8 3 10 7 11 9 5 6 4 12
610 78858 1 7 8 4 3 9 11 6 2 12 10 5
618 67637 4 11 12 9 6 8 7 3 5 10 1 2
588 67687 5 6 10 2 12 7 9 3 4 8 11 1
598 101180 10 1 2 3 6 8 11 9 5 4 7 12
610 90253 2 1 3 9 10 4 11 12 5 6 8 7
604 78963 9 11 6 5 12 7 4 10 3 8 1 2
620 45401 2 10 5 1 3 11 6 4 9 12 7 8
612 78789 8 4 7 6 1 12 11 5 3 9 2 10
626 67895 3 1 9 12 2 5 11 4 10 6 7 8
608 56523 1 4 2 5 8 7 11 6 3 12 9 10
606 78888 2 3 9 12 10 1 7 8 5 6 11 4
590 123736 5 6 10 2 12 7 11 9 4 8 1 3
590 112398 5 6 10 2 12 7 11 9 4 8 1 3
628 67736 4 5 6 12 8 10 7 11 1 2 3 9
578 90056 3 9 7 12 1 11 8 4 2 10 6 5
620 45296 10 9 11 3 6 7 8 2 5 12 4 1
596 78996 6 5 10 2 7 11 12 9 8 4 1 3
600 90068 10 11 6 5 2 9 7 12 3 1 8 4
616 67687 12 8 4 5 11 7 6 10 9 3 1 2
610 78923 4 12 6 5 7 9 11 10 8 3 1 2
608 67743 10 2 9 3 6 11 12 7 5 1 4 8
612 78899 9 7 6 2 12 11 5 10 3 8 4 1
654 78750 1 7 2 10 8 11 6 5 4 12 9 3
590 134999 2 10 6 5 9 11 7 12 3 1 8 4
590 101285 3 1 2 10 9 11 7 6 12 4 8 5
634 56515 12 9 11 10 3 4 2 5 1 8 7 6
578 123839 3 9 7 12 1 11 8 4 2 10 6 5
622 78754 11 10 6 5 12 7 8 4 9 3 2 1
652 56492 4 8 7 12 1 5 6 11 2 3 10 9
602 78868 5 12 9 4 6 7 11 8 10 2 3 1
620 56440 12 9 11 4 3 7 8 6 1 2 10 5
614 78931 12 10 5 6 9 11 4 7 3 2 1 8
610 78820 5 6 8 7 10 4 11 12 2 1 3 9
628 67673 8 4 3 1 12 11 9 2 7 6 5 10
586 101206 2 1 8 3 10 7 11 9 5 6 4 12
592 67632 12 4 8 1 9 11 7 3 5 6 10 2
590 56487 5 6 10 2 12 7 11 9 4 8 1 3
618 78945 7 8 1 6 12 4 2 5 9 11 3 10
600 78843 10 2 3 1 5 9 12 4 6 11 7 8
596 90035 1 4 6 5 8 7 11 10 3 12 9 2
590 112469 3 1 2 10 9 11 7 6 12 4 8 5
594 78821 6 11 7 9 5 4 8 12 10 2 1 3
618 56495 1 8 7 4 2 10 6 5 3 11 9 12
608 67756 5 6 11 10 4 8 1 2 12 7 9 3
620 78894 12 9 3 2 4 11 10 5 8 7 1 6
590 89975 4 8 1 12 6 7 11 9 5 10 2 3
590 112472 5 6 10 2 12 7 11 9 4 8 1 3
590 131280 5 8 4 12 6 7 11 9 10 2 1 3
644 45395 10 8 11 3 5 4 12 1 6 7 9 2
594 101344 3 9 12 10 2 7 11 6 1 8 4 5
618 74971 4 8 7 6 1 11 10 5 12 9 3 2
620 85106 3 12 9 7 1 4 11 8 2 5 10 6
650 63419 8 4 11 1 7 6 9 12 10 5 3 2
620 107117 6 8 7 1 5 4 12 2 10 11 9 3
630 85167 9 12 11 6 2 10 7 5 3 1 8 4
600 99730 1 3 2 10 4 12 9 5 8 7 11 6
606 56393 2 10 7 6 3 9 11 5 1 12 8 4
610 56406 12 3 9 2 1 7 11 10 4 8 6 5
582 112373 12 9 7 3 4 11 8 1 5 6 10 2
634 79039 9 3 2 1 12 11 7 8 5 6 10 4
600 67684 10 11 6 5 2 9 7 12 3 1 8 4
640 67685 10 5 12 4 2 6 9 11 3 1 7 8
620 56500 3 9 12 7 2 1 11 8 10 5 6 4
604 90060 1 4 8 3 2 5 7 12 10 6 11 9
602 67605 12 7 9 6 4 8 11 5 1 3 2 10
590 78853 5 10 2 3 6 7 11 9 4 8 1 12
586 101137 8 4 12 1 7 11 9 3 6 5 10 2
616 78868 4 8 1 3 5 11 12 9 6 7 10 2
586 56386 12 4 6 5 9 11 7 10 3 8 1 2
642 67590 9 12 2 3 11 4 7 8 6 5 10 1
578 78739 12 7 9 3 4 8 11 1 5 6 10 2
614 78727 5 6 10 2 1 8 7 3 4 11 12 9
604 112515 5 6 11 9 10 4 7 12 2 1 8 3
592 78939 10 2 3 1 6 11 7 8 5 9 12 4
634 67706 10 3 11 8 2 1 9 7 5 6 12 4
586 56451 5 6 4 12 10 7 11 9 2 1 8 3
610 67605 10 2 1 3 6 11 9 7 5 4 12 8
652 56582 12 1 5 4 3 2 10 8 9 11 6 7
586 101245 3 1 2 10 9 7 11 6 12 8 4 5
606 89942 8 7 6 5 4 11 1 10 12 9 3 2
626 56403 6 10 2 5 7 11 8 4 12 9 3 1
614 56534 1 8 4 12 2 3 7 9 10 5 6 11
610 78854 7 8 6 5 12 11 4 10 9 3 1 2
600 67622 2 3 9 12 10 6 11 7 5 1 4 8
614 56521 10 2 1 3 5 4 11 8 6 12 9 7
602 90058 1 3 2 10 8 11 7 6 4 9 12 5
600 78769 2 3 9 1 10 7 11 8 5 6 12 4
622 67637 3 2 1 8 9 10 11 7 12 5 6 4
606 78740 1 12 8 4 3 9 11 5 2 10 7 6
590 103261 4 8 1 3 12 7 11 9 5 6 10 2
596 56526 1 4 6 5 8 7 11 10 3 12 9 2
598 56370 1 3 2 10 12 9 11 5 4 8 7 6
600 78773 12 4 6 5 11 8 7 10 9 3 1 2
594 78805 1 8 4 5 2 7 11 6 3 9 12 10
586 90106 12 4 6 5 9 11 7 10 3 8 1 2
620 89840 8 7 1 6 4 11 10 5 12 9 3 2
600 101216 2 3 9 12 10 6 11 7 1 5 4 8
622 34063 4 1 8 3 5 10 11 12 6 2 7 9
590 101487 3 1 2 10 9 11 7 6 12 4 8 5
608 85911 1 8 7 3 2 4 11 9 10 5 6 12
612 96043 7 8 4 1 12 11 6 5 9 3 10 2
612 106902 5 7 6 10 4 8 11 2 12 1 9 3
606 106937 2 3 9 12 10 1 11 4 5 6 7 8
604 99766 10 6 11 9 2 5 7 12 1 4 8 3
604 90152 1 3 2 10 4 8 7 5 12 9 11 6
612 78872 1 3 9 2 4 12 11 10 8 7 6 5
620 78807 12 7 9 3 4 8 11 2 1 5 6 10
590 112364 3 2 10 5 9 11 7 6 12 1 8 4
600 67535 2 3 9 1 10 7 11 8 5 6 12 4
608 78779 5 1 4 8 6 11 12 7 10 2 9 3
602 67714 1 8 4 3 2 7 11 9 10 6 5 12
578 90188 5 6 10 2 4 8 11 1 12 7 9 3
626 78844 3 7 8 10 9 11 4 6 12 2 1 5
612 56356 9 3 10 2 12 11 6 5 7 8 4 1
648 56411 12 6 5 4 3 10 2 1 9 11 7 8
592 112444 1 3 2 10 8 7 11 6 4 12 9 5
606 90083 6 5 10 2 8 4 1 3 7 11 12 9
630 79170 8 3 1 2 4 7 6 5 12 9 11 10
606 101414 6 7 10 2 5 11 9 3 4 8 12 1
600 90013 3 9 12 1 2 11 7 8 10 6 5 4
606 101302 12 9 3 2 4 11 1 10 8 7 6 5
612 53255 3 8 4 1 12 11 5 10 9 7 6 2
608 128609 5 2 4 1 6 11 7 8 10 9 12 3
620 63446 4 8 1 3 5 6 11 10 12 7 9 2
594 74530 5 4 8 1 6 11 7 2 10 12 9 3
582 95947 2 10 6 5 1 8 11 4 3 7 9 12
610 106981 9 12 7 1 3 11 8 4 2 10 6 5
612 110903 8 7 6 5 4 12 11 10 1 9 3 2
612 56555 10 6 7 5 2 11 8 4 3 9 1 12
614 90127 10 11 5 6 2 9 12 7 1 3 4 8
600 89999 4 8 1 3 12 7 9 2 5 6 11 10
608 78909 5 4 8 3 6 1 7 12 10 2 11 9
616 67634 9 3 1 2 12 8 4 5 11 7 6 10
618 78815 10 5 4 12 2 6 11 9 3 1 8 7
634 67661 3 1 4 8 10 11 5 6 2 9 12 7
592 123660 1 8 4 12 3 7 11 9 2 10 6 5
622 90115 12 4 7 8 9 11 3 1 5 6 10 2
582 78849 2 10 6 5 1 8 11 4 3 7 9 12
600 89893 2 3 9 12 10 6 11 7 1 5 4 8
586 121079 5 6 4 12 10 7 11 9 2 1 8 3
596 69737 1 4 6 5 8 7 11 10 3 12 9 2
600 92873 4 12 6 5 8 7 11 10 1 3 9 2
620 81287 4 11 9 12 6 8 7 3 5 10 2 1
594 85864 5 4 8 1 6 11 7 2 10 12 9 3
620 127455 10 5 6 4 2 1 11 8 3 9 12 7
598 89254 3 1 2 10 12 4 8 5 9 11 7 6
628 89148 3 9 12 7 10 6 11 8 2 5 1 4
606 121158 6 5 10 2 8 4 1 3 7 11 12 9
606 108216 1 4 8 3 5 6 7 12 2 10 11 9
614 85229 10 5 6 7 1 4 11 8 2 12 9 3
622 74692 9 7 2 6 12 11 10 5 3 8 1 4
596 110780 1 4 6 5 8 7 11 10 3 12 9 2
618 78878 10 6 11 5 2 7 9 12 1 8 3 4
610 90193 9 12 7 1 3 11 8 4 2 10 6 5
600 112397 5 1 4 8 10 6 11 7 2 3 9 12
618 101344 7 8 1 3 9 11 6 2 12 4 5 10
612 67836 3 7 10 2 9 11 6 5 12 8 4 1
602 78897 10 11 9 3 6 7 12 2 5 8 4 1
606 90190 2 10 6 5 9 12 11 4 3 1 7 8
590 90222 3 2 10 5 9 11 7 6 12 1 8 4
602 90036 3 8 4 1 9 11 10 2 12 7 6 5
586 78852 12 4 6 5 9 11 7 10 3 8 1 2
602 56581 5 6 7 12 2 10 11 9 1 4 8 3
634 56641 2 3 1 8 12 9 11 4 10 5 6 7
590 115042 10 2 1 3 6 7 11 9 5 8 4 12
640 56582 3 2 10 9 1 5 6 11 8 4 7 12
594 90027 3 1 2 10 9 8 11 6 12 4 7 5
600 78966 5 6 12 4 10 7 11 8 2 3 9 1
592 101136 1 8 4 12 3 7 11 9 2 10 6 5
600 90380 4 12 6 5 8 7 11 10 1 9 3 2
622 92792 3 2 1 8 9 10 11 7 12 5 6 4
626 111302 9 12 3 1 11 7 8 4 10 6 2 5
586 88121 5 4 8 12 6 11 7 9 10 2 1 3
604 68281 1 3 2 10 4 8 7 5 12 9 11 6
614 92842 10 11 5 6 2 9 12 7 1 3 4 8
628 69793 2 1 8 10 3 11 4 5 9 12 7 6
604 92752 6 11 9 12 5 7 8 4 10 2 3 1
604 81078 3 10 2 1 9 11 7 8 12 6 5 4
594 92707 3 9 12 10 2 7 11 6 1 8 4 5
618 46582 1 5 10 2 4 6 11 9 8 7 3 12
618 81126 8 4 7 6 1 11 10 5 3 9 12 2
604 81154 9 11 6 10 12 7 5 2 3 8 4 1
606 104178 8 7 6 5 4 11 1 10 12 9 3 2
586 115669 10 2 1 3 6 11 7 9 5 4 8 12
596 92624 1 4 6 5 8 7 11 10 3 12 9 2
600 58113 4 12 6 5 8 11 7 10 1 9 3 2
596 46611 1 4 6 5 8 7 11 10 3 12 9 2
600 58126 2 9 3 1 10 11 7 8 5 6 12 4
620 92469 10 11 9 3 5 4 12 2 6 8 7 1
598 92607 6 7 8 4 5 11 9 12 10 2 3 1
642 46607 12 11 4 8 9 6 5 7 3 10 2 1
618 69691 2 3 11 9 10 6 8 7 1 5 4 12
600 92822 2 1 3 9 10 7 8 11 5 6 4 12
616 58026 8 12 7 4 3 9 11 6 1 2 10 5
624 81346 8 7 12 3 1 11 9 2 4 6 5 10
612 92823 6 5 10 2 12 9 11 3 7 4 8 1
608 81136 9 11 3 2 7 8 1 10 12 4 6 5
630 69741 2 3 12 9 1 8 4 7 10 5 6 11
610 58095 5 6 10 2 4 8 11 3 1 7 12 9
592 69623 2 10 6 5 3 7 11 9 1 8 4 12
622 69583 8 4 1 12 7 6 11 9 10 5 2 3
614 81062 1 8 4 12 2 3 7 9 10 5 6 11
626 92700 2 5 10 6 8 4 11 7 1 3 9 12
590 104217 12 1 8 4 9 11 7 6 3 2 10 5
626 69715 3 7 8 10 9 11 4 6 12 2 1 5
606 92798 2 3 9 12 10 1 11 4 5 6 7 8
586 92921 3 1 2 10 9 7 11 6 12 8 4 5
600 81079 2 1 3 9 10 7 8 11 5 6 4 12
614 81167 6 12 9 7 5 4 11 8 10 2 1 3
608 69699 5 2 4 1 6 11 7 8 10 9 12 3
628 69564 8 4 3 1 12 11 9 2 7 6 5 10
594 81195 10 12 9 3 6 11 7 2 5 4 8 1
622 69732 5 2 4 1 6 7 8 12 10 3 11 9
578 69609 12 7 9 3 4 8 11 1 5 6 10 2
614 58121 10 2 1 3 6 9 12 7 5 11 4 8
578 69612 3 9 7 12 1 11 8 4 2 10 6 5
596 69682 3 12 9 2 8 7 11 10 1 4 6 5
586 58252 2 1 8 3 10 7 11 9 5 6 4 12
602 92632 5 8 4 1 6 7 12 2 10 11 9 3
608 104177 12 4 6 5 7 8 1 10 9 11 3 2
598 69681 6 7 8 4 5 11 9 12 10 2 3 1
582 92662 5 6 10 2 4 11 8 1 12 9 7 3
634 46705 7 6 5 10 4 11 9 12 8 1 3 2
596 46643 3 1 4 8 9 12 11 7 2 10 5 6
608 69571 10 2 9 3 6 11 12 7 5 1 4 8
610 127197 8 1 3 2 7 9 11 10 4 12 6 5
608 58056 12 7 9 3 4 8 1 2 5 6 11 10
614 69670 10 2 3 1 6 9 12 7 5 11 4 8
606 69582 5 6 4 1 10 7 11 8 2 12 9 3
598 104120 1 3 2 10 12 9 11 5 4 8 7 6
620 46556 4 11 8 1 5 6 7 10 12 9 3 2
592 58178 2 10 6 5 3 7 11 9 1 8 4 12
600 46581 6 11 7 8 5 9 12 4 10 2 3 1
606 92590 3 8 4 1 12 7 6 5 9 11 10 2
600 104182 1 12 9 3 8 7 11 2 4 5 6 10
642 81168 7 11 9 12 8 1 2 3 4 6 5 10
602 92895 10 11 9 3 6 7 12 2 5 4 8 1
612 100065 8 4 7 6 1 12 11 5 3 9 2 10
620 87180 12 9 3 2 8 7 6 1 4 11 5 10
618 78935 6 7 8 1 5 11 4 2 10 9 12 3
592 81162 4 11 8 1 12 9 7 3 5 6 10 2
602 46629 10 6 5 12 2 7 11 9 1 8 4 3
594 104293 10 2 1 3 5 4 8 12 6 11 7 9
628 58051 1 5 10 2 8 7 6 3 4 12 11 9
606 92754 9 12 11 7 3 1 4 8 2 10 5 6
626 58299 3 9 1 2 8 12 4 5 7 11 6 10
582 118302 5 6 10 2 4 11 8 1 12 9 7 3
620 78270 12 9 10 3 7 11 6 2 8 4 5 1
594 87246 10 2 1 3 5 4 8 12 6 11 7 9
592 98996 4 7 8 1 12 9 11 3 5 6 10 2
604 67984 2 10 6 5 8 7 11 4 1 3 9 12
598 104136 10 7 6 5 1 8 11 4 2 3 9 12
592 104178 5 6 10 2 12 9 11 3 4 7 8 1
586 89761 2 1 8 3 10 7 11 9 5 6 4 12
582 98278 3 7 9 12 1 8 11 4 2 10 6 5
600 68935 2 10 6 5 1 9 11 4 3 12 7 8
598 58063 5 4 7 12 6 8 11 9 10 1 2 3
590 104112 10 2 1 3 6 7 11 9 5 8 4 12
592 127201 4 12 9 5 8 7 11 6 1 3 2 10
604 99407 12 6 5 4 9 11 7 8 3 10 2 1
592 109886 4 11 8 1 12 9 7 3 5 6 10 2
604 109746 3 10 2 1 9 11 7 8 12 6 5 4
600 76220 5 6 11 10 12 7 9 2 4 8 3 1
622 98586 9 11 7 6 12 1 8 4 3 2 10 5
638 68217 1 2 3 9 5 6 10 11 4 8 7 12
624 69631 4 8 1 3 12 11 9 2 5 7 6 10
606 81137 12 9 3 2 8 7 1 10 4 11 6 5
606 92702 8 7 6 5 4 11 1 10 12 9 3 2
628 104136 12 6 5 4 11 7 10 8 9 3 2 1
586 69554 3 8 1 2 9 11 7 10 12 4 6 5
614 69719 7 9 12 6 8 11 4 5 3 1 2 10
610 58096 1 2 10 5 8 4 11 6 3 7 9 12
600 58209 2 3 9 1 10 7 11 8 5 6 12 4
592 92774 10 2 3 1 6 11 7 8 5 9 12 4
600 81322 9 11 7 12 3 1 8 4 2 10 6 5
596 92593 1 4 6 5 8 7 11 10 3 12 9 2
600 69705 8 4 5 1 7 11 6 10 12 9 3 2
600 81179 10 11 6 5 2 9 7 12 3 1 8 4
600 58145 9 11 7 12 3 1 8 4 2 10 6 5
586 92748 2 1 8 3 10 7 11 9 5 6 4 12
602 81227 4 9 12 5 8 11 7 6 1 3 2 10
600 81104 10 2 1 3 5 11 4 9 6 7 8 12
620 104512 3 9 7 12 2 11 8 1 10 6 5 4
632 81162 9 8 11 7 12 4 5 6 3 1 2 10
618 92590 4 11 12 9 6 8 7 3 5 10 1 2
586 99425 5 6 4 12 10 7 11 9 2 1 8 3
602 78775 12 7 6 5 9 11 10 2 3 8 4 1
590 67615 5 6 10 2 12 7 11 9 4 8 1 3
602 89996 6 9 12 7 5 11 4 8 10 2 1 3
586 67635 6 5 10 2 7 11 9 3 8 4 12 1
620 101299 4 5 6 10 1 8 11 2 12 7 9 3
624 45221 4 11 12 9 8 6 7 3 1 5 10 2
600 90097 4 12 6 5 8 11 7 10 1 9 3 2
596 101272 2 9 12 3 10 11 7 8 5 6 4 1
592 90015 5 9 12 4 6 11 7 8 10 2 3 1
594 78774 3 9 12 10 2 7 11 6 1 8 4 5
602 67700 3 2 8 1 9 11 7 4 12 10 6 5
606 67743 5 6 7 10 4 11 8 2 12 9 1 3
586 78725 6 5 10 2 7 11 9 3 8 4 12 1
602 101048 3 8 4 1 9 11 10 2 12 7 6 5
610 45260 8 3 1 2 7 9 11 10 4 12 6 5
636 101197 8 4 1 3 6 5 10 2 7 11 12 9
592 112389 12 4 8 1 9 11 7 3 5 6 10 2
614 90024 5 6 10 2 1 8 7 3 4 11 12 9
586 90150 5 4 8 12 6 11 7 9 10 2 1 3
622 67704 4 11 7 8 12 9 3 1 5 6 10 2
596 101231 1 4 6 5 8 7 11 10 3 12 9 2
614 64119 3 1 2 10 7 11 9 6 8 4 12 5
616 96045 5 10 2 1 6 11 9 3 4 12 7 8
586 117541 12 4 6 5 9 11 7 10 3 8 1 2
638 77359 2 1 5 4 3 10 6 8 9 12 11 7
638 67638 7 11 6 10 4 12 9 5 8 1 3 2
590 67730 12 1 8 4 9 11 7 6 3 2 10 5
602 67694 3 8 4 1 9 11 10 2 12 7 6 5
604 78915 4 5 6 12 8 7 11 9 1 2 10 3
610 78791 1 7 12 9 4 8 11 3 5 6 10 2
604 78871 3 8 4 1 12 7 5 2 9 11 6 10
636 56352 3 9 11 12 2 10 6 7 1 5 4 8
612 67672 3 9 2 10 12 11 7 6 4 8 1 5
608 90065 9 11 3 2 7 8 1 10 12 4 6 5
590 90056 5 8 4 12 6 7 11 9 10 2 1 3
612 67703 2 9 3 1 10 11 12 4 5 6 7 8
612 101354 4 8 1 5 12 11 7 6 3 9 2 10
594 78949 12 4 7 5 9 8 11 6 3 1 2 10
590 78926 12 1 8 4 9 11 7 6 3 2 10 5
586 99754 6 5 10 2 7 11 9 3 8 4 12 1
606 67675 6 5 10 2 8 4 1 3 7 11 12 9
626 78823 5 10 2 1 6 4 8 3 7 11 9 12
608 89994 12 6 5 10 9 11 4 2 3 7 8 1
630 56484 2 5 10 6 3 12 9 7 1 4 11 8
600 123750 8 4 1 5 7 11 6 10 12 9 3 2
612 79145 10 2 9 3 5 11 12 1 6 7 4 8
592 67596 12 4 8 1 9 11 7 3 5 6 10 2
606 90257 1 2 10 5 8 7 4 6 3 9 11 12
596 67882 6 5 10 2 7 11 12 9 8 4 1 3
606 90077 12 11 9 3 6 4 7 8 5 10 2 1
590 134849 4 8 1 3 12 7 11 9 5 6 10 2
590 78859 3 2 10 5 9 11 7 6 12 1 8 4
634 90156 10 5 6 7 12 9 11 4 2 3 1 8
592 67537 4 7 8 1 12 9 11 3 5 6 10 2
634 79044 4 10 6 5 8 7 11 12 1 2 3 9
590 78889 3 2 10 5 9 11 7 6 12 1 8 4
592 56549 12 4 8 1 9 11 7 3 5 6 10 2
602 112310 1 8 2 3 4 7 11 9 5 6 10 12
624 101262 2 5 6 10 1 4 8 7 3 12 9 11
606 90087 5 10 2 1 6 4 7 8 12 11 9 3
600 78786 5 6 4 12 10 7 8 11 2 1 3 9
620 101260 9 11 3 2 12 4 1 10 7 8 6 5
590 89941 4 8 1 12 6 7 11 9 5 10 2 3
626 45272 8 7 6 10 4 11 5 2 12 9 1 3
606 75772 8 7 6 5 4 11 1 10 12 9 3 2
608 118477 5 1 4 8 6 11 12 7 10 2 9 3
604 99613 7 8 4 6 12 11 1 5 9 3 2 10
600 67691 1 5 4 8 10 6 11 7 2 3 9 12
640 78964 8 4 7 12 1 5 6 11 3 2 10 9
586 67530 6 5 10 2 7 11 9 3 8 4 12 1
606 90012 3 9 11 12 8 7 4 6 1 2 10 5
622 56399 3 9 12 7 2 1 4 8 10 11 5 6
620 67560 9 12 7 6 3 11 8 10 2 1 4 5
612 67805 12 6 5 4 9 7 11 8 3 2 10 1
600 90004 5 6 11 10 12 7 9 2 4 8 1 3
618 67701 2 5 10 6 1 8 11 7 3 4 9 12
592 101361 4 12 9 5 8 7 11 6 1 3 2 10
604 79103 7 8 4 6 12 11 1 5 9 3 2 10
586 70008 2 10 5 6 3 9 11 7 1 12 4 8
596 101263 2 9 12 3 10 11 7 8 5 6 4 1
578 90168 3 9 7 12 1 11 8 4 2 10 6 5
600 90113 10 6 5 4 2 11 7 8 3 9 12 1
600 78906 1 9 3 2 8 7 11 10 4 12 6 5
594 90145 1 8 4 5 2 7 11 6 3 9 12 10
596 78888 5 6 4 1 10 11 7 8 2 9 12 3
620 56504 8 4 5 1 7 11 6 2 12 9 10 3
598 56530 6 7 8 4 5 11 9 12 10 2 3 1
626 67637 2 10 9 3 5 6 11 7 1 4 12 8
608 45280 12 6 5 10 9 11 4 2 3 7 8 1
598 112500 1 3 2 10 12 9 11 5 4 8 7 6
618 78790 10 6 5 2 11 7 8 1 9 12 4 3
606 78894 5 6 10 2 4 11 12 9 8 7 1 3
582 56462 2 10 6 5 1 8 11 4 3 7 9 12
610 78893 4 12 6 5 7 9 11 10 8 1 3 2
608 90153 5 2 4 1 6 11 7 8 10 9 12 3
590 101219 5 10 2 3 6 7 11 9 4 8 1 12
594 90086 3 9 12 10 2 7 11 6 1 8 4 5
596 89970 2 10 5 6 9 12 11 7 3 1 4 8
638 67694 2 1 5 4 3 10 6 8 9 12 11 7
612 101122 10 2 9 3 5 11 12 1 6 7 4 8
602 67865 3 4 8 1 9 11 7 2 12 5 6 10
606 101238 12 9 3 2 8 11 1 10 4 7 6 5
658 67613 8 7 4 12 1 10 6 11 3 2 5 9
604 90084 9 11 6 5 12 7 4 10 3 8 1 2
622 45297 11 10 6 5 12 7 8 4 9 3 2 1
612 67655 1 3 9 2 4 12 11 10 8 7 6 5
604 45205 5 1 4 12 6 2 8 7 10 3 11 9
612 56453 12 8 4 1 9 11 6 5 3 7 10 2
624 78806 4 7 8 1 6 10 11 2 5 12 9 3
610 67782 2 10 6 5 3 11 8 4 9 12 7 1
616 89934 11 7 6 10 12 8 4 5 9 3 1 2
616 78905 12 4 1 5 3 8 2 10 9 11 7 6
586 101288 12 4 6 5 9 11 7 10 3 8 1 2
610 89933 4 12 6 5 7 9 11 10 8 1 3 2
630 56444 8 4 7 12 3 11 9 6 1 2 10 5
602 78814 1 8 2 3 4 7 11 9 5 6 10 12
628 78803 2 3 9 7 10 6 11 8 1 5 12 4
622 78806 8 7 4 12 1 3 11 9 2 10 6 5
600 78824 1 9 3 2 8 11 7 10 4 12 6 5
592 114190 10 2 3 1 6 11 7 8 5 9 12 4
614 90070 3 1 4 8 2 9 12 7 10 11 5 6
578 101343 5 6 10 2 4 8 11 1 12 7 9 3
590 112624 2 10 6 5 9 11 7 12 3 1 8 4
612 67598 3 7 12 9 1 8 4 11 2 10 5 6
618 89943 12 9 3 2 1 11 10 5 4 8 7 6
652 67614 4 6 5 12 11 10 2 9 8 7 1 3
586 90070 5 6 4 12 10 7 11 9 2 1 8 3
586 78861 3 8 1 2 9 11 7 10 12 4 6 5
614 67757 10 2 3 1 6 9 12 7 5 11 4 8
594 101192 10 12 9 3 6 11 7 2 5 4 8 1
588 67680 4 8 11 1 12 7 9 3 5 6 10 2
590 123589 4 8 1 3 12 7 11 9 5 6 10 2
628 45342 1 4 8 3 12 9 7 11 2 5 6 10
588 45292 4 8 11 1 12 7 9 3 5 6 10 2
606 90024 3 9 12 2 8 11 7 10 1 4 6 5
590 45273 3 1 8 4 9 11 7 12 2 10 6 5
594 123546 5 4 8 1 6 11 7 2 10 12 9 3
634 64171 10 6 2 5 8 7 1 4 3 11 9 12
610 77549 2 3 1 8 10 11 9 7 5 6 12 4
610 78867 12 3 9 2 1 7 11 10 4 8 6 5
618 78888 2 10 5 1 9 11 6 4 12 3 7 8
606 78838 7 11 12 9 8 4 1 3 6 5 10 2
624 56475 4 8 3 1 5 7 12 2 6 11 9 10
626 34021 5 6 12 4 10 3 9 11 2 1 7 8
622 101023 5 6 10 2 9 11 3 1 12 4 7 8
592 89989 2 10 6 5 3 11 9 12 1 8 7 4
626 67652 6 10 5 2 7 11 4 8 12 9 3 1
610 101249 2 3 1 8 10 11 9 7 5 6 12 4
600 118462 5 1 4 8 10 6 11 7 2 3 9 12
586 88749 6 5 10 2 7 11 9 3 8 4 12 1
594 101165 5 4 8 1 6 11 7 2 10 12 9 3
654 75166 4 5 6 12 1 2 10 11 8 3 7 9
626 77571 4 1 2 5 8 7 11 6 12 9 3 10
596 78802 2 10 5 6 9 12 11 7 3 1 4 8
626 67683 3 7 8 6 12 1 4 5 9 2 11 10
594 78868 3 9 12 10 2 7 11 6 1 8 4 5
590 78893 5 8 4 12 6 7 11 9 10 2 1 3
612 56517 1 4 8 3 2 11 7 9 10 5 6 12
600 123602 6 11 7 8 5 9 12 4 10 2 3 1
604 69052 4 5 6 12 8 7 11 9 1 2 10 3
592 89920 4 11 8 1 12 9 7 3 5 6 10 2
614 101353 6 5 11 10 7 12 9 2 8 4 3 1
602 90091 5 6 10 2 8 7 11 1 4 12 9 3
614 56534 3 7 8 1 9 11 4 2 12 10 6 5
612 78842 7 8 4 6 12 11 10 5 9 3 1 2
618 90031 10 6 5 2 11 7 8 1 9 12 4 3
630 78840 9 11 7 6 12 3 8 10 2 1 4 5
602 90090 3 9 11 10 2 12 7 6 1 8 4 5
626 67708 10 6 11 7 5 4 12 8 2 1 9 3
590 90051 12 4 8 5 9 11 7 6 3 1 2 10
638 89926 6 12 9 7 5 10 11 4 2 1 3 8
592 67545 1 3 2 10 8 7 11 6 4 12 9 5
608 90117 10 9 12 3 6 11 7 8 5 2 4 1
586 78874 1 12 4 8 3 9 11 7 2 10 5 6
592 79064 6 5 10 2 8 4 11 1 7 12 9 3
608 88208 1 8 4 5 10 7 11 6 2 3 9 12
620 87424 7 9 12 3 8 11 4 1 6 10 5 2
610 132229 5 6 8 4 10 11 7 1 2 3 9 12
604 87590 2 10 6 5 8 7 11 4 1 3 9 12
602 98544 3 8 4 1 9 11 10 2 12 7 6 5
640 126055 2 12 9 1 5 7 4 8 10 6 11 3
626 99762 7 12 9 3 6 8 11 10 5 4 1 2
630 63285 7 6 5 10 12 4 8 1 9 11 3 2
600 96381 2 3 9 12 10 6 11 7 1 5 4 8
616 85263 1 2 10 5 3 9 11 6 8 7 12 4
600 88195 9 3 1 2 11 8 7 10 12 4 6 5
622 86543 5 6 7 12 4 8 11 9 1 10 2 3
606 77199 7 11 12 9 8 4 1 3 6 5 10 2
636 78914 12 11 9 3 7 6 10 2 8 4 5 1
626 56469 4 12 1 5 7 9 2 6 8 11 3 10
592 112328 5 6 10 2 9 11 7 3 12 4 8 1
608 78764 8 4 1 5 7 12 11 6 3 9 2 10
608 90246 10 5 6 12 2 4 11 9 1 8 7 3
594 78799 1 8 4 5 2 7 11 6 3 9 12 10
578 101297 3 9 7 12 1 11 8 4 2 10 6 5
604 78858 9 3 2 10 12 11 1 5 7 8 4 6
600 101198 4 12 6 5 8 7 11 10 1 3 9 2
588 77758 2 10 6 5 3 9 7 12 1 11 8 4
606 107020 3 9 12 2 8 11 7 10 1 4 6 5
592 117939 10 2 3 1 6 11 7 8 5 9 12 4
636 74650 3 12 5 10 7 9 6 2 8 11 4 1
602 106836 12 5 6 10 9 11 7 2 3 4 8 1
626 85470 8 11 3 10 7 9 2 6 4 12 1 5
616 74592 9 11 7 6 3 8 2 10 12 4 1 5
612 95975 3 6 5 10 9 7 11 2 12 8 4 1
578 87972 3 9 7 12 1 11 8 4 2 10 6 5
634 92585 9 12 3 1 11 4 7 8 6 5 10 2
594 104175 1 8 4 5 2 7 11 6 3 9 12 10
604 69686 10 2 3 9 5 1 11 12 6 4 8 7
592 81058 6 5 10 2 8 4 11 1 7 12 9 3
586 81142 12 4 6 5 9 11 7 10 3 8 1 2
600 81169 8 7 11 6 4 12 9 5 1 3 2 10
600 69757 5 6 10 2 4 8 1 3 12 7 11 9
600 69724 5 6 12 4 10 7 11 8 2 3 9 1
586 81181 5 4 8 12 6 11 7 9 10 2 1 3
594 81314 3 9 12 10 2 7 11 6 1 8 4 5
636 69670 7 4 8 1 12 9 3 2 6 11 5 10
604 69738 6 11 9 12 5 7 8 4 10 2 3 1
598 138729 10 2 3 1 5 11 9 12 6 7 8 4
582 81143 2 10 6 5 1 8 11 4 3 7 9 12
630 46544 12 9 3 2 4 11 6 5 1 8 7 10
612 81140 3 9 2 10 1 12 11 5 8 4 7 6
612 104519 3 9 2 10 1 12 11 5 8 4 7 6
600 92512 10 2 3 1 5 9 12 4 6 11 7 8
602 92753 1 3 2 10 8 11 7 6 4 9 12 5
624 69601 3 1 8 4 2 9 11 12 10 6 7 5
590 81229 3 1 8 4 9 11 7 12 2 10 6 5
612 92673 1 4 8 7 5 6 11 12 2 10 3 9
590 69586 5 10 2 3 6 7 11 9 4 8 1 12
600 92731 1 3 2 10 4 12 9 5 8 7 11 6
610 81243 12 9 3 2 1 7 11 10 4 8 6 5
598 58103 3 2 1 10 9 11 8 6 12 7 4 5
602 81139 1 3 2 10 8 4 11 5 7 12 9 6
594 92600 1 8 4 5 2 7 11 6 3 9 12 10
608 104257 8 4 1 5 7 12 11 6 3 9 2 10
602 83466 1 8 4 12 2 7 11 9 10 6 5 3
586 122539 10 2 1 3 6 11 7 9 5 4 8 12
600 98312 8 7 11 6 4 12 9 5 1 3 2 10
648 99365 7 11 9 12 4 6 5 10 8 1 3 2
610 111343 1 7 8 4 3 9 11 6 2 12 10 5
636 98422 10 5 2 1 11 6 4 8 9 12 7 3
612 66071 3 6 5 10 9 7 11 2 12 8 4 1
626 87710 2 10 9 3 5 6 11 7 1 4 12 8
606 68529 5 6 7 8 10 1 11 4 2 3 9 12
602 127389 1 8 4 12 2 7 11 9 10 6 5 3
602 69476 1 3 2 10 8 11 7 6 4 9 12 5
600 69545 8 7 11 6 4 12 9 5 1 3 2 10
582 92752 3 7 9 12 1 8 11 4 2 10 6 5
656 69624 3 2 10 9 1 6 5 11 8 7 4 12
618 58023 12 9 3 2 4 11 5 1 8 7 6 10
644 69648 8 11 4 1 3 9 10 2 7 12 6 5
624 92868 2 5 6 10 1 4 8 7 3 12 9 11
598 92671 10 1 2 3 6 8 11 9 5 4 7 12
604 81189 3 8 1 2 12 7 4 10 9 11 6 5
610 69625 10 2 3 1 5 12 9 4 6 7 11 8
636 58192 2 12 9 3 1 4 8 11 5 6 7 10
600 104120 5 1 4 8 10 6 11 7 2 3 9 12
630 46584 12 9 1 3 8 11 4 2 7 6 5 10
632 69604 9 11 3 2 12 4 5 1 7 8 6 10
620 69612 10 9 7 2 6 11 8 3 5 12 4 1
606 69520 1 2 10 5 8 7 4 6 3 9 11 12
612 80964 6 5 10 2 12 9 11 3 7 4 8 1
602 58177 10 2 3 1 5 11 4 8 6 9 12 7
626 57989 12 4 5 1 9 8 3 2 11 7 6 10
618 92641 8 4 7 6 1 11 10 5 3 9 12 2
604 104261 10 2 3 1 5 7 8 4 6 11 9 12
628 69705 3 1 8 4 2 11 10 5 9 12 7 6
602 92624 12 7 6 5 9 11 10 2 3 8 4 1
586 81115 5 4 8 12 6 11 7 9 10 2 1 3
614 69712 7 9 12 6 8 11 4 5 3 1 2 10
604 69512 1 3 9 12 8 7 11 4 2 10 6 5
626 69759 8 7 6 10 4 11 5 2 12 9 1 3
614 115543 4 11 12 9 1 8 7 3 5 6 10 2
634 81087 5 12 9 3 6 4 8 1 10 11 7 2
600 104107 2 1 3 9 10 7 8 11 5 6 4 12
622 92173 12 5 6 4 9 10 11 7 3 2 1 8
592 99053 10 2 3 1 6 11 7 8 5 9 12 4
616 120620 4 7 12 8 6 11 9 3 5 10 2 1
612 87096 2 1 10 5 9 3 11 6 12 7 8 4
630 75891 7 6 5 10 8 11 9 2 4 1 12 3
628 87122 7 12 9 3 8 11 6 10 4 1 5 2
592 102136 5 9 12 4 6 11 7 8 10 2 3 1
600 81101 3 1 8 4 2 9 7 12 10 11 6 5
618 69726 3 10 11 9 2 6 8 7 1 5 4 12
624 46463 10 6 7 5 2 9 11 12 1 3 8 4
618 58072 12 1 4 5 9 11 8 7 3 2 10 6
652 46589 8 7 11 9 1 4 6 12 2 5 10 3
638 58258 9 11 1 3 12 8 4 2 7 6 5 10
586 92572 5 4 8 12 6 11 7 9 10 2 1 3
634 81206 2 3 1 8 12 9 11 4 10 5 6 7
602 46505 10 2 3 1 5 11 4 8 6 9 12 7
590 104039 3 2 10 5 9 11 7 6 12 1 8 4
600 81132 12 4 6 5 11 8 7 10 9 3 1 2
602 104141 1 4 8 3 2 10 11 9 5 6 7 12
616 46610 9 3 1 2 12 8 4 5 11 7 6 10
618 115875 2 12 9 3 5 10 11 1 6 7 4 8
614 69725 7 9 12 6 8 11 4 5 1 3 2 10
596 58202 1 4 6 5 8 7 11 10 3 12 9 2
602 69618 3 9 12 4 1 11 7 8 2 10 6 5
600 92740 3 9 12 1 2 11 7 8 10 6 5 4
610 69660 1 7 12 9 4 8 11 3 5 6 10 2
616 69649 5 10 2 1 6 11 9 3 4 8 7 12
600 58091 4 5 6 10 8 7 11 2 1 12 9 3
600 76961 1 3 2 10 4 12 9 5 8 7 11 6
650 64887 1 11 4 8 12 9 6 7 2 3 5 10
606 87358 2 3 9 12 10 1 7 8 5 6 11 4
624 120570 9 12 11 7 3 8 4 6 2 1 10 5
598 90966 1 3 2 10 12 9 11 5 4 8 7 6
624 81141 9 7 11 12 3 8 4 6 2 1 10 5
590 161774 2 10 6 5 9 11 7 12 3 1 8 4
586 104293 3 8 1 2 9 11 7 10 12 4 6 5
590 115697 5 6 10 2 12 7 11 9 4 8 1 3
586 132986 12 8 4 5 9 7 11 6 3 1 2 10
622 67919 1 5 8 4 10 6 7 12 2 3 11 9
586 91359 6 5 10 2 7 11 9 3 8 4 12 1
630 67781 12 9 3 2 4 11 6 5 1 8 7 10
634 56458 9 12 3 2 11 7 8 1 10 6 4 5
622 64110 1 7 8 4 2 10 6 5 3 9 11 12
