START
141730
130770
START
142320
137630
START
139570
129870
START
138930
137050
START
136060
139670
START
144850
137710
START
142960
135010
START
140110
137630
START
137290
135930
START
139900
132000
START
139970
133330
START
132900
133830
START
137550
140370
START
140930
134670
START
135000
134850
START
143440
141270
START
134960
139050
START
135550
141230
START
133780
135870
START
135480
137200
START
127760
139490
START
137180
143030
START
138190
131090
START
139140
134520
START
138820
135270
START
132720
135450
START
145420
141810
START
139550
135690
START
132200
133170
START
135960
136200
START
137170
136110
START
131590
132830
START
141370
137760
START
131300
134510
START
138030
133250
START
141320
143370
START
137840
138480
START
140230
141610
START
132900
129360
START
145610
134870
START
134380
138350
START
141110
129990
START
131130
134910
START
137600
132480
START
135680
139970
START
142010
132280
START
143970
132750
START
139770
131170
START
136260
139480
START
137690
129020
START
138810
137610
START
146760
136830
START
145940
133630
START
132100
133590
START
127180
136230
START
130800
132440
START
141620
136350
START
135110
131350
START
129970
137900
START
136610
137450
START
130670
140650
START
121600
137300
START
136190
136770
START
129750
135090
START
132660
134560
START
131800
133170
START
134810
147660
START
146310
127110
START
146100
130650
START
133030
130950
START
137100
130210
START
139120
139830
START
135950
136070
START
133630
138300
START
141260
132570
START
137310
135830
START
138620
132190
START
135330
133800
START
133880
139900
START
137980
133810
START
132490
136900
START
133680
137170
START
135450
143190
START
133600
129710
START
134860
133760
START
136220
135990
START
137680
140160
START
131320
139960
START
142470
132560
START
141260
133240
START
143150
139170
START
140190
139300
START
141040
133780
START
133860
135150
START
135710
137500
START
140990
141500
START
132900
134480
START
127780
137980
START
137810
136460
START
130010
135200
START
142620
136350
START
130170
141370
START
135080
132670
START
138790
136960
START
137900
132540
START
130090
139610
START
137510
137350
START
134380
133600
START
141020
132450
START
145640
139330
START
143320
137900
START
135880
133050
START
139710
138040
START
127070
140290
START
142250
137800
START
143020
143810
START
141680
137930
START
133240
142860
START
141980
137630
START
130190
138220
START
127420
130790
START
136690
131740
START
138850
132250
START
137960
134990
START
135370
139600
START
146370
136700
START
134800
138920
START
139870
134750
START
138370
132550
START
141260
132420
START
130570
133270
START
130520
144400
START
143180
136910
START
137350
132060
START
141230
133040
START
128950
135750
START
140260
139730
START
122300
138830
START
138000
137910
START
131690
128500
START
147310
134030
START
140270
133870
START
131380
130980
START
138140
140550
START
138770
138710
START
146230
135170
START
148910
138450
START
138420
129150
START
143930
140400
START
141960
133180
START
132650
136710
START
138020
142130
START
140680
136960
START
142400
141110
START
139610
135730
START
142900
141220
START
138210
140380
START
140840
133210
START
138930
141560
START
135560
137950
START
137070
139910
START
135230
131920
START
135030
136460
START
132390
137560
START
131710
133250
START
132000
141840
START
142720
135480
START
138090
146200
START
133720
137130
START
134480
141070
START
139410
137400
START
139070
131540
START
145210
138150
START
138380
137090
START
139670
133820
START
135900
131300
START
139690
134360
START
135600
135610
START
136260
137090
START
141520
136620
START
145370
132710
START
136390
133730
START
138710
140230
START
138740
132400
START
136520
143180
START
138550
137970
START
136710
134180
START
137050
129900
START
138960
134610
START
149880
142270
START
144030
134610
START
137590
137770
START
130540
135050
START
145830
138210
START
133990
132170
START
141830
132940
START
133550
136250
START
131340
141010
START
136290
135220
START
140980
137350
START
139250
138120
START
136860
127520
START
133320
139190
START
136760
133930
START
139770
135020
START
136770
137650
START
138910
142390
START
137090
129610
START
126200
139380
START
140580
132720
START
134980
140990
START
135180
136550
START
141300
135230
START
121540
136740
START
138970
136850
START
136590
136490
START
136260
139170
START
128750
140400
START
136390
136090
START
145870
138560
START
132840
135930
START
135190
132270
START
138040
131560
START
137680
132250
START
140580
134490
START
136650
136040
START
128760
131670
START
138030
134050
START
139620
133600
START
136050
135810
START
132550
136500
START
134080
136110
START
138710
141940
START
131930
139830
START
130870
132450
START
133970
140300
START
138190
133270
START
140360
131700
START
135410
140010
START
136160
140700
START
135350
135750
START
133460
139300
START
139430
132080
START
131110
134170
START
140280
137170
START
136260
138980
START
138540
133670
START
138030
137510
START
126850
138230
START
132050
136550
START
127830
147400
START
130300
131780
START
139540
140040
START
135480
141590
START
131380
124120
START
137400
132470
START
138650
136430
START
136640
134200
START
135130
136990
START
133700
134240
START
135510
127860
START
141570
134060
START
131350
138450
START
136880
137830
START
138320
134590
START
134740
134910
START
129950
130780
START
136880
140540
START
136730
133570
START
139880
137730
START
133710
129900
START
136000
132720
START
140740
136900
START
137580
140030
START
145540
130590
START
142470
137730
START
141310
135390
START
138370
135190
START
138010
133200
START
133930
136370
START
142850
134330
START
137170
145280
START
143030
137500
START
133700
138000
START
133410
134400
START
142510
137900
START
134710
138140
START
136170
134910
START
135070
129170
START
140810
135260
START
139040
136720
START
141260
135490
START
135910
131940
START
133420
136950
START
144800
135870
START
141190
135670
START
141970
136950
START
132190
135410
START
137710
134810
START
140660
135950
START
136380
133110
START
135350
136230
START
132220
136780
START
137070
130690
START
140230
138910
START
140870
134430
START
141190
136140
START
136330
135420
START
138490
138070
START
141470
131840
START
137280
132340
START
135450
138790
START
129560
133930
START
140830
136670
START
135310
137460
START
136870
133000
START
136600
138600
START
141360
131140
START
130310
135850
START
146400
137220
START
132540
142400
START
140000
141740
START
140800
125710
START
140880
135530
START
130760
133150
START
135270
132610
START
133800
136070
START
131650
132720
START
138070
128760
START
135160
140610
START
133190
133850
START
142220
136930
START
133350
143920
START
138080
136610
START
128910
134000
START
137250
134470
START
136300
137280
START
136020
139400
START
144450
134350
START
140670
136100
START
128390
145300
START
138250
137740
START
129170
141020
START
133690
137910
START
137470
131650
START
136210
132720
START
133750
135640
START
134700
131000
START
134900
137520
START
139410
137480
START
148590
139770
START
145670
140240
START
143250
135810
START
131810
136170
START
145210
132690
START
140850
140510
START
134790
134480
START
135380
133520
START
125960
131870
START
143550
143020
START
143490
142500
START
134070
141320
START
128410
136520
START
136760
132260
START
136740
137350
START
137330
136840
START
140710
142180
START
133350
130660
START
140190
134690
START
138620
128420
START
138120
139490
START
132290
141230
START
138350
129230
START
142290
145600
START
139740
131400
START
132180
133970
START
132620
134980
START
128320
133400
START
137400
136650
START
130470
134440
START
145860
134170
START
127070
135130
START
142880
135600
START
136430
137200
START
128890
135900
START
137960
135600
START
134070
133050
START
137420
137670
START
135030
127270
START
137200
142190
START
141880
133470
START
137220
127400
START
144890
134500
START
135930
132030
START
128620
140120
START
130640
138870
START
139120
136100
START
141620
138890
START
133120
130830
START
137180
144100
START
139660
138630
START
144800
134110
START
136950
136930
START
134890
138150
START
133210
141800
START
142560
136900
START
136070
134660
START
142110
129040
START
134580
136380
START
128340
136670
START
131350
137520
START
136140
137570
START
143880
131900
START
138400
142440
START
144910
134820
START
126640
130820
START
130770
135770
START
133610
135450
START
130900
134700
START
141500
135550
START
144090
135670
START
140100
138940
START
144100
138120
START
134930
131460
START
135630
136650
START
142170
135070
START
133460
130780
START
132210
135670
START
134090
135650
START
127710
137890
START
138720
146200
START
135710
141870
START
128980
132530
START
136670
136830
START
138970
135430
START
128840
134530
START
134120
132550
START
138260
137270
START
144450
130040
START
134650
140170
START
136650
131250
START
129850
132250
START
147480
142860
START
134260
128460
START
134230
132030
START
140400
136910
START
140560
137000
START
133460
131470
START
137410
134260
START
137650
141300
START
133660
135420
START
133450
134400
START
138500
135100
START
136960
136450
START
136000
137110
START
132210
144900
START
133710
133010
START
131980
120230
START
138280
145100
START
133450
140010
START
134770
134760
START
144190
139360
START
138430
137600
START
138770
136520
START
138910
137840
START
140770
132290
START
136290
135260
START
136920
135470
START
132280
129260
START
129440
132750
START
137660
135980
START
144600
136410
START
131270
136350
START
138940
132930
START
133500
137530
START
131910
134170
START
134530
127810
START
140930
134280
START
132520
133480
START
140440
134230
START
143590
135450
START
142720
135330
START
142520
135830
START
142460
132220
START
134300
134540
START
131220
133280
START
145300
138800
START
137390
133650
START
136970
137740
START
145010
138370
START
139720
137270
START
135600
132790
START
144510
138910
START
132280
137940
START
136690
137010
START
137460
137140
START
140660
134600
START
131090
132450
START
137920
136900
START
137200
137050
START
137390
133200
START
135400
128130
START
139180
134760
START
137810
136330
START
138340
140090
START
134640
127430
START
134830
135880
START
135340
136830
START
128560
141350
START
136840
136600
START
140120
139290
START
139630
138650
START
133630
137200
START
131100
132900
START
134670
142500
START
141610
129990
START
141240
133430
START
134140
127650
START
132740
136250
START
135030
137270
START
133180
138860
START
136120
134150
START
134710
130610
START
143280
136850
START
140000
137510
START
144310
133170
START
139080
133370
START
138700
131700
START
137220
131670
START
138380
139650
START
140800
139680
START
144860
136910
START
136170
127000
START
136400
132510
START
146970
132190
START
132210
134380
START
143780
135700
START
140910
132210
START
137380
135010
START
139680
128770
START
143750
136750
START
140870
136910
START
133990
133550
START
145000
130870
START
133270
136360
START
140190
134050
START
135370
139500
START
132370
132180
START
132680
131870
START
134570
141590
START
140170
136790
START
133760
129260
START
129360
127280
START
145850
133730
START
132840
135160
START
143080
139510
START
135790
136800
START
136850
136650
START
137810
134560
START
143040
131350
START
126070
136500
START
142200
138440
START
139670
134230
START
136460
140340
START
128480
135150
START
135510
129720
START
136230
136700
START
151490
136210
START
146260
134170
START
135040
135770
START
147280
138680
START
140500
138730
START
146070
137300
START
130010
129800
START
137310
134550
START
136870
139520
START
135000
136390
START
140070
135430
START
138780
133780
START
137100
131780
START
137650
129590
START
141480
139200
START
140510
138000
START
139460
135050
START
138450
134150
START
141670
131570
START
141100
138170
START
136020
143800
START
137830
137610
START
135990
130780
START
140190
137770
START
133460
133430
START
137750
139140
START
139710
136000
START
130910
137240
START
137450
138190
START
137730
129990
START
142980
129850
START
141980
142520
START
135740
133780
START
138150
141590
START
141930
134500
START
132220
136700
START
140990
135430
START
136140
139500
START
128050
133650
START
145410
136590
START
138390
135950
START
138060
143910
START
136260
136230
START
135420
136910
START
141720
136100
START
134260
138520
START
135470
135200
START
132710
135940
START
141180
130550
START
130760
131560
START
131440
133500
START
133880
135490
START
133400
137470
START
140880
133450
START
141230
141570
START
144950
140290
START
142120
134740
START
130080
134270
START
140750
134850
START
141700
137500
START
138370
133070
START
136810
141370
START
136600
135020
START
141140
138160
START
129390
136690
START
141330
130680
START
139390
135070
START
128140
137930
START
138920
134040
START
138550
140550
START
139540
136450
START
131620
141820
START
144370
136970
START
141010
138070
START
132100
132270
START
127920
131580
START
140240
130700
START
135900
131080
START
134570
135150
START
135080
132560
START
143680
132350
START
135960
130450
START
128510
138590
START
138650
127290
START
129800
132020
START
144450
138060
START
133760
130040
START
129950
136600
START
134770
142000
START
128880
128030
START
142700
138870
START
130440
136350
START
133750
136090
START
140310
130450
START
134800
136650
START
138210
134170
START
139450
133280
START
130090
136830
START
135970
138070
START
136120
139400
START
130390
139650
START
136370
137330
START
136850
131180
START
131800
137330
START
138140
139120
START
137890
135200
START
127000
134250
START
133610
136420
START
134710
138010
START
143060
130060
START
141370
137150
START
137380
132900
START
136400
131970
START
140540
140170
START
139760
129650
START
139000
137410
START
137380
134630
START
146140
134750
START
142690
136580
START
128630
139210
START
140880
137400
START
134340
136170
START
136940
135730
START
146710
137850
START
133660
135010
START
135040
129480
START
144920
139880
START
135440
132880
START
140820
138270
START
135220
126890
START
135220
140110
START
141460
137010
START
137560
141600
START
135180
142910
START
140590
127770
START
135340
132330
START
139750
124880
START
147150
132650
START
140640
131870
START
142470
138270
START
137490
134780
START
138210
138180
START
136860
135060
START
130920
137930
START
127630
135400
START
142980
139930
START
141970
132500
START
133750
144380
START
140210
131880
START
133630
139690
START
137650
136300
START
141850
138150
START
134780
137140
START
137760
132450
START
133210
140030
START
136310
134770
START
140190
134770
START
137360
138650
START
137780
141300
START
137040
129010
START
134340
137840
START
137330
132670
START
135100
132820
START
138830
137050
START
129280
140710
START
139390
133600
START
135400
132110
START
139590
138800
START
142440
140760
START
130470
132400
START
139700
139080
START
137580
139750
START
130730
133050
START
131480
136070
START
138820
142000
START
134240
136550
START
128710
135450
START
131740
136030
START
137630
129380
START
136390
134460
START
140010
136820
START
129570
134550
START
142400
134040
START
132750
139070
START
137550
133530
START
134230
138040
START
136380
135550
START
130950
136100
START
137980
137930
START
126880
126900
START
138390
134050
START
139700
141500
START
135380
125320
START
128100
135050
START
128740
128320
START
130240
136650
START
137770
131280
START
140050
132810
START
140510
135620
START
147060
132140
START
141220
132850
START
145920
136650
START
141860
133940
START
136100
134480
START
139360
134770
START
131320
137150
START
137280
138070
START
130870
136890
START
133930
140230
START
141400
138290
START
131340
131640
START
128520
135770
START
134240
137710
START
139380
136160
START
135110
136100
START
142210
137710
START
134260
137630
START
135160
138450
START
136160
137100
START
139300
136250
START
130240
139370
START
133330
131770
START
136310
133730
START
139250
134840
START
135400
138670
START
142860
134250
START
138180
128550
START
138970
131950
START
137310
133140
START
136940
129260
START
135730
133240
START
133570
133230
START
131680
132190
START
132400
133040
START
135470
138360
START
132220
139400
START
141710
131750
START
139310
137780
START
136370
133180
START
134750
131080
START
137330
139330
START
143670
136700
START
137030
134970
START
137250
129290
START
135380
132130
START
141730
134150
START
141110
135700
START
141850
139700
START
134180
135350
START
134480
137570
START
136210
136720
START
137180
131840
START
137380
136670
START
137320
138600
START
147130
134690
START
138450
136630
START
138140
132560
START
134010
134950
START
137790
144170
START
136860
132090
START
136920
134300
START
139350
136300
START
144440
129650
START
137250
136560
START
139040
138370
START
147170
136130
START
141730
139840
START
131570
138090
START
133770
138030
START
141250
132150
START
135560
131000
START
134980
143840
START
142030
140280
START
127970
135330
START
133230
129720
START
140950
133710
START
139920
140200
START
137940
139530
START
139410
136010
START
130680
136710
START
137640
135610
START
133420
133730
START
142680
139030
START
140690
134800
START
130520
141750
START
143990
130280
START
142010
141800
START
135850
129680
START
130570
138990
START
132540
136860
START
135610
132550
START
144900
128640
START
137870
138390
START
141520
134850
START
139310
133660
START
140820
137350
START
132060
136550
START
141120
126740
START
142560
137110
START
133370
134500
START
136220
137330
START
132970
141050
START
141040
136280
START
134460
133550
START
138490
135430
START
140090
137960
START
137170
131800
START
142570
136930
START
140120
137170
START
139580
126850
START
137460
130720
START
136410
135130
START
131790
138030
START
142260
135410
START
143660
134890
START
132720
138760
START
142520
143060
START
131420
146000
START
137440
143500
START
135200
139110
START
136320
129310
START
134290
133020
START
131740
130950
START
140050
138000
START
130850
141170
START
138050
133820
START
142470
138550
START
134470
131530
START
137630
142920
START
141820
133630
START
134610
141560
START
137270
140470
START
139610
139000
START
141960
137960
START
136580
135870
START
136480
134250
START
137320
142260
START
132990
132130
START
135490
138380
START
132610
135050
START
142570
134600
START
144060
130150
START
134220
144080
START
135110
134210
START
135150
128960
START
136060
135780
START
129560
134240
START
136550
137110
START
136410
132270
START
141760
137330
START
141090
141000
START
133200
133260
START
135290
134750
START
137320
133750
START
138590
131370
START
135840
139170
START
137110
141160
START
140590
133970
START
142860
134440
START
146130
132590
START
147210
135980
START
127960
140550
START
133800
138770
START
137300
131250
START
130660
135530
START
140780
133820
START
130290
140400
START
133840
131240
START
131910
135450
START
139890
138860
START
132530
134190
START
133680
140340
START
135490
137410
START
129370
140230
START
135960
135750
START
138930
133770
START
138160
131390
START
141570
137900
START
140200
136110
START
137930
136300
START
132880
134670
START
131640
137980
START
138070
133960
START
139220
136200
START
136950
136630
START
134220
133050
START
136030
129940
START
136070
132370
START
134410
137760
START
138810
136800
START
142060
139070
START
133710
127750
START
143530
139870
START
139340
130770
START
133810
134320
START
131360
138630
START
142920
139470
START
123680
135770
START
136980
139470
START
141230
139400
START
149350
136650
START
137930
132510
START
143960
131100
START
135240
139330
START
131980
134130
START
134510
130600
START
131700
139190
START
136160
134530
START
139640
137470
START
138810
131570
START
132660
135110
START
133820
132870
START
131700
128510
START
143580
136470
START
137610
135410
START
133930
135940
START
143910
132070
START
138840
143060
START
134880
131450
START
134320
140950
START
140610
130250
START
133860
137150
START
136980
138530
START
130010
143600
START
138370
143690
START
140710
140610
START
138320
143600
START
135050
138310
START
129200
135250
START
135080
136230
START
137740
136970
START
129330
138390
START
134060
133790
