95410 3636809 19 28 10 29 13 9 23 12 22 21 11 7 20 1 8 27 25 30 24 18 14 3 26 15 6 17 4 5 16 2
97220 3551358 15 10 28 4 22 14 17 16 13 5 2 20 8 7 9 30 27 19 26 18 25 3 11 24 6 1 29 12 21 23
98310 3141115 19 13 9 14 12 11 22 17 16 18 3 26 27 6 25 10 28 7 21 20 8 23 5 1 29 4 2 24 15 30
94800 4302734 10 7 9 8 2 1 4 5 22 20 21 23 19 29 24 28 11 13 17 16 12 15 6 3 18 26 14 27 25 30
97300 3627617 28 13 14 12 11 16 22 4 17 15 3 6 27 26 18 10 9 19 7 1 8 21 5 2 29 20 24 23 30 25
98910 4436092 19 24 29 27 25 23 12 22 21 6 3 5 15 4 20 28 30 10 14 18 9 13 26 7 11 16 1 17 2 8
94850 3248988 12 26 30 1 16 3 11 17 6 8 5 4 22 2 15 14 18 27 9 25 19 13 23 24 7 20 29 10 21 28
94020 3696661 2 5 12 1 16 11 6 17 22 3 4 15 30 26 18 20 8 10 9 7 13 23 21 28 29 24 14 19 25 27
97680 3281804 19 15 6 25 4 5 24 22 2 21 7 20 29 23 8 27 30 3 18 26 16 14 11 17 13 9 1 28 10 12
98190 4059402 15 4 25 26 2 20 3 5 24 6 21 29 30 23 19 18 8 27 16 7 9 17 1 11 22 12 13 14 10 28
98400 4758341 20 8 28 21 7 10 22 5 30 23 2 25 29 24 19 12 9 13 1 11 14 6 17 26 3 16 18 15 4 27
97630 4192163 25 24 29 15 4 23 6 3 20 28 22 21 10 12 19 14 26 30 18 5 2 16 17 1 13 11 7 27 9 8
96390 4367441 15 3 22 4 2 1 20 5 8 24 21 7 29 23 10 25 6 30 26 17 11 18 16 12 14 13 9 27 19 28
96310 3987317 24 25 30 23 26 15 29 22 21 14 18 27 19 28 10 6 2 5 3 16 4 1 17 8 12 11 7 9 13 20
97800 3420932 27 18 19 30 26 25 13 14 24 9 15 23 28 10 29 8 16 12 17 2 6 11 5 3 1 4 22 7 20 21
94790 5998173 19 29 24 9 21 23 13 22 12 14 18 25 28 10 27 20 2 8 7 5 1 11 17 16 4 26 3 30 15 6
94630 4626240 27 18 25 15 16 26 4 17 5 6 3 2 19 24 30 28 13 14 10 9 7 22 11 1 20 12 8 29 23 21
95670 3815343 15 3 26 4 6 16 2 11 17 7 5 1 20 12 8 27 25 30 28 22 18 10 13 14 21 23 9 29 24 19
98240 3626266 20 21 29 1 11 23 7 13 12 8 16 9 10 28 27 19 6 24 5 3 22 2 17 14 4 26 18 30 15 25
97650 3799852 14 18 27 13 3 26 17 16 6 11 2 4 12 22 15 10 19 25 28 20 30 9 8 1 7 21 5 23 29 24
99760 3603977 10 24 19 28 29 23 21 20 3 22 5 6 27 4 15 9 25 30 13 8 12 7 1 11 14 17 2 18 16 26
96150 4746306 8 2 17 4 5 16 22 1 11 12 7 13 10 9 28 30 24 25 15 3 26 6 20 18 23 21 14 19 29 27
99310 3143286 19 28 27 29 24 25 20 2 5 6 4 26 3 15 30 10 13 14 21 7 18 9 17 8 1 16 11 23 22 12
99610 3612367 18 30 25 14 26 29 17 2 24 3 4 21 6 15 23 27 28 10 13 20 19 9 1 7 16 5 8 11 22 12
99060 4017061 30 15 25 28 4 26 10 3 6 14 22 18 19 23 27 9 8 24 20 5 2 7 17 16 13 1 11 21 12 29
95610 3914718 30 24 27 25 14 18 26 5 17 4 2 16 15 6 3 19 29 10 23 21 28 8 7 13 22 1 11 12 20 9
96450 4381264 26 4 15 3 6 22 16 5 2 11 17 20 12 1 8 25 30 28 18 27 10 14 21 24 13 7 29 9 23 19
94400 5126642 19 15 12 3 4 22 5 2 11 6 16 17 18 26 14 29 23 28 24 21 10 20 7 13 8 1 9 27 25 30
97560 3987900 24 30 25 8 4 15 5 11 26 2 16 6 1 17 3 29 19 10 21 7 28 20 13 14 23 12 22 27 9 18
96210 4603982 6 4 15 3 17 16 24 2 5 25 26 14 27 18 30 12 22 9 20 1 8 21 11 7 23 13 28 29 19 10
95940 3850140 10 28 27 9 13 14 7 11 18 1 16 26 25 17 30 24 29 19 20 21 23 8 12 22 2 4 3 5 6 15
95160 3830819 10 13 28 12 9 20 23 21 29 19 14 24 27 18 25 11 7 8 22 16 1 6 17 2 3 4 5 30 26 15
98230 4584182 30 23 24 12 6 3 11 16 1 26 5 2 25 17 8 10 29 19 28 21 20 13 7 9 15 4 22 14 18 27
95700 4436461 27 14 8 18 16 17 22 5 2 3 6 4 25 26 15 10 28 9 12 13 7 23 11 1 29 21 20 24 30 19
96400 4191724 15 11 12 22 4 1 6 2 5 23 3 21 19 24 29 28 13 9 10 16 7 26 17 8 14 18 20 30 25 27
95880 4553982 8 16 6 5 17 4 20 2 3 7 1 22 9 11 12 25 18 27 24 26 15 29 14 30 21 13 23 19 28 10
98190 4400427 29 23 24 21 10 15 13 22 28 14 18 25 19 27 30 20 2 6 7 5 4 8 16 17 12 11 3 9 1 26
96700 4265088 27 28 10 22 13 9 11 17 7 2 16 1 12 8 21 30 18 25 15 14 24 4 26 5 3 6 20 19 23 29
99790 3621381 29 23 30 24 12 11 22 3 6 25 15 26 27 18 14 19 21 9 20 7 13 2 5 1 8 4 16 10 28 17
98680 4971037 20 8 21 1 2 4 6 5 15 12 3 22 23 24 29 9 7 27 17 16 18 11 26 25 13 30 14 28 10 19
97570 3262816 29 23 21 9 1 7 16 17 8 13 11 22 28 12 10 19 3 20 24 5 2 25 6 4 14 26 15 18 27 30
97130 4435558 19 20 29 5 6 21 4 3 23 15 26 24 27 18 25 8 1 9 7 17 12 2 16 13 22 11 30 10 14 28
101140 2849887 27 15 22 6 3 12 23 4 5 29 2 20 19 21 8 18 14 9 30 26 1 25 16 17 24 11 13 10 28 7
95640 3988994 5 4 15 17 2 22 11 6 3 16 1 26 14 18 25 8 20 28 7 21 10 13 12 23 9 29 30 19 24 27
94810 4850771 19 10 27 28 14 18 12 11 22 13 17 16 9 7 8 24 30 25 29 26 15 23 6 3 1 5 4 21 20 2
94310 4950914 9 20 23 13 7 21 8 5 29 14 25 24 28 10 19 12 1 22 17 11 4 16 2 3 18 26 6 27 30 15
101850 3639833 27 9 8 20 7 16 18 2 5 14 4 26 25 15 30 19 12 1 13 11 17 10 22 3 28 21 6 29 23 24
99940 3263337 27 18 22 14 5 2 12 4 3 30 26 6 25 24 15 10 7 8 9 16 17 13 11 1 23 21 20 28 29 19
100430 3241349 23 29 24 12 21 13 22 2 11 6 17 16 15 4 3 19 10 28 14 7 9 27 8 20 18 5 1 25 26 30
98490 3878821 18 25 27 14 22 19 16 17 7 11 13 9 28 12 10 26 24 30 15 5 29 4 2 8 3 1 20 6 23 21
96560 3789241 19 29 24 23 21 20 7 8 2 22 1 5 10 4 15 14 27 30 9 18 25 13 16 26 12 17 3 28 11 6
99170 3816431 8 16 17 7 5 2 20 3 6 22 4 15 10 24 27 9 1 30 13 11 26 21 12 14 29 23 18 28 19 25
94510 5040459 10 19 29 28 21 23 7 8 20 13 11 22 9 1 12 27 25 24 30 26 15 18 5 4 17 2 6 14 16 3
94400 4047663 12 22 15 8 2 6 1 5 4 16 17 3 18 11 26 10 28 19 23 21 29 7 20 24 9 13 30 27 14 25
96420 4192044 12 13 9 17 16 8 11 1 7 5 2 20 22 28 10 27 14 19 18 23 29 3 4 21 6 26 24 15 30 25
92280 4029037 27 18 14 28 12 13 10 22 11 23 21 7 29 19 9 25 26 30 15 6 17 4 3 16 2 5 1 24 20 8
96480 4365312 14 11 17 18 16 6 22 2 3 26 5 4 25 24 15 28 13 9 10 7 12 27 8 1 23 21 20 30 29 19
98310 3607604 29 23 9 20 21 13 1 7 11 5 16 17 8 2 12 19 30 27 24 18 14 25 26 10 3 4 22 6 15 28
94000 4551018 25 18 27 19 22 14 24 11 12 21 23 13 29 10 28 15 26 30 4 6 3 2 17 16 8 5 1 20 7 9
96610 4279370 11 16 6 2 17 3 4 5 26 15 18 25 14 27 30 13 12 9 22 8 1 21 7 20 23 29 24 28 10 19
95050 3800639 8 2 20 1 16 5 17 11 4 22 6 26 12 3 15 19 21 29 9 7 24 14 13 23 18 10 25 27 28 30
95570 4037260 30 10 28 18 27 14 26 4 21 25 15 23 19 24 29 9 7 13 16 17 11 1 5 22 6 2 12 3 8 20
96950 5133037 15 26 30 6 3 28 4 2 22 24 5 10 29 21 23 25 18 14 27 11 13 16 17 12 8 1 7 19 20 9
100000 2681561 28 23 30 12 21 29 11 6 24 13 3 26 14 18 25 10 22 19 8 4 15 7 1 2 16 17 5 9 20 27
97140 4176822 14 18 27 17 16 6 15 4 26 28 3 25 10 19 30 9 22 12 13 1 11 7 5 2 8 20 24 21 23 29
97120 4363288 13 14 27 9 12 18 11 1 22 7 16 17 8 5 2 28 19 30 10 24 25 29 23 26 21 3 6 20 4 15
98770 3985855 29 23 24 20 2 5 8 11 1 21 7 12 19 13 9 30 26 25 3 4 15 17 16 6 18 14 22 27 10 28
97400 3920771 29 23 24 19 22 6 30 4 26 10 15 25 28 14 18 20 21 3 8 12 2 7 1 5 9 16 17 13 11 27
98620 3818862 25 26 3 18 5 6 14 4 22 27 15 24 28 10 30 11 1 12 17 16 2 13 8 20 9 7 23 19 21 29
95540 4059887 27 25 30 24 9 13 29 23 12 21 7 10 19 20 28 18 26 14 17 16 11 3 1 6 2 5 22 8 4 15
97620 3813542 27 30 28 19 15 22 6 4 3 24 5 23 29 21 10 18 14 13 25 26 12 17 16 11 8 2 1 20 7 9
97290 4756457 29 20 24 23 5 6 10 2 3 28 4 15 30 26 25 19 8 9 21 7 12 22 1 16 11 17 13 27 18 14
95950 5125135 14 25 30 18 26 22 13 11 12 9 7 28 27 19 10 24 3 15 6 5 4 17 16 2 20 1 8 29 21 23
97820 3415902 20 5 8 7 2 4 12 22 15 28 21 23 10 29 19 9 1 16 11 3 17 13 26 6 30 14 18 25 24 27
94690 4659525 14 18 27 28 16 22 11 17 1 13 8 12 10 7 9 19 25 30 15 26 6 4 5 3 24 2 20 29 21 23
98020 4017931 30 26 25 15 16 17 4 11 9 14 18 13 19 27 28 3 6 20 5 2 8 22 1 7 23 12 21 29 24 10
97310 3829425 27 28 9 18 17 13 16 1 11 4 6 22 15 3 12 30 10 19 14 8 7 26 2 20 25 5 21 24 23 29
97640 3490515 25 27 18 8 7 14 2 17 16 5 4 26 24 15 30 19 28 10 20 13 9 12 11 1 3 6 22 29 21 23
96400 3625001 27 28 10 13 7 9 18 20 21 14 26 29 30 25 19 12 8 23 11 16 1 17 2 5 3 4 22 6 15 24
98180 4002553 30 22 15 28 6 3 14 18 26 10 23 25 27 29 24 9 12 4 11 16 1 13 17 5 7 8 2 19 21 20
99750 3802694 10 28 9 22 20 8 2 1 7 6 5 17 15 4 16 19 24 25 23 29 27 12 21 13 3 11 18 30 26 14
101140 3232449 27 18 8 7 2 5 16 17 6 10 4 22 28 15 21 14 25 30 9 26 20 11 1 3 13 12 23 19 24 29
95460 3430239 21 29 19 7 23 25 9 22 14 13 12 18 28 10 27 8 20 24 2 5 15 1 4 26 16 17 6 11 3 30
95110 4069810 30 18 27 26 14 25 17 16 4 3 5 15 6 2 24 10 28 19 11 13 9 1 7 20 22 8 21 12 23 29
98480 4019114 18 27 19 25 22 6 12 1 3 28 21 24 10 23 29 14 15 2 26 4 5 11 17 16 13 7 8 30 9 20
101310 3829733 28 30 13 10 22 9 15 4 7 6 16 17 12 1 11 19 27 14 24 25 18 29 26 21 3 2 20 23 5 8
97540 2908344 22 11 30 4 17 1 5 16 2 6 3 26 15 18 25 23 12 9 21 13 7 20 8 10 29 14 24 19 27 28
98920 4002769 19 24 25 8 2 16 1 5 17 20 7 11 12 9 13 29 27 18 22 15 14 6 3 26 21 4 30 23 10 28
96500 3606483 15 4 9 26 17 1 16 11 7 6 2 8 3 5 20 30 10 28 18 22 14 25 12 13 27 23 21 19 24 29
98570 3420842 19 24 29 23 9 21 22 1 7 6 2 5 15 4 20 10 25 27 28 13 14 12 11 18 16 17 8 3 26 30
98690 3983486 24 29 25 15 23 27 5 4 18 2 16 26 3 6 30 19 21 10 20 7 28 8 1 9 17 11 13 22 12 14
94410 5828139 8 2 6 16 17 3 11 5 4 7 1 12 13 9 20 27 30 25 18 26 15 14 22 24 10 21 23 28 19 29
99550 3263522 10 19 28 21 29 23 27 25 24 18 14 13 7 20 9 30 15 12 22 3 6 4 26 11 5 16 17 8 2 1
95710 4584104 8 19 29 7 20 21 1 22 23 13 12 28 9 14 10 5 24 30 2 4 15 17 6 3 16 11 26 27 18 25
92710 4622515 25 26 30 11 16 17 1 5 2 6 3 4 24 22 15 27 18 14 12 9 13 23 7 8 29 21 20 19 10 28
98680 3624886 14 25 26 18 4 5 7 16 17 9 1 2 27 20 8 10 24 30 28 15 3 13 11 6 21 22 12 19 29 23
95040 4365064 24 6 15 5 4 3 8 2 22 20 21 12 29 23 19 27 18 25 1 16 26 7 17 11 9 13 14 10 28 30
94450 4807318 27 19 29 10 24 23 18 4 15 14 26 22 28 25 30 8 20 21 7 5 2 16 17 3 9 1 6 13 11 12
95410 4230761 28 10 19 29 21 14 23 22 18 15 26 25 24 30 27 12 13 9 20 7 8 4 1 17 3 11 16 6 5 2
95290 4391846 25 24 29 5 1 20 17 2 6 26 4 3 30 15 19 27 21 23 8 7 9 16 11 13 18 22 12 14 10 28
95330 4982339 15 6 22 26 4 3 5 2 11 16 17 1 8 7 9 30 24 19 25 29 23 14 21 12 18 20 13 27 10 28
96660 3829922 20 8 9 7 17 1 13 11 12 21 23 29 28 10 19 5 2 24 4 16 3 15 6 22 14 26 30 27 18 25
93490 4624136 24 25 30 15 4 18 3 2 26 5 17 11 6 1 16 29 19 27 23 10 28 21 22 14 12 7 13 20 8 9
98630 4363131 25 18 26 14 2 15 11 17 4 7 16 10 13 9 28 24 27 30 22 5 6 12 1 3 21 8 23 29 20 19
97340 3888976 8 10 28 7 9 13 1 16 17 5 11 22 21 12 19 24 25 30 20 26 14 2 4 18 3 6 15 29 23 27
98380 3976120 28 10 14 8 2 15 16 5 4 17 26 18 30 25 27 13 7 21 9 20 22 11 1 6 12 3 23 19 24 29
97730 4623136 9 10 28 13 14 30 7 17 15 11 16 26 27 18 25 19 29 24 20 21 23 8 5 4 1 2 6 12 22 3
99310 4184792 30 26 25 14 1 18 9 7 8 21 20 27 29 24 19 12 6 15 22 3 4 11 16 17 13 5 2 23 10 28
95840 4797793 29 20 19 21 7 9 24 13 12 25 23 10 30 14 28 5 17 8 2 16 1 6 4 11 26 3 22 15 18 27
95880 4565921 19 10 28 21 7 13 29 9 14 25 26 18 24 30 27 23 22 12 8 1 11 20 16 17 5 2 3 15 4 6
93320 4958626 25 30 27 15 26 18 3 6 22 4 2 11 5 16 17 24 28 10 29 23 14 21 12 13 20 1 7 19 8 9
96000 3499346 27 25 30 18 26 14 3 11 12 17 16 13 22 1 9 19 24 29 15 21 23 6 5 20 4 2 7 28 8 10
96210 4189859 25 30 18 9 13 14 1 11 26 17 16 3 12 6 22 24 19 27 29 21 28 20 7 10 8 2 4 23 5 15
96490 3648716 5 8 20 2 7 9 17 16 1 11 13 12 30 28 10 15 21 19 4 22 29 3 6 23 26 14 24 25 18 27
96040 3814375 12 8 15 22 2 26 11 17 4 1 16 5 23 3 6 28 30 27 10 14 18 13 7 25 9 20 24 21 29 19
95990 4568678 25 19 29 30 15 21 26 22 23 18 12 27 14 28 10 24 3 20 6 4 8 2 5 1 16 17 7 11 13 9
95650 3800074 24 25 27 3 6 18 5 2 26 4 17 16 15 28 30 29 19 14 23 22 12 21 1 11 8 7 13 20 10 9
99070 4740133 9 7 20 11 17 1 6 16 2 3 4 5 22 15 8 13 27 21 14 18 29 12 26 23 10 25 24 28 30 19
97330 4175290 26 4 15 5 2 3 1 17 6 25 20 21 24 29 23 30 18 27 14 16 22 8 7 11 9 13 12 19 28 10
96640 4079377 25 26 18 5 17 8 2 1 16 6 11 22 3 4 15 30 14 27 21 7 10 20 13 9 23 12 28 29 24 19
95870 4206659 20 9 13 7 1 12 8 16 11 5 17 6 2 3 22 29 19 27 21 23 14 24 4 18 30 26 25 10 15 28
97140 4246802 21 8 20 23 7 1 29 11 12 28 13 9 19 10 14 2 5 3 4 16 6 15 17 26 24 22 30 27 18 25
98290 4756262 29 24 19 23 20 9 21 7 8 4 5 1 6 2 17 10 25 30 28 14 13 27 18 12 22 26 11 15 3 16
94260 4956272 28 29 10 23 21 20 12 1 8 13 9 7 14 27 30 19 24 15 6 3 4 22 17 5 11 16 2 25 18 26
94460 4743215 13 9 14 12 1 18 11 17 16 3 6 26 24 25 30 28 10 27 20 7 8 22 2 5 23 4 15 29 21 19
93290 4656093 30 25 24 18 26 3 16 1 5 17 11 2 15 4 6 27 19 29 14 21 23 9 8 20 13 7 12 28 22 10
96780 3612626 10 9 7 28 13 20 12 22 8 23 14 21 29 18 27 11 1 2 6 16 5 3 17 4 24 26 15 19 25 30
101000 3450858 19 29 23 8 1 17 2 16 6 5 26 24 30 25 18 21 9 12 7 11 13 20 4 22 15 3 14 10 28 27
96050 4206199 28 30 19 10 23 29 14 22 24 27 4 15 18 26 25 13 12 9 7 11 21 8 1 20 16 5 2 17 3 6
95300 6342033 8 7 9 20 1 17 2 4 16 5 3 6 30 15 26 19 10 28 12 11 13 21 22 14 23 27 18 29 24 25
95780 5134155 29 24 19 23 3 6 15 26 22 27 25 18 10 30 14 21 20 8 2 5 12 4 1 17 7 16 11 28 9 13
96840 4380265 24 15 4 3 5 2 26 17 16 25 18 8 30 14 27 29 21 19 23 6 20 12 11 1 10 22 7 28 13 9
98420 5034447 29 25 30 21 23 26 14 22 18 13 12 11 28 10 27 19 24 15 20 4 6 9 1 3 7 16 17 8 5 2
96720 4007601 27 25 30 18 26 14 16 17 11 9 1 13 24 12 19 10 15 28 6 4 22 3 2 5 20 8 7 29 23 21
96760 4984191 23 21 29 22 2 20 6 4 24 15 3 30 28 10 19 13 7 9 12 5 8 11 16 1 14 17 26 27 18 25
97600 4206789 27 18 9 13 17 7 14 26 4 28 15 10 19 25 30 12 22 8 11 16 1 6 5 2 23 3 20 29 24 21
100110 3470604 8 7 21 2 20 29 3 5 24 6 4 25 15 26 30 12 13 9 11 1 23 16 17 19 10 22 27 28 14 18
92740 4192941 8 1 12 5 17 11 2 4 16 3 6 26 24 15 30 10 9 28 20 7 13 21 22 14 23 27 18 29 19 25
97020 4927568 23 21 29 12 1 9 11 16 13 17 7 20 10 8 28 19 30 24 22 6 25 3 26 14 4 5 18 15 2 27
97960 3735701 7 1 9 8 16 17 2 5 26 4 6 30 20 24 25 10 28 13 22 11 12 15 3 14 21 23 18 19 29 27
94220 4973218 2 17 27 5 16 11 6 4 22 3 26 18 15 25 30 20 8 9 21 7 13 23 1 12 29 24 14 19 10 28
98420 4058461 4 5 2 17 16 8 11 1 7 12 9 20 28 13 10 15 26 30 3 6 22 24 23 21 25 29 19 27 18 14
97220 3661593 2 8 24 22 5 12 11 17 1 6 16 3 18 26 25 21 20 29 10 7 23 28 13 9 15 4 19 27 14 30
96100 3850417 27 12 9 17 11 13 16 1 7 5 2 20 3 8 21 25 30 19 18 26 14 15 4 28 6 22 10 24 23 29
95070 5169544 27 18 25 15 17 26 16 5 2 4 1 8 6 3 24 28 14 10 13 9 30 11 22 7 12 20 21 19 23 29
94950 4176138 29 20 24 21 7 8 13 9 25 23 14 18 28 10 27 12 3 5 11 1 2 6 17 16 22 4 26 19 15 30
94860 4106714 19 29 24 28 21 25 10 20 14 13 7 18 9 8 27 23 6 30 3 4 15 11 5 26 16 17 2 12 1 22
95360 4595715 20 9 28 7 12 13 8 1 11 5 16 17 2 3 6 19 30 10 29 23 14 21 22 27 4 26 18 24 15 25
96010 4777737 29 24 15 21 5 4 23 6 3 10 28 26 19 25 30 20 8 2 7 1 16 12 11 17 9 13 22 27 14 18
95320 4191175 9 10 28 13 7 20 23 21 8 29 24 19 30 25 27 12 22 15 11 1 4 16 17 2 6 3 5 14 26 18
96550 4554473 28 13 10 12 11 9 4 17 7 2 16 1 22 5 8 30 14 19 23 21 29 3 6 20 15 26 24 27 18 25
96850 3985017 9 8 16 7 1 17 20 5 2 21 4 6 29 23 24 10 27 18 28 13 14 22 11 3 15 12 26 19 30 25
99140 3795616 23 11 12 22 1 17 13 7 16 9 20 8 29 21 19 10 6 3 15 4 2 28 26 5 14 25 18 24 30 27
95540 3796444 29 23 19 24 3 15 10 6 4 25 26 18 28 30 27 21 12 22 20 5 2 7 1 11 8 17 16 9 13 14
93540 5035209 28 10 23 13 11 12 8 7 20 9 1 21 27 19 29 15 22 3 17 4 6 16 2 5 14 26 30 18 25 24
95640 4228842 8 5 6 2 17 4 1 16 3 22 11 26 27 18 15 20 29 24 7 21 23 9 12 19 10 13 30 28 14 25
97270 4758724 15 28 13 4 16 17 5 2 11 8 1 7 20 10 9 25 30 14 24 26 18 3 6 12 21 22 27 29 23 19
97980 3425174 2 1 12 5 17 11 6 16 13 3 22 14 26 18 27 20 8 23 4 7 21 24 9 29 15 10 28 30 25 19
99610 3797419 26 18 25 6 16 27 5 17 24 3 2 20 19 23 29 30 14 10 15 13 28 4 11 7 22 1 8 12 9 21
97300 3986950 9 7 20 17 1 8 16 2 12 13 11 19 14 28 10 30 21 29 4 5 23 26 6 3 15 22 24 18 27 25
94550 4174986 27 18 19 25 24 14 21 29 23 7 20 13 10 9 28 30 15 22 26 6 3 5 4 16 2 17 11 8 1 12
98100 4671925 25 30 14 24 26 18 5 2 8 21 20 7 29 19 27 12 11 13 6 3 16 15 4 17 22 1 9 23 10 28
97490 3640156 28 10 19 13 7 9 20 8 12 14 22 25 30 18 27 29 23 24 21 11 1 2 17 16 4 5 6 15 26 3
97990 2748923 30 11 1 16 17 5 26 6 2 24 3 4 18 25 15 9 21 7 13 12 8 14 22 20 29 23 10 27 19 28
97610 3625237 19 18 27 6 1 14 3 17 9 22 16 13 12 11 28 29 24 25 21 26 20 4 5 7 15 2 8 23 30 10
98860 3059528 10 28 23 27 22 21 14 13 20 9 1 7 30 12 8 19 24 29 25 6 15 18 3 4 26 17 2 16 11 5
96510 4553354 21 11 13 12 4 22 23 3 6 29 15 28 19 24 10 20 7 9 8 1 16 2 5 17 30 26 14 27 25 18
94620 4739917 27 18 25 14 26 30 6 3 24 12 1 23 19 21 29 28 15 10 22 4 5 11 16 2 13 17 8 9 7 20
97000 4363313 10 28 29 9 13 21 8 7 20 18 26 25 27 14 30 19 23 24 12 11 22 1 5 2 17 4 6 16 3 15
101500 3715606 15 20 8 4 2 7 3 5 28 26 21 10 30 25 27 6 22 12 17 1 9 16 11 13 23 29 14 19 24 18
96080 5337776 28 10 9 20 7 13 8 2 16 15 4 17 30 26 14 29 23 19 24 21 12 5 1 11 3 6 22 27 25 18
101590 3682637 30 12 9 22 11 20 3 6 1 25 23 21 19 24 29 15 28 10 4 13 7 26 16 2 14 17 5 18 27 8
98140 4580074 29 25 19 24 26 30 15 4 22 27 18 14 10 28 13 21 6 23 20 3 1 5 2 11 8 17 12 7 16 9
97670 4553345 29 24 19 21 3 15 2 6 4 16 17 5 7 8 20 10 27 25 28 23 30 12 22 26 11 1 18 13 9 14
97920 4361122 29 21 19 23 6 3 12 11 22 28 13 14 10 27 18 24 4 15 1 16 5 8 17 2 20 7 26 30 9 25
97940 3228804 20 9 13 8 7 11 1 17 16 5 2 3 15 4 22 19 30 14 29 21 27 23 6 12 24 26 18 25 10 28
97770 5412677 12 22 23 13 11 2 8 7 20 9 1 21 19 24 29 10 6 15 28 4 3 16 17 5 14 26 30 27 18 25
99110 4017308 19 10 9 28 13 7 15 22 4 25 14 26 27 18 30 29 21 20 23 11 1 3 17 2 6 16 5 24 12 8
99400 3830350 19 8 20 21 7 5 22 1 2 23 12 3 29 24 30 28 9 15 10 13 4 14 17 16 18 11 6 27 25 26
97280 5359407 15 4 16 6 5 17 3 1 11 23 22 12 19 10 28 25 26 30 24 2 8 20 7 9 29 21 13 27 18 14
99270 4003227 13 16 12 17 2 11 8 7 1 9 20 21 30 28 10 14 3 22 15 4 6 26 5 23 18 24 29 27 25 19
95220 3625788 18 25 30 14 26 22 11 16 2 17 5 4 6 3 15 27 28 10 13 9 23 12 1 7 8 20 21 19 24 29
96120 3235200 28 27 19 14 18 25 12 3 6 13 11 24 23 21 29 10 15 30 22 4 26 1 17 2 7 16 5 9 8 20
98330 3732247 28 10 19 9 7 27 13 1 12 22 11 18 14 30 25 23 29 24 21 20 8 4 17 2 6 16 5 15 3 26
96120 4762388 30 6 15 18 26 3 14 23 22 25 21 24 27 29 19 12 11 4 16 17 5 13 1 2 9 7 8 28 10 20
95390 3828616 30 15 25 3 26 22 6 2 4 5 17 16 12 1 11 19 28 10 27 18 14 29 20 24 21 8 7 23 9 13
94640 4206259 28 10 12 8 7 13 20 21 9 30 29 23 25 24 19 15 22 11 2 5 17 4 1 16 26 3 6 27 18 14
96150 3891777 7 20 21 9 23 29 13 12 24 25 22 28 14 10 19 8 5 2 17 1 4 16 11 3 26 6 15 18 27 30
96510 4571976 24 25 19 23 15 27 3 4 22 6 26 18 12 30 14 29 28 10 21 20 8 2 5 7 1 16 17 11 13 9
95270 4934083 24 4 15 3 2 6 8 5 26 1 16 17 12 11 22 29 19 28 23 21 10 20 7 30 9 13 25 27 14 18
98100 4489312 24 29 19 23 21 20 2 5 8 4 17 16 3 6 1 25 18 27 14 10 28 30 7 13 26 11 9 15 22 12
98180 3817710 25 14 27 19 15 6 24 3 11 23 22 12 10 28 13 30 26 18 2 4 16 5 1 17 21 7 8 29 20 9
95600 4206961 29 23 19 21 12 13 24 22 10 27 18 28 25 30 14 20 1 9 6 11 7 3 5 16 4 2 17 15 26 8
96020 4793266 10 28 14 8 25 18 21 26 30 23 15 27 29 24 19 9 13 12 7 17 11 1 16 22 5 2 3 20 4 6
96150 4016829 15 4 25 6 3 22 2 16 26 17 11 18 12 13 14 24 29 19 20 21 23 5 1 30 8 7 27 28 9 10
95460 3869875 15 3 21 26 6 4 5 11 1 17 16 7 8 2 20 19 24 29 30 25 23 14 12 22 18 13 9 27 28 10
95250 3986539 28 14 27 22 15 18 30 4 26 10 23 25 19 29 24 9 13 12 11 16 6 1 17 3 7 5 2 21 8 20
94870 3799831 28 13 10 8 9 7 12 1 20 30 22 21 19 23 29 18 14 27 17 16 11 5 2 4 26 3 6 25 15 24
97530 3903761 24 29 23 30 20 21 26 1 2 4 17 5 15 6 3 25 28 10 9 13 7 14 11 8 18 16 22 27 12 19
99100 3492567 15 4 24 2 5 23 1 3 6 17 11 12 16 22 19 30 28 10 8 20 29 26 7 21 9 13 25 18 14 27
97670 4005067 19 29 23 28 21 10 25 13 20 18 14 7 30 27 9 24 3 12 15 6 22 4 11 2 26 17 5 16 1 8
95830 4946206 19 9 29 10 13 23 28 14 12 27 18 24 30 26 25 8 20 21 7 17 1 2 16 11 4 5 22 15 6 3
94160 4178507 14 18 25 13 9 27 28 7 8 10 20 24 19 21 29 30 1 26 11 16 17 12 2 5 22 6 4 23 3 15
95810 5308610 20 8 28 4 5 7 15 2 21 29 23 10 24 27 19 9 17 13 1 16 11 3 6 12 26 22 30 25 18 14
97420 3421497 10 28 13 9 17 12 7 16 11 1 5 2 20 4 8 27 18 14 29 23 25 21 6 22 24 3 26 19 15 30
95550 4657484 10 28 27 14 18 22 30 26 4 23 25 15 29 24 19 13 11 12 9 17 16 7 1 6 20 5 2 21 8 3
95070 3993427 19 29 24 10 21 23 28 4 15 13 7 2 9 20 8 30 25 27 14 26 18 22 3 6 11 17 16 12 1 5
98920 3282421 25 10 19 24 28 29 9 13 23 14 11 12 18 22 27 30 8 21 20 7 2 1 17 5 26 16 3 6 4 15
95920 4778269 21 23 27 8 22 12 1 17 11 7 16 18 9 13 14 29 24 19 20 5 6 2 4 3 10 15 26 28 25 30
96020 4569299 27 28 10 18 9 20 14 13 21 24 23 29 25 30 19 15 22 8 4 17 7 5 16 2 6 1 11 26 3 12
98930 3988387 10 28 15 2 17 3 5 16 4 7 1 8 21 9 20 27 18 25 14 26 6 22 11 12 23 13 24 29 30 19
98090 4550137 6 16 8 26 17 1 25 11 12 27 18 9 30 14 13 15 4 20 3 2 5 24 22 7 29 23 21 19 10 28
92490 4112229 28 10 19 13 23 29 9 7 21 8 20 24 14 18 27 12 22 15 11 3 6 17 16 4 1 5 2 30 26 25
95910 4403577 13 14 18 9 16 12 11 17 1 22 6 3 30 26 25 28 10 27 7 8 20 4 2 21 15 5 23 19 24 29
94500 5000894 22 4 15 2 3 6 5 11 26 1 17 16 8 12 18 19 29 24 20 23 30 7 21 25 9 13 14 10 28 27
99290 3437121 24 11 12 1 16 2 20 7 8 9 13 21 29 10 23 25 6 22 3 17 5 26 4 15 30 14 18 19 28 27
94670 3625887 25 28 10 14 13 9 24 11 7 23 22 12 29 21 19 18 15 27 26 4 17 6 5 16 3 2 1 30 20 8
96690 3988730 18 27 30 25 26 3 24 1 6 9 21 20 19 29 23 14 22 15 17 5 4 16 11 2 13 7 8 28 10 12
95610 3607424 13 9 28 12 22 10 11 1 23 7 21 29 8 20 19 14 18 27 30 26 25 17 3 6 16 4 15 2 5 24
96890 3640394 25 26 18 11 16 27 3 17 15 1 2 4 6 5 24 30 10 14 13 28 19 12 8 22 9 7 23 20 21 29
99040 4844519 12 11 19 17 16 23 1 2 29 6 5 24 3 26 25 9 13 28 8 7 10 20 21 14 22 4 18 30 15 27
95790 4206456 27 14 10 19 13 28 29 9 12 21 7 22 20 8 23 25 18 30 24 26 15 11 16 3 1 17 4 5 2 6
98020 3452823 18 27 19 14 21 29 25 24 23 26 6 1 30 3 12 28 10 9 20 7 13 8 5 17 4 2 16 15 22 11
95620 4057649 28 27 15 13 11 16 9 17 3 14 18 26 19 30 25 10 12 22 7 8 4 20 1 5 21 2 6 29 23 24
98710 3625712 28 14 27 30 15 18 26 4 22 6 5 3 25 24 19 10 13 9 23 7 12 11 16 17 21 2 1 29 20 8
97680 4173893 10 28 19 22 15 24 17 4 5 3 6 2 25 26 30 9 23 29 12 13 21 11 7 8 1 16 20 18 14 27
96980 3610153 6 3 22 26 16 11 4 17 1 2 5 7 15 8 20 27 30 19 18 14 12 25 13 9 24 23 21 28 10 29
97170 4801248 15 24 30 6 26 25 3 4 17 2 1 16 5 8 18 19 10 28 23 29 14 12 11 13 22 7 9 21 20 27
97460 4611371 10 29 27 14 21 18 23 4 15 30 22 26 19 24 25 28 20 8 13 7 16 9 5 17 11 1 2 12 6 3
97820 4205578 9 17 13 1 16 11 12 5 7 20 8 21 29 23 19 30 26 14 3 4 15 6 2 22 25 18 28 24 27 10
97170 3075219 28 22 14 15 3 6 4 17 16 5 26 18 30 25 27 10 9 13 7 20 12 8 1 11 21 2 23 24 29 19
94590 4434929 12 1 22 6 16 11 3 17 5 15 4 2 24 26 25 19 9 10 28 13 7 23 20 8 29 14 21 27 18 30
97340 4380097 23 29 19 21 22 24 6 3 26 2 4 15 20 5 30 12 10 28 11 13 14 1 17 25 7 16 18 8 9 27
96010 3436836 28 14 10 9 13 7 22 11 8 12 21 20 23 29 19 15 25 18 4 26 17 1 16 5 6 3 2 30 24 27
100720 3234257 28 23 19 24 29 27 15 21 14 26 4 18 25 20 30 10 22 12 3 1 9 6 11 13 5 17 16 2 7 8
99420 3920001 14 20 29 18 17 8 16 2 5 26 6 3 27 25 24 9 21 23 13 7 12 11 1 22 30 4 15 28 10 19
95860 3819087 25 24 19 23 29 10 15 21 20 4 2 7 22 5 8 30 18 27 26 14 28 6 3 13 11 17 16 12 1 9
95050 3829256 14 18 27 25 28 10 21 13 7 24 20 9 29 23 19 30 15 22 26 4 2 5 17 11 3 16 1 6 8 12
94700 5150683 24 29 19 20 21 23 5 2 4 1 8 22 9 7 10 30 25 27 3 26 18 6 16 15 11 17 14 12 13 28
98120 4058447 24 15 19 6 3 23 26 4 29 25 18 21 30 14 27 22 28 10 5 17 2 1 16 20 11 8 7 12 13 9
97680 3625290 23 29 24 22 21 20 2 4 5 1 7 8 9 10 27 12 19 25 3 6 30 11 15 26 16 17 18 13 28 14
97600 3231705 9 23 10 7 20 21 8 1 29 5 2 27 19 24 25 13 12 28 11 22 14 16 4 18 17 6 26 15 3 30
96600 3800250 19 27 25 14 12 18 13 11 22 21 23 10 29 24 28 9 3 30 1 6 26 17 16 4 7 5 2 20 8 15
97190 3166525 28 14 18 9 13 25 10 7 27 23 8 21 19 20 29 30 17 26 12 16 11 22 5 1 6 2 3 15 4 24
96300 5727816 23 10 28 12 11 13 5 16 22 4 17 15 6 3 27 29 21 19 20 7 9 8 1 14 2 26 18 24 25 30
97980 4215979 14 12 28 13 11 22 9 17 3 18 16 6 30 26 15 19 23 10 29 7 21 20 1 8 27 5 2 25 4 24
98970 3463663 29 19 25 23 21 30 14 13 26 18 22 15 27 10 28 24 9 20 1 7 8 11 16 2 6 17 4 12 3 5
94590 6004651 29 21 23 20 8 5 1 2 6 24 4 3 25 26 15 28 10 19 13 7 12 9 17 11 14 16 22 27 18 30
96010 3436793 19 23 14 29 21 12 10 1 22 20 7 13 28 8 9 25 27 18 30 26 3 24 6 11 4 2 16 15 5 17
95040 4002538 24 30 27 29 21 13 20 7 9 23 8 12 19 10 28 25 18 14 3 26 11 1 16 17 5 2 22 6 4 15
96300 4090285 12 23 9 22 1 8 2 17 7 11 16 13 19 10 28 24 29 21 3 6 20 15 4 5 25 26 14 27 18 30
95780 4216177 27 28 10 18 14 19 11 13 7 12 22 21 9 23 29 30 15 25 26 3 24 16 4 2 17 5 8 1 6 20
97500 4002455 20 8 9 21 1 7 5 17 16 2 4 10 30 15 28 29 12 19 23 11 13 6 3 22 24 26 25 27 18 14
95580 3037736 15 3 24 22 4 6 11 2 5 16 17 26 14 18 25 19 29 23 10 21 12 7 20 1 13 8 9 28 27 30
94650 3627780 25 26 30 24 3 15 6 5 22 2 17 4 12 16 11 27 18 14 29 19 28 23 21 10 20 1 7 8 9 13
97390 4555131 9 12 28 13 20 7 11 1 8 16 17 4 30 2 5 19 23 10 27 29 21 14 3 22 18 6 15 25 26 24
99490 3981748 29 24 27 23 28 18 15 3 25 4 6 26 21 10 30 19 12 14 22 13 9 2 11 16 5 1 17 20 7 8
96260 4927155 28 10 19 8 17 5 7 16 2 13 11 22 9 1 12 27 25 30 18 26 15 20 4 3 14 21 6 29 24 23
95210 5411542 19 10 28 24 9 13 29 1 20 21 7 8 23 22 12 27 18 14 25 26 30 6 17 16 5 2 11 15 4 3
98010 3303465 9 7 20 16 1 8 17 5 2 6 4 15 24 21 29 28 10 27 13 11 14 12 3 22 30 26 18 25 23 19
97270 3834886 10 28 23 21 20 29 22 2 6 5 4 3 19 15 24 13 14 30 7 8 9 12 16 1 11 17 26 27 18 25
100890 3814902 15 3 6 4 17 2 10 16 11 28 26 25 27 18 30 24 5 22 20 1 8 29 7 21 23 13 12 19 9 14
95580 3800353 28 10 19 29 24 15 23 21 4 20 7 2 8 22 5 27 25 30 14 18 26 13 17 3 9 1 16 12 11 6
100870 3418888 10 25 27 7 11 8 5 2 1 4 16 17 15 26 18 28 24 19 21 13 29 23 12 20 22 3 9 30 6 14
96460 5116170 8 21 23 17 1 12 16 11 22 7 13 28 27 9 10 20 24 29 5 3 6 2 4 15 14 26 30 18 25 19
94220 5037212 25 26 30 2 6 3 5 17 4 11 16 22 27 18 15 24 29 19 21 20 23 8 1 12 7 13 9 10 14 28
94880 5160838 23 29 24 21 20 25 22 2 5 3 4 26 6 15 30 28 10 19 13 7 9 11 1 14 16 17 18 12 8 27
96590 4057247 9 10 28 13 7 20 11 1 5 16 17 2 27 8 30 23 29 19 12 21 15 22 6 4 14 3 26 18 24 25
94910 6266031 24 27 18 6 3 14 2 16 17 5 4 26 25 15 30 29 23 19 21 22 12 1 11 13 20 7 9 8 10 28
95540 3813577 25 18 15 22 26 3 11 16 6 1 17 4 24 2 5 28 14 27 10 13 30 23 9 12 21 7 20 29 8 19
96790 3988611 19 28 10 15 4 5 6 3 16 30 26 17 25 18 27 29 23 21 24 20 7 22 2 8 12 11 1 14 13 9
98290 4363650 24 29 19 3 23 21 6 4 20 2 5 8 12 1 7 30 25 27 15 28 10 26 22 18 16 17 14 11 13 9
93950 4825360 28 18 27 10 14 25 13 20 24 7 21 29 9 23 19 30 26 15 17 4 3 16 5 6 11 1 2 8 12 22
97880 3241778 25 27 19 26 18 14 11 13 28 17 16 9 30 7 10 24 21 29 15 6 23 3 4 12 2 1 22 5 8 20
97010 3829327 19 23 29 12 21 10 1 11 22 8 7 20 9 13 28 30 27 24 6 26 25 3 2 4 16 5 15 17 18 14
94060 5013544 15 6 26 4 3 17 2 5 16 22 1 11 23 12 30 19 25 14 24 27 18 20 8 9 21 7 13 29 10 28
96280 4172605 9 7 20 11 1 12 17 2 6 16 4 3 8 5 22 28 10 29 13 21 23 14 26 30 18 15 24 27 25 19
96140 4364125 28 13 12 9 16 11 1 17 3 7 5 2 20 8 21 27 14 30 18 26 25 15 22 6 10 4 24 19 23 29
95120 5975527 6 4 15 5 2 22 3 17 16 26 11 12 25 18 14 29 21 23 20 7 8 24 1 9 30 19 13 27 10 28
95540 4747505 20 21 23 8 5 12 2 3 22 4 6 15 24 29 19 9 10 28 7 1 13 17 16 11 18 26 14 27 25 30
96970 3640379 6 2 5 17 16 4 22 1 8 11 13 7 12 9 20 30 25 24 3 26 15 18 14 21 27 23 29 19 28 10
95220 4395299 15 6 25 26 2 3 4 5 1 22 17 16 18 11 12 30 19 24 28 23 29 10 21 20 27 7 8 14 13 9
96980 4246330 10 13 28 9 17 16 8 7 26 27 18 14 19 25 30 12 11 22 1 6 3 20 2 5 23 4 15 29 21 24
96030 5137449 18 27 25 14 8 24 17 1 5 16 2 26 6 3 30 28 10 19 13 20 29 9 7 21 11 4 15 12 22 23
98610 3418961 9 17 1 8 16 5 20 11 2 13 7 21 28 10 29 25 26 30 18 4 15 12 6 3 14 22 23 27 19 24
96560 4602465 19 10 28 29 23 13 21 7 9 20 4 30 24 15 25 27 18 14 8 22 12 1 17 11 2 16 6 5 3 26
97820 4803479 2 3 6 5 17 22 1 16 12 26 11 14 30 18 27 20 15 24 8 4 29 7 21 23 9 13 19 25 28 10
95960 3829605 24 29 19 20 21 23 4 5 22 6 3 12 15 10 28 25 18 27 8 7 9 2 17 1 26 16 11 30 14 13
96710 3663455 28 27 18 8 16 14 7 17 13 20 1 9 29 21 19 10 25 30 15 4 26 5 2 11 3 6 22 24 23 12
97000 4207375 20 6 21 1 2 3 17 5 4 7 16 22 8 11 12 19 30 29 25 26 24 18 15 23 9 13 14 27 28 10
99500 3681252 19 25 29 30 15 24 3 26 2 16 5 8 14 18 27 28 10 23 22 6 21 11 4 20 13 17 7 12 1 9
93090 3625978 12 11 16 1 5 17 3 22 2 6 4 26 24 15 25 9 13 14 20 7 8 23 21 18 29 10 27 19 28 30
97080 3437270 28 10 19 13 9 27 12 1 22 11 16 17 30 14 18 29 20 24 21 7 8 23 2 5 6 4 3 15 26 25
98350 3433416 15 26 27 4 16 18 3 17 14 6 11 13 24 25 28 19 8 30 2 5 7 20 1 9 22 12 21 29 23 10
102610 3117774 24 1 25 3 17 26 9 16 11 19 13 30 27 18 14 20 8 6 15 4 2 22 5 12 29 7 21 28 10 23
94420 4615035 25 30 19 24 29 23 14 20 21 18 13 28 27 9 10 26 3 15 5 4 6 2 1 22 17 16 11 8 7 12
94810 3829580 20 9 13 8 7 11 2 1 16 5 4 17 3 6 12 10 28 27 29 21 14 23 22 18 24 26 25 19 15 30
100500 3829729 27 9 18 10 7 17 25 5 16 24 2 1 19 20 8 28 13 14 30 26 11 15 4 22 23 6 3 29 21 12
93340 4983725 27 25 30 18 26 17 15 4 16 22 3 5 24 6 2 19 28 10 14 13 9 21 11 7 23 12 1 29 20 8
96470 5118204 10 27 19 28 15 21 18 4 29 25 26 24 14 30 23 9 8 20 7 2 5 16 17 3 11 1 6 13 22 12
94600 3986418 28 13 12 16 11 22 4 17 6 15 26 3 18 14 30 10 9 23 7 1 21 8 2 20 19 5 29 27 25 24
98290 4299408 25 3 24 14 12 6 13 11 22 28 21 29 10 23 19 30 26 15 18 16 4 17 1 5 9 7 2 27 8 20
96020 4237074 27 13 9 11 16 1 17 5 7 22 2 8 12 28 10 18 14 25 30 26 24 6 4 20 3 15 21 19 23 29
94240 4757728 15 4 25 6 3 26 16 17 5 11 1 2 12 8 24 28 10 30 14 18 27 13 22 23 9 7 21 19 20 29
94890 4778222 1 17 8 11 16 7 6 2 5 3 4 20 26 15 30 12 9 10 22 13 28 14 23 21 18 24 29 25 27 19
94800 4742398 3 22 12 17 6 11 16 4 1 2 5 7 8 20 21 27 28 10 18 14 13 26 15 9 25 24 23 30 19 29
96580 4929011 12 1 9 3 16 17 6 26 11 25 18 13 30 27 14 20 8 7 21 2 5 23 4 22 29 15 28 24 19 10
97040 4803496 10 19 29 28 7 21 13 22 9 14 15 24 27 18 25 12 23 20 11 5 8 16 17 1 3 4 2 6 26 30
99460 3477296 23 28 10 21 13 7 12 11 1 6 16 17 22 3 9 29 30 19 14 20 8 24 4 5 18 26 2 25 15 27
96570 3869676 19 27 25 24 6 15 22 4 3 20 21 10 29 23 28 14 18 30 5 17 26 2 16 11 8 7 1 9 13 12
96330 3060536 30 12 9 3 17 16 26 1 11 14 18 13 25 27 19 15 22 8 4 5 7 6 2 20 23 21 28 24 29 10
95670 4191189 28 9 10 13 7 12 8 1 22 14 20 21 18 27 23 30 15 19 17 4 11 16 2 6 26 5 3 25 24 29
98090 3232970 9 11 13 12 16 17 18 3 14 27 26 30 19 25 28 21 20 7 1 2 8 22 5 4 23 6 15 29 24 10
95170 4361831 10 28 19 29 23 30 21 22 12 7 13 11 20 8 9 27 18 25 24 14 26 15 4 6 2 16 3 5 17 1
98220 3606464 15 10 28 22 6 14 4 3 18 5 26 27 30 24 25 8 23 12 2 17 13 7 16 11 20 1 9 21 29 19
95530 4798970 10 8 22 7 17 11 13 16 1 9 14 12 19 18 27 28 2 15 21 5 4 20 6 3 29 26 23 24 25 30
94010 4233064 29 19 25 23 14 18 21 22 27 12 11 10 9 13 28 24 15 30 3 4 26 6 5 2 1 16 17 20 7 8
99730 3830326 21 6 23 20 3 22 8 1 12 29 18 27 24 25 19 2 4 15 5 17 11 7 16 13 9 26 14 10 30 28
96070 3120930 10 28 14 19 15 22 23 4 12 21 7 13 29 20 9 25 27 18 30 26 3 2 6 16 8 5 17 24 1 11
96950 5134128 3 16 12 2 17 13 5 1 11 8 7 9 20 21 23 27 18 14 15 26 28 4 6 22 25 30 10 24 29 19
97170 4380241 12 1 9 3 17 16 2 5 7 6 4 8 23 21 20 25 18 27 30 26 14 22 11 13 24 15 28 29 19 10
98590 2856896 27 23 10 29 21 7 18 20 8 14 12 13 25 9 28 30 22 19 15 4 5 26 2 17 3 6 16 24 1 11
97030 4174768 28 10 19 9 13 20 16 7 8 17 5 1 2 11 12 30 25 24 27 14 29 18 21 23 26 4 6 15 22 3
98060 3899003 7 17 8 11 16 1 5 2 20 26 4 6 15 3 21 10 18 27 28 13 9 14 22 12 30 25 23 19 24 29
98230 3818262 23 29 19 12 11 24 1 16 5 3 2 4 22 6 15 10 21 28 9 13 30 8 7 25 20 17 26 27 18 14
96120 4771259 27 18 14 25 26 13 24 22 15 23 10 28 29 30 19 3 17 12 6 16 11 5 2 4 21 1 7 20 8 9
94870 4246023 19 14 27 29 21 20 23 22 7 10 11 12 28 13 9 25 18 30 24 26 8 4 5 2 6 3 1 15 16 17
93780 4757144 27 25 18 30 26 14 3 6 17 4 2 16 15 5 22 19 10 28 29 24 13 20 1 9 21 7 11 23 8 12
98160 3248421 21 3 15 20 5 6 8 2 4 7 17 1 10 16 9 19 30 25 29 24 26 23 12 22 27 11 18 28 13 14
98560 3422945 8 12 19 17 11 23 16 1 22 5 2 6 15 4 3 18 14 27 9 13 29 7 20 21 10 26 24 28 30 25
96880 3796158 29 27 18 23 28 14 21 7 10 8 13 22 20 9 12 19 24 25 30 15 26 5 4 2 16 17 11 3 1 6
96700 4485544 11 13 9 17 16 7 4 2 10 15 22 28 14 18 27 12 8 20 3 1 21 6 5 23 26 24 29 30 25 19
97770 3064887 28 30 25 14 26 15 13 11 4 18 17 16 27 6 3 19 29 24 10 21 23 7 2 5 20 1 8 9 22 12
94820 4209158 19 10 28 24 29 23 20 1 21 8 7 13 27 9 14 25 15 30 26 3 6 2 4 22 5 17 11 18 16 12
95510 4079576 21 20 19 8 7 9 2 1 17 5 4 16 15 26 30 29 10 28 23 12 13 22 6 11 24 3 14 27 25 18
98060 4946665 28 27 10 14 29 21 24 18 23 25 26 4 30 15 22 19 9 8 13 20 7 12 16 1 11 17 5 3 6 2
94970 4191349 23 21 29 22 8 20 12 11 7 14 13 9 18 27 19 15 4 24 3 5 2 6 17 1 26 16 30 25 28 10
96170 4180004 24 21 29 5 2 23 22 1 12 8 7 20 19 9 10 25 15 30 26 3 6 4 17 11 14 16 13 18 27 28
97500 4116468 29 24 25 21 6 15 1 2 26 7 5 4 20 8 30 19 10 28 23 22 14 11 3 18 13 16 17 9 12 27
96920 3419765 28 10 30 9 22 15 13 16 17 14 6 26 27 18 25 21 7 8 20 1 4 12 11 2 23 3 5 29 24 19
96920 4418631 27 14 28 12 11 18 6 4 22 3 26 15 24 30 25 9 13 10 20 17 7 1 16 8 23 5 2 29 21 19
97300 3819535 12 22 3 11 4 6 16 17 5 13 1 2 9 7 8 18 25 27 14 26 15 23 29 24 28 21 20 10 30 19
94980 3847340 19 8 10 12 1 7 11 16 9 14 17 13 18 27 28 23 21 29 22 5 20 3 2 4 26 6 15 25 30 24
95640 3813928 15 4 20 3 2 5 6 1 21 26 22 23 30 24 29 28 8 10 17 16 7 12 11 13 18 14 9 27 25 19
95580 4589177 25 18 14 24 26 11 3 5 2 6 16 17 15 4 22 19 27 30 29 21 13 23 20 7 12 1 9 28 8 10
96270 4604895 19 30 27 29 21 10 23 28 14 6 26 18 24 15 25 20 8 9 12 1 7 5 16 13 2 17 11 3 4 22
93990 5569158 10 27 18 28 22 14 13 17 11 7 16 1 9 8 12 19 24 25 29 15 30 23 4 26 21 2 6 20 5 3
95840 3640277 18 25 14 26 3 6 16 4 22 17 1 12 9 11 13 27 24 29 30 15 23 5 2 21 8 7 20 19 10 28
96300 3828500 27 30 18 3 6 26 5 4 15 21 20 25 24 29 19 22 12 14 11 16 13 2 1 17 7 8 9 10 23 28
95030 4018483 24 29 19 20 21 23 2 3 14 26 6 18 25 30 27 8 9 12 7 1 13 5 17 11 4 16 22 15 10 28
97860 3492744 30 16 8 17 1 20 18 9 7 14 13 10 27 28 19 3 6 2 26 4 5 22 11 21 15 12 23 25 24 29
97230 4003518 20 8 19 5 2 1 7 17 11 9 16 12 13 28 10 21 29 24 23 6 25 4 3 22 15 26 30 14 18 27
96220 4174064 23 29 19 21 22 24 10 6 15 30 26 25 28 14 18 12 20 8 7 2 5 1 3 4 11 17 16 13 9 27
95210 4468648 27 18 14 3 6 15 17 16 22 12 11 10 9 13 28 30 25 19 5 26 24 1 2 4 8 7 23 20 21 29
97250 4990585 19 9 24 13 20 29 8 7 21 12 22 23 28 10 30 14 18 27 11 1 25 16 17 2 3 5 6 15 4 26
94980 4379899 15 3 24 6 4 2 11 16 17 13 26 25 28 14 18 23 21 29 22 5 20 12 1 8 9 7 19 10 30 27
95070 4777378 12 11 3 13 16 6 22 17 5 7 1 2 9 8 20 14 18 27 28 26 25 23 4 15 21 29 24 10 30 19
97800 4363300 21 9 27 20 22 18 8 1 12 7 11 13 10 28 14 29 24 19 23 6 25 5 16 3 2 17 26 4 15 30
95830 4175552 19 23 29 30 25 24 14 26 20 18 13 9 27 28 10 22 12 21 3 11 1 6 5 2 17 16 7 15 4 8
96100 4173140 19 15 23 12 4 22 11 2 3 17 5 6 16 26 30 28 10 29 13 20 21 9 7 24 8 1 25 14 18 27
98030 4266089 10 22 28 2 5 11 1 16 17 8 7 13 20 21 9 27 15 30 25 26 6 18 4 3 14 24 12 19 29 23
96640 3851262 27 18 14 25 16 26 8 17 11 7 13 9 10 28 30 15 22 6 4 5 3 24 2 1 21 20 12 29 23 19
94740 5189258 10 23 29 9 7 21 13 11 22 14 12 24 18 25 27 28 20 19 8 1 5 16 2 4 17 6 3 30 26 15
95650 3436333 19 10 28 21 29 23 7 9 13 20 24 14 25 18 27 8 15 12 2 4 22 17 16 11 1 3 6 5 26 30
96010 4191056 10 19 29 28 13 23 9 22 21 7 1 11 20 8 12 27 30 24 18 14 25 15 26 6 4 16 3 5 17 2
96150 4178964 17 4 8 16 5 2 11 1 20 12 22 21 13 9 7 25 15 19 26 3 24 18 6 27 30 23 29 14 28 10
94120 3236263 27 14 30 10 28 24 7 21 29 8 20 23 9 13 19 18 26 25 5 4 15 17 2 6 16 3 22 1 11 12
95110 5596910 27 18 9 20 8 12 21 7 13 23 28 14 29 10 19 3 17 16 6 5 1 4 2 11 15 26 22 24 25 30
97110 3430875 30 15 3 26 4 6 18 14 22 27 28 10 25 24 19 5 17 11 2 16 1 8 7 12 20 13 9 29 21 23
93790 5005068 30 28 10 14 13 9 18 8 7 27 20 21 19 29 23 25 11 12 26 16 1 4 17 5 15 6 2 24 3 22
93440 3626603 10 14 25 28 13 9 7 8 20 21 12 24 19 23 29 27 18 30 11 17 26 2 16 1 4 5 6 15 22 3
94450 5134232 8 2 15 5 1 4 17 16 3 26 11 6 30 12 22 19 20 29 24 7 21 25 9 23 18 13 28 27 14 10
98390 3798876 19 23 29 20 21 24 8 5 2 1 17 16 12 6 3 27 18 25 28 10 30 14 7 26 13 11 4 9 22 15
95580 3984567 25 30 19 26 4 15 6 17 11 3 16 2 24 1 5 27 10 28 18 14 22 23 13 12 21 7 8 29 9 20
95250 3919987 22 4 15 2 5 6 8 16 17 12 1 11 30 3 26 19 10 28 29 20 24 21 7 13 23 9 14 27 18 25
97470 3818498 9 27 18 13 12 14 7 11 22 21 4 15 28 23 10 8 30 25 16 17 26 1 5 2 20 3 6 19 29 24
94040 4234446 20 8 28 1 7 9 12 11 13 23 21 10 29 30 19 5 4 15 2 16 22 6 17 14 3 26 18 24 25 27
98880 3842043 28 10 30 1 2 25 8 20 24 13 7 14 9 21 29 3 6 15 17 4 26 16 5 18 11 22 27 12 23 19
99490 3475499 29 23 21 15 3 4 6 2 5 22 12 7 19 20 8 25 24 27 18 16 17 26 1 11 14 9 13 30 10 28
96190 4946691 20 8 9 5 2 7 15 4 22 29 23 21 24 19 10 30 1 12 3 16 11 6 17 13 26 14 28 25 18 27
97060 4741982 27 19 8 25 24 20 18 29 7 14 21 13 28 10 9 15 4 5 26 2 1 3 17 16 6 22 11 30 23 12
98110 3234380 21 8 7 20 5 1 3 2 11 6 16 17 15 4 9 29 23 10 24 22 30 25 26 12 14 18 13 19 27 28
95830 5055132 6 5 8 3 2 16 15 4 17 25 26 30 27 18 14 23 20 12 22 1 11 21 7 9 29 24 13 10 28 19
96110 4019232 19 24 30 25 3 26 18 6 4 14 22 15 27 10 28 29 21 20 23 5 2 11 17 1 12 16 8 13 7 9
99710 3639784 30 26 15 18 4 2 14 22 5 27 21 7 19 28 10 25 6 3 24 16 17 12 1 8 23 11 20 29 13 9
97660 5379487 9 7 10 13 1 28 11 17 6 12 16 3 14 18 26 29 20 19 21 8 24 23 2 5 22 4 15 27 30 25
98170 4003500 30 26 3 14 17 6 18 2 4 28 10 15 27 25 24 9 1 12 13 16 11 20 7 5 19 8 22 29 21 23
96620 5494329 23 19 9 29 21 13 10 20 28 24 18 14 25 27 30 12 1 8 11 16 7 22 5 17 3 2 4 6 26 15
98920 3861070 29 19 10 23 22 21 4 3 1 5 2 7 24 20 8 27 14 28 18 6 12 15 16 11 26 17 13 25 30 9
92790 4766132 6 4 15 3 2 22 1 5 12 17 16 11 25 26 30 24 29 19 20 21 23 8 7 10 9 13 28 18 14 27
96990 4019695 24 22 25 12 6 15 3 2 26 1 5 4 11 17 16 19 10 27 29 28 30 23 21 18 20 8 14 9 7 13
96730 3642244 15 3 6 4 16 17 2 5 1 20 7 8 29 21 24 30 26 14 22 11 18 28 13 12 10 9 27 19 23 25
99360 3833006 3 25 24 6 26 14 16 2 18 4 5 27 15 22 30 19 23 29 11 12 21 17 13 20 1 7 8 9 28 10
96060 4608011 18 26 14 27 4 15 17 16 11 9 7 13 19 10 28 25 3 30 6 2 22 1 5 12 8 20 21 24 29 23
96390 3436642 24 5 26 3 16 2 1 17 4 6 22 15 12 11 30 29 19 25 20 8 18 21 7 27 23 9 14 10 13 28
96890 3233963 27 1 3 11 17 6 18 16 2 26 4 5 25 15 24 9 22 19 12 8 20 13 7 21 14 10 23 30 28 29
98830 3519151 15 22 6 26 4 3 2 5 16 18 8 17 14 7 11 19 29 24 25 23 12 30 21 1 27 20 9 28 10 13
96430 4618607 30 18 27 2 26 14 5 16 11 7 17 13 8 1 9 10 25 28 24 3 15 21 6 22 20 4 12 29 23 19
98540 4380133 19 10 28 22 12 21 2 8 7 11 16 13 1 17 9 30 27 24 15 23 29 4 5 20 6 3 14 26 18 25
98880 3436871 24 25 19 29 4 30 20 2 5 9 1 8 23 7 21 27 18 28 14 26 15 3 16 6 13 17 22 12 11 10
95710 3610102 20 6 12 8 2 3 7 4 5 13 17 11 9 16 1 29 23 19 21 22 24 10 15 25 28 26 30 14 18 27
98820 3984313 21 24 20 6 2 8 3 5 4 16 17 1 11 7 9 23 29 19 12 25 30 22 26 15 14 18 27 13 10 28
96730 4363106 19 10 28 23 12 13 30 26 14 24 9 18 29 25 27 15 22 11 6 3 16 4 5 17 2 1 7 21 20 8
96330 4178668 9 8 20 13 7 1 17 16 2 11 4 5 10 22 12 19 25 29 14 21 24 18 26 6 27 15 3 28 30 23
98620 4276184 12 10 28 1 23 24 8 20 29 7 21 25 9 13 19 3 22 30 6 4 15 16 2 26 17 5 18 11 14 27
92820 6181181 11 22 3 17 5 6 16 2 4 14 26 15 18 27 30 9 12 23 13 1 20 7 8 21 28 24 29 10 25 19
98820 4001727 12 7 9 11 17 13 1 16 22 3 4 10 6 15 28 21 8 27 29 20 14 23 5 18 24 2 25 19 26 30
96610 4379707 29 21 23 20 7 8 5 2 1 17 16 11 9 13 12 25 24 19 15 28 10 6 4 22 26 3 18 30 14 27
94590 4553917 12 17 11 1 16 5 3 2 26 6 4 22 24 15 25 9 13 30 8 7 14 20 21 18 23 28 10 29 19 27
97630 3795930 29 23 21 10 13 7 28 11 12 24 14 22 19 18 27 20 9 8 1 17 2 3 16 5 6 26 4 25 30 15
94160 4463809 9 10 28 13 7 14 20 8 18 21 24 25 29 19 27 22 4 15 11 16 17 1 2 26 12 5 6 23 3 30
96810 3629581 23 29 24 9 7 21 12 13 11 27 10 28 18 14 25 19 20 2 8 1 5 17 16 3 22 4 6 30 26 15
93800 4796400 28 9 10 8 13 7 22 20 21 18 14 23 27 19 29 12 1 11 17 16 5 6 3 2 15 26 4 25 30 24
96790 4627377 12 11 30 1 17 22 16 5 2 6 4 26 3 15 25 9 13 14 8 7 21 20 23 29 10 24 18 28 19 27
96180 4002307 30 20 8 1 17 16 26 5 2 6 3 4 25 24 15 27 9 7 18 13 11 14 12 22 23 21 10 19 29 28
95190 3625496 27 14 28 18 30 15 25 26 6 24 4 23 19 21 29 9 13 10 12 11 22 17 16 3 1 2 5 8 7 20
96200 4178183 14 28 10 18 22 15 26 6 4 25 3 5 30 24 19 27 13 9 12 11 7 1 17 16 20 2 8 29 23 21
100200 3419105 19 11 12 6 2 3 22 5 1 30 26 21 24 23 29 28 13 9 15 17 16 4 7 8 10 14 20 25 18 27
98690 2782649 3 9 23 6 1 12 2 17 22 26 16 11 14 18 13 24 19 29 20 8 21 5 7 10 15 4 30 25 27 28
97360 4573168 11 3 6 17 16 4 13 22 15 14 18 26 28 27 30 12 1 24 8 2 5 9 7 20 10 21 25 19 23 29
97190 3451848 10 27 18 28 22 14 23 13 25 21 12 24 29 9 19 30 6 26 15 11 3 4 17 16 2 1 5 20 7 8
97020 3684783 19 21 29 10 6 23 15 3 24 28 26 25 14 30 18 9 20 8 7 1 5 4 16 2 22 11 17 13 12 27
100800 4002542 24 25 10 30 15 28 22 26 14 2 5 8 27 17 18 23 29 19 3 21 20 6 4 13 11 16 7 12 1 9
99960 3248107 24 25 29 22 23 21 3 26 10 6 5 28 15 4 30 27 18 14 12 9 13 11 1 7 17 16 20 2 8 19
98700 4175304 29 21 23 3 6 20 17 2 1 11 16 12 13 7 9 19 30 27 24 26 25 4 5 18 15 22 8 28 10 14
97910 4550124 25 3 12 6 16 17 26 11 1 14 13 9 18 28 10 24 22 8 15 4 5 30 2 7 29 21 20 27 23 19
94610 4841239 14 10 19 13 28 29 12 22 23 11 7 21 9 8 20 18 25 27 26 15 24 6 4 3 16 5 2 17 1 30
96400 4042101 24 25 27 23 30 18 15 26 14 5 4 22 3 6 12 19 10 28 29 21 9 20 7 13 2 16 1 8 17 11
98890 4206356 9 1 8 7 16 5 11 17 2 13 12 24 10 28 19 30 6 20 21 4 15 22 26 3 23 25 29 14 18 27
96990 4082669 30 16 6 22 17 3 14 26 5 18 4 15 27 25 24 19 12 8 9 1 2 13 11 20 28 7 21 10 23 29
97860 3813456 9 8 28 20 7 2 13 1 5 11 16 17 12 6 3 19 24 10 29 21 23 14 25 22 18 26 4 27 30 15
99900 3625193 13 9 14 11 1 20 12 3 21 22 23 29 28 24 19 7 17 30 5 16 8 2 6 26 15 4 18 10 27 25
93450 3610244 18 25 24 14 26 15 17 11 3 16 2 6 1 5 4 27 30 19 28 10 29 13 12 23 9 22 21 8 7 20
100320 3247570 22 17 4 1 16 26 11 7 30 13 9 14 10 27 18 6 5 15 3 2 24 12 8 20 23 21 29 28 19 25
96440 4464383 18 27 28 30 25 10 26 3 23 4 6 29 15 24 19 14 12 13 22 11 9 17 1 7 2 16 21 5 8 20
98470 2908939 19 14 10 13 11 28 7 16 5 8 17 1 9 12 22 29 18 27 23 24 25 21 2 26 20 4 3 30 6 15
97210 3631322 20 6 3 8 1 2 7 16 5 9 17 4 27 22 15 19 29 24 21 12 23 10 11 25 28 13 26 18 14 30
96210 4039679 25 14 18 30 13 9 26 16 17 3 11 1 6 12 22 28 10 27 19 20 7 15 4 8 24 5 2 29 23 21
98250 3474244 29 21 24 23 5 3 17 1 2 16 4 20 9 7 8 18 27 25 14 26 30 12 11 6 13 22 15 19 10 28
95650 4589221 25 18 27 9 13 14 20 7 10 29 21 23 24 19 28 12 26 30 1 11 22 8 16 2 5 17 4 3 6 15
96120 4549751 30 15 25 24 26 6 21 22 3 29 23 18 19 14 27 20 4 8 2 5 16 7 1 17 9 11 12 10 13 28
101310 3040536 30 26 4 25 5 17 18 2 16 27 7 11 19 20 8 10 28 15 24 3 6 14 1 22 23 9 13 29 21 12
95250 4127460 29 23 19 24 21 20 25 14 7 18 13 9 27 28 10 30 22 15 6 3 4 26 2 5 1 17 16 12 11 8
99120 4206335 19 10 22 23 4 3 21 1 2 29 7 5 24 20 8 30 28 15 26 12 6 14 11 17 18 13 16 25 9 27
99540 4036342 10 19 27 28 23 29 8 7 21 20 2 30 15 4 24 14 9 18 12 13 11 22 16 1 5 17 26 3 6 25
100830 3640916 19 15 24 8 4 22 2 5 12 17 16 11 6 3 25 10 28 29 20 7 21 9 1 23 27 13 18 30 26 14
94370 4028834 27 18 14 25 26 30 24 4 15 23 10 28 29 21 19 12 3 22 6 1 11 5 17 16 8 2 13 20 7 9
95040 5004780 23 29 24 12 21 20 22 2 5 3 4 6 27 15 25 28 10 19 13 7 9 11 8 1 16 17 26 14 18 30
96690 4191845 28 10 14 13 11 30 12 17 26 22 6 4 23 3 15 19 27 18 9 7 25 8 16 2 20 1 5 29 21 24
95580 5051381 23 22 6 21 2 5 20 4 3 29 15 26 24 25 30 12 8 11 13 7 16 9 1 17 28 14 18 19 10 27
98410 3518905 25 18 27 3 26 5 6 22 4 24 14 15 19 30 28 12 16 8 11 17 2 1 9 7 23 13 20 29 21 10
97280 3814511 30 15 4 18 26 17 25 11 16 14 13 7 10 28 9 27 3 2 22 6 5 24 12 1 23 21 8 29 19 20
96800 4003219 15 3 16 6 5 17 4 2 11 20 1 7 28 9 13 25 30 27 24 26 18 23 22 12 29 21 8 19 10 14
93700 4556077 20 21 23 8 1 12 7 11 22 9 13 28 27 14 10 24 29 19 5 6 3 2 17 4 16 26 15 25 18 30
97960 4742007 5 20 8 3 1 9 6 22 12 24 23 21 27 29 19 15 2 7 4 16 17 26 11 13 25 14 28 30 18 10
96560 4932809 10 20 19 7 8 12 9 16 1 13 17 11 28 18 27 23 29 30 21 5 24 4 2 3 22 6 26 14 15 25
96220 3746716 20 10 28 7 9 13 8 1 12 2 17 11 5 16 22 19 25 30 29 24 14 21 26 23 4 6 18 15 3 27
95770 3609044 25 14 19 28 13 24 12 11 9 23 22 29 10 7 21 30 18 27 26 17 6 3 16 1 4 5 20 15 2 8
96860 4251393 10 29 19 28 23 13 24 22 12 25 14 9 30 18 27 21 8 20 5 7 11 4 2 1 26 16 17 15 6 3
97460 3038122 18 25 15 14 26 4 16 17 5 13 11 6 28 12 3 27 29 24 30 21 20 7 8 2 9 1 22 10 23 19
97110 4747700 9 1 12 11 6 3 17 2 5 16 4 20 13 7 8 30 25 24 27 26 23 18 22 29 14 15 21 28 10 19
99180 3604109 20 2 8 1 17 7 3 16 5 6 11 4 12 22 15 19 18 27 21 14 9 29 26 25 24 13 30 23 28 10
98670 5311337 25 27 19 24 18 29 15 22 14 26 6 23 30 3 12 8 10 28 20 7 21 2 5 13 4 17 11 1 16 9
97800 3229193 10 22 28 12 11 13 21 3 15 23 6 14 29 24 25 19 1 9 7 16 17 8 5 4 20 2 26 30 27 18
98740 4453322 10 8 28 7 5 13 20 2 11 21 22 1 23 12 9 27 18 14 25 26 16 15 4 17 24 3 6 29 30 19
92590 4583268 25 26 30 3 6 15 5 2 4 23 21 20 24 29 19 14 18 27 12 16 22 11 17 1 13 7 8 28 9 10
100140 3495914 23 19 25 10 28 27 22 6 15 12 3 18 9 13 14 21 29 24 8 20 30 2 5 4 1 16 26 7 11 17
96830 4191442 24 23 29 3 4 21 6 1 20 2 5 7 16 17 8 25 28 19 15 22 10 12 13 9 26 11 30 18 14 27
97430 4003143 9 1 13 16 17 11 26 3 12 30 18 14 25 27 19 28 7 20 5 2 8 6 4 21 15 22 23 10 24 29
95900 4176690 29 21 19 25 20 7 26 18 9 27 14 13 30 10 28 24 23 8 4 2 1 3 5 16 6 17 11 15 22 12
96510 3796309 13 11 12 17 16 6 8 5 3 14 2 26 27 18 30 9 10 28 7 1 22 20 4 15 21 23 24 19 29 25
98100 4103756 8 11 12 16 1 22 17 4 6 2 5 3 21 24 23 9 13 28 7 20 10 14 26 15 18 25 30 27 29 19
97250 4573200 9 1 7 17 11 21 13 12 23 28 22 10 14 18 27 16 2 8 4 5 20 6 3 29 15 26 24 30 25 19
96230 5177185 9 13 14 7 17 18 1 11 26 28 22 30 10 19 25 20 12 27 8 16 3 2 5 6 21 4 15 29 23 24
97000 4271929 8 22 30 2 6 3 16 5 4 17 26 15 18 14 25 9 12 23 20 21 29 7 1 24 13 11 28 27 10 19
97920 3625590 24 3 21 4 6 20 2 5 11 17 16 7 8 1 9 25 30 29 18 26 14 15 22 23 27 12 13 19 28 10
96690 3814069 19 29 27 10 21 14 20 7 23 8 13 22 28 9 12 30 24 25 5 26 18 2 1 6 4 17 11 15 16 3
99170 3990245 22 8 19 5 16 17 1 7 9 11 13 14 12 28 10 2 15 30 6 4 26 3 20 25 24 21 18 23 29 27
96820 4467405 2 5 3 16 4 1 26 17 11 18 6 22 27 15 12 24 20 29 8 7 21 25 13 9 14 10 23 30 28 19
99060 4419776 29 23 12 19 22 11 18 1 16 14 21 13 27 10 28 24 3 6 15 2 4 26 5 17 25 8 7 30 20 9
97260 4595141 19 27 28 6 16 13 3 17 11 15 26 18 30 25 14 21 8 10 20 7 9 2 1 12 4 5 22 29 24 23
95640 4041585 10 14 30 28 29 24 23 13 12 21 7 9 8 20 19 27 18 25 15 4 26 22 11 6 5 17 1 2 16 3
95610 4247293 19 14 29 28 13 23 9 12 20 22 11 8 10 7 21 27 18 25 30 26 24 3 1 6 17 16 5 15 4 2
97400 4173396 20 8 2 9 7 1 11 16 5 3 17 6 15 4 26 29 21 24 28 10 23 13 22 12 14 18 25 19 27 30
94600 4172942 15 5 11 4 2 17 3 1 16 24 6 12 25 26 30 10 22 28 21 7 8 20 9 13 29 23 14 19 27 18
97280 4462248 27 30 18 11 16 17 1 2 26 12 6 3 19 24 25 28 10 14 13 7 8 9 5 22 23 20 4 29 21 15
97090 4178461 30 26 14 6 4 15 3 17 28 1 16 9 12 11 13 25 18 27 24 2 19 22 5 10 8 7 20 23 21 29
96190 4417662 14 10 28 25 22 13 6 11 12 3 23 21 24 29 19 18 30 27 26 1 9 17 16 7 4 2 8 15 5 20
102070 3284750 25 15 28 3 4 10 2 5 11 8 16 7 26 17 30 27 24 19 29 22 23 21 6 12 20 1 13 18 14 9
93350 3666583 29 21 19 23 7 20 9 13 10 24 14 28 25 18 27 12 8 22 1 2 5 11 16 4 6 17 3 30 26 15
98750 3874531 19 30 15 27 18 26 10 3 6 28 14 25 29 23 24 8 17 4 20 16 5 7 1 2 13 11 22 9 21 12
97600 3984809 25 26 30 24 4 15 5 2 6 16 17 3 10 22 28 19 18 27 29 21 23 8 1 20 7 11 12 9 13 14
97380 3796952 29 21 23 20 8 12 7 17 1 9 16 11 13 14 18 19 24 30 15 2 6 4 5 3 10 22 26 28 25 27
96470 4087032 16 17 1 4 5 11 26 2 6 15 3 22 24 29 23 27 8 9 18 7 13 14 20 12 25 21 28 30 19 10
96870 4052356 8 20 30 7 11 9 5 16 1 4 17 26 2 6 3 10 28 27 21 13 14 22 12 18 15 23 25 19 29 24
97060 3626149 27 18 14 25 26 30 8 17 9 7 1 13 20 10 28 24 3 15 2 6 22 5 16 4 21 11 12 29 23 19
94020 4946661 24 10 27 29 23 28 21 1 9 20 7 13 19 8 12 25 30 18 15 26 14 6 5 22 4 2 16 3 17 11
96870 3800824 27 18 14 3 26 25 6 17 15 5 2 4 24 20 30 19 10 28 12 11 13 1 16 22 23 7 9 29 8 21
98520 3420590 10 12 23 21 2 6 8 1 5 20 29 3 19 27 24 28 22 15 13 11 4 7 17 16 9 14 26 30 18 25
95050 4552969 30 26 15 4 16 3 1 17 6 8 2 22 20 5 24 27 18 25 28 13 14 9 11 12 7 21 23 10 19 29
94900 5408524 29 24 19 23 14 28 21 13 10 7 1 11 20 9 12 27 25 30 18 26 15 2 4 22 5 16 6 8 17 3
96930 3610966 10 12 22 13 11 4 9 16 17 7 1 2 20 8 5 28 18 27 19 14 15 23 3 6 29 21 26 24 25 30
93050 4684749 10 28 23 7 13 21 9 20 29 27 19 24 18 14 25 8 12 22 1 11 2 17 5 4 16 6 3 30 26 15
96600 3814994 28 13 14 11 17 12 4 16 22 6 3 18 15 26 27 10 9 23 7 8 21 20 1 29 5 2 24 19 30 25
97460 3415576 13 9 14 7 20 18 12 22 27 21 23 29 28 10 19 8 16 30 17 1 26 11 3 6 2 4 24 5 15 25
95040 4368944 29 23 15 21 4 22 1 2 3 20 5 6 24 26 25 19 10 28 9 13 12 7 17 11 8 16 27 30 14 18
93690 3799223 24 3 15 5 6 26 2 16 4 1 17 22 12 11 30 29 19 27 23 21 25 20 7 18 8 9 14 10 13 28
100530 3232571 23 30 24 3 6 14 2 26 25 22 4 18 10 15 27 12 21 29 11 20 13 1 17 9 5 16 7 28 8 19
100330 3125033 10 12 27 22 13 14 16 11 18 17 1 9 8 7 20 28 23 19 3 21 29 6 5 24 4 26 25 15 2 30
97080 3991014 22 15 24 2 4 23 5 3 6 1 11 12 30 26 25 8 28 10 7 20 29 17 16 21 9 13 19 14 18 27
98330 4208039 28 13 9 10 11 12 7 5 1 21 22 8 23 20 19 27 14 30 18 26 17 25 2 16 24 4 3 29 15 6
97800 3686710 8 20 29 16 1 21 11 22 12 13 7 9 28 10 19 6 5 24 3 2 23 17 4 15 14 26 30 18 25 27
98590 3249027 27 25 30 18 3 26 14 17 16 13 12 11 28 19 6 23 29 24 21 20 5 9 1 2 7 8 4 10 22 15
97980 4570640 19 28 10 29 23 21 30 26 20 25 13 9 27 18 14 24 15 4 3 6 5 1 2 7 11 17 16 12 22 8
95320 4178998 18 26 30 2 5 6 16 4 3 17 11 12 1 15 22 27 25 24 20 14 29 8 21 23 7 13 19 9 28 10
95670 4743141 23 24 29 12 22 21 11 1 7 13 9 28 14 25 10 19 6 20 3 5 8 17 2 4 27 16 15 18 26 30
97330 4653997 9 7 8 20 17 4 1 16 5 3 6 2 29 21 24 10 28 30 12 13 15 22 11 26 23 14 25 19 18 27
94710 4608472 28 10 23 12 1 22 13 7 21 9 8 20 19 14 29 15 4 6 11 5 3 16 17 2 30 26 24 27 18 25
98480 3430198 14 12 11 18 16 17 28 13 1 10 9 7 27 20 8 25 26 30 15 3 6 24 4 2 19 22 5 29 23 21
95750 4447524 24 15 28 3 6 10 23 26 18 29 25 14 19 30 27 5 4 22 2 17 11 1 16 12 21 7 13 20 8 9
92850 4947604 19 28 10 9 13 7 29 20 21 24 14 23 25 18 27 12 11 22 1 17 8 16 2 5 6 3 4 30 26 15
95720 4381470 27 30 24 14 10 20 28 7 8 13 9 21 19 23 29 18 26 25 15 4 3 16 2 5 11 17 1 22 6 12
94570 4368148 20 6 12 5 4 22 2 1 11 8 16 17 7 9 13 29 24 19 23 3 15 21 26 25 27 30 18 10 28 14
95620 4860104 23 21 29 22 2 20 1 7 8 11 9 10 12 13 28 6 15 19 3 4 24 17 5 25 16 26 18 30 14 27
98220 3830273 30 26 15 3 4 5 6 17 2 24 11 1 29 23 20 25 28 10 18 14 22 27 16 8 12 13 7 19 21 9
98780 4395893 10 7 8 5 11 16 6 2 17 15 4 22 28 30 27 21 20 9 29 1 13 23 3 12 24 26 14 19 25 18
97260 3873679 15 22 19 4 3 6 16 17 1 5 11 12 8 2 23 14 18 27 30 26 25 28 13 9 7 20 24 10 21 29
94250 4967226 19 14 30 29 28 10 23 13 22 12 1 11 21 9 7 25 18 27 24 26 15 3 17 4 6 16 2 20 5 8
97450 3645573 27 12 28 18 11 10 14 13 7 23 9 21 30 29 19 15 22 8 6 16 4 3 17 5 26 1 2 25 24 20
96710 3418433 9 13 14 12 7 21 1 8 20 22 10 23 19 28 29 11 17 27 16 5 18 6 2 26 3 4 25 24 15 30
95710 5224381 10 9 19 13 7 20 14 12 8 18 23 21 27 30 29 28 22 15 11 1 4 17 16 2 26 6 5 25 3 24
98340 3654646 28 13 9 15 17 22 4 16 11 26 6 1 30 3 12 27 20 10 14 8 7 18 2 5 24 29 21 25 19 23
98590 4019122 28 15 14 16 4 17 5 2 11 8 7 13 10 20 9 25 26 30 18 6 3 27 1 22 24 21 12 29 23 19
97640 4228736 30 3 15 26 17 6 18 16 4 14 28 27 25 10 24 12 22 8 1 5 2 11 7 20 9 13 21 19 23 29
100440 3870258 19 29 23 24 4 21 1 17 5 20 16 2 9 7 8 25 30 15 18 26 6 3 11 22 27 12 10 14 13 28
96280 3985628 3 22 15 6 2 4 5 16 17 11 1 7 12 20 8 30 28 10 25 26 27 24 14 18 23 13 9 29 21 19
99080 3607292 20 21 29 8 7 5 9 16 17 13 11 24 27 18 19 28 10 23 22 4 15 1 2 3 12 26 6 14 25 30
94270 4554628 29 20 9 21 4 7 23 22 12 14 15 13 19 10 28 24 1 8 5 2 17 6 3 16 18 26 11 27 25 30
93440 4658546 27 30 19 14 12 23 9 8 20 13 7 21 28 10 29 18 26 25 22 6 3 16 17 1 11 5 2 15 4 24
100360 3670494 8 17 16 5 11 3 2 4 15 7 13 28 21 20 10 27 30 18 12 6 26 22 1 25 23 9 14 29 24 19
97430 5151419 15 22 12 4 17 11 16 5 1 13 7 8 28 9 10 18 3 27 14 6 19 26 2 23 25 20 21 30 24 29
95050 4207538 27 21 19 23 2 29 22 5 20 12 1 8 9 7 10 18 25 30 14 26 24 3 6 15 16 17 4 13 11 28
96350 3683011 10 8 19 9 7 20 16 2 4 13 17 15 28 18 27 23 21 29 12 1 24 22 5 3 11 26 6 14 30 25
94750 3609905 25 27 18 24 23 14 29 21 13 20 7 9 19 10 28 15 3 22 26 6 17 4 2 16 5 1 11 30 8 12
95300 5323996 28 10 9 13 7 20 17 16 8 11 2 1 3 6 12 18 27 19 14 21 29 25 5 23 26 4 22 30 15 24
97430 4715200 19 18 27 25 14 13 26 11 12 6 3 22 30 15 28 29 21 23 20 7 9 2 16 8 5 17 1 24 4 10
96290 4628348 20 23 29 8 5 24 7 2 21 9 22 25 10 19 27 12 3 30 1 4 6 11 16 26 13 17 14 28 15 18
98060 4002532 18 27 25 14 26 28 13 11 10 7 21 24 9 30 29 22 4 15 16 3 6 17 5 12 1 2 23 8 20 19
98190 3436734 27 4 15 18 2 5 26 16 17 30 11 1 25 3 6 28 20 8 10 7 22 14 13 9 19 21 12 24 29 23
97450 4743595 25 26 18 2 4 15 6 17 22 3 16 13 12 11 14 24 30 27 8 5 28 20 1 10 21 7 9 29 23 19
94770 4362676 19 29 24 23 21 25 15 4 26 14 27 18 28 10 30 12 8 20 3 2 6 22 5 1 11 17 16 13 7 9
96430 3796759 27 25 30 14 18 26 13 7 11 9 16 17 28 10 15 29 24 19 23 21 3 20 5 2 8 1 4 12 22 6
95980 3690085 27 18 14 12 11 13 3 26 30 15 25 28 19 24 10 22 1 9 16 17 8 6 5 7 4 2 20 23 29 21
94210 4791630 15 4 22 17 16 11 6 1 5 26 3 2 25 24 30 28 9 10 13 8 7 12 20 21 14 29 23 18 27 19
95210 4460828 14 30 25 18 26 24 27 22 15 28 23 29 10 21 19 13 12 6 11 17 3 16 5 4 9 1 2 7 8 20
101280 4568697 30 2 8 25 26 17 21 20 7 29 18 9 27 14 13 24 15 5 6 3 16 22 4 1 23 12 11 19 10 28
95720 3815478 24 3 21 6 4 20 1 5 2 16 17 11 9 8 7 30 19 29 25 15 23 26 22 12 18 14 13 27 28 10
95770 3987017 27 1 8 18 17 16 6 3 5 26 4 2 25 15 24 28 9 20 14 12 13 10 11 7 30 22 21 19 23 29
97610 4364679 25 26 30 29 23 21 24 2 20 1 5 4 3 6 15 27 18 14 19 28 10 9 13 7 16 17 8 12 11 22
98080 3898872 27 18 30 16 26 25 2 4 15 3 6 22 24 29 19 9 13 14 17 11 28 1 7 10 8 5 12 20 21 23
100240 2669879 20 8 25 2 1 9 5 17 26 6 16 18 3 12 27 24 21 29 22 7 19 4 11 23 15 13 14 28 10 30
98130 3479485 15 4 5 26 6 17 25 3 16 18 22 11 14 28 13 19 20 8 30 2 1 24 23 12 29 21 7 27 10 9
96200 3872840 29 19 30 21 14 18 13 20 27 7 17 10 9 8 28 23 24 25 12 6 26 11 5 3 1 16 4 22 2 15
92460 4840484 23 6 12 3 2 1 4 5 16 22 17 11 15 26 30 29 24 19 21 20 8 10 7 9 28 25 13 27 18 14
97630 3814144 29 23 21 24 12 9 25 11 13 18 26 14 27 30 19 8 2 20 5 1 7 16 17 4 3 6 22 10 15 28
94450 3800797 18 14 25 27 13 9 28 7 20 10 21 24 19 23 29 30 26 8 17 16 1 2 11 5 6 4 3 15 22 12
96120 4174254 12 16 8 11 17 1 9 7 20 13 21 23 28 10 29 15 4 30 6 26 3 22 5 2 14 18 27 19 25 24
96080 4444544 13 11 14 9 17 26 7 16 18 28 30 25 10 19 27 12 22 3 1 2 6 8 5 4 20 21 15 23 29 24
98620 5147094 27 19 24 18 14 25 22 5 20 4 2 3 15 26 6 28 10 29 13 21 23 9 7 8 17 1 12 16 11 30
99590 4039364 23 21 10 20 7 12 3 1 11 2 4 22 5 8 27 24 29 19 25 9 28 6 17 13 26 16 15 30 18 14
95850 4237087 12 11 13 6 17 16 3 5 2 8 1 7 20 21 9 27 14 28 18 26 25 22 4 15 30 23 10 19 29 24
94450 4945709 25 18 27 14 13 9 20 7 8 24 21 28 29 23 10 30 11 12 26 16 17 5 2 1 6 3 4 19 22 15
96360 4571674 14 18 27 13 11 22 16 17 6 4 5 2 15 26 3 10 19 29 28 12 23 9 1 21 7 8 20 30 25 24
95450 4555944 30 18 27 2 17 14 8 16 20 7 13 9 10 28 19 25 26 24 15 3 6 4 5 1 22 11 12 21 23 29
97630 5635850 20 8 21 1 2 23 22 5 4 3 6 29 12 19 24 9 7 10 13 16 28 11 17 15 30 26 25 14 18 27
97030 3442851 25 30 10 23 12 9 21 1 7 24 5 8 29 20 19 18 27 28 14 22 13 26 11 17 6 3 16 15 4 2
98700 4018929 25 27 24 18 14 29 26 5 2 1 7 21 30 8 20 28 10 19 15 22 23 4 16 6 17 11 3 9 13 12
95750 4252986 16 11 13 17 1 9 4 5 7 2 6 20 8 12 21 18 14 27 26 30 28 15 22 10 25 3 24 19 23 29
98610 3626155 9 12 22 1 11 4 8 16 17 7 13 28 21 23 10 30 6 27 20 3 15 5 2 26 19 14 18 29 24 25
95270 3792881 24 29 19 30 26 15 25 4 23 18 21 10 27 14 28 20 2 3 1 5 6 16 17 11 8 7 22 9 13 12
96390 3991684 30 18 14 1 26 16 2 17 4 3 5 22 23 6 15 19 25 27 24 8 9 20 7 13 21 11 12 29 10 28
96980 3879094 12 11 14 17 16 22 3 4 15 6 26 18 25 30 27 8 9 13 1 7 21 5 2 23 20 29 28 24 19 10
95280 4237756 24 25 18 5 26 14 2 6 3 17 16 11 4 15 22 19 29 27 20 21 30 8 1 23 7 13 12 9 28 10
96270 3425831 24 20 8 25 5 1 26 2 17 18 4 16 15 6 3 29 21 19 23 7 9 14 13 11 27 22 12 30 28 10
97230 4228051 15 6 4 3 16 1 26 17 11 14 22 13 30 12 28 24 29 21 5 2 20 25 8 7 18 23 9 27 19 10
96920 5408759 14 24 29 18 27 23 25 6 21 26 3 4 30 15 19 13 9 20 12 22 8 11 1 7 16 17 5 28 2 10
97220 3230907 24 29 19 25 21 14 4 26 18 3 6 27 15 23 30 20 10 28 8 7 13 5 17 11 2 16 12 22 1 9
93550 4362832 28 10 19 21 23 29 7 20 24 13 18 14 9 27 25 12 22 15 11 6 3 2 5 4 16 17 26 8 1 30
98950 3044246 28 14 13 15 11 9 26 17 1 30 16 12 25 18 27 10 22 20 21 4 7 6 2 5 23 3 8 29 24 19
96940 4467736 24 29 19 3 6 27 15 4 16 26 17 18 30 25 14 23 21 20 2 12 8 5 1 7 22 11 9 10 28 13
95110 4384611 1 3 30 17 16 15 5 4 26 2 6 18 27 24 25 9 12 28 8 11 13 7 22 10 20 23 14 21 29 19
95660 4584189 28 30 25 10 22 18 9 13 14 23 12 24 29 19 27 15 6 26 4 3 16 1 11 17 7 2 5 21 20 8
92690 4206720 19 18 27 29 14 24 21 8 20 23 7 9 10 13 28 30 26 25 15 4 3 2 16 6 5 17 1 22 11 12
96930 5379053 8 14 18 2 17 27 1 16 22 7 11 12 9 13 19 30 26 25 5 4 15 20 6 3 10 21 23 28 24 29
95290 5500887 18 27 10 14 13 28 9 7 8 17 16 1 22 11 12 19 24 29 25 21 23 30 5 20 26 2 3 15 4 6
98570 3417556 15 4 2 26 5 1 6 16 17 22 3 11 14 12 13 25 24 19 30 20 9 18 8 7 21 29 10 27 23 28
95400 5433778 28 27 30 14 18 25 13 11 26 12 16 3 15 17 6 10 19 24 23 21 29 9 7 20 8 1 5 22 4 2
95200 3823179 30 25 27 28 24 14 10 7 13 23 21 20 19 29 9 15 26 18 4 5 17 3 11 16 6 2 8 22 1 12
95500 3814647 9 7 20 8 1 2 17 4 5 16 26 3 30 15 6 28 10 21 13 12 23 14 11 22 18 25 29 27 19 24
96950 4554816 9 7 8 13 1 2 11 17 5 12 16 4 28 22 15 19 20 25 29 21 24 14 18 26 23 3 6 10 27 30
95590 4552410 12 10 28 8 7 13 11 1 9 16 17 14 22 18 27 23 21 29 2 20 19 4 5 24 3 6 25 15 26 30
95100 4364148 10 9 28 8 7 13 22 20 14 21 18 27 23 29 19 12 1 11 2 16 17 5 4 6 3 26 15 24 25 30
95620 3992492 8 1 12 7 17 11 5 2 16 22 4 3 15 26 6 10 9 19 28 20 13 21 29 23 18 24 14 27 25 30
95560 5433578 10 28 27 19 22 18 9 13 14 23 12 25 29 24 30 8 5 15 7 2 4 20 16 17 1 11 26 21 6 3
98980 4246292 24 5 6 2 17 3 12 1 23 8 7 21 19 20 29 25 30 15 26 16 4 18 11 22 27 9 10 14 13 28
93750 3814371 23 24 30 3 6 26 2 5 4 1 17 16 12 11 15 29 19 25 21 27 18 20 22 14 8 7 10 9 13 28
94500 4757930 10 27 18 28 8 14 20 7 13 21 22 9 29 23 19 24 30 25 15 2 26 4 5 17 3 1 16 6 12 11
98180 4933601 30 15 19 11 4 22 3 2 12 26 6 23 25 24 29 14 10 28 9 7 13 16 17 8 1 5 20 18 27 21
97640 4175380 19 23 29 12 21 24 8 22 20 2 5 4 6 3 15 30 10 28 9 13 27 1 7 14 17 11 18 16 26 25
99620 4365004 30 3 12 15 6 22 26 21 23 25 24 29 27 18 14 8 16 11 2 5 17 4 7 1 10 20 9 28 19 13
93310 6149407 19 10 28 29 21 27 23 22 14 15 26 18 24 30 25 8 7 9 20 1 13 5 2 11 4 17 16 6 3 12
96710 4246718 19 27 25 23 18 14 9 12 6 13 11 22 10 28 15 29 24 30 21 3 26 20 1 2 7 16 5 8 17 4
95220 4945956 30 26 25 6 3 18 24 4 15 29 21 14 19 23 27 8 1 12 17 16 11 5 2 22 20 7 13 10 9 28
95110 4569526 14 29 19 9 21 20 13 7 8 12 1 22 28 23 10 27 25 24 18 26 5 17 16 2 11 3 4 30 6 15
97160 3424154 27 25 30 18 14 10 6 26 28 11 17 13 12 16 9 19 24 29 22 5 23 15 2 21 4 1 7 3 8 20
95620 3609228 29 24 19 21 7 20 13 8 28 23 9 10 14 25 30 22 4 15 11 2 5 17 16 6 12 1 3 18 26 27
97010 3672396 29 24 19 23 15 27 21 2 22 8 5 3 20 6 12 10 25 28 30 26 18 7 4 14 1 17 11 9 16 13
96330 4043871 25 24 30 26 3 6 15 4 2 18 16 17 27 28 10 29 21 20 23 12 1 22 5 8 14 11 7 19 13 9
93820 4584478 27 30 25 18 26 15 22 2 4 16 5 6 17 11 3 19 10 24 14 28 29 13 21 23 8 7 20 9 1 12
98930 4058601 25 14 9 18 17 13 26 8 7 27 20 28 30 21 10 24 1 12 6 3 16 4 2 11 15 5 22 19 29 23
99700 4191306 12 16 6 11 17 3 9 4 15 13 22 23 14 10 28 30 8 2 26 1 5 25 7 20 18 21 29 27 19 24
96350 4380456 20 21 9 1 8 7 3 5 12 6 2 11 16 17 13 24 29 19 25 23 10 30 4 22 26 15 28 18 27 14
99930 3613307 30 18 27 26 15 25 3 22 6 14 21 24 10 23 29 2 8 19 5 4 20 16 17 1 11 7 12 28 13 9
95140 3798462 3 6 22 5 1 11 2 16 17 4 26 14 15 25 18 24 29 23 20 21 12 8 7 9 19 30 13 28 10 27
93440 5808102 27 18 25 17 16 14 8 11 12 7 13 9 10 28 19 15 26 30 4 3 6 5 2 22 20 1 24 21 23 29
97980 3450894 20 21 10 24 29 28 3 23 19 26 18 14 25 27 30 8 7 9 5 1 13 16 11 12 2 17 22 6 4 15
97850 4017840 20 9 24 8 1 16 2 5 17 7 11 13 21 23 29 30 25 27 15 26 18 4 3 6 22 12 14 10 28 19
99460 3491532 30 26 10 5 2 17 8 16 1 20 7 9 27 18 25 23 15 28 3 6 12 22 4 11 21 14 13 29 24 19
98670 3038295 29 21 10 20 8 7 12 2 11 3 5 4 23 22 15 19 30 28 24 9 13 1 17 25 6 16 26 27 18 14
97350 4003177 8 5 28 2 16 12 1 17 11 20 7 13 19 21 9 30 15 10 3 4 22 6 26 18 24 25 14 29 23 27
98120 4368186 8 5 2 1 16 4 11 17 3 12 6 15 23 22 27 21 29 24 7 20 25 13 9 26 28 14 18 10 19 30
93750 4281558 8 22 12 1 16 11 17 5 4 3 2 15 6 26 30 19 10 28 9 7 13 20 21 23 24 29 14 25 18 27
100340 4800702 27 18 25 20 8 7 5 17 9 4 2 16 15 3 26 24 14 10 29 21 28 23 1 13 22 12 11 19 6 30
93790 4407625 27 30 28 14 18 10 13 9 7 23 20 8 29 21 19 25 26 15 22 6 4 11 16 17 12 1 2 24 3 5
97660 3285003 10 28 27 2 7 8 5 11 17 3 4 16 15 26 18 29 21 19 23 20 9 22 1 13 24 6 12 30 25 14
97120 3851160 22 23 19 6 21 29 3 15 24 18 26 25 27 14 30 12 8 10 2 5 20 16 4 7 17 1 9 11 13 28
97300 3616939 12 28 10 1 8 20 3 2 22 6 23 21 19 24 29 11 13 9 17 16 7 5 4 14 26 15 18 30 25 27
94220 5323445 27 22 6 12 1 3 11 5 2 17 16 4 18 26 15 10 23 19 28 21 29 13 7 20 9 8 24 14 25 30
97780 4609873 13 11 3 16 4 6 17 1 2 8 7 5 9 21 20 27 12 28 14 22 15 18 23 26 25 24 10 19 29 30
93490 5549905 25 19 29 18 14 23 27 20 21 9 7 8 28 13 10 30 15 24 26 4 6 5 2 3 1 17 22 16 11 12
96320 3827297 19 10 28 29 24 20 21 8 7 23 1 9 14 12 13 27 30 15 25 26 4 18 5 2 3 16 17 22 6 11
97020 4016525 19 29 23 25 24 21 26 6 1 30 3 12 27 18 14 10 20 9 8 2 7 4 5 16 15 17 11 28 22 13
96920 4208575 19 24 30 25 5 17 14 26 16 18 4 6 27 15 3 29 20 9 21 7 8 13 2 1 23 22 11 28 10 12
97350 4039367 25 18 27 26 14 15 3 22 28 24 23 10 30 29 19 6 16 8 4 17 2 1 11 5 12 13 7 20 9 21
94650 3792362 27 18 25 22 26 14 15 4 28 23 24 10 29 30 19 12 11 9 6 17 13 3 16 1 2 5 7 21 8 20
94970 3249248 3 2 20 5 1 8 4 16 7 17 11 13 22 12 9 19 24 29 6 23 21 15 26 10 30 25 28 27 18 14
95460 4469855 29 10 19 23 28 13 24 9 12 30 22 14 25 27 18 21 20 8 2 7 11 5 1 17 4 3 16 15 26 6
97000 4634132 27 18 14 15 22 28 4 17 13 11 16 7 12 8 9 30 25 19 26 24 10 3 5 29 6 2 21 23 1 20
96140 3225906 27 30 24 6 26 25 3 5 15 16 17 4 14 18 28 19 23 29 12 1 21 22 2 20 11 7 8 13 9 10
97430 3990352 29 12 23 1 11 22 5 4 15 2 6 26 24 3 25 21 19 10 9 13 28 7 17 14 8 16 18 20 30 27
97290 3610462 24 25 27 9 12 18 23 22 14 21 13 28 29 19 10 1 11 6 5 16 26 2 17 3 7 4 15 20 8 30
93610 4175779 27 25 30 18 26 15 17 11 3 16 5 4 24 2 6 19 28 10 14 13 22 9 1 12 8 7 20 29 21 23
95970 4365442 28 23 29 12 13 21 22 11 24 3 6 25 14 18 27 10 9 19 8 7 20 16 1 5 4 17 2 15 26 30
96820 4280848 23 6 15 21 3 26 14 4 18 29 24 25 19 30 27 12 22 5 11 1 2 13 16 17 20 7 8 9 10 28
96260 3420506 21 29 24 23 2 3 22 4 6 28 15 26 10 30 25 7 8 20 12 1 5 11 17 16 13 9 18 14 19 27
97150 4456805 12 22 23 11 1 3 16 2 6 8 5 20 9 7 21 18 25 27 14 26 30 17 4 24 13 15 29 28 10 19
99110 3813887 19 24 27 20 21 29 2 4 23 6 3 15 12 28 10 9 25 30 8 7 18 1 5 26 16 17 22 11 13 14
95110 4191949 27 25 24 18 26 30 16 3 6 17 1 5 15 4 2 14 19 29 12 21 23 13 11 20 9 7 8 28 22 10
98970 3419223 23 29 19 24 15 28 6 4 21 26 3 20 25 27 30 12 22 10 11 5 13 2 16 7 1 17 9 18 8 14
92930 4555862 24 2 8 6 5 16 3 4 17 30 26 15 27 25 18 29 20 9 21 1 7 12 11 13 23 22 14 19 10 28
94510 3795272 24 30 25 27 15 18 6 4 26 2 5 16 3 17 11 29 10 19 23 28 14 21 22 13 20 7 9 8 1 12
93710 4089973 10 12 28 23 9 13 21 7 8 29 20 14 19 27 18 15 22 11 6 3 16 4 1 17 5 2 26 24 25 30
94950 4574602 13 9 28 17 7 8 16 5 2 11 1 20 12 21 19 14 30 10 18 26 25 22 4 15 3 6 24 27 23 29
98290 4019105 23 21 29 20 7 10 5 8 28 4 2 24 15 25 27 19 30 14 12 9 13 22 1 11 6 16 17 3 26 18
96400 4981750 30 25 18 26 22 14 4 5 21 6 3 23 15 24 29 28 10 27 16 11 13 17 7 9 2 1 12 8 20 19
96320 5135498 30 14 27 22 13 18 15 26 25 23 24 28 29 19 10 12 11 9 6 17 16 3 2 1 4 5 7 21 20 8
95990 3626305 27 24 19 29 23 10 21 5 4 7 1 2 9 20 8 18 25 30 14 26 15 22 3 6 11 17 16 13 12 28
95170 3991036 13 9 28 7 1 12 8 20 22 21 23 10 27 29 19 11 17 15 16 4 6 2 5 3 14 26 30 18 25 24
96370 4091534 30 16 11 26 17 1 25 8 12 18 7 9 27 14 13 15 4 3 5 2 6 24 20 22 29 21 23 19 10 28
98880 3425412 28 10 19 21 7 29 23 20 24 3 5 2 15 4 27 13 9 14 12 8 30 22 1 25 11 16 26 6 17 18
95920 3642489 12 8 9 22 7 13 11 1 17 5 2 16 27 18 14 23 10 28 21 20 29 3 4 24 6 26 15 30 25 19
94680 5002532 21 10 28 20 7 8 12 11 13 23 1 9 29 24 19 22 4 15 6 2 5 3 17 16 18 26 14 27 25 30
96470 4569434 27 25 30 18 26 14 17 16 13 4 6 11 15 3 28 19 24 29 20 1 9 8 7 21 5 2 12 10 22 23
97080 3437264 24 29 19 3 5 20 6 2 4 26 16 15 25 18 30 23 21 10 12 8 7 22 1 9 11 17 28 14 13 27
93640 4937361 25 30 18 15 26 22 4 3 6 5 1 11 2 17 16 19 10 27 24 28 14 29 23 12 20 21 13 8 7 9
94280 4464979 6 3 24 1 5 25 17 2 26 16 4 18 22 15 27 23 21 29 12 20 19 11 8 30 13 7 14 9 28 10
95680 3844419 24 29 19 25 23 21 26 15 13 18 14 28 27 30 10 20 8 9 2 1 7 5 4 17 6 16 11 3 22 12
96220 4395329 18 14 27 16 11 25 17 26 4 6 2 15 3 30 24 9 13 28 12 7 10 1 8 20 22 5 23 19 21 29
94100 5170255 12 11 16 6 1 17 3 5 2 15 26 4 24 25 30 28 13 10 21 9 7 23 22 8 29 14 20 19 18 27
96680 3681627 30 25 19 14 18 27 12 24 29 13 23 21 9 10 28 26 3 15 6 22 4 17 5 2 11 16 8 1 7 20
95250 3814618 22 6 15 3 2 4 17 5 26 11 16 1 12 8 30 19 29 24 14 21 23 18 20 25 13 7 28 27 9 10
96810 3608821 1 11 9 16 17 13 26 4 7 18 27 14 25 10 28 3 22 12 6 5 8 15 2 20 30 23 21 24 29 19
98150 4932185 10 28 14 7 13 9 8 11 17 21 22 4 19 12 15 25 27 18 20 1 26 2 5 16 24 3 6 29 23 30
95890 3713210 30 8 24 5 1 20 2 17 6 26 16 3 25 18 27 19 21 29 9 7 23 4 11 12 15 13 22 14 28 10
97960 3643204 29 23 9 21 20 7 24 1 12 4 2 8 30 5 27 19 10 14 28 22 13 3 6 11 15 17 16 25 26 18
93460 4584053 26 2 30 3 16 17 4 5 1 6 22 11 15 23 12 25 18 27 24 8 14 20 7 9 29 21 13 19 10 28
97870 2886207 19 8 9 13 7 11 12 2 1 23 20 5 29 21 24 10 27 30 28 17 16 22 4 3 15 6 26 14 18 25
95480 5001137 24 10 28 29 23 25 21 12 14 7 11 13 20 9 19 15 22 27 4 3 18 5 6 26 2 17 16 8 1 30
99230 3799398 28 10 15 20 2 4 30 26 6 25 21 3 24 29 23 13 7 9 8 16 17 14 5 1 18 11 22 27 19 12
96980 5119329 25 30 19 18 26 29 6 3 24 16 2 5 15 4 20 27 28 10 14 13 23 12 11 21 22 17 7 9 1 8
94790 4475190 30 8 20 5 1 7 2 17 11 26 4 16 15 6 3 24 29 19 23 21 9 14 12 13 18 22 10 25 27 28
97170 4124829 12 11 22 13 3 6 1 16 17 7 2 5 9 20 8 10 28 27 23 15 14 21 4 18 24 26 25 29 30 19
97520 3227107 9 10 28 13 7 20 11 1 4 17 16 5 12 2 8 19 30 25 29 21 24 23 26 15 14 3 6 18 22 27
98840 4003584 20 5 24 8 1 2 7 4 15 28 26 25 10 30 19 21 23 29 12 17 6 9 16 3 13 11 22 14 18 27
96800 3802684 30 26 25 4 16 17 1 5 2 9 7 8 20 21 24 27 14 18 15 6 3 22 11 12 28 13 23 10 19 29
99890 3231926 17 11 30 16 1 9 7 20 13 8 21 28 10 29 19 15 3 26 4 6 18 2 5 14 22 12 25 24 23 27
97750 4364585 24 20 21 1 7 8 11 16 2 6 17 5 26 3 4 10 19 29 28 9 23 12 13 22 25 14 15 30 18 27
99720 4365241 9 30 25 16 26 18 17 3 15 11 12 27 13 28 14 8 20 19 1 6 24 5 2 4 7 22 21 10 23 29
99400 4278533 6 3 27 17 4 15 16 5 24 2 21 29 8 20 19 12 30 25 11 26 18 1 22 14 13 7 23 9 10 28
92410 5176928 30 26 25 15 4 6 11 17 16 3 5 1 22 2 24 14 18 27 28 10 19 13 7 9 12 8 20 23 21 29
95260 3248529 11 1 12 16 17 22 3 5 6 26 2 23 15 4 30 28 9 10 13 7 19 14 8 21 18 20 29 25 27 24
96640 4569433 27 15 30 24 4 6 20 2 3 29 21 22 10 23 19 18 25 26 14 16 5 8 17 1 13 7 11 28 9 12
98390 3610332 27 25 30 18 26 29 6 3 24 17 16 1 12 11 23 19 28 10 14 15 21 2 4 20 8 5 7 22 13 9
93940 4361417 14 18 25 22 26 15 11 4 6 17 2 5 16 1 3 10 27 19 28 30 29 13 12 23 7 20 21 9 8 24
95480 4928138 28 10 19 9 21 29 13 23 24 14 26 25 27 18 30 8 20 15 7 2 4 16 17 5 11 1 6 12 22 3
96190 4277841 1 20 8 4 5 7 6 2 22 15 21 23 24 29 10 30 16 9 11 17 13 26 3 12 25 18 14 19 27 28
98780 4030581 10 29 19 28 20 8 7 16 1 9 17 12 13 11 30 27 23 24 21 4 15 22 5 2 18 3 6 14 26 25
98020 3691416 28 10 20 13 7 8 17 4 2 16 11 5 9 1 12 14 19 29 18 25 21 15 26 24 22 6 3 27 30 23
99070 3814414 20 8 2 21 7 5 23 1 17 10 9 11 28 13 12 19 24 15 29 4 3 25 16 6 30 26 22 27 18 14
94540 4002764 27 25 19 24 29 28 20 21 23 13 7 8 9 12 10 14 18 30 6 26 15 3 4 5 16 17 2 1 11 22
93210 4555840 9 7 10 8 13 12 14 20 28 18 21 23 27 29 19 1 11 22 16 17 3 2 5 6 26 4 15 25 24 30
97420 3041892 19 21 29 30 23 24 4 26 3 15 18 6 27 14 25 10 7 20 8 2 1 5 17 11 22 16 12 28 13 9
99720 3795673 3 22 19 1 11 12 17 2 20 16 5 8 9 7 13 30 25 27 26 18 14 6 24 29 4 21 23 15 10 28
94710 4089272 5 6 24 2 3 22 1 4 15 17 16 11 30 26 25 20 23 29 8 21 10 7 12 28 9 13 19 27 18 14
98550 3662026 19 10 28 14 13 30 12 22 25 18 11 26 27 3 15 29 21 24 23 9 20 8 7 2 1 16 5 17 4 6
97090 4435683 9 19 29 13 21 23 12 1 24 14 26 25 27 18 30 7 8 20 16 2 5 11 17 6 22 4 3 10 28 15
96710 5511668 19 30 28 9 13 14 1 26 18 21 23 25 29 24 27 8 12 10 7 11 22 2 16 17 5 3 4 20 6 15
95210 4570961 30 24 25 22 4 15 2 5 26 1 16 6 11 17 3 10 28 19 21 29 23 7 20 14 8 13 18 9 12 27
96670 5119763 27 18 25 13 12 14 7 16 11 8 17 26 9 1 30 28 10 19 29 23 24 21 22 3 2 5 6 20 4 15
99390 4275977 27 18 25 14 9 8 13 16 7 30 26 20 28 15 10 19 29 24 12 23 21 11 17 1 6 2 5 22 3 4
96100 5893424 27 28 10 9 13 29 1 11 23 22 12 24 18 14 25 8 20 19 17 7 21 16 5 2 4 6 3 15 26 30
97590 3827777 22 12 25 4 6 15 5 3 11 1 17 26 2 16 30 23 24 10 21 29 28 7 20 13 8 9 14 19 27 18
93190 3653582 30 26 25 15 4 6 5 2 3 22 17 1 12 16 11 27 18 14 19 29 24 23 21 20 10 7 9 28 8 13
97090 4403132 10 28 19 27 7 8 18 9 20 24 21 29 14 13 23 30 15 22 2 4 5 26 16 1 3 17 6 25 11 12
96280 4378960 27 18 25 22 15 14 3 6 26 5 2 4 16 17 30 10 28 19 23 21 29 12 13 24 11 7 20 8 1 9
93990 5142653 9 7 8 12 11 1 13 16 17 28 22 10 14 18 27 29 21 20 23 5 2 24 3 4 19 6 15 25 26 30
94130 4884668 29 21 23 20 8 12 7 1 11 9 22 13 10 14 28 19 6 3 24 5 4 2 16 17 25 26 15 27 18 30
93920 5139417 27 25 18 6 5 26 3 17 16 12 2 11 22 4 15 19 24 14 29 20 30 23 1 9 21 7 13 10 8 28
99450 4017596 29 23 28 24 15 21 20 4 13 3 5 22 6 11 12 19 27 10 25 18 14 26 2 7 1 16 8 30 17 9
96430 4227692 9 7 8 16 17 1 6 2 5 3 4 20 24 21 29 28 13 10 14 11 12 26 22 30 18 15 23 25 27 19
97180 3560919 15 20 8 4 2 7 22 5 1 3 11 16 26 6 17 29 23 19 24 21 10 25 12 9 14 13 28 30 18 27
97000 4966000 12 22 9 11 17 13 1 16 7 2 8 14 21 18 27 23 15 10 3 4 28 6 5 20 24 26 30 29 25 19
94140 4361621 10 30 19 28 24 14 29 20 13 21 7 9 23 8 12 27 25 18 15 26 6 3 2 16 4 5 17 22 1 11
97400 3712788 19 10 29 13 28 24 9 22 15 14 26 25 18 27 30 12 23 21 11 7 20 1 4 2 16 6 5 17 3 8
95040 4574323 12 11 8 17 16 1 3 2 5 15 6 4 30 26 25 19 28 10 9 13 7 23 22 20 27 29 21 18 14 24
94060 4772479 20 8 9 21 7 13 23 5 22 29 24 28 19 14 10 6 1 12 4 17 11 3 2 16 15 26 30 25 18 27
99410 4226370 29 24 30 21 11 13 7 1 9 20 26 14 27 25 18 19 23 12 22 6 3 2 5 17 8 4 16 10 15 28
94710 4813768 15 5 3 4 17 2 26 16 6 14 18 24 30 25 27 12 8 20 22 7 21 11 1 23 13 9 29 28 10 19
96210 4176255 5 4 15 2 17 3 26 16 6 25 14 24 30 18 27 8 11 12 7 1 22 20 9 21 28 13 23 10 19 29
95040 4191528 29 24 19 23 3 25 15 6 26 10 22 30 28 14 18 21 20 8 7 2 5 4 17 1 11 16 12 13 9 27
95580 4091987 19 10 28 7 16 13 8 17 11 15 4 22 27 18 14 29 21 23 20 1 9 2 5 12 24 3 6 25 26 30
95120 4617004 23 29 24 5 2 10 6 4 22 3 15 28 30 26 25 20 21 19 8 7 9 1 17 11 12 16 13 27 18 14
97030 3603745 19 25 24 6 3 23 15 26 29 30 18 21 28 14 27 22 11 12 4 17 1 5 16 2 8 7 20 10 13 9
97640 3437500 6 3 15 1 16 4 22 17 2 9 7 5 21 8 20 19 25 30 24 11 26 12 13 14 23 28 18 29 10 27
96770 4747989 25 18 27 26 6 14 5 1 30 24 21 23 19 29 10 15 3 22 4 17 12 2 16 11 8 7 13 20 9 28
98670 3983237 8 21 19 2 7 20 4 17 1 16 13 9 15 28 10 12 23 29 5 22 24 6 11 3 26 14 25 30 18 27
93390 4549779 19 10 27 29 28 13 20 7 9 21 1 11 23 22 12 30 25 18 24 26 14 8 2 17 4 5 16 15 3 6
94490 3448613 29 21 23 9 7 13 20 8 22 19 10 28 30 27 14 24 3 12 1 16 11 5 2 17 15 4 6 25 26 18
97320 4091622 28 10 21 30 23 20 24 29 7 25 13 8 27 19 9 15 22 4 6 3 2 26 11 5 14 16 17 18 12 1
93750 5000595 19 13 28 7 9 10 20 21 23 29 14 18 24 25 27 8 11 12 5 16 1 2 17 22 4 3 6 15 26 30
96610 4945445 12 17 8 11 16 7 22 2 1 6 4 5 23 3 21 27 18 28 14 13 9 25 26 10 24 15 20 29 30 19
96030 4379805 18 8 12 16 17 11 1 2 6 26 5 3 30 4 15 14 27 19 13 7 21 9 20 29 25 22 23 28 10 24
96460 4367739 20 21 10 29 2 23 4 6 22 15 3 28 24 30 19 8 7 9 1 11 12 16 17 13 5 26 14 25 18 27
97640 3609004 10 28 27 23 22 13 21 6 18 29 15 14 19 24 25 12 11 9 7 1 17 2 3 16 20 4 26 8 5 30
98260 3613131 9 21 29 13 1 14 11 22 23 12 6 24 28 19 30 8 20 27 7 17 18 16 2 5 4 3 26 10 15 25
96940 4090985 22 14 18 11 17 2 1 16 8 12 13 7 9 28 10 30 15 27 3 26 5 6 4 20 23 29 21 19 24 25
96870 4771456 23 21 10 12 22 9 1 8 7 5 2 20 24 29 19 27 14 28 18 11 13 6 17 16 26 3 4 25 15 30
97140 4245929 18 25 26 14 6 3 13 16 11 9 17 1 19 24 12 27 15 30 28 4 22 10 7 2 20 8 5 29 21 23
99980 3814213 23 10 28 14 12 13 18 22 9 26 3 1 25 27 30 29 21 19 24 11 7 2 17 8 4 5 16 15 6 20
99760 3436161 19 11 12 23 5 2 3 16 4 6 26 22 25 30 15 10 13 28 21 7 8 29 17 20 24 1 9 27 18 14
100960 4366878 27 18 28 21 14 13 8 7 9 20 26 1 25 30 12 19 23 10 29 15 22 5 16 17 2 4 11 24 3 6
95630 3420538 19 24 10 15 23 29 3 5 21 4 2 7 22 8 20 30 25 28 26 18 14 6 16 13 11 17 9 12 1 27
97010 3904885 10 28 9 20 8 7 22 1 11 21 12 13 29 23 19 24 15 30 2 5 4 3 16 17 6 26 14 25 18 27
95820 5334658 19 24 27 21 29 14 7 20 8 13 1 28 9 23 10 30 25 18 4 26 15 17 2 5 11 16 3 12 6 22
94330 4395408 19 24 29 15 4 23 6 5 21 2 7 20 22 8 10 30 25 27 3 26 18 16 17 14 11 1 13 12 9 28
97670 3869066 3 16 8 5 17 20 4 2 1 22 11 7 12 13 9 27 25 19 18 6 24 26 23 29 15 21 10 14 30 28
97060 4568772 18 27 19 25 24 29 30 20 21 26 4 3 15 6 23 14 10 28 9 7 13 1 8 11 5 17 16 22 2 12
94350 4739417 24 25 14 29 20 18 21 7 9 23 28 13 19 10 27 15 26 30 5 2 8 4 1 17 6 11 16 3 22 12
97230 3987924 28 10 22 14 12 17 13 11 16 9 7 1 19 21 8 27 30 15 18 3 6 26 2 4 25 20 5 29 23 24
96680 4088860 10 23 19 28 9 25 13 12 22 14 26 15 27 18 30 21 29 24 7 8 20 11 1 4 2 5 6 16 17 3
96810 3818661 30 26 25 1 2 15 17 5 4 8 7 21 9 20 19 18 14 27 22 6 24 16 11 3 12 13 23 10 28 29
94670 4960765 14 18 27 12 13 9 22 11 8 23 7 20 19 21 29 30 26 25 6 16 1 3 17 2 15 4 5 10 28 24
97190 4394440 15 1 6 4 17 3 2 5 26 20 24 25 19 29 30 9 22 12 13 16 11 7 8 14 28 21 18 10 23 27
99090 3679400 23 29 19 21 13 24 12 11 25 7 16 1 8 20 9 10 28 27 22 14 18 6 3 26 5 4 15 2 17 30
99890 3625304 12 17 14 3 2 5 6 4 26 22 15 18 23 27 30 13 8 9 11 16 1 20 7 25 21 28 24 29 10 19
94560 4364701 19 27 25 24 8 18 20 7 9 21 13 14 29 28 10 15 4 26 3 16 17 5 2 1 6 11 22 23 12 30
94410 5063718 30 25 14 15 26 18 6 17 16 3 2 5 24 4 27 19 10 28 22 1 9 12 11 13 23 7 8 29 21 20
98750 4029910 20 21 29 8 2 24 5 4 23 6 3 15 12 22 10 19 30 27 9 7 25 1 26 18 17 16 14 11 13 28
96150 3470418 26 4 15 5 2 6 16 1 3 17 11 12 30 22 19 25 24 29 8 20 23 7 21 10 9 13 28 18 14 27
99400 4415689 14 13 28 26 6 15 18 9 22 25 20 10 27 30 19 11 16 12 3 17 4 1 2 5 21 7 8 24 29 23
99010 4424579 28 19 29 30 15 24 14 4 6 26 2 3 18 25 27 10 21 23 20 5 22 13 7 11 16 17 1 9 8 12
98120 3872089 30 10 19 14 28 13 18 20 9 25 21 23 27 24 29 8 7 11 2 17 16 26 5 1 4 6 22 15 3 12
98860 4741010 9 12 8 13 7 1 22 2 5 23 21 20 19 29 24 27 16 17 18 11 4 14 26 6 28 15 3 10 25 30
97160 3419411 15 7 8 4 2 5 22 1 6 3 17 16 30 11 26 10 21 19 23 20 29 12 9 24 28 13 25 27 14 18
96450 5038266 12 6 30 11 3 26 16 4 15 17 5 2 1 8 22 27 24 25 23 29 18 13 21 14 9 7 28 19 20 10
98720 3263081 17 3 6 16 11 22 2 4 15 25 5 26 27 18 30 9 20 10 8 1 12 7 13 28 24 21 23 19 29 14
97450 4207339 14 9 13 27 7 8 18 16 11 5 2 17 25 26 30 19 10 28 21 20 12 29 1 22 23 6 4 24 3 15
95920 4207630 23 29 19 21 2 24 8 5 20 13 7 9 28 10 27 12 15 30 22 4 3 1 16 6 11 17 26 14 18 25
99380 3263555 19 24 27 23 29 18 9 21 25 1 7 2 8 20 5 10 28 30 12 13 14 22 11 26 17 16 3 6 4 15
97900 4609571 21 14 27 8 22 18 7 1 2 9 16 17 13 12 11 29 24 19 23 25 30 20 5 26 10 4 3 28 6 15
97580 4400242 19 13 9 21 7 8 29 1 20 23 5 2 24 10 28 14 12 27 18 11 22 6 16 17 26 3 4 25 30 15
98820 4108255 4 26 6 2 5 3 20 17 1 8 16 11 25 18 27 24 15 30 29 22 23 21 9 12 7 13 28 19 14 10
96080 3613665 15 26 4 3 6 16 22 11 17 5 1 7 2 20 8 27 18 30 25 14 28 12 13 10 23 21 9 24 29 19
97700 3681207 21 20 9 12 1 8 5 17 7 11 16 13 22 18 14 23 29 19 3 24 30 6 2 10 4 26 28 15 25 27
97620 4191179 27 30 25 18 3 26 12 11 6 13 16 4 14 22 15 19 29 24 23 20 21 1 2 5 9 17 7 28 8 10
97980 3624962 3 6 15 11 2 4 17 16 5 1 7 20 12 8 21 25 10 28 26 22 24 14 13 23 18 9 29 30 27 19
95860 4176855 18 27 19 14 15 3 26 4 6 30 5 23 25 24 29 28 10 12 13 11 22 16 17 2 8 7 1 9 20 21
96790 4173483 19 24 29 6 15 23 3 4 22 1 2 20 11 12 21 30 25 27 26 14 18 17 5 10 16 7 8 9 13 28
95670 4178943 18 25 27 26 4 15 3 5 6 16 17 2 30 8 28 19 29 24 14 21 23 11 1 22 13 7 12 9 20 10
96670 3333115 19 24 25 23 29 26 21 20 18 27 13 14 10 28 30 22 6 15 3 2 4 1 5 16 11 7 17 12 9 8
102190 2856794 24 29 28 23 21 10 22 5 9 4 2 7 15 20 8 19 14 13 3 11 12 1 16 17 6 26 18 25 30 27
97040 3671420 3 11 12 2 16 1 5 17 8 20 7 21 9 13 19 30 6 24 26 4 25 15 22 23 10 18 29 28 14 27
96340 3225495 29 25 30 21 23 27 20 22 18 7 9 14 19 13 10 24 6 15 5 3 26 2 1 4 8 16 17 12 11 28
97740 3813157 12 10 28 16 17 11 8 7 13 9 18 14 30 27 19 3 15 23 6 4 22 1 5 2 20 26 21 24 25 29
95820 4369471 27 30 19 14 18 24 15 26 25 4 2 5 22 6 3 28 10 29 13 21 23 9 7 20 17 16 8 11 1 12
95750 5870248 9 7 8 13 17 16 11 1 2 12 5 3 21 20 6 27 10 28 18 25 30 14 4 26 23 22 15 29 24 19
98270 3795832 15 3 6 4 16 11 22 17 1 5 2 7 10 8 20 25 24 30 18 26 12 14 13 9 23 29 21 27 28 19
97730 3918423 10 20 28 8 7 2 12 1 5 11 17 16 19 13 9 29 21 15 23 4 22 24 3 6 25 26 18 30 14 27
96000 4950411 8 2 15 20 5 26 7 16 4 1 17 3 9 11 6 10 28 30 29 24 25 21 13 14 23 22 18 19 12 27
98740 4059316 20 8 30 9 1 3 7 17 16 5 2 26 10 4 15 29 19 27 21 24 25 13 11 6 23 12 18 28 22 14
94840 3813925 30 18 27 26 1 22 11 16 17 3 5 2 6 4 15 19 28 10 25 14 9 12 13 7 24 20 8 29 23 21
97460 4379705 10 28 23 14 22 21 4 3 6 15 26 29 18 25 24 9 13 12 7 11 8 16 1 20 17 2 5 27 30 19
97440 5501539 10 28 9 14 13 7 12 1 8 22 16 17 18 11 5 29 30 19 23 21 20 24 6 2 25 3 4 27 26 15
100410 3794256 10 8 22 7 1 5 9 16 17 23 11 6 28 13 12 24 25 30 20 2 4 21 26 3 29 18 15 19 14 27
96970 4085864 14 19 27 13 21 18 12 29 25 23 24 26 10 28 30 9 20 8 7 17 16 11 2 5 1 3 4 22 6 15
95810 4384046 14 18 27 11 6 3 16 17 5 26 2 4 30 25 15 13 10 28 12 22 23 9 7 21 1 8 20 19 24 29
98650 4017333 9 19 27 7 13 14 16 11 18 17 1 21 8 20 29 10 28 30 22 12 25 4 6 26 2 3 15 5 23 24
96990 4622507 12 22 8 1 17 16 9 11 7 10 13 28 14 18 27 23 4 15 6 3 5 21 2 20 29 26 30 24 25 19
96110 4568372 28 14 25 13 12 22 9 1 24 7 20 21 10 23 29 18 26 15 11 3 6 16 17 4 8 5 2 27 30 19
94170 4174798 12 11 13 6 16 22 3 17 5 1 2 7 20 8 9 27 18 14 25 26 28 24 4 15 23 21 10 29 30 19
94910 4178090 3 15 25 6 4 26 1 2 18 17 16 11 12 22 27 29 24 19 23 21 30 20 5 14 8 7 13 9 10 28
95480 4655784 30 25 27 14 18 24 12 23 29 13 21 19 9 10 28 6 26 15 22 3 4 11 16 5 1 17 2 7 8 20
97030 3991933 20 8 21 11 1 7 16 17 2 3 4 5 18 26 27 19 28 29 13 9 10 12 22 23 6 15 24 14 25 30
94250 4604826 25 27 18 29 24 14 23 20 9 21 7 13 19 10 28 26 6 30 3 2 17 5 1 16 4 11 8 15 22 12
98840 3617819 19 29 23 27 21 10 8 7 12 20 13 28 14 9 30 25 24 22 18 1 3 2 17 11 5 16 6 26 4 15
96770 4477562 28 29 19 10 21 23 22 3 14 15 6 18 27 24 25 20 13 9 7 11 12 2 16 1 4 17 26 8 5 30
95610 4172580 23 10 28 29 20 7 21 2 5 24 4 15 25 26 30 19 9 13 12 1 8 22 17 11 6 3 16 27 18 14
96340 3606091 23 20 19 12 8 29 9 7 24 13 21 25 28 10 30 1 6 3 16 17 2 11 4 5 22 15 26 14 18 27
94720 5051573 23 21 29 8 20 24 1 7 25 9 13 19 10 28 27 6 3 15 2 5 4 16 17 26 12 11 30 22 14 18
95320 5327760 27 25 30 18 26 5 15 4 2 3 17 16 22 6 11 19 29 24 14 21 8 23 20 7 28 13 1 10 12 9
98700 4046974 15 25 28 22 26 14 3 6 18 4 17 11 12 16 13 19 24 10 23 29 30 2 5 21 20 1 7 8 9 27
94650 4416354 2 22 12 5 16 11 4 17 13 8 1 7 20 21 9 30 18 27 26 3 14 15 6 28 25 23 10 24 29 19
94810 4445764 28 14 10 13 7 8 9 1 20 12 22 21 19 23 29 30 18 27 25 26 2 17 16 5 11 3 6 15 4 24
97050 4760347 13 11 12 9 16 3 1 17 5 20 7 2 23 21 8 28 10 30 14 22 15 18 6 26 27 4 25 29 24 19
94990 4551216 28 9 20 10 7 8 22 2 5 15 4 23 19 21 29 14 13 12 27 11 1 18 17 16 26 3 6 25 30 24
95730 3902754 24 15 5 3 4 2 6 11 17 12 26 16 25 30 18 29 20 8 21 22 7 23 1 9 28 13 10 19 14 27
94030 4612984 27 18 14 25 26 30 28 13 12 10 9 23 19 24 29 15 3 22 4 16 6 5 17 11 7 2 1 8 20 21
98400 3437194 27 9 22 14 11 1 13 7 12 28 20 8 10 21 23 18 15 6 26 17 3 25 4 16 24 2 5 30 29 19
95930 4191375 10 7 21 8 20 22 5 2 3 15 4 23 19 24 29 28 13 14 9 1 12 17 16 11 26 6 18 30 25 27
98130 4175941 14 30 19 21 29 24 18 26 25 20 6 3 27 4 15 28 10 23 13 11 12 9 1 22 7 16 5 8 17 2
99290 3419030 28 19 24 14 13 29 18 9 23 27 20 21 10 7 8 25 30 15 26 6 4 3 17 16 22 1 2 12 11 5
96560 3039901 27 30 18 6 3 26 2 5 17 12 11 16 8 1 9 19 25 14 29 24 15 23 22 4 21 7 13 20 10 28
100210 3415058 1 6 3 16 5 4 17 2 15 9 7 22 27 8 20 25 12 24 26 11 23 14 13 28 18 21 10 30 19 29
96620 5224343 14 18 27 15 12 22 4 11 17 6 16 5 26 3 2 19 28 10 23 13 9 29 21 7 24 1 8 30 25 20
96030 4247284 9 13 12 20 1 11 7 16 17 8 5 14 10 28 18 29 23 19 21 22 3 2 4 6 24 15 26 30 25 27
97730 3625836 27 18 25 19 14 24 20 6 22 21 8 12 29 23 10 30 26 15 5 2 4 1 16 3 7 17 11 9 13 28
97640 4757384 6 1 23 3 5 20 4 2 21 22 26 29 15 30 24 12 8 19 16 17 9 11 7 13 10 18 14 28 25 27
95410 4743120 12 22 9 11 1 13 23 7 8 29 21 20 19 10 28 15 6 14 3 17 16 4 2 5 24 26 18 30 25 27
94130 3990193 18 27 19 14 22 24 11 12 23 13 7 21 28 10 29 25 15 30 26 4 6 17 5 3 16 1 2 9 8 20
97280 4363580 6 4 15 3 5 8 1 2 20 12 22 21 24 23 29 26 30 28 16 17 9 11 13 7 18 14 10 25 27 19
97030 4465938 25 14 18 28 22 27 10 12 16 13 7 11 19 8 9 30 15 26 24 4 6 23 2 3 21 5 17 29 20 1
95220 5347910 9 8 20 7 1 2 13 17 5 11 16 6 27 12 3 10 29 19 21 23 24 28 22 4 14 26 15 18 25 30
95030 4435615 24 15 19 3 4 2 6 5 17 30 26 16 25 18 27 29 28 10 23 20 8 21 22 7 12 11 1 14 13 9
95860 4945069 27 25 19 14 9 24 12 1 8 13 7 20 28 21 29 18 26 30 6 17 3 11 16 2 22 4 5 10 15 23
95890 4211097 12 1 20 11 2 5 17 16 8 13 9 7 28 30 10 23 6 29 22 3 21 15 4 24 14 26 25 27 18 19
98760 3800192 19 20 29 5 21 23 6 4 12 3 22 24 15 10 28 8 9 27 16 7 13 17 11 18 2 1 14 30 26 25
96180 3419798 24 30 19 6 3 15 1 2 4 11 5 16 25 26 17 29 10 28 23 20 9 21 22 7 12 8 13 27 18 14
97390 4465780 7 13 9 8 11 17 1 16 26 2 5 6 20 4 15 10 28 14 12 22 30 21 3 18 23 24 25 29 19 27
97960 4573094 24 29 21 1 11 9 2 17 7 5 16 8 6 4 20 19 23 10 25 12 28 3 22 13 26 18 14 15 27 30
97100 3263375 20 2 8 21 5 7 3 1 16 6 4 17 12 22 11 19 25 30 29 24 10 23 26 9 18 15 13 27 14 28
96840 5002369 29 19 25 23 24 26 21 5 2 20 4 6 22 3 15 10 27 30 28 14 18 7 1 8 13 17 16 9 11 12
97710 4002614 19 30 27 29 23 10 12 13 28 24 22 18 25 26 14 21 20 9 1 7 8 11 2 17 6 5 16 3 4 15
98660 4380275 19 10 28 29 9 13 21 7 16 20 8 17 23 2 5 30 27 18 24 25 14 12 1 11 6 4 26 3 22 15
97310 5126232 30 10 28 12 22 13 6 3 15 14 26 23 18 25 27 8 7 9 11 1 20 17 16 4 5 2 21 19 24 29
96710 3907225 27 18 25 6 3 24 2 16 5 4 17 26 15 14 30 10 23 19 12 21 29 22 1 8 11 7 20 28 13 9
95440 3631028 27 18 30 9 14 25 13 24 28 7 20 10 21 29 19 17 26 15 16 4 3 11 5 6 1 2 22 8 12 23
99700 4017791 30 28 19 15 22 10 4 2 3 16 5 1 8 7 20 25 24 29 18 27 23 26 6 21 17 11 12 14 13 9
97280 4057150 24 25 18 29 3 26 2 5 16 20 4 6 19 15 30 23 27 14 21 12 11 8 1 17 7 22 13 10 9 28
99490 4003115 27 28 10 20 7 21 8 2 23 5 4 15 3 6 22 18 14 19 9 13 29 17 1 24 16 26 25 12 11 30
100600 3420802 28 10 15 11 4 22 7 21 26 13 23 14 30 29 25 12 6 3 16 17 5 8 1 2 9 20 18 19 24 27
96200 4738799 3 21 20 5 2 8 6 17 1 4 16 7 22 11 12 24 29 19 25 23 27 26 14 18 15 13 9 30 28 10
95380 5033778 24 25 30 15 26 29 6 3 23 5 4 22 2 20 21 27 18 19 28 10 14 17 16 13 1 11 12 8 7 9
92310 3801729 29 20 19 23 8 12 21 7 9 28 10 13 27 18 14 24 3 6 2 5 1 4 16 17 15 22 11 25 26 30
94690 3829757 20 8 19 21 7 9 22 12 13 23 28 14 29 10 27 6 5 1 4 2 17 3 11 16 15 26 18 24 25 30
100670 3263608 29 23 10 21 13 28 9 7 11 20 1 5 8 16 17 19 24 30 27 14 15 18 22 4 25 2 26 12 6 3
96220 5001280 11 22 12 16 17 1 13 2 5 9 7 8 28 10 20 18 3 27 26 4 6 14 15 23 25 21 24 30 19 29
96110 3625769 19 25 30 29 14 18 23 22 27 9 13 12 21 28 10 24 15 26 20 4 6 5 2 3 1 17 16 8 7 11
96800 4757755 25 4 26 2 5 16 8 1 17 20 7 9 19 27 18 24 15 30 23 3 6 29 12 11 21 22 13 10 28 14
93890 3800861 27 18 14 8 9 28 20 7 13 24 21 10 29 23 19 25 26 30 16 17 15 2 4 11 5 1 22 3 6 12
96330 3710007 19 21 29 20 3 24 30 6 4 14 26 15 27 18 25 12 11 23 8 1 5 7 16 2 13 17 22 9 28 10
97120 3630362 9 7 10 13 11 28 8 1 22 20 5 12 29 21 23 18 17 27 14 16 15 26 4 6 30 2 3 25 24 19
99210 4962481 27 24 19 29 8 5 20 7 17 21 1 16 13 9 11 18 25 30 14 15 26 10 4 2 23 22 6 28 12 3
95610 3830565 8 20 24 1 3 22 2 5 4 17 6 15 25 26 30 19 21 29 12 11 23 16 7 10 9 13 28 18 14 27
98800 4481392 19 29 25 12 23 27 13 16 18 11 3 26 28 14 30 21 20 24 9 1 8 7 17 2 22 6 5 10 4 15
96830 4191432 19 21 29 20 2 23 1 11 22 9 7 8 14 13 12 25 30 24 26 3 6 5 16 4 18 17 15 27 28 10
95880 4371125 29 21 19 20 8 1 7 17 16 28 13 9 10 18 27 24 23 12 2 3 6 4 5 11 15 26 22 25 14 30
98420 4087647 12 22 15 8 2 5 7 1 4 9 20 23 21 29 24 14 18 27 17 16 6 11 3 26 13 28 30 19 10 25
98600 3261856 29 10 28 23 22 5 12 4 2 6 3 15 24 26 30 19 21 27 20 7 8 9 1 17 13 11 16 25 14 18
95660 4967431 25 26 30 27 18 14 24 7 13 21 20 9 29 10 28 6 4 15 3 17 16 2 5 11 22 1 12 23 8 19
93940 3624986 30 26 25 3 6 12 5 17 11 2 16 1 8 4 15 27 18 14 29 23 24 21 22 13 20 7 9 19 10 28
93580 4930706 24 15 19 6 4 3 2 5 11 1 17 16 30 26 25 29 28 10 23 21 22 20 7 12 9 13 8 27 14 18
93890 3984581 10 28 19 29 23 30 20 21 14 7 13 18 8 9 27 24 15 25 4 3 26 2 6 22 5 16 11 1 17 12
95770 4172898 15 3 20 6 4 5 16 17 2 22 1 8 9 11 7 25 24 29 30 26 23 18 14 21 27 12 19 28 13 10
96160 3795250 29 25 24 21 26 6 5 2 3 22 4 11 23 15 12 19 27 30 20 18 14 8 17 16 7 1 13 10 9 28
95350 5788839 14 8 9 18 7 13 21 20 23 25 24 29 27 10 28 22 1 12 2 17 16 5 4 11 26 3 6 30 15 19
96500 4436753 30 20 19 2 7 8 17 16 1 13 11 12 28 9 10 25 24 29 15 5 21 26 4 6 14 3 23 18 22 27
97370 4380106 25 18 27 24 26 15 2 5 4 1 17 7 8 16 9 19 30 14 29 23 28 21 6 10 20 3 22 12 11 13
98250 4213213 23 28 10 22 13 21 12 11 7 2 16 8 1 17 9 19 27 29 15 18 14 6 4 20 3 5 24 30 26 25
96300 4364742 29 10 28 23 21 13 24 22 14 25 12 18 30 19 27 15 20 9 4 8 7 5 2 16 26 1 17 6 3 11
96020 4361511 28 10 27 30 7 19 4 2 8 15 5 20 24 21 29 25 14 18 26 13 9 17 16 1 6 11 12 3 22 23
97300 4088356 19 30 25 29 24 26 23 6 3 21 11 4 20 12 1 27 14 18 10 28 15 5 2 22 7 17 16 8 13 9
97440 4616903 11 22 14 2 4 15 17 5 26 16 3 18 1 6 27 13 10 28 7 21 30 8 20 25 12 23 24 9 29 19
96230 4246765 19 21 10 29 23 9 24 15 28 25 26 30 27 18 14 20 8 7 2 5 1 3 4 16 6 17 11 12 22 13
93940 5135276 25 22 24 3 6 5 16 17 2 26 4 15 18 14 27 19 23 29 12 11 21 1 7 8 9 13 20 30 10 28
95670 4966712 28 10 20 23 21 29 22 4 3 15 6 24 27 25 19 13 7 9 12 1 8 11 17 16 2 26 5 14 18 30
94810 4175865 15 24 25 3 4 5 6 17 2 26 16 18 30 14 27 19 29 21 23 22 20 12 1 8 11 9 7 28 13 10
94320 4172126 21 8 7 12 20 13 23 1 9 29 24 28 19 27 10 22 2 11 6 5 16 3 4 17 15 26 25 30 18 14
98440 4466648 30 28 10 14 12 13 26 2 11 17 1 7 16 8 9 25 27 19 18 24 29 15 22 23 6 4 21 3 5 20
96710 4996403 19 27 10 14 18 28 24 4 22 25 3 6 30 26 15 29 21 23 9 7 13 20 1 12 8 16 17 2 5 11
96390 4604509 19 23 10 29 21 9 20 1 7 4 2 8 24 5 25 27 18 28 14 12 13 22 16 11 3 6 17 15 26 30
96140 3492603 27 18 14 9 13 25 8 7 30 21 20 24 29 10 28 12 16 6 11 17 26 1 2 5 22 4 3 23 19 15
97980 4002627 30 18 27 26 9 14 16 1 13 17 7 20 10 8 28 25 24 29 3 22 23 6 11 12 4 5 21 15 2 19
97910 3231104 10 19 27 28 24 25 14 4 18 22 6 26 15 3 30 29 20 9 21 7 8 13 1 16 12 11 17 23 5 2
94140 4555184 8 5 15 17 2 4 11 1 22 16 3 6 18 26 30 9 28 10 7 20 21 13 12 23 14 24 29 27 25 19
96210 3431168 13 10 28 12 22 23 7 11 21 8 1 29 9 20 19 14 18 27 4 26 15 17 5 6 16 2 3 30 25 24
93560 5019694 22 1 12 17 16 11 5 2 3 26 4 6 30 15 23 27 8 9 18 7 13 14 20 21 25 24 29 19 10 28
94950 4962719 18 26 25 6 3 15 17 16 4 8 5 2 27 20 24 14 30 19 12 11 22 13 1 28 9 7 10 23 21 29
95920 4226626 9 20 30 7 8 5 11 1 16 13 17 26 14 18 25 23 29 19 21 2 24 12 4 6 10 22 3 28 27 15
94950 5944389 9 7 10 21 13 28 1 11 22 23 12 14 29 27 19 20 8 30 2 17 15 5 16 4 6 3 26 24 18 25
98050 3986582 23 15 10 22 4 12 6 1 11 3 5 16 2 17 8 19 30 28 29 9 13 21 20 7 24 26 14 25 18 27
95820 5119030 14 13 9 22 11 12 3 16 1 5 17 20 2 7 8 27 28 10 18 25 23 26 6 24 15 4 29 30 21 19
96630 4681755 29 15 24 23 4 2 6 3 5 16 17 26 27 18 25 19 28 10 21 7 20 12 22 8 13 11 1 14 9 30
96890 4773317 30 18 27 25 16 9 26 17 1 6 5 8 24 2 20 19 28 10 14 13 12 3 11 22 15 4 7 29 23 21
95820 3452598 18 14 27 17 11 12 3 16 22 6 5 2 26 4 15 19 28 10 9 13 23 1 7 21 20 8 29 25 30 24
100430 4207271 28 10 13 19 8 9 20 1 7 4 16 17 15 5 2 27 18 14 23 12 30 29 22 21 24 3 11 25 6 26
95600 5566180 30 18 27 25 26 19 3 2 21 6 5 20 24 23 29 28 14 10 15 11 13 4 17 7 22 16 8 12 1 9
96310 3815293 10 8 12 13 7 9 28 21 20 29 23 27 19 14 18 22 2 1 11 16 17 15 5 3 24 4 6 30 26 25
94790 4568881 10 28 27 9 13 14 7 11 22 1 17 12 8 16 18 24 29 19 20 21 23 5 4 15 2 3 6 30 26 25
97920 3151781 6 26 15 3 5 22 2 17 4 8 16 7 12 1 11 30 25 19 27 18 14 23 24 29 10 20 21 28 9 13
100210 3442855 20 5 8 11 1 16 13 7 17 21 9 27 29 24 19 12 6 15 3 2 4 14 22 26 23 30 18 28 10 25
94640 5148478 2 16 17 5 3 4 24 6 22 25 26 15 27 18 30 8 7 9 20 1 11 21 12 13 29 23 14 19 10 28
98250 4608709 27 13 28 9 16 11 1 17 5 20 8 7 19 21 10 18 14 15 12 3 22 25 6 26 24 2 4 29 23 30
94190 5404251 28 10 30 13 11 17 12 16 2 9 1 5 20 7 8 19 27 25 14 18 26 22 3 6 23 4 15 29 21 24
95240 3437215 18 27 25 26 6 3 15 16 5 4 17 2 22 11 1 30 19 24 14 23 29 28 13 21 9 7 20 10 12 8
99770 3984179 19 24 29 20 5 21 8 16 2 7 17 6 15 4 3 27 25 30 14 18 23 10 1 26 13 9 11 28 22 12
96400 3714994 3 24 29 6 22 23 4 5 21 26 15 14 25 18 27 11 12 19 1 2 20 17 7 8 16 9 13 30 10 28
95120 4614402 2 5 8 3 17 16 6 4 11 20 1 12 21 7 9 30 25 27 15 26 18 24 22 14 29 23 13 19 10 28
100200 3227638 9 22 10 13 17 28 16 4 15 7 2 18 8 14 27 23 12 30 1 11 3 20 6 26 21 5 25 29 24 19
98360 3614387 12 3 15 11 5 26 16 17 4 13 6 18 28 14 27 19 22 30 8 2 25 7 1 21 9 20 24 10 23 29
95950 5708059 28 14 27 13 11 18 9 12 25 7 21 23 10 19 29 15 3 30 17 16 26 4 1 6 22 2 5 8 20 24
97750 3230044 25 19 21 8 20 7 17 9 13 18 14 10 30 27 28 24 29 23 4 5 2 16 1 11 26 6 22 15 3 12
94980 5117258 10 8 23 12 1 20 9 7 21 13 14 29 28 30 19 22 2 3 16 5 6 11 17 4 18 26 15 27 25 24
97560 4301598 30 24 29 25 6 23 26 3 5 16 1 2 15 4 20 28 10 19 18 27 21 14 22 12 11 17 8 13 9 7
95190 3819378 24 3 25 5 6 1 2 17 16 4 11 26 15 27 18 21 23 29 8 20 19 7 12 9 22 13 14 10 28 30
93900 4058880 23 9 10 20 7 8 21 13 22 29 14 28 19 18 27 1 11 12 2 17 5 6 16 4 3 26 15 24 25 30
97560 4380173 27 18 14 30 26 13 2 17 12 1 16 11 8 7 9 24 25 19 29 15 28 23 6 10 3 4 22 20 5 21
96400 4758398 14 22 18 12 16 8 13 11 17 9 1 7 28 10 21 30 25 27 15 26 2 3 6 5 23 4 20 19 24 29
94410 3612732 24 25 19 6 26 30 3 4 15 22 18 10 27 14 28 23 21 29 1 2 20 11 5 7 17 16 8 12 13 9
98910 3230423 12 1 2 11 17 5 13 9 16 21 7 8 23 29 20 30 6 15 22 3 26 28 4 14 10 27 18 19 24 25
96010 4803453 29 19 10 24 25 28 23 6 4 30 26 15 14 18 27 21 20 8 9 1 7 13 16 5 11 17 2 12 3 22
95710 4234960 28 10 19 21 14 27 29 22 18 23 26 25 24 15 30 13 20 9 12 7 8 11 1 17 6 2 16 3 4 5
98080 4206757 7 13 11 8 17 16 1 5 4 2 6 26 27 14 18 9 10 28 21 12 22 20 3 15 29 23 30 19 24 25
97990 4057765 13 28 10 9 21 29 11 7 20 16 5 8 17 2 19 14 18 27 12 22 23 1 4 24 3 26 25 6 15 30
97140 3624824 12 11 3 17 1 5 16 4 2 8 7 20 9 21 23 27 25 30 18 26 6 14 15 24 13 22 19 28 10 29
97770 4002273 8 1 2 11 16 17 13 7 5 9 20 26 14 18 25 12 23 6 22 4 3 28 21 15 10 29 24 19 27 30
98970 3990241 12 30 27 11 26 25 1 17 18 7 16 8 9 13 14 22 6 19 3 4 15 2 5 24 21 20 29 23 10 28
94040 4175697 10 28 9 22 13 7 21 20 27 23 14 18 29 19 25 12 1 8 11 17 16 6 2 5 3 4 26 24 15 30
98480 4468408 12 22 8 6 5 17 3 2 16 4 11 7 20 1 9 23 27 10 15 18 28 24 26 14 29 21 13 19 25 30
97650 3608726 18 14 27 26 24 23 25 11 29 30 13 21 28 10 19 15 4 22 3 6 5 17 16 2 1 7 20 9 12 8
97580 4960163 21 7 9 23 8 20 29 1 10 24 25 28 19 27 30 22 11 13 5 2 12 4 16 17 3 26 6 15 18 14
93590 3869929 14 18 27 22 16 17 12 11 1 8 7 9 10 13 28 30 26 25 15 4 3 5 2 6 21 20 24 23 29 19
96000 3813646 8 9 12 7 1 13 2 17 11 4 16 6 15 3 22 29 23 19 21 20 10 24 5 28 25 26 30 27 18 14
96690 2848733 13 9 28 12 7 8 11 16 17 1 5 2 14 18 27 23 21 10 29 20 19 3 6 4 22 26 15 24 25 30
97960 4368571 12 16 11 1 17 13 8 7 28 20 9 18 19 10 27 3 6 30 2 5 26 22 4 15 23 21 14 29 24 25
100480 2305765 21 23 29 1 12 24 5 16 11 7 17 9 20 8 13 27 18 19 6 3 25 4 26 15 2 22 30 10 14 28
96380 4505225 30 18 27 26 5 25 4 17 2 3 16 6 15 22 28 19 14 24 20 8 29 1 7 21 12 11 23 9 13 10
97840 3252795 6 20 9 5 2 1 3 16 11 26 17 13 30 18 14 29 21 23 24 8 7 4 22 12 15 25 28 19 27 10
93890 4045343 27 18 28 25 14 10 19 22 13 24 12 9 29 23 21 15 26 30 6 4 16 3 17 11 5 1 7 20 2 8
94460 4979735 10 28 27 9 13 14 21 7 8 29 20 18 24 19 25 23 12 30 22 11 16 1 17 5 6 2 26 3 4 15
96650 5230240 11 12 22 17 16 4 13 1 5 7 8 2 9 20 21 10 6 30 28 3 15 14 26 23 18 25 24 27 19 29
97330 4739146 23 10 28 12 11 22 13 16 5 7 17 2 9 1 8 29 24 19 21 6 15 14 3 4 18 26 20 27 25 30
98750 4363347 18 9 14 17 11 13 26 7 30 15 4 21 25 10 28 27 22 12 16 1 8 2 5 20 6 3 23 19 24 29
102500 3527073 30 21 27 2 7 18 26 4 14 5 15 24 25 10 28 8 20 29 1 16 9 11 17 13 3 6 23 12 22 19
95760 4814420 10 24 25 28 23 30 15 4 26 22 3 6 14 27 18 21 29 19 20 5 8 7 2 1 9 16 17 13 11 12
94940 4192244 27 15 18 22 16 17 4 5 2 3 6 26 30 24 25 10 28 14 9 13 11 7 1 8 21 20 12 23 29 19
94440 4380553 25 18 15 26 4 22 2 17 11 5 16 3 24 1 6 27 14 28 30 9 10 8 7 13 20 21 12 19 29 23
99000 3612856 19 29 24 21 20 25 8 4 15 18 5 26 27 14 30 10 23 28 7 13 9 17 2 6 16 1 3 11 22 12
98410 4363725 27 23 19 12 21 29 11 1 6 22 4 3 18 15 24 28 10 30 13 7 20 9 17 8 16 5 2 14 26 25
101870 3043227 14 20 9 18 13 11 26 21 1 25 29 23 30 24 19 10 7 8 28 17 16 4 5 2 15 6 22 27 3 12
96860 5220872 25 26 30 24 20 18 21 7 9 29 13 14 10 28 27 15 3 6 4 5 17 2 1 16 22 11 8 23 12 19
96150 4221098 14 18 27 28 26 30 10 22 4 23 25 15 29 24 19 9 8 16 13 1 17 7 11 5 20 2 3 21 12 6
96750 5532159 30 18 28 25 14 13 26 16 9 3 17 11 15 6 12 19 27 10 29 20 8 21 2 7 24 5 1 23 4 22
100790 3813743 19 29 24 23 21 25 9 20 3 12 11 6 13 22 14 10 27 30 8 7 18 1 2 26 16 17 4 28 5 15
95320 4932321 30 26 25 15 2 3 4 5 6 22 16 17 27 18 11 29 24 19 23 8 20 21 1 12 10 7 9 28 14 13
96980 4740886 30 28 10 14 13 9 26 16 7 18 17 8 25 27 19 23 12 21 22 11 1 6 3 5 15 4 2 24 29 20
98320 4552996 19 24 30 27 18 25 14 26 15 3 6 4 22 5 2 10 29 21 28 23 20 13 1 9 11 17 7 12 16 8
97380 3145386 24 27 18 25 5 26 1 2 16 22 4 17 15 6 3 29 21 30 23 20 14 9 7 13 12 8 11 10 28 19
96860 4385530 22 6 15 4 17 3 5 2 24 30 26 25 14 18 27 13 12 9 11 16 1 7 8 20 21 23 29 10 28 19
94950 4437360 9 23 27 13 21 14 7 20 18 10 29 24 28 19 25 12 1 22 11 17 6 16 4 3 5 2 26 8 15 30
94430 4967119 19 24 25 2 4 15 17 5 3 16 26 6 27 18 30 21 29 23 7 20 10 8 1 22 9 11 12 13 14 28
94870 3813619 12 13 9 22 11 7 3 1 16 6 2 17 20 5 8 19 14 28 23 21 10 29 4 15 24 26 18 30 25 27
95690 4552747 19 4 15 20 5 6 21 2 3 29 26 23 24 25 30 28 10 22 7 8 12 13 17 11 9 16 1 14 18 27
99080 3605943 9 1 20 12 2 8 13 7 21 22 5 23 28 14 10 6 3 19 17 16 24 11 4 29 15 26 30 27 18 25
96150 3875951 15 4 20 22 5 8 6 2 1 3 16 17 26 12 11 19 29 21 10 23 7 28 24 9 30 14 13 25 18 27
98120 3636790 26 17 8 11 16 7 1 5 2 22 3 4 12 6 15 25 18 27 14 13 9 10 28 20 30 23 21 19 24 29
94220 4799046 19 24 30 5 3 6 2 4 26 22 15 14 27 18 25 21 29 23 20 1 12 8 17 11 7 16 13 10 9 28
96490 3868792 10 28 30 9 13 14 7 22 23 20 21 29 8 12 19 15 26 25 17 16 18 4 2 3 5 6 24 1 11 27
98130 4002159 28 14 10 22 13 19 11 17 21 16 8 7 12 1 9 27 18 25 15 26 30 3 4 29 2 5 20 6 23 24
97620 3037750 23 20 21 22 1 9 2 5 7 4 8 10 15 30 28 24 29 19 6 11 12 3 16 13 26 17 14 25 18 27
94750 4456614 10 19 23 28 13 29 7 9 21 20 14 24 27 18 25 15 22 12 4 11 6 5 16 1 2 17 3 8 26 30
