START
141730
141520
139800
139600
133900
140280
136240
134740
139930
135930
142420
130810
137030
140360
145180
141200
140300
137110
129370
136980
145020
141700
131410
136200
135160
137780
135740
145680
134440
128850
135890
127850
120720
119910
132920
118880
113570
101650
99860
100410
101910
100490
97190
94910
94390
93590
93990
94290
94190
93790
93580
93580
93390
93390
93190
93190
93190
93190
93190
93190
93190
93190
93190
93190
93190
93190
93190
93190
93190
93190
93190
93190
93190
93190
93190
93190
93190
93190
93190
93190
93190
93190
93190
93190
93190
93190
93190
93190
93190
93190
93190
START
142320
102930
100110
99110
98710
98110
98010
98010
98010
98010
START
139570
104050
100500
98850
98850
98450
98350
98150
98150
98150
98150
START
138930
101090
97550
95550
94750
94750
94750
94750
START
136060
100430
97130
96530
96430
96430
96430
96430
START
144850
102670
98280
95710
94610
94610
94610
94610
START
142960
102290
96930
95580
95180
94980
94980
94980
94980
START
140110
103390
99990
98790
97010
96410
96410
96410
96410
START
137290
103070
98450
96050
95550
95150
94950
94950
94950
94950
START
139900
100970
97270
97070
96270
96070
96070
96070
96070
START
139970
102980
97900
96000
95000
95000
95000
95000
START
132900
103510
99040
97840
96990
95790
95790
95790
95790
START
137550
101880
99980
97480
97480
97480
97480
START
140930
102170
100410
99910
99910
99510
99510
99510
99510
START
135000
105480
103080
101510
100310
100310
100310
100010
100010
100010
100010
START
143440
104050
99950
98850
98650
98650
98650
98650
START
134960
103800
100830
97980
95530
95530
95530
95530
START
135550
102690
100590
99990
99590
99590
99390
99390
99390
99390
START
133780
106840
101170
100190
100190
100190
99690
98690
98190
98190
98190
98190
START
135480
102990
99690
99290
99290
99190
99190
99190
99190
START
127760
103240
99340
99040
99040
99040
99040
START
137180
99820
97620
96390
95070
94970
94370
94370
94370
94370
START
138190
101330
98810
98510
96910
96910
96910
96910
START
139140
101360
100860
100860
100860
100690
100190
100190
100190
100190
START
138820
106120
102040
101240
100940
100940
100940
100940
START
132720
103870
98840
98040
97240
97240
97240
97240
START
145420
101970
99770
99050
99050
99050
99050
START
139550
102330
99730
97330
97030
97030
97030
97030
START
132200
99970
97540
96140
96140
95640
95640
95640
95640
START
135960
98340
95940
95540
95540
95540
95540
START
137170
99930
97330
95630
95030
95030
95030
95030
START
131590
106050
103860
100310
98440
97140
97140
97140
97140
START
141370
103100
97740
97640
97640
97640
97440
97440
97440
97440
START
131300
100200
96670
96070
96070
96070
96070
START
138030
99060
97060
97060
97060
97060
START
141320
98400
95520
94420
93220
93220
93220
93220
START
137840
98890
96500
96200
96200
96200
96200
START
140230
104450
100330
99030
95830
95530
95530
95530
95530
START
132900
94690
93890
92720
92720
92720
92720
START
145610
100770
97070
96770
96770
96570
95970
95970
95970
95970
START
134380
100050
99850
99510
97910
97910
97020
97020
97020
97020
START
141110
101580
96940
96940
96740
96540
96040
96040
96040
96040
START
131130
101720
99320
97420
97020
96620
96620
96620
96620
START
137600
100910
96910
96810
96610
96400
96000
96000
96000
96000
START
135680
100720
98820
97900
97700
97700
97700
97700
START
142010
104500
101600
100520
100220
100220
100220
100220
START
143970
101080
99960
99160
99160
99160
99160
START
139770
105170
101710
98370
97450
97250
97050
97050
97050
97050
START
136260
106210
101400
98910
97110
96410
95430
95430
95430
95430
START
137690
101790
100190
99890
99290
99290
99290
99290
START
138810
103160
100820
98920
98410
96710
95990
95590
95590
95590
95590
START
146760
100530
98330
97230
97230
96930
96130
96130
96130
96130
START
145940
98150
95850
95050
95050
93950
93950
93950
93150
92950
92950
92950
92950
START
132100
100690
97870
96870
96870
96870
96870
START
127180
101740
99840
98040
97140
97040
97040
96640
96640
96640
96640
START
130800
99790
97000
94550
94250
93550
93550
93550
93550
START
141620
100100
97800
97700
97700
97700
97700
START
135110
102070
99770
97530
96470
96270
96270
96270
96270
START
129970
100590
99960
98400
97500
97500
97500
97500
START
136610
102020
97490
97290
97090
97090
97090
97090
START
130670
102790
100660
100260
100260
100260
100260
START
121600
97550
95350
95150
94950
94950
94950
94950
START
136190
102150
99730
99330
98630
98630
97630
97630
97630
97630
START
129750
98670
96770
96370
95380
95380
94580
93480
93480
93380
93380
93380
93380
START
132660
100530
96720
95920
95920
95920
95920
START
131800
102050
96290
95890
95590
95590
95590
95590
START
134810
104790
104490
102690
102690
102190
102190
102190
102190
START
146310
105050
98470
97240
95970
95970
95770
95770
95370
95370
95370
95370
START
146100
100050
97250
95710
94710
94710
94710
94510
94510
94510
94510
START
133030
101160
99960
99260
98260
98060
98060
98060
98060
START
137100
105180
102280
99410
99410
98860
98860
98860
98860
START
139120
103550
100130
99330
99330
99230
99230
99230
99230
START
135950
98490
96830
96230
96130
96130
96030
95630
95630
95630
95630
START
133630
99480
97500
95680
95280
95280
95280
95280
START
141260
103500
102400
99600
99300
98730
98730
98730
98530
98530
98530
98530
START
137310
101090
100090
100090
100090
98590
98590
98590
98590
START
138620
105380
102660
98460
97360
97360
97360
97360
START
135330
95480
95280
95080
95080
95080
95080
START
133880
103730
99900
99000
98100
97260
97260
97260
97260
START
137980
100110
98540
98340
97580
97180
97180
97180
97180
START
132490
100330
97430
95790
95790
95790
95790
START
133680
104410
99430
98030
97120
96920
96920
96920
96920
START
135450
102330
98520
95420
94520
94070
94070
93570
93570
93570
93570
START
133600
98310
95810
94810
94810
94710
94710
94710
94710
START
134860
99440
96210
94510
94310
94310
94310
94310
START
136220
100570
97350
96850
96850
96750
96750
96750
96750
START
137680
103420
100720
100120
99920
98920
98720
96960
96960
96780
96780
96780
96780
START
131320
103920
101500
101100
100700
100700
100700
100700
START
142470
103840
99050
98650
97950
96750
96350
94850
94850
91680
91580
91580
91580
91580
START
141260
100230
98830
98430
97660
96960
96960
96960
96960
START
143150
102440
97690
97090
96690
96690
96690
96690
START
140190
106400
99460
99260
98060
96530
96530
96530
96530
START
141040
99680
98580
98580
98580
95760
95330
95330
95330
95330
START
133860
101500
99570
97860
97360
97360
97360
97360
START
135710
104560
97510
95140
94840
94840
94240
94240
94240
94240
START
140990
103010
101060
101060
101060
101060
START
132900
100180
99780
98880
97980
97980
97980
97980
START
127780
101580
97430
96160
96160
96160
96160
START
137810
101760
99220
98820
98820
98820
98620
98620
98620
98620
START
130010
98980
96480
96480
96480
96080
96080
96080
96080
START
142620
99130
95730
94530
94430
93530
93230
93230
93230
93230
START
130170
101100
99060
95840
95540
95540
95140
95140
95140
95140
START
135080
104750
100850
100670
100270
99570
97650
97650
97650
97650
START
138790
105270
103370
103370
103270
103270
103270
103270
START
137900
103290
97150
96250
96250
96050
96050
96050
96050
START
130090
97960
95320
94920
94920
94920
94920
START
137510
102780
97760
95160
95160
94960
94960
94960
94960
START
134380
105180
99180
97980
95980
95880
95880
95880
95880
START
141020
104150
102000
100080
99580
99580
99580
99580
START
145640
103160
96760
96060
96060
96060
96060
START
143320
99670
97920
97720
97720
97720
97720
START
135880
103040
101540
98900
98620
98420
98420
98420
98420
START
139710
101930
100740
98740
98740
98040
98040
98040
98040
START
127070
101690
98400
98400
98100
98000
98000
98000
98000
START
142250
103300
99220
99120
99120
98420
98320
98320
98320
98320
START
143020
105330
101830
97780
97780
97780
97780
START
141680
102190
102090
102090
101490
101090
101090
101090
101090
START
133240
100440
98200
97100
96600
95800
94900
94800
94800
94800
94600
94600
94300
94300
94300
94300
START
141980
98710
97210
95710
95410
95410
95410
95410
START
130190
99920
98920
96820
95920
95920
95920
95920
START
127420
101470
98850
98850
98850
98250
97850
97250
97120
95570
95170
95170
95170
95170
START
136690
105620
102940
95970
95970
95970
95970
START
138850
104330
100830
100510
99810
98430
98430
98430
98430
START
137960
102290
98410
94710
94710
94710
94710
START
135370
101500
98400
98200
98200
98200
98200
START
146370
102350
98580
97590
96590
96590
96590
96590
START
134800
102880
98770
97370
96970
96570
96570
96570
96570
START
139870
102170
98170
98170
98170
98170
START
138370
99150
96620
95720
94620
94620
94620
94620
START
141260
100910
98760
96480
96480
96480
96480
START
130570
103950
100750
100090
100090
98770
98020
98020
98020
98020
START
130520
103700
99740
98740
97050
97050
97050
97050
START
143180
102430
100430
97940
97740
97080
96280
96280
96080
96080
96080
96080
START
137350
104590
102310
97860
96360
96360
96360
96360
START
141230
103030
96560
94760
94760
94760
94760
START
128950
103500
101240
99340
97720
96720
96020
96020
95720
95720
95720
95720
START
140260
104080
101080
99990
99190
99090
97490
96490
96190
96190
96190
96190
START
122300
99120
97720
96620
96620
96220
96020
96020
96020
96020
START
138000
98960
97560
97060
97060
96210
96110
96110
96110
96110
START
131690
103390
98510
96810
94910
94910
94910
94910
START
147310
97390
96390
95790
95790
95590
95590
95590
95590
START
140270
103390
99500
97700
96600
96600
96600
96600
START
131380
103030
100570
98760
97930
97130
97130
97130
97130
START
138140
101470
97670
97370
97370
97370
97170
97170
97170
97170
START
138770
102930
100380
97980
97540
97010
97010
96610
96610
96610
96610
START
146230
102160
99640
98540
98340
98340
98340
97140
97140
97140
97140
START
148910
103450
99510
99310
99310
98610
98610
98610
98610
START
138420
102770
100310
98510
97080
95560
95560
95560
95560
START
143930
104630
98620
97520
96620
95520
95520
95520
95520
START
141960
105670
101660
100850
100850
100250
100050
99950
99550
99550
99550
99550
START
132650
98370
96970
96870
96870
96870
96870
START
138020
102380
97910
95010
95010
95010
95010
START
140680
105020
100950
100950
100150
100150
100150
100150
START
142400
100580
98040
96740
94740
94540
93740
93740
93080
92880
92880
92880
92880
START
139610
101410
98210
98010
98010
97510
97410
97410
97410
97410
START
142900
102550
100050
100050
98950
98950
97950
97950
97950
97950
START
138210
100760
99360
99160
99160
99160
99160
START
140840
102620
97020
96220
96220
96220
96220
START
138930
102980
99980
99470
97370
97370
97370
97370
START
135560
100890
97340
96740
96740
96340
96340
96340
96340
START
137070
97640
95840
95240
94640
94240
93640
93640
93640
93640
START
135230
102680
98290
97290
97090
97090
96990
96690
96690
96690
96690
START
135030
99490
96270
95970
95970
95870
95870
95870
95470
95470
95470
95470
START
132390
105410
97520
96890
96590
95990
95990
95990
95990
START
131710
103320
98370
95770
95770
95770
95470
95470
95470
95470
START
132000
103370
97450
95120
93820
93820
93820
93820
START
142720
100530
98050
98050
97950
97950
97950
97950
START
138090
99430
97030
95330
95330
95330
95330
START
133720
102820
101440
99180
96630
95230
95230
95230
95230
START
134480
97970
95070
95070
94970
94970
94970
94370
94370
93970
93970
93970
93970
START
139410
99020
96810
95710
95710
95710
95710
START
139070
102290
100060
96910
95210
95210
95210
95210
START
145210
105570
100670
99970
98170
97970
97970
97970
97570
97570
97570
97570
START
138380
102930
100530
99770
99370
99370
99370
99370
START
139670
100210
98140
97640
97030
94890
93390
92590
92590
92590
92590
START
135900
102260
100090
98680
94500
94500
93500
93500
93500
93500
START
139690
102680
101560
100500
100040
100040
100040
100040
START
135600
102920
100120
99120
99120
99120
99120
START
136260
102350
100760
99560
99360
98610
98610
98350
98350
98350
98350
START
141520
102540
101640
99440
99040
99040
99040
99040
START
145370
101680
99250
98950
97950
97950
97950
97950
START
136390
101390
95730
94930
94630
94630
94030
93230
93230
93230
93230
START
138710
100890
99810
98410
98410
98410
98410
START
138740
99280
96880
95680
95680
95680
95680
START
136520
101870
95860
95360
95360
95360
95360
START
138550
100290
98090
95890
94290
92390
92390
92390
92390
START
136710
101460
95860
94560
94560
94460
93960
93960
93960
93960
START
137050
105170
103670
100150
99750
98270
98270
98270
98270
START
138960
102670
100610
100110
100110
100110
100110
START
149880
99910
99230
99030
99030
99030
99030
START
144030
102870
100670
99170
97970
97620
97220
97220
97220
97220
START
137590
101030
98390
96100
95180
95180
94980
94980
94980
94980
START
130540
97780
97780
97780
97780
START
145830
99870
98270
98170
97370
97370
97270
97270
97270
97270
START
133990
105020
100020
96110
95510
95510
94910
94810
94810
94810
94510
94510
94510
94510
START
141830
103670
99730
99230
98930
98230
98230
98230
98230
START
133550
102920
97090
96860
96860
96860
96860
START
131340
99790
95790
95790
95790
95790
START
136290
100660
95900
95200
94220
93120
93120
93120
93120
START
140980
99600
96500
95400
95400
95400
95400
START
139250
96670
96570
95150
94150
94150
93550
93550
93550
93550
START
136860
102570
96870
96870
95870
95670
95670
95470
94970
94970
94970
94970
START
133320
95590
95590
95590
95590
START
136760
101650
98280
97480
96880
96580
95980
95980
95980
95980
START
139770
103800
95910
95710
95710
95710
95710
START
136770
101590
100990
100690
100040
98240
98240
98240
98240
START
138910
100120
98920
96620
95960
95960
95960
95960
START
137090
105970
101060
98360
97660
97660
97660
97160
97160
97160
97160
START
126200
99360
98160
98160
98160
98160
START
140580
101030
99580
99080
99080
98980
98980
98980
98980
START
134980
98780
97780
97080
97080
97080
97080
START
135180
100040
98170
97870
97870
97870
97470
97470
97470
97470
START
141300
102670
97720
96920
96020
96020
96020
96020
START
121540
104350
101670
100470
100470
100070
100070
100070
100070
START
138970
101650
96890
94690
94090
94090
94090
94090
START
136590
100310
98590
98190
98190
98190
98190
START
136260
102960
102360
102060
101660
101260
100730
100530
100330
100330
100330
100330
START
128750
99530
98070
97970
97770
97770
97770
97770
START
136390
106800
101620
101520
99920
98660
97660
96610
96610
96610
96610
START
145870
105250
96870
96870
96470
96170
96170
96170
96170
START
132840
105510
100950
98350
96810
96810
96310
96310
95910
95910
95910
95910
START
135190
98820
96920
96740
96740
96740
96340
96340
96340
96340
START
138040
100440
96780
96580
96380
96380
96380
96380
START
137680
97210
97210
96510
96310
96310
96310
96310
START
140580
100960
98700
98000
97400
96800
96400
96400
96400
96400
START
136650
104310
101590
101190
101190
101190
101190
START
128760
103590
98530
98530
98530
98530
START
138030
104630
99920
97620
97020
97020
97020
97020
START
139620
104230
100290
99230
99230
99230
99230
START
136050
98860
97960
96290
96090
95990
95990
95990
95990
START
132550
102330
100630
99230
99130
99130
99130
99130
START
134080
99870
97250
97020
95170
95170
95170
95170
START
138710
100730
99770
98290
98090
97790
97790
97790
97790
START
131930
104860
100900
98390
97790
97790
97790
97790
START
130870
99680
98280
97280
97280
97080
97080
97080
97080
START
133970
101100
97600
97600
97000
96870
96770
96770
96770
96770
START
138190
100740
96940
95540
95540
95540
95540
START
140360
100870
97720
94820
94620
93920
93520
93020
93020
93020
93020
START
135410
99270
97870
97770
97770
97770
97770
START
136160
100630
97180
96680
96680
96680
96680
START
135350
105210
102520
101320
100220
100220
100220
100220
START
133460
103090
98960
98060
96030
95060
95060
95060
94960
94960
94960
94960
START
139430
101410
101110
99320
97720
96470
96470
96470
96470
START
131110
103780
102880
102280
101980
101980
101980
101980
START
140280
107430
102150
99850
96270
96270
96270
96270
START
136260
102660
101080
100580
98580
98380
98280
98280
98280
98280
START
138540
104310
100340
98790
98790
98790
98790
START
138030
98310
96780
96180
95980
95980
95780
95780
95180
95180
95180
95180
START
126850
97980
97980
97680
95980
94980
94980
94780
94580
94580
94580
94180
94180
93580
93580
93580
93580
START
132050
100410
98310
95870
95870
94370
93910
93910
93910
93910
START
127830
104350
97080
96080
95680
95680
95680
95680
START
130300
103310
97470
97450
94520
94220
94020
94020
94020
94020
START
139540
104330
97900
96900
95370
95370
95370
95370
START
135480
100260
99160
96960
96960
96960
96960
START
131380
101840
97930
97030
96730
96730
96730
96730
START
137400
101560
97460
97020
96760
95840
95370
95370
95370
95370
START
138650
102110
101210
99310
99210
99010
99010
99010
99010
START
136640
105030
99720
98620
98620
98620
98620
START
135130
102950
98330
98230
98230
98230
98230
START
133700
102740
95350
94950
94660
94460
94460
94460
94460
START
135510
101880
100080
98530
97730
96730
96730
96730
96730
START
141570
99810
99550
97750
97650
97220
96420
95920
95920
95920
95920
START
131350
102720
99770
97770
97770
97270
96970
96570
96570
96570
96570
START
136880
105330
100510
99910
98240
98140
97840
96910
95070
95070
95070
95070
START
138320
102170
99270
98270
95770
95670
95470
95470
95470
95470
START
134740
102090
100510
99510
95520
95020
95020
94520
94520
94520
94520
START
129950
104380
101010
99750
97140
97140
97140
97140
START
136880
101910
99190
98760
98460
98360
98360
98360
98360
START
136730
99740
96640
95840
95240
95240
95240
95240
START
139880
101610
99410
98990
97810
96520
96220
95920
95920
95920
95920
START
133710
102490
99190
98990
98990
98990
98990
START
136000
99070
98970
97770
97770
97770
97770
START
140740
99880
98080
97080
96280
96280
95980
95980
95980
95980
START
137580
101350
98450
98450
98450
98450
START
145540
104130
96510
96190
95390
93330
93130
93130
93130
93130
START
142470
102200
99700
98700
98100
97500
97100
97000
97000
96800
96800
96800
96800
START
141310
103420
103020
103020
103020
103020
START
138370
99050
96650
96550
96550
96550
96550
START
138010
102220
97930
97030
94610
93810
93810
93810
93610
93610
93610
93610
START
133930
101800
98700
98100
98100
98100
98100
START
142850
105270
98050
97550
96550
96550
96550
96550
START
137170
104790
102340
102340
102140
101940
101940
101940
101940
START
143030
100250
96750
96750
96550
96550
96550
96550
START
133700
102890
98290
97990
97590
96590
95190
94690
94690
94490
94490
94490
94490
START
133410
103610
100120
98420
98320
98320
98320
98320
START
142510
100200
98700
98600
98600
98600
98600
START
134710
105200
101490
98130
97810
97610
97610
97610
97610
START
136170
104110
102610
99990
99990
99010
99010
99010
99010
START
135070
100130
98900
96680
96680
96680
96680
START
140810
101210
96300
96200
96200
96200
96200
START
139040
99510
96610
95810
94610
94610
94610
94610
START
141260
98610
98610
96170
95170
95170
93970
93970
93970
93970
START
135910
99190
98200
97480
97280
97180
96980
96980
96980
96980
START
133420
101100
99200
99200
99200
99200
START
144800
103780
101170
98780
98450
97780
97780
96680
96100
96100
96100
96100
START
141190
102150
97850
96850
95450
95050
95050
95050
95050
START
141970
101950
100300
99200
98000
97200
97200
97200
97200
START
132190
102310
99980
97370
96570
96370
96370
96370
96370
START
137710
103090
99540
99540
99540
99540
START
140660
99820
99020
99020
97610
97610
97410
97410
97410
97410
START
136380
102530
96170
96170
96170
96170
START
135350
102950
99750
99650
99650
99200
98600
98600
97700
97700
97700
97700
START
132220
101360
100360
97360
97360
97360
97360
START
137070
105090
101690
99440
99240
99140
99140
98640
98640
98540
98540
98540
98540
START
140230
105260
100080
97510
96650
96640
96140
96140
96140
96140
START
140870
104370
101920
99310
98010
97910
97910
97910
97910
START
141190
101680
100280
99280
98180
94260
94060
94060
94060
94060
START
136330
99140
98940
98420
98020
98020
98020
98020
START
138490
99310
96840
96640
96010
95110
95110
95110
95110
START
141470
98640
97040
95740
95740
95740
95740
START
137280
103300
101100
99780
99480
99480
99480
99480
START
135450
99960
95510
94610
93610
93610
93610
93610
START
129560
103920
99920
99220
99020
98930
98630
97840
97840
97240
97240
97240
97240
START
140830
98620
97720
95820
94020
93820
93820
93820
93820
START
135310
102710
100910
98630
97830
97130
97130
97130
97130
START
136870
100250
97050
96650
96650
96550
95950
95950
95950
95950
START
136600
102150
99960
98760
98560
98560
98560
98560
START
141360
103560
98860
97560
97560
97560
97560
START
130310
99160
98100
97300
97200
96200
96000
96000
96000
96000
START
146400
103240
102240
102240
100940
100740
100740
100740
100740
START
132540
102370
100870
100070
99170
98770
98470
97870
97270
97270
97270
97270
START
140000
101200
98760
97660
95660
95660
95660
95660
START
140800
102620
100220
99560
99560
99560
99560
START
140880
100740
97940
97140
97140
97140
97140
START
130760
101820
99410
97310
96810
96810
96810
96810
START
135270
101420
99360
99060
98590
97690
97690
97690
97690
START
133800
104190
97970
97570
97070
96270
96270
96270
96270
START
131650
105070
99960
99860
99860
99860
99860
START
138070
102950
99250
97850
96650
96050
96050
95850
95650
95650
95650
95650
START
135160
105330
99360
98060
98060
97880
97880
97280
97180
96980
96980
96980
96980
START
133190
99940
95690
95690
95690
95690
START
142220
101990
99890
99490
98790
98790
98790
98790
START
133350
99320
96320
95520
94220
94220
94220
94220
START
138080
102560
102300
99930
98060
97760
97760
97760
97760
START
128910
102030
99530
99090
98130
98130
97930
97930
97930
97930
START
137250
101720
100020
97670
97270
97270
96470
95670
95670
95670
95670
START
136300
97390
95820
95620
95620
95620
95620
START
136020
104250
100890
100390
100390
100390
100390
START
144450
99920
99520
98720
98720
98520
98520
98520
98520
START
140670
104800
102900
100800
100600
100600
100600
100600
START
128390
102540
102240
101940
101580
101580
101580
101580
START
138250
102550
100920
99750
99150
99150
99150
99150
START
129170
103990
98470
97270
96370
96370
96070
96070
96070
96070
START
133690
97950
97750
97750
97650
97650
97650
97650
START
137470
103460
100860
98530
97030
97030
97030
97030
START
136210
103420
98610
96010
94090
93590
93590
93590
93590
START
133750
105210
100400
99200
98900
98200
98200
98200
98200
START
134700
102910
99110
98710
98710
98210
97210
96610
96610
96610
96610
START
134900
101120
99020
98820
98220
98220
98220
98220
START
139410
99860
98830
98430
98030
98030
97830
97830
97630
97630
97630
97630
START
148590
102870
98620
97320
97320
97320
96720
96720
96720
96720
START
145670
104150
98260
98160
97780
97780
97780
97780
START
143250
99470
99070
97560
95100
95100
95100
95100
START
131810
99340
95640
93940
93940
93240
93240
93240
93240
START
145210
104390
101890
99730
99730
99730
99730
START
140850
102060
98200
97520
97320
96110
95610
95610
95610
95610
START
134790
99820
98520
97120
97120
95470
95470
95470
95470
START
135380
96880
95280
95280
95080
94880
94880
94880
94880
START
125960
103850
101120
100720
99120
97470
97270
97270
97270
97270
START
143550
105500
100760
98660
98060
97260
96140
95840
95640
95640
95640
95640
START
143490
100830
99470
96970
96470
96470
96470
96470
START
134070
101220
97020
97020
97020
96960
96760
96760
96760
96760
START
128410
103780
100130
97130
96730
96530
96230
96230
96230
96230
START
136760
105060
99860
97340
96640
96640
96640
96640
START
136740
100880
96220
95070
93670
93670
93670
93670
START
137330
97630
96730
96130
96130
96130
96130
START
140710
104490
100360
97840
97390
97390
97390
97390
START
133350
101760
99310
98100
97800
97500
97500
97500
97500
START
140190
103810
99830
97650
96350
96340
95740
95740
95540
95540
95540
95540
START
138620
105640
101520
99950
99350
99350
99350
99350
START
138120
98180
96880
96380
96380
96380
96380
START
132290
101510
99090
98990
98090
97690
96890
96890
96890
96890
START
138350
102030
99760
99460
98460
98460
98460
98460
START
142290
106670
99460
96460
96400
96060
96060
96060
96060
START
139740
101410
100110
98910
98310
98310
98310
98310
START
132180
100950
98150
97950
97850
97650
97650
97550
97550
97550
97550
START
132620
99250
96550
95550
94750
94750
94750
94750
START
128320
100260
99190
98590
98590
98590
98590
START
137400
104870
101310
100550
99550
99350
99350
99350
99350
START
130470
104210
100710
98470
97770
96960
96860
96560
96560
96560
96360
96360
96360
95760
95760
95760
95760
START
145860
99770
96670
95770
95770
95770
95770
START
127070
102800
101000
99150
98850
97750
97120
97120
97120
97120
START
142880
103040
99130
97210
97210
97210
97210
START
136430
100560
99360
98860
97730
96730
96730
95930
95930
95930
95930
START
128890
102110
98910
95710
95310
95310
95110
95110
95110
95110
START
137960
103890
101530
99930
98220
97720
97720
96820
95820
95620
95620
95620
95620
START
134070
99760
97860
97860
97860
97860
START
137420
99530
95670
95670
95670
95670
START
135030
105960
99640
98240
98040
97240
96340
96140
96140
96140
96140
START
137200
99200
97800
97800
97800
97800
START
141880
100720
96620
96120
95720
95720
95720
95720
START
137220
100110
98070
97370
97310
97310
97310
97310
START
144890
102810
100410
98100
98000
98000
97800
97600
97600
97600
97600
START
135930
103220
100820
100520
100120
100120
100120
100120
START
128620
102260
99560
99560
99560
98660
98660
98660
98660
START
130640
98400
97410
97210
96610
96610
96610
96610
START
139120
99430
98590
97390
96390
96390
95110
95110
94810
94610
94610
94610
94610
START
141620
102340
98430
98230
97930
97930
97530
97530
97530
97530
START
133120
101770
98970
98770
98770
98770
98570
98570
98570
98570
START
137180
102720
99980
98960
98460
98060
98060
98060
98060
START
139660
105200
101790
99800
98100
97100
97100
97100
97100
START
144800
102030
100040
98440
98040
96690
93690
93690
93690
93690
START
136950
102980
100150
98750
98650
98150
97350
97250
97250
97250
97150
97150
97150
97150
START
134890
99170
95410
94010
93710
93710
93710
93710
START
133210
101330
100130
97310
96900
96900
96900
96900
START
142560
101410
99240
95740
93810
93410
93410
93410
93410
START
136070
103000
97900
97400
97400
97400
97100
97100
97100
97100
START
142110
98020
96220
96220
96220
95420
95420
95420
95420
START
134580
98650
97750
95590
95290
95190
94590
94590
94590
94590
START
128340
101290
100390
99960
98970
98270
98270
97170
97170
97170
97170
START
131350
98620
96120
94180
92780
92780
92780
92780
START
136140
99590
99090
96750
96550
96550
96550
96550
START
143880
102530
99320
96280
96280
96280
96280
START
138400
99110
97040
94780
93750
93750
92850
92850
92850
92850
START
144910
102030
102030
102030
102030
START
126640
100290
98890
96410
95910
95910
95110
95110
95110
95110
START
130770
100480
97310
96710
95910
95910
95910
95910
START
133610
104730
99680
97180
97180
97180
97180
START
130900
99230
98120
97460
97460
97460
97460
START
141500
102860
101810
101210
100760
97410
97410
97410
97410
START
144090
105140
100920
96380
95080
94970
94770
94770
94670
94670
94670
94670
START
140100
101890
98520
98520
97530
96930
96730
96730
96730
96730
START
144100
102370
100710
100710
100110
99510
99510
99510
99510
START
134930
101060
98260
95760
95760
95760
95760
START
135630
102830
98210
97210
96210
96210
95610
95610
95610
95610
START
142170
101830
96040
95140
95140
94640
94640
94640
94640
START
133460
102070
98510
95810
94910
94510
94010
94010
94010
94010
START
132210
100480
98480
98180
97580
97180
96380
96380
96380
96380
START
134090
103900
100460
97690
95110
93910
93910
93910
93910
START
127710
104110
101130
98830
98430
98330
98330
98330
98330
START
138720
102050
101450
100750
99750
99750
99750
99750
START
135710
103450
100250
100250
99910
98410
98410
98410
98410
START
128980
102350
97480
96780
95780
95680
95680
95680
95650
93970
93970
93970
93970
START
136670
101790
98920
98030
96480
95870
95670
95370
94770
94770
94770
94770
START
138970
99670
98770
95770
95770
95770
95770
START
128840
101820
99220
97860
97400
97400
97400
97400
START
134120
102120
101420
101020
100020
99720
99720
99720
99720
START
138260
100770
96720
94920
93720
93720
93720
93720
START
144450
103250
99810
99810
99210
98810
97710
97710
97710
97710
START
134650
102370
98420
98020
97620
97320
97320
97320
97320
START
136650
99560
96720
94920
94920
94920
94920
START
129850
97950
95350
95350
95350
95350
START
147480
100170
97620
96520
96220
96220
96220
96220
START
134260
102420
100820
100820
99920
98070
97970
97970
97970
97970
START
134230
102920
100200
99450
98750
98750
98750
98750
START
140400
101000
99200
98100
98100
97700
96500
96100
96100
96100
96100
START
140560
101990
101090
99090
98790
98190
98190
98190
98190
START
133460
102660
100000
97490
97490
97490
97490
START
137410
99730
96230
96030
94930
94630
94630
94630
94630
START
137650
101880
95010
94810
94810
94710
94710
94710
94710
START
133660
104760
101160
99060
97460
97060
97060
97060
97060
START
133450
100790
96750
95850
95850
95850
95850
START
138500
100680
98480
97680
97680
97680
97680
START
136960
101180
96910
96910
96910
96910
START
136000
104030
100120
98740
98140
98140
97340
97340
97340
97340
START
132210
105450
98650
97590
96360
95460
95460
94710
94710
94710
94710
START
133710
100810
98810
97010
97010
97010
97010
START
131980
99370
97040
96440
96440
96440
96440
START
138280
101410
100510
100510
100510
100510
START
133450
100570
97490
97290
97290
97290
97290
START
134770
98820
97300
95300
94300
94300
93900
93900
93900
93900
START
144190
101510
99710
98010
97210
97210
97210
97210
START
138430
102520
100820
98810
96910
96610
96610
95910
95610
95610
95610
95610
START
138770
94640
94640
94040
94040
93940
93940
93940
93940
START
138910
104330
99630
99630
99630
99630
START
140770
99120
97720
97220
96820
96820
96820
96820
START
136290
106300
102300
101000
101000
101000
99800
98700
98360
97060
96020
96020
96020
96020
START
136920
102870
102670
102670
102330
100810
100210
100110
100110
98740
98540
98540
98540
98540
START
132280
102930
101750
101750
101050
100250
100050
100050
100050
100050
START
129440
101730
98230
97730
97730
97130
97130
97130
97130
START
137660
103270
98770
98470
96370
96370
96370
96370
START
144600
101670
99670
98050
96050
95850
95850
95850
95850
START
131270
102230
100350
99350
99350
99250
99250
99250
99250
START
138940
104000
101600
99600
99600
99600
99500
99500
99500
99500
START
133500
100210
96410
95410
94610
94610
94610
94610
START
131910
101580
99980
97280
97080
97080
97080
97080
START
134530
102850
98950
98650
98250
98250
98250
98250
START
140930
106390
101780
101080
101080
101080
101080
START
132520
100810
97090
94490
94290
94090
94090
94090
94090
START
140440
102160
100180
99170
99170
99170
99170
START
143590
105190
101330
99520
96650
96350
95950
95650
94350
94250
94050
94050
94050
93750
93350
93350
93350
93350
START
142720
102430
98930
97230
97230
96510
96510
96510
95860
95860
95860
95860
START
142520
103060
98860
98560
95750
95750
95650
95650
95650
95650
START
142460
102790
98810
97810
97610
97210
97210
97210
97210
START
134300
98490
97190
96590
96590
93190
93190
93190
93190
START
131220
103240
101640
98350
98050
98050
96950
96950
96950
96950
START
145300
104750
98240
97480
96740
96740
96740
96740
START
137390
106760
100860
98020
97020
95520
95520
95120
95120
95120
95120
START
136970
104770
100450
99650
98350
98350
98350
98350
START
145010
102000
98660
97870
97370
97070
96870
96570
95790
95130
95130
95130
95130
START
139720
102800
98880
98270
98270
98270
98270
START
135600
102960
99350
96950
96950
96950
96950
START
144510
103520
99720
96670
95770
95570
95570
95570
95570
START
132280
102200
97080
96280
96280
96280
96280
START
136690
103180
100200
99670
98970
98970
98970
98970
START
137460
100920
99050
98950
98550
98550
98550
98550
START
140660
101410
96790
95890
95090
94590
94590
94590
94590
START
131090
99150
96250
94550
94160
92980
92580
92580
92580
92580
START
137920
100790
98950
96110
94170
94170
94170
94170
START
137200
100950
98970
98070
98070
96370
96370
96370
96370
START
137390
100350
95390
94690
93990
93190
93190
92990
92990
92790
92790
92790
92790
START
135400
102710
100810
97410
97010
96610
96610
96610
96410
96410
96410
96410
START
139180
99070
97670
97070
97070
97070
97070
START
137810
102540
99880
99680
99330
99330
97980
97770
97370
97370
97370
97370
START
138340
103080
100450
100250
100250
100050
100050
100050
100050
START
134640
102310
98580
96980
96780
95780
95780
95780
95780
START
134830
100430
97490
97490
96690
96690
96690
95990
95990
95990
95990
START
135340
101110
98610
95010
94810
94810
94810
94810
START
128560
100860
99140
97690
96630
96630
96630
96630
START
136840
99270
98770
98370
97670
97670
97270
96370
96370
96370
96370
START
140120
102740
98270
98170
98110
98110
98110
97310
97310
97310
97310
START
139630
100870
98750
96350
95550
95390
94990
94890
94890
94890
94890
START
133630
104420
98540
97040
95840
95840
95440
95440
95440
95440
START
131100
104980
101340
100030
99030
99030
98430
98430
98030
98030
98030
98030
START
134670
100130
98830
98630
98090
98090
98090
98090
START
141610
100650
95490
94490
94490
94490
94490
START
141240
101970
99270
97710
97710
97710
97710
START
134140
101790
98990
98890
98890
98880
98380
98380
98380
98380
START
132740
103150
97890
97590
97590
97590
97590
START
135030
101020
97370
97070
95870
95870
95870
95770
95770
95770
95770
START
133180
102010
99610
98110
98110
98110
98110
START
136120
102450
99850
96450
95750
95350
95350
95350
94550
94550
94550
94550
START
134710
101120
97970
97970
97970
97970
START
143280
100310
99530
99330
98730
98630
98630
98630
98630
START
140000
102440
98940
98140
97640
97640
97640
97640
START
144310
101800
98100
97800
97800
97500
97500
97500
97500
START
139080
103040
102240
99700
96740
96740
96340
96140
96140
96140
96140
START
138700
99930
97250
97250
97250
97250
START
137220
103720
100270
100070
99770
98770
98370
98370
97970
97970
97970
97970
START
138380
99820
96220
94120
94120
94120
94120
START
140800
101480
98690
94990
94990
94990
94990
START
144860
100930
99300
98200
97900
97900
97900
97900
START
136170
101950
97950
97550
97550
97550
97550
START
136400
102760
99040
98940
98940
98940
98940
START
146970
102290
100060
99040
98950
98950
98950
98350
98350
98350
98350
START
132210
99990
98470
95470
94570
94570
94570
94570
START
143780
102760
98290
96890
96890
96890
96890
START
140910
101630
95830
94100
94100
94100
94100
START
137380
98130
97220
96520
96520
96520
96520
START
139680
100870
97140
95740
94740
94740
94740
94740
START
143750
100080
96620
96020
95730
94830
94830
94830
94830
START
140870
103480
99840
98930
98430
98430
98430
98430
START
133990
101040
99940
98240
98240
98240
98240
START
145000
104040
100280
100280
99780
99640
99640
99640
99640
START
133270
102160
99090
98690
96530
96530
96530
96530
START
140190
100770
98240
97240
97240
97140
96940
96940
96940
96940
START
135370
102550
100540
100040
99310
98410
97810
97810
97110
97110
97110
96910
96810
96810
96810
96810
START
132370
99900
98570
97350
97350
95850
95850
95430
95130
94940
94940
94940
94940
START
132680
99870
99670
98420
97120
96820
96020
95820
95820
95820
95820
START
134570
101080
97980
96880
96880
96880
96780
96780
96780
96780
START
140170
99880
99270
97470
97470
97470
97470
START
133760
96040
96040
95440
95440
95440
95140
95040
95040
95040
95040
START
129360
102750
99220
99220
99220
99220
START
145850
101470
99380
98980
98980
98430
97830
97630
97630
97630
97630
START
132840
101350
98870
98270
97630
96930
95830
95430
95430
95430
95430
START
143080
102760
102340
102000
101200
101200
101200
101200
START
135790
99960
97000
95500
95500
95500
95500
START
136850
101590
98470
97270
97270
97270
97270
START
137810
104480
101680
99470
99470
99270
99270
99270
99270
START
143040
103250
100970
100470
100470
100470
100470
START
126070
100790
96730
95930
95610
94910
94910
94910
94910
START
142200
103180
99620
96490
96290
96290
96290
96290
START
139670
101570
99670
99270
98670
98670
98670
98670
START
136460
99190
96920
96720
96220
95190
94690
94690
94690
94690
START
128480
101020
98020
97920
97670
96770
96770
96770
96770
START
135510
102750
99870
99370
98570
98570
98570
97730
97430
97430
97430
97430
START
136230
104350
97240
95340
94340
94340
94240
94240
94240
94240
START
151490
99670
99270
99070
98470
98270
97370
95870
95870
95870
95870
START
146260
101530
98210
96610
96610
96610
96610
START
135040
99660
98680
97480
96780
96380
96380
96380
96380
START
147280
103720
100400
98900
98650
98050
98050
98050
98050
START
140500
101810
96680
95700
95700
94780
94780
94780
94780
START
146070
102450
97320
94720
94720
94720
94520
94520
94520
94520
START
130010
99780
95280
94980
94980
94380
94380
94380
94380
START
137310
103760
101860
99660
97560
96960
96960
96960
96040
96040
96040
96040
START
136870
103640
99020
97520
97520
97520
97520
START
135000
100770
96770
96770
96770
96670
96670
95970
95970
95970
95970
START
140070
104340
101210
97640
96950
96750
96150
95950
95950
95950
95950
START
138780
105710
101440
100640
100040
99940
99040
97840
97140
96640
96640
96640
96640
START
137100
103170
99610
98610
98610
98410
98410
98410
98410
START
137650
99360
97630
97230
97230
97230
97230
START
141480
106280
98660
98660
98660
98660
START
140510
101440
100040
96630
94530
93530
93530
93530
93530
START
139460
101150
100750
99420
97620
96420
96420
96420
96420
START
138450
109030
103230
100720
99330
98930
97530
97130
96130
95930
95930
95930
95730
95430
95430
95430
95430
START
141670
101420
98290
96290
96290
95290
95290
95290
95290
START
141100
100310
98790
98190
95190
95190
95190
94790
94790
94790
94790
START
136020
98510
97410
96910
95950
95350
94550
94150
94150
94150
94150
START
137830
103010
101210
100690
99330
98630
97590
97590
97590
97590
START
135990
102490
98990
98290
97890
96590
95890
95590
95590
95590
95590
START
140190
99420
98060
96660
95360
94860
94660
94660
94660
94660
START
133460
102090
99440
97650
97650
97650
97550
97550
95950
95320
95320
95320
95320
START
137750
102110
99010
97960
96960
96560
96560
96560
96560
START
139710
104690
100450
97740
96760
96760
96760
96760
START
130910
104820
100540
98940
98940
98940
98940
START
137450
100150
96640
93840
93840
93810
93290
93090
93090
93090
93090
START
137730
99830
97130
97130
97130
97130
START
142980
104540
100720
98860
97060
96860
96860
96760
96760
96760
96760
START
141980
99690
95830
95030
95030
95030
95030
START
135740
100890
98430
98030
97830
97830
97830
97830
START
138150
98700
97200
93800
93800
93800
93800
START
141930
101500
100700
99700
99300
99300
99300
99300
START
132220
101120
97300
97100
97100
97000
96300
96300
96300
96300
START
140990
102330
99360
99160
98860
97960
97960
97960
97960
START
136140
98970
97050
95850
95850
95450
95250
93550
93550
93550
93550
START
128050
99850
98950
97890
96260
95860
95860
95860
95860
START
145410
102960
98840
98840
98840
98840
START
138390
103330
101530
97780
95500
95400
94480
94480
94480
94480
START
138060
100690
97290
95350
94950
94950
94950
94950
START
136260
103640
99140
97340
95740
95740
95740
95740
START
135420
102370
97780
95980
95980
95780
94980
94980
94980
94980
START
141720
99320
93790
92590
92590
92590
92590
START
134260
101770
98950
97250
95750
94750
94750
94750
94750
START
135470
104470
99720
98320
98120
97920
97920
96680
96480
96080
96080
96080
96080
START
132710
102760
100720
98350
97140
96240
95710
95710
95710
95710
START
141180
102940
98670
97970
96670
96670
96670
96670
START
130760
99660
97460
97460
96660
96660
96660
96360
96360
96360
96360
START
131440
99320
96720
96620
95170
93220
93220
93220
93220
START
133880
97920
97920
96620
96320
96320
95820
95520
95520
95520
95520
START
133400
105650
100310
99430
99330
98930
98930
98930
98930
START
140880
101590
99890
98400
97310
97240
97240
97240
97240
START
141230
104090
99200
98900
98900
98900
98700
98700
98700
98700
START
144950
102480
100260
96890
95890
95890
95890
95890
START
142120
100100
96550
95650
95220
95220
95220
95220
START
130080
103240
99260
99060
98960
98740
97940
97940
97940
97940
START
140750
100050
97650
95510
95510
95510
95210
94610
94610
94610
94610
START
141700
98720
95840
95040
95040
95040
95040
START
138370
103370
100390
99790
99090
98490
97990
96790
96790
96790
96790
START
136810
100610
99210
97710
96010
96010
95910
95910
95810
95810
95810
95810
START
136600
96960
94760
94660
93750
93650
93650
93650
93650
START
141140
97780
97380
96180
96180
96120
96120
96120
96120
START
129390
102780
102780
99860
97860
97560
97450
96990
96990
96990
96990
START
141330
100260
94060
94060
93760
93760
93760
93760
START
139390
101090
97000
96520
95520
95520
95520
95520
START
128140
103450
101350
99160
98810
97940
97940
97940
97940
START
138920
100450
99720
99320
98320
97920
97920
97920
97920
START
138550
102240
98940
98940
98940
98940
START
139540
103890
96950
95750
95750
95750
95750
START
131620
99370
94670
94170
94170
94170
94170
START
144370
100880
96980
96780
96380
96380
95980
95980
95980
95980
START
141010
101160
99460
98960
98960
98960
98960
START
132100
103120
96480
95880
94880
94880
94880
94880
START
127920
102110
97870
95870
95670
95570
95570
95570
95570
START
140240
104940
99790
99490
99390
98990
98790
97890
97890
97290
97290
97290
97290
START
135900
105880
98590
98390
98390
97990
97190
97090
96690
96690
96690
96690
START
134570
101270
99360
96890
96590
96590
96590
96590
START
135080
101030
96320
96220
96220
96220
96120
95920
95520
95520
95520
95520
START
143680
100080
95690
95390
95390
95290
95290
95290
95290
START
135960
104430
102240
100030
99830
99230
98530
98330
98330
98330
98330
START
128510
98830
97180
97180
96480
96480
96480
96480
START
138650
99990
97690
96190
95720
95720
95720
95720
START
129800
103970
100600
98420
97720
97240
97140
97140
97140
97140
START
144450
105620
100030
95290
95090
95090
95090
95090
START
133760
104420
100970
97900
97870
96240
96240
96240
96240
START
129950
103200
99900
99900
99800
99000
98230
97630
96760
96760
96760
96760
START
134770
104850
101380
99680
99080
97880
97780
97780
97780
97780
START
128880
104940
103540
102940
100670
99870
98650
97750
97750
97750
97750
START
142700
102150
99600
96780
95980
95780
95220
95220
95220
95220
START
130440
100920
100220
99220
99120
99120
99120
99120
START
133750
103640
100880
97050
97050
97050
97050
START
140310
106470
99070
98770
98770
98770
98770
START
134800
103740
100950
100350
98550
98150
98050
97850
97850
97630
97530
97530
97530
97530
START
138210
102780
102180
102180
102180
101050
100550
99450
99450
99450
99450
START
139450
101650
100170
100170
99870
99270
98380
98380
98380
98380
START
130090
105850
102820
97840
96140
94940
94940
94940
94940
START
135970
101100
96500
96300
95100
95100
95100
95100
START
136120
106340
99320
98920
98520
98520
98420
98420
98420
98420
START
130390
105900
100230
99930
99930
99930
99030
99030
99030
99030
START
136370
105900
101310
96610
96110
96110
96110
96110
START
136850
100310
98010
96410
96210
96210
96210
96210
START
131800
101420
98320
98060
97660
97160
97160
97160
97160
START
138140
101290
100490
99690
98590
98590
98590
98590
START
137890
103410
99110
97610
97070
96670
96570
96570
96570
96570
START
127000
100860
98390
97590
97290
97290
96990
96990
96990
96990
START
133610
99950
97310
97310
96790
96790
96790
96790
START
134710
103910
100350
98050
96090
95860
95860
95860
95860
START
143060
103270
97210
94870
94470
94370
94370
94370
94370
START
141370
100730
97980
97480
97480
96880
96780
96780
96780
96780
START
137380
102360
95680
95480
95280
95280
95280
95280
START
136400
102580
100700
99300
98000
97600
97130
97130
97130
97130
START
140540
103940
98460
96730
96130
96130
96130
96130
START
139760
103030
100530
100070
99470
99370
99370
99370
99370
START
139000
102980
101280
101180
101180
101180
101180
START
137380
100940
99320
98120
97720
97720
97720
96720
96520
96520
96520
96520
START
146140
102080
98470
98200
98200
97600
97600
97600
97600
START
142690
102170
100590
98190
98190
98190
98190
START
128630
96920
96420
94920
94920
94920
94920
START
140880
101650
99920
97120
96520
96520
96520
96520
START
134340
98760
95470
94870
94870
94870
94870
START
136940
102620
99530
99060
97440
96040
95040
94420
94220
94220
94220
94220
START
146710
104510
103610
102010
99810
98410
98410
98410
98410
START
133660
105480
102500
98160
97590
95090
94190
94190
93990
93990
93990
93990
START
135040
103000
98250
95850
95850
95850
95250
95050
95050
95050
95050
START
144920
101530
100290
100090
99890
99690
99690
99690
99690
START
135440
101050
98430
97930
97930
97330
97330
97330
96930
96430
96430
96430
96430
START
140820
101640
98290
97990
97390
97190
96510
96110
96110
95810
95810
95810
95810
START
135220
98810
97310
96610
96610
96610
96610
START
135220
95910
94210
94210
94210
94210
START
141460
105300
100410
98030
95930
95930
95930
95930
START
137560
102360
99500
98600
98600
98600
98600
START
135180
101860
99060
98260
98260
98260
98260
START
140590
101880
100640
100240
98110
97810
97810
97810
97810
START
135340
102570
101270
97170
95970
95970
95770
95670
95670
95670
95670
START
139750
104470
99800
98360
96580
96580
96280
96180
96180
96180
96180
START
147150
100590
97130
96300
96300
96300
96300
START
140640
101390
97460
94820
94820
94820
94820
START
142470
99240
97140
96730
96730
96430
96430
96430
96430
START
137490
102770
99760
99360
99160
99160
99160
99160
START
138210
102960
99860
98860
98660
98560
98560
98560
98560
START
136860
100830
96930
95930
95930
95830
95830
95830
95830
START
130920
101640
97890
94920
94360
94360
94360
94360
START
127630
103380
101120
98980
98080
98080
98080
98080
START
142980
104720
101590
96430
96430
96430
96430
START
141970
104570
99420
98320
98020
98020
98020
98020
START
133750
104510
100900
99200
97000
96700
96700
96700
96700
START
140210
100790
98790
97980
95970
95470
95170
95170
94850
94050
93850
93650
93650
93650
93650
START
133630
101770
97070
97070
96870
96870
96770
96770
96770
96770
START
137650
100420
99220
98220
98020
96300
94950
94270
94270
94270
93750
93750
93750
93750
START
141850
97950
95100
94300
94100
94100
94100
94100
START
134780
102120
95520
92720
92720
92720
92720
START
137760
101000
97510
97110
96110
95510
95510
95510
95510
START
133210
101400
99320
99120
97720
97720
97720
97720
START
136310
100150
99250
98750
98150
96790
95460
94660
94660
94660
94660
START
140190
103280
100510
99080
99080
98390
97250
97250
97150
97150
97150
97150
START
137360
99280
96480
96280
96280
96110
95040
93900
93500
93500
93500
93500
START
137780
100690
97960
95780
95680
95680
95680
95680
START
137040
104030
101540
99910
97700
97700
97700
97700
START
134340
96240
94740
94340
94340
94340
94340
START
137330
102290
99880
97480
97080
96680
96280
96280
96280
96280
START
135100
106860
100460
99510
99510
98910
98710
98710
98710
98710
START
138830
104030
100400
96350
95750
95750
95750
95750
START
129280
103160
97560
97560
97060
97060
97060
97060
START
139390
98080
96210
95110
95040
94160
93560
93560
93560
93360
93360
93360
93360
START
135400
101090
96690
95890
95090
95090
94790
94790
94790
94790
START
139590
100340
98690
96890
95090
94490
94490
94490
94490
START
142440
100770
97370
96970
96770
96310
95910
95910
95910
95910
START
130470
102680
99010
98410
98110
98110
97810
97810
97810
97810
START
139700
104590
101030
99530
99430
99230
95520
95520
95520
95320
95320
94620
94620
94620
94620
START
137580
106140
99060
97460
97360
96860
96860
96860
96860
START
130730
98840
95540
94940
94740
94040
94040
94040
94040
START
131480
104180
99980
99180
98380
97980
97980
97980
97980
START
138820
97600
95510
95510
95510
95510
START
134240
104840
101990
100110
98510
98510
98510
98510
START
128710
100580
99420
98010
95690
94870
94470
94470
94470
94470
START
131740
96350
94050
93650
93650
93650
93350
93350
93350
93350
START
137630
98810
96210
96210
96210
96210
START
136390
101580
100180
100180
100180
99380
99380
99380
99380
START
140010
100790
96590
96580
96580
96580
96580
START
129570
99540
96740
96740
96740
96740
START
142400
100220
95820
94620
94620
94620
94120
93280
93280
93280
93280
START
132750
106490
103900
102450
101820
98770
97570
97370
97370
97370
97170
97170
97170
97170
START
137550
102680
99850
97640
95840
95040
95040
95040
95040
START
134230
104900
97020
96620
96020
96020
96020
96020
START
136380
101700
99100
96890
95090
94690
94090
94090
93890
93590
93590
93590
93590
START
130950
99650
98650
97550
96650
96250
96150
96150
96150
96150
START
137980
97640
96240
95240
95040
94440
94340
94340
94340
94340
START
126880
100660
98060
95340
94940
93540
92610
92610
92610
92610
START
138390
102770
99380
99260
98960
98960
98960
98960
START
139700
102880
98760
97900
97140
97140
97140
97140
START
135380
104160
101790
101590
100500
98820
98820
98820
98820
START
128100
103620
100040
98740
97940
97940
97940
97940
START
128740
103040
99880
99280
99280
99280
99280
START
130240
101210
96820
95820
95820
95820
95820
START
137770
103250
98000
97100
96700
96700
96700
96500
96500
96400
96400
96200
96200
96200
96200
START
140050
100370
98240
97580
96780
96780
96780
96780
START
140510
98970
97270
96570
96570
96170
95270
95270
95270
95270
START
147060
104530
101110
96950
96090
95190
95190
95190
94790
94690
94690
94690
94690
START
141220
102910
98590
98490
98090
98090
98090
98090
START
145920
100530
98430
98230
97960
97960
97960
97960
START
141860
101360
100360
98160
97960
97460
97460
97460
97460
START
136100
101180
100780
98780
96980
96980
96980
96980
START
139360
100990
99980
99580
99090
97150
95850
95150
95150
95150
95150
START
131320
98260
96280
96280
96280
96280
START
137280
98960
98760
98360
98360
97760
97560
97560
97560
97560
START
130870
98800
97000
95190
94590
93890
93890
93890
93890
START
133930
100120
98220
97120
97120
97120
96920
96320
96320
96320
96320
START
141400
104030
100830
100230
100230
100230
99430
99430
99430
99230
99230
99230
99230
START
131340
99820
97020
96690
96690
96490
96490
95890
95890
95890
95890
START
128520
101500
97220
96620
96620
96520
96220
96220
95000
94280
94080
94080
94080
94080
START
134240
101020
99220
96490
95990
95990
95990
95990
START
139380
100090
98290
97690
97690
97690
97690
START
135110
103850
97320
97320
97320
97320
START
142210
103760
99960
99160
98160
98060
98060
98060
98060
START
134260
102370
99210
97610
97610
97610
97610
START
135160
102220
100500
99900
97110
96410
96410
96410
96410
START
136160
101650
97820
97420
96290
95690
95290
95290
95290
95290
START
139300
102180
99980
98210
97910
97210
96610
96210
96210
96210
96210
START
130240
98750
97250
96450
96150
95650
95650
95650
95650
START
133330
96120
94920
94920
94920
93920
93520
93520
93520
93520
START
136310
106030
101630
99530
99530
99530
99530
START
139250
99630
99630
97540
97540
97540
97540
START
135400
101630
100730
99230
99030
99030
99030
97930
96940
96840
96640
96640
96640
96640
START
142860
98670
96210
94610
94610
94210
94210
94210
93810
93810
93810
93810
START
138180
98450
97350
97150
95140
95060
94960
94960
94960
94960
START
138970
104480
102250
100990
97770
97570
97260
97260
97260
97260
START
137310
101220
96690
94950
94250
94250
94250
94250
START
136940
99470
97970
97870
96800
96800
96800
96400
96400
96400
95700
95700
95700
95700
START
135730
104880
98730
97530
97530
97530
97530
START
133570
101140
99670
98270
97870
97270
97270
96970
96970
96970
96970
START
131680
102550
99250
98850
98350
98350
98350
98350
START
132400
101220
98020
95560
95360
95360
95360
95360
START
135470
101950
101250
101250
101250
101250
START
132220
103940
99180
95360
95360
95360
95360
START
141710
100760
99960
98560
98560
98560
98560
START
139310
101230
98030
97250
97250
97250
97050
97050
97050
97050
START
136370
100320
98220
97920
97520
97520
97520
97520
START
134750
104090
98290
97990
97990
97990
97990
START
137330
102360
100960
100300
99500
98300
98200
98200
98200
98200
START
143670
105180
100730
100330
99030
98430
98330
98330
98330
98330
START
137030
103270
98970
97670
97110
97110
97110
97110
START
137250
105770
100350
100150
100150
100150
100150
START
135380
101350
99700
98000
97900
97900
96800
96800
96800
96800
START
141730
104990
100670
98770
98470
98470
98470
98470
START
141110
106630
104730
102630
100570
100270
100270
100070
100070
100070
100070
START
141850
104450
100450
99500
97900
96400
96400
96400
96400
START
134180
103560
100200
98800
98100
97900
97900
97900
97900
START
134480
103800
101100
99900
98830
98430
97730
97730
97730
97730
START
136210
103190
101900
100700
100500
100500
100300
100300
100300
100300
START
137180
100810
95150
94950
94950
94950
94350
94350
94350
94350
START
137380
102810
98520
98220
97520
97320
96820
96820
96820
96270
96170
95710
95710
95710
95710
START
137320
101680
98110
97810
96910
96910
96910
96910
START
147130
100250
98950
97850
97850
97850
96850
96850
96850
96650
96650
96650
96650
START
138450
104060
101660
100660
99060
98660
98660
98190
97090
96720
96720
96320
96320
96320
96320
START
138140
101450
99750
99750
99750
99750
START
134010
100430
99330
96630
95630
95630
95630
95630
START
137790
97530
96330
96330
95830
95830
95830
95830
START
136860
104900
102670
98590
98590
98590
98590
START
136920
99520
98120
96820
96820
96820
96820
START
139350
100800
97370
96670
96570
96570
96570
96570
START
144440
101490
99990
98790
98790
98790
98790
START
137250
100170
95090
95090
94990
94990
94890
94890
94890
94890
START
139040
101510
99610
99010
98110
98110
98110
98110
START
147170
104590
99950
98550
98550
98550
98550
START
141730
101020
97420
97220
96520
96520
96320
96320
96250
96250
96250
96250
START
131570
104560
94740
94640
93840
93340
93340
92840
92840
92840
92640
92640
92640
92640
START
133770
103250
99510
98420
97720
97720
97720
97620
97620
97420
97420
97420
97420
START
141250
100850
97350
96350
96250
96050
95900
95900
95900
95900
START
135560
103650
100140
98120
97890
97890
97890
97890
START
134980
100080
95840
95840
95840
95840
START
142030
102000
97260
97010
96910
96910
96910
96510
96510
96310
96210
96210
96210
96210
START
127970
99130
96230
95530
95530
95530
95530
START
133230
102660
99660
98160
98160
98160
98160
START
140950
101450
95800
94910
94610
94510
94510
94510
94510
START
139920
104060
99850
97800
96100
95900
95900
95900
95900
START
137940
104330
100620
98050
97550
96150
96150
96150
96150
START
139410
100340
99340
97040
96940
96440
96440
96440
96440
START
130680
101690
99490
97790
97790
97790
97790
START
137640
103700
100990
97930
97830
97830
97830
97830
START
133420
103040
100490
99600
99600
99600
99600
START
142680
105020
99720
98020
97520
97320
97120
96720
96120
96120
96120
96120
START
140690
100660
97350
96950
96950
96950
96950
START
130520
100130
97330
96960
96260
95060
94960
94460
94260
94260
94260
94260
START
143990
102410
101010
99410
99210
99010
98810
98810
98810
98810
START
142010
100040
96640
96440
95940
95940
94940
94740
94740
94740
94740
START
135850
102300
99940
99340
99340
99340
98940
98940
98940
98940
START
130570
104900
99630
98630
97830
97830
97830
97830
START
132540
99390
97370
97370
97270
97270
97270
97270
START
135610
100560
98660
98460
98060
97060
97060
97060
97060
START
144900
101570
100770
99270
98570
98570
97970
97970
97970
97970
START
137870
103640
102640
100840
99940
99940
99940
99940
START
141520
102560
100410
97750
96550
96550
96550
96550
START
139310
104680
101220
98720
98720
97890
97690
97290
97290
97290
97290
START
140820
102220
100820
100820
100820
100120
100120
100120
99260
99260
99210
99210
99210
99210
START
132060
100490
96590
96120
96120
96120
96120
START
141120
102260
97950
97450
96450
96450
96450
96450
START
142560
100570
98770
98770
98770
97570
97570
97570
97570
START
133370
102960
99990
99590
99590
98220
96020
95920
95720
95720
95720
95720
START
136220
103600
101500
97180
95980
95880
95880
95880
95880
START
132970
99680
96920
96120
96120
96120
96120
START
141040
100030
96530
96300
96000
95500
95500
95500
95500
START
134460
100790
96990
96190
96190
95590
94990
94990
94990
94990
START
138490
100500
96710
95760
93340
93140
93140
93140
93140
START
140090
100650
99370
97470
96280
95580
94600
94600
94600
94600
START
137170
103280
97980
96920
95520
95520
95520
95420
95320
95320
94720
94720
94720
94720
START
142570
103170
97870
97870
97470
97370
97270
97270
97270
97270
START
140120
100700
100000
99300
98500
98100
97900
97900
97900
97900
START
139580
99810
96210
95510
95510
95510
95510
START
137460
102190
97590
96390
96390
96390
96390
START
136410
103780
97980
96180
96050
95390
95390
95390
95190
94590
94590
94590
94590
START
131790
104670
103270
99290
98390
98390
98390
98390
START
142260
100110
99110
99110
97810
97710
97710
97710
97710
START
143660
104430
102430
101330
100630
100630
100630
100630
START
132720
100510
99310
98650
97470
96670
96670
96670
96670
START
142520
103780
102480
102380
101580
100980
100980
100980
100980
START
131420
99170
95760
93860
93260
93260
93260
93260
START
137440
102500
101000
100400
100400
100400
100400
START
135200
100210
95110
94010
93810
93110
93110
93110
93110
START
136320
100050
97240
96640
96640
96640
95640
95640
95540
94940
94740
94740
94740
94740
START
134290
99430
96740
94760
94160
94160
94160
94160
START
131740
100020
95420
94320
94070
93770
93770
93770
93770
START
140050
104050
100800
98770
98070
98070
98070
98070
START
130850
102660
97560
96660
96660
96660
96660
START
138050
104900
101450
100270
100070
100070
100070
100070
START
142470
98150
95750
95750
95750
95350
95350
95350
95350
START
134470
97520
97380
97380
97380
97380
START
137630
103300
96890
95890
95290
95290
94690
94000
94000
94000
94000
START
141820
101550
99870
96470
96470
96470
95770
95170
95170
95170
95170
START
134610
104100
101400
101400
100270
98730
98730
98730
98730
START
137270
103330
94350
93950
93550
93450
93450
93450
93450
START
139610
99410
95310
95010
95010
95010
95010
START
141960
101060
97760
97360
97360
97260
97260
97260
97260
START
136580
102610
96410
95110
94710
94710
94710
94710
START
136480
102450
100510
100330
99930
99930
99930
99930
START
137320
103450
101350
100750
99690
99090
99090
99090
99090
START
132990
101240
98340
97940
97940
97940
97940
START
135490
105160
100160
99160
99160
99160
99160
START
132610
102140
101100
100500
99420
98760
98460
98460
98460
98460
START
142570
101930
98130
98130
98130
97530
97530
97530
97530
START
144060
103910
103410
99030
97930
97730
97730
97730
97730
START
134220
100910
97810
97810
96110
95810
95110
94810
94810
94010
94010
94010
94010
START
135110
102510
97050
96650
96650
96650
96650
START
135150
102620
97490
96590
94420
94420
94420
94420
START
136060
100820
98320
97040
96340
96340
96340
96340
START
129560
99710
96850
95950
95450
94950
93740
93740
93740
93740
START
136550
103260
100690
99930
98930
98930
98930
98730
98730
98730
98730
START
136410
103690
99330
97490
97390
97390
97390
97390
START
141760
102130
99070
98370
97770
97510
96510
96510
96010
95610
95610
95610
95610
START
141090
102320
100790
97920
97720
95720
94820
94820
94820
94720
94720
94720
94720
START
133200
99230
95730
94430
94430
94430
94430
START
135290
107000
99830
97650
97650
97550
97250
97150
97150
97150
97150
START
137320
102390
98840
97540
97340
97340
96930
96780
95980
95980
95980
95980
START
138590
99980
97180
96380
95520
95520
95520
95520
START
135840
99180
96180
95480
95230
95230
95230
95160
95060
95060
95060
95060
START
137110
101880
97100
96700
96300
96100
96000
96000
96000
96000
START
140590
103330
98520
98020
97560
97260
97260
97260
97260
START
142860
105530
99620
96930
96930
96330
96330
96330
96330
START
146130
107820
98860
97410
96610
95510
95510
95510
95510
START
147210
101820
101320
100820
100620
99820
99220
98020
98020
98020
98020
START
127960
101700
100470
96720
94820
94420
94320
94320
94320
94320
START
133800
103240
100580
99540
98340
98240
96660
94380
94080
93480
93480
93480
93480
START
137300
103510
97210
97210
97210
97210
START
130660
101270
96680
96180
96180
96180
96180
START
140780
103220
99620
99020
99020
99020
98820
98820
98820
98820
START
130290
99420
97020
94420
94420
94420
94220
94220
94220
94220
START
133840
106000
103010
100040
97760
96720
96720
96720
96720
START
131910
100550
97680
96520
95920
95620
94520
93220
93220
93220
93220
START
139890
100840
99810
99110
98410
98410
98410
97310
97310
97310
97310
START
132530
97040
96640
96640
96640
96640
START
133680
102130
98430
97740
97740
97740
97740
START
135490
100620
96880
93000
93000
93000
93000
START
129370
101400
99200
99200
99200
99200
START
135960
105240
100580
99990
98790
98790
98790
98790
START
138930
100450
98550
96650
95550
95150
94850
94850
94850
94850
START
138160
103240
99480
97780
97780
97780
97780
START
141570
101490
99490
98090
97190
96990
96990
96990
96990
START
140200
103850
94990
94890
94890
94890
94890
START
137930
103670
101530
100000
99700
99700
99700
99700
START
132880
102980
99790
96390
96390
96390
96390
START
131640
101880
99580
97230
95730
95730
95730
95730
START
138070
100210
96910
96510
96310
94210
94210
94210
94210
START
139220
103140
97940
96940
96740
96440
96440
96440
96440
START
136950
102110
100410
100010
98910
97510
97510
96810
96810
96810
96810
START
134220
105590
103990
103990
103590
102690
102690
102690
102690
START
136030
105100
98710
95010
94910
94910
94910
94910
START
136070
99030
96830
95730
95530
95530
95530
95530
START
134410
96190
95890
95890
95890
95890
START
138810
101000
99200
99200
99200
99200
START
142060
103350
101170
99670
97970
97970
97970
97970
START
133710
104550
95870
94970
94970
94970
94970
START
143530
99860
95940
94920
94920
94920
94920
START
139340
102550
98150
97450
97450
97450
97450
START
133810
102330
97330
96730
96230
95730
95630
95630
95630
95630
START
131360
104970
99070
98670
98570
98570
98170
98170
98170
98170
START
142920
103870
100020
99040
99040
99040
99040
START
123680
104190
101360
99160
99160
97640
97540
97540
97540
97540
START
136980
102960
100370
99770
98370
98370
98370
98370
START
141230
99140
97610
95740
95740
95640
95140
95140
94340
94340
94340
94340
START
149350
101970
97710
97510
97010
97010
97010
97010
START
137930
104830
97930
97630
96830
96830
96830
96830
START
143960
101930
97630
95080
94980
94530
94330
94030
94030
94030
94030
START
135240
99890
96790
95890
95890
95890
95890
START
131980
102760
99160
97030
97030
97030
97030
START
134510
102190
97890
96890
95290
95290
95290
95290
START
131700
105660
100640
99240
98840
98110
98010
97810
97510
97510
97510
97510
START
136160
98620
95420
94820
94620
94420
94220
94220
94220
94220
START
139640
105250
101770
99670
99470
99470
99470
99470
START
138810
103260
100560
100360
100360
100360
100360
START
132660
103250
101750
101550
101350
101350
101350
101350
START
133820
105260
98600
97400
95310
95110
95110
95110
95110
START
131700
104100
100540
98070
96490
96490
96490
96490
START
143580
97850
95840
95740
95740
95740
95740
START
137610
100350
97240
95740
94470
93640
93640
93640
93640
START
133930
100990
97770
97770
97770
97470
97470
97470
97470
START
143910
101260
99800
98600
96920
96320
95420
95420
95420
95420
START
138840
103220
101820
100620
100620
100620
100620
START
134880
101280
98640
97410
96910
96910
96910
96910
START
134320
102700
100480
99300
98650
98550
98550
98150
98150
98150
98150
START
140610
104680
99060
98160
97560
96140
95440
95440
95440
95440
START
133860
103780
100200
98900
98170
98170
97580
96940
96540
96540
96540
96540
START
136980
100690
99300
98500
98300
98300
98300
98300
START
130010
104000
99380
97680
96680
96680
96580
96580
96580
96580
START
138370
103430
100270
99870
99070
99070
99070
99070
START
140710
100950
97570
96060
96060
96060
96060
START
138320
104360
99980
99380
99380
98980
98780
98280
97980
97980
97980
97980
START
135050
101760
98560
96150
95850
95850
95850
95850
START
129200
99710
97410
97110
96410
96410
96410
96410
START
135080
103130
101530
101190
99840
98230
98230
98230
98230
START
137740
100170
96670
95280
94780
94580
94580
94580
94580
START
129330
103200
98810
97510
97510
97510
97510
START
134060
100750
98470
97770
97770
97770
97570
97570
97570
97570
